BEGIN Configuration File: networks/mezzanine_config
topology = mezzanine;
n = 12;

routing_function = multipath;
internal_speedup = 2.0;
latency_thres = 100000.0;
use_read_write = 0;

sample_period = 1000;
injection_rate = 0.5;
packet_size = 18;

noq = 1;
routing_delay = 0;
vc_alloc_delay = 1;
sw_alloc_delay = 1;
st_final_delay = 1;
vc_allocator = islip; 
sw_allocator = islip;
alloc_iters  = 4;
num_vcs     = 12;
buffer_policy = private; // private or shared
buf_size = -1; // -1 for buffer_policy = private;
vc_buf_size = 4096; // size of each VOQ with buffer_policy = private
output_buffer_size = -1;


traffic = uniform;

//mezW = 0.0;
//mezPredefinedPatternType = shift-inter; //shift-qfdb

END Configuration File: networks/mezzanine_config
OVERRIDE Parameter: injection_rate=0.048897
OVERRIDE Parameter: routing_function=min
OVERRIDE Parameter: num_vcs=64
OVERRIDE Parameter: vc_buf_size=18
OVERRIDE Parameter: internal_speedup=1.0
OVERRIDE Parameter: injection_process=bernoulli
OVERRIDE Parameter: sim_type=latency
OVERRIDE Parameter: burst_alpha=0.0038461538
OVERRIDE Parameter: burst_beta=0.1
network: network_0
========================== Routing table  =====================
Number of Subnets: 1
Class 0:
Packet latency average = 398.343
	minimum = 27
	maximum = 917
Network latency average = 359.914
	minimum = 27
	maximum = 889
Slowest packet = 332
Flit latency average = 265.892
	minimum = 6
	maximum = 965
Slowest flit = 1525
Fragmentation average = 252.252
	minimum = 0
	maximum = 740
Injected packet rate average = 0.0306146
	minimum = 0.017 (at node 168)
	maximum = 0.041 (at node 94)
Accepted packet rate average = 0.010026
	minimum = 0.001 (at node 158)
	maximum = 0.018 (at node 44)
Injected flit rate average = 0.545292
	minimum = 0.289 (at node 176)
	maximum = 0.731 (at node 94)
Accepted flit rate average= 0.226833
	minimum = 0.11 (at node 150)
	maximum = 0.372 (at node 91)
Injected packet length average = 17.8115
Accepted packet length average = 22.6244
Total in-flight flits = 62342 (0 measured)
latency change    = 1
throughput change = 1
Class 0:
Packet latency average = 780.999
	minimum = 27
	maximum = 1916
Network latency average = 660.873
	minimum = 27
	maximum = 1916
Slowest packet = 602
Flit latency average = 528.186
	minimum = 6
	maximum = 1924
Slowest flit = 7445
Fragmentation average = 314.542
	minimum = 0
	maximum = 1494
Injected packet rate average = 0.021901
	minimum = 0.0085 (at node 176)
	maximum = 0.0325 (at node 94)
Accepted packet rate average = 0.0112708
	minimum = 0.006 (at node 135)
	maximum = 0.017 (at node 136)
Injected flit rate average = 0.390307
	minimum = 0.1455 (at node 176)
	maximum = 0.577 (at node 94)
Accepted flit rate average= 0.225193
	minimum = 0.13 (at node 108)
	maximum = 0.3245 (at node 136)
Injected packet length average = 17.8214
Accepted packet length average = 19.9801
Total in-flight flits = 65086 (0 measured)
latency change    = 0.489957
throughput change = 0.00728543
Class 0:
Packet latency average = 1775.92
	minimum = 742
	maximum = 2895
Network latency average = 1222.52
	minimum = 29
	maximum = 2869
Slowest packet = 817
Flit latency average = 1090.36
	minimum = 6
	maximum = 2902
Slowest flit = 9464
Fragmentation average = 335.105
	minimum = 2
	maximum = 2748
Injected packet rate average = 0.00828125
	minimum = 0 (at node 3)
	maximum = 0.031 (at node 56)
Accepted packet rate average = 0.0122708
	minimum = 0.004 (at node 4)
	maximum = 0.022 (at node 33)
Injected flit rate average = 0.148453
	minimum = 0 (at node 3)
	maximum = 0.559 (at node 56)
Accepted flit rate average= 0.215562
	minimum = 0.103 (at node 40)
	maximum = 0.368 (at node 78)
Injected packet length average = 17.9264
Accepted packet length average = 17.5671
Total in-flight flits = 52264 (0 measured)
latency change    = 0.56023
throughput change = 0.0446748
Warmed up ...Time used is 3000 cycles
Class 0:
Packet latency average = 2423.59
	minimum = 1344
	maximum = 3472
Network latency average = 305.386
	minimum = 29
	maximum = 964
Slowest packet = 10022
Flit latency average = 1117.6
	minimum = 6
	maximum = 3915
Slowest flit = 4409
Fragmentation average = 154.406
	minimum = 2
	maximum = 829
Injected packet rate average = 0.0108437
	minimum = 0 (at node 0)
	maximum = 0.047 (at node 30)
Accepted packet rate average = 0.0117448
	minimum = 0.005 (at node 71)
	maximum = 0.024 (at node 176)
Injected flit rate average = 0.195578
	minimum = 0 (at node 2)
	maximum = 0.848 (at node 30)
Accepted flit rate average= 0.208661
	minimum = 0.084 (at node 53)
	maximum = 0.383 (at node 151)
Injected packet length average = 18.036
Accepted packet length average = 17.7663
Total in-flight flits = 49713 (23636 measured)
latency change    = 0.267235
throughput change = 0.0330729
Class 0:
Packet latency average = 2870.68
	minimum = 1344
	maximum = 4514
Network latency average = 515.816
	minimum = 26
	maximum = 1842
Slowest packet = 10022
Flit latency average = 1088.1
	minimum = 6
	maximum = 4788
Slowest flit = 24659
Fragmentation average = 194.265
	minimum = 1
	maximum = 1491
Injected packet rate average = 0.0112786
	minimum = 0 (at node 0)
	maximum = 0.044 (at node 189)
Accepted packet rate average = 0.0117109
	minimum = 0.0055 (at node 71)
	maximum = 0.018 (at node 90)
Injected flit rate average = 0.202953
	minimum = 0 (at node 19)
	maximum = 0.789 (at node 189)
Accepted flit rate average= 0.209596
	minimum = 0.109 (at node 174)
	maximum = 0.3355 (at node 151)
Injected packet length average = 17.9945
Accepted packet length average = 17.8975
Total in-flight flits = 49791 (34200 measured)
latency change    = 0.155744
throughput change = 0.00446046
Class 0:
Packet latency average = 3304.73
	minimum = 1344
	maximum = 5548
Network latency average = 644.563
	minimum = 26
	maximum = 2881
Slowest packet = 10022
Flit latency average = 1088.99
	minimum = 6
	maximum = 5784
Slowest flit = 29003
Fragmentation average = 208.685
	minimum = 1
	maximum = 1910
Injected packet rate average = 0.0114375
	minimum = 0 (at node 0)
	maximum = 0.0376667 (at node 189)
Accepted packet rate average = 0.0116736
	minimum = 0.00766667 (at node 84)
	maximum = 0.016 (at node 59)
Injected flit rate average = 0.205979
	minimum = 0 (at node 32)
	maximum = 0.673667 (at node 189)
Accepted flit rate average= 0.209144
	minimum = 0.133667 (at node 141)
	maximum = 0.293667 (at node 177)
Injected packet length average = 18.0091
Accepted packet length average = 17.916
Total in-flight flits = 50399 (40020 measured)
latency change    = 0.131339
throughput change = 0.00216242
Class 0:
Packet latency average = 3731.78
	minimum = 1344
	maximum = 6521
Network latency average = 744.975
	minimum = 26
	maximum = 3864
Slowest packet = 10022
Flit latency average = 1099.82
	minimum = 6
	maximum = 6779
Slowest flit = 27898
Fragmentation average = 224.617
	minimum = 1
	maximum = 2926
Injected packet rate average = 0.0112161
	minimum = 0 (at node 0)
	maximum = 0.03575 (at node 189)
Accepted packet rate average = 0.0116589
	minimum = 0.00725 (at node 84)
	maximum = 0.01575 (at node 123)
Injected flit rate average = 0.20207
	minimum = 0 (at node 32)
	maximum = 0.6415 (at node 189)
Accepted flit rate average= 0.208587
	minimum = 0.1315 (at node 64)
	maximum = 0.295 (at node 177)
Injected packet length average = 18.016
Accepted packet length average = 17.8909
Total in-flight flits = 47175 (39957 measured)
latency change    = 0.114437
throughput change = 0.00266966
Class 0:
Packet latency average = 4160.32
	minimum = 1344
	maximum = 7342
Network latency average = 803.467
	minimum = 26
	maximum = 4681
Slowest packet = 10022
Flit latency average = 1094.19
	minimum = 6
	maximum = 7751
Slowest flit = 30527
Fragmentation average = 234.054
	minimum = 1
	maximum = 3737
Injected packet rate average = 0.0113062
	minimum = 0 (at node 0)
	maximum = 0.0326 (at node 66)
Accepted packet rate average = 0.0116615
	minimum = 0.0074 (at node 64)
	maximum = 0.0154 (at node 123)
Injected flit rate average = 0.203634
	minimum = 0 (at node 46)
	maximum = 0.5868 (at node 66)
Accepted flit rate average= 0.208319
	minimum = 0.1306 (at node 64)
	maximum = 0.2856 (at node 177)
Injected packet length average = 18.0108
Accepted packet length average = 17.8639
Total in-flight flits = 47722 (42479 measured)
latency change    = 0.103006
throughput change = 0.00128884
Class 0:
Packet latency average = 4559.18
	minimum = 1344
	maximum = 8188
Network latency average = 849.677
	minimum = 26
	maximum = 5813
Slowest packet = 10022
Flit latency average = 1095.05
	minimum = 6
	maximum = 8647
Slowest flit = 48996
Fragmentation average = 238.865
	minimum = 1
	maximum = 4227
Injected packet rate average = 0.0114427
	minimum = 0 (at node 0)
	maximum = 0.0305 (at node 66)
Accepted packet rate average = 0.011612
	minimum = 0.00783333 (at node 64)
	maximum = 0.015 (at node 128)
Injected flit rate average = 0.20624
	minimum = 0 (at node 59)
	maximum = 0.550667 (at node 66)
Accepted flit rate average= 0.207957
	minimum = 0.142333 (at node 64)
	maximum = 0.263833 (at node 95)
Injected packet length average = 18.0237
Accepted packet length average = 17.9088
Total in-flight flits = 50208 (46479 measured)
latency change    = 0.0874867
throughput change = 0.00174148
Class 0:
Packet latency average = 4950.17
	minimum = 1344
	maximum = 9392
Network latency average = 890.98
	minimum = 26
	maximum = 6449
Slowest packet = 10022
Flit latency average = 1099.01
	minimum = 6
	maximum = 9618
Slowest flit = 49156
Fragmentation average = 244.602
	minimum = 0
	maximum = 5111
Injected packet rate average = 0.0115126
	minimum = 0 (at node 0)
	maximum = 0.0292857 (at node 189)
Accepted packet rate average = 0.0115766
	minimum = 0.00871429 (at node 64)
	maximum = 0.0147143 (at node 128)
Injected flit rate average = 0.20735
	minimum = 0 (at node 59)
	maximum = 0.525429 (at node 189)
Accepted flit rate average= 0.207784
	minimum = 0.154857 (at node 64)
	maximum = 0.260714 (at node 128)
Injected packet length average = 18.0106
Accepted packet length average = 17.9486
Total in-flight flits = 51714 (49063 measured)
latency change    = 0.0789845
throughput change = 0.000829567
Draining all recorded packets ...
Class 0:
Remaining flits: 7167 7168 7169 7170 7171 7172 7173 7174 7175 7176 [...] (53014 flits)
Measured flits: 180270 180271 180272 180273 180274 180275 180276 180277 180278 180279 [...] (50922 flits)
Class 0:
Remaining flits: 7167 7168 7169 7170 7171 7172 7173 7174 7175 7176 [...] (52969 flits)
Measured flits: 180271 180272 180273 180274 180275 180276 180277 180278 180279 180280 [...] (51349 flits)
Class 0:
Remaining flits: 10455 10456 10457 10708 10709 22419 22420 22421 22422 22423 [...] (53915 flits)
Measured flits: 180468 180469 180470 180471 180472 180473 180474 180475 180476 180477 [...] (52580 flits)
Class 0:
Remaining flits: 10455 10456 10457 10708 10709 22419 22420 22421 22422 22423 [...] (56235 flits)
Measured flits: 180468 180469 180470 180471 180472 180473 180474 180475 180476 180477 [...] (55122 flits)
Class 0:
Remaining flits: 10455 10456 10457 10708 10709 22419 22420 22421 22422 22423 [...] (56704 flits)
Measured flits: 180468 180469 180470 180471 180472 180473 180474 180475 180476 180477 [...] (55784 flits)
Class 0:
Remaining flits: 10455 10456 10457 22424 22425 22426 22427 23220 23221 23222 [...] (59921 flits)
Measured flits: 180468 180469 180470 180471 180472 180473 180474 180475 180476 180477 [...] (59218 flits)
Class 0:
Remaining flits: 10455 10456 10457 23220 23221 23222 23223 23224 23225 23226 [...] (57304 flits)
Measured flits: 180468 180469 180470 180471 180472 180473 180474 180475 180476 180477 [...] (56785 flits)
Class 0:
Remaining flits: 23220 23221 23222 23223 23224 23225 23226 23227 23228 23229 [...] (58933 flits)
Measured flits: 180468 180469 180470 180471 180472 180473 180474 180475 180476 180477 [...] (58523 flits)
Class 0:
Remaining flits: 23220 23221 23222 23223 23224 23225 23226 23227 23228 23229 [...] (60053 flits)
Measured flits: 180468 180469 180470 180471 180472 180473 180474 180475 180476 180477 [...] (59781 flits)
Class 0:
Remaining flits: 23220 23221 23222 23223 23224 23225 23226 23227 23228 23229 [...] (59046 flits)
Measured flits: 191394 191395 191396 191397 191398 191399 191400 191401 191402 191403 [...] (58793 flits)
Class 0:
Remaining flits: 23226 23227 23228 23229 23230 23231 23232 23233 23234 23235 [...] (57372 flits)
Measured flits: 195822 195823 195824 195825 195826 195827 195828 195829 195830 195831 [...] (57154 flits)
Class 0:
Remaining flits: 23226 23227 23228 23229 23230 23231 23232 23233 23234 23235 [...] (57508 flits)
Measured flits: 195822 195823 195824 195825 195826 195827 195828 195829 195830 195831 [...] (57351 flits)
Class 0:
Remaining flits: 23226 23227 23228 23229 23230 23231 23232 23233 23234 23235 [...] (57344 flits)
Measured flits: 195822 195823 195824 195825 195826 195827 195828 195829 195830 195831 [...] (57223 flits)
Class 0:
Remaining flits: 51389 120708 120709 120710 120711 120712 120713 120714 120715 120716 [...] (56608 flits)
Measured flits: 247533 247534 247535 276372 276373 276374 276375 276376 276377 276378 [...] (56535 flits)
Class 0:
Remaining flits: 51389 120708 120709 120710 120711 120712 120713 120714 120715 120716 [...] (58689 flits)
Measured flits: 247533 247534 247535 276372 276373 276374 276375 276376 276377 276378 [...] (58634 flits)
Class 0:
Remaining flits: 51389 120708 120709 120710 120711 120712 120713 120714 120715 120716 [...] (61826 flits)
Measured flits: 247533 247534 247535 276372 276373 276374 276375 276376 276377 276378 [...] (61352 flits)
Class 0:
Remaining flits: 51389 120708 120709 120710 120711 120712 120713 120714 120715 120716 [...] (61732 flits)
Measured flits: 247533 247534 247535 276372 276373 276374 276375 276376 276377 276378 [...] (60956 flits)
Class 0:
Remaining flits: 51389 120708 120709 120710 120711 120712 120713 120714 120715 120716 [...] (60830 flits)
Measured flits: 276372 276373 276374 276375 276376 276377 276378 276379 276380 276381 [...] (59312 flits)
Class 0:
Remaining flits: 120711 120712 120713 120714 120715 120716 120717 120718 120719 120720 [...] (60100 flits)
Measured flits: 388602 388603 388604 388605 388606 388607 388608 388609 388610 388611 [...] (57603 flits)
Class 0:
Remaining flits: 120711 120712 120713 120714 120715 120716 120717 120718 120719 120720 [...] (61410 flits)
Measured flits: 388602 388603 388604 388605 388606 388607 388608 388609 388610 388611 [...] (58417 flits)
Class 0:
Remaining flits: 120720 120721 120722 120723 120724 120725 494964 494965 494966 494967 [...] (62072 flits)
Measured flits: 494964 494965 494966 494967 494968 494969 494970 494971 494972 494973 [...] (58782 flits)
Class 0:
Remaining flits: 494964 494965 494966 494967 494968 494969 494970 494971 494972 494973 [...] (62420 flits)
Measured flits: 494964 494965 494966 494967 494968 494969 494970 494971 494972 494973 [...] (57036 flits)
Class 0:
Remaining flits: 494976 494977 494978 494979 494980 494981 509778 509779 509780 509781 [...] (63904 flits)
Measured flits: 494976 494977 494978 494979 494980 494981 509778 509779 509780 509781 [...] (55971 flits)
Class 0:
Remaining flits: 509778 509779 509780 509781 509782 509783 509784 509785 509786 509787 [...] (62272 flits)
Measured flits: 509778 509779 509780 509781 509782 509783 509784 509785 509786 509787 [...] (53133 flits)
Class 0:
Remaining flits: 509778 509779 509780 509781 509782 509783 509784 509785 509786 509787 [...] (63045 flits)
Measured flits: 509778 509779 509780 509781 509782 509783 509784 509785 509786 509787 [...] (53016 flits)
Class 0:
Remaining flits: 509778 509779 509780 509781 509782 509783 509784 509785 509786 509787 [...] (62572 flits)
Measured flits: 509778 509779 509780 509781 509782 509783 509784 509785 509786 509787 [...] (50129 flits)
Class 0:
Remaining flits: 509778 509779 509780 509781 509782 509783 509784 509785 509786 509787 [...] (62205 flits)
Measured flits: 509778 509779 509780 509781 509782 509783 509784 509785 509786 509787 [...] (46356 flits)
Class 0:
Remaining flits: 509794 509795 599058 599059 599060 599061 599062 599063 599064 599065 [...] (61002 flits)
Measured flits: 509794 509795 599058 599059 599060 599061 599062 599063 599064 599065 [...] (44865 flits)
Class 0:
Remaining flits: 599075 603144 603145 603146 603147 603148 603149 603150 603151 603152 [...] (60827 flits)
Measured flits: 599075 603144 603145 603146 603147 603148 603149 603150 603151 603152 [...] (43115 flits)
Class 0:
Remaining flits: 603144 603145 603146 603147 603148 603149 603150 603151 603152 603153 [...] (63395 flits)
Measured flits: 603144 603145 603146 603147 603148 603149 603150 603151 603152 603153 [...] (42989 flits)
Class 0:
Remaining flits: 603144 603145 603146 603147 603148 603149 603150 603151 603152 603153 [...] (64074 flits)
Measured flits: 603144 603145 603146 603147 603148 603149 603150 603151 603152 603153 [...] (40398 flits)
Class 0:
Remaining flits: 603144 603145 603146 603147 603148 603149 603150 603151 603152 603153 [...] (65710 flits)
Measured flits: 603144 603145 603146 603147 603148 603149 603150 603151 603152 603153 [...] (39863 flits)
Class 0:
Remaining flits: 603145 603146 603147 603148 603149 603150 603151 603152 603153 603154 [...] (63831 flits)
Measured flits: 603145 603146 603147 603148 603149 603150 603151 603152 603153 603154 [...] (36197 flits)
Class 0:
Remaining flits: 624835 624836 624837 624838 624839 624840 624841 624842 624843 624844 [...] (65806 flits)
Measured flits: 624835 624836 624837 624838 624839 624840 624841 624842 624843 624844 [...] (34697 flits)
Class 0:
Remaining flits: 624837 624838 624839 624840 624841 624842 624843 624844 624845 624846 [...] (66700 flits)
Measured flits: 624837 624838 624839 624840 624841 624842 624843 624844 624845 624846 [...] (32542 flits)
Class 0:
Remaining flits: 841842 841843 841844 841845 841846 841847 841848 841849 841850 841851 [...] (64868 flits)
Measured flits: 841842 841843 841844 841845 841846 841847 841848 841849 841850 841851 [...] (28128 flits)
Class 0:
Remaining flits: 841842 841843 841844 841845 841846 841847 841848 841849 841850 841851 [...] (65030 flits)
Measured flits: 841842 841843 841844 841845 841846 841847 841848 841849 841850 841851 [...] (25608 flits)
Class 0:
Remaining flits: 841842 841843 841844 841845 841846 841847 841848 841849 841850 841851 [...] (65177 flits)
Measured flits: 841842 841843 841844 841845 841846 841847 841848 841849 841850 841851 [...] (23900 flits)
Class 0:
Remaining flits: 841842 841843 841844 841845 841846 841847 841848 841849 841850 841851 [...] (66634 flits)
Measured flits: 841842 841843 841844 841845 841846 841847 841848 841849 841850 841851 [...] (22740 flits)
Class 0:
Remaining flits: 841842 841843 841844 841845 841846 841847 841848 841849 841850 841851 [...] (64785 flits)
Measured flits: 841842 841843 841844 841845 841846 841847 841848 841849 841850 841851 [...] (20096 flits)
Class 0:
Remaining flits: 841842 841843 841844 841845 841846 841847 841848 841849 841850 841851 [...] (65003 flits)
Measured flits: 841842 841843 841844 841845 841846 841847 841848 841849 841850 841851 [...] (18684 flits)
Class 0:
Remaining flits: 841842 841843 841844 841845 841846 841847 841848 841849 841850 841851 [...] (64110 flits)
Measured flits: 841842 841843 841844 841845 841846 841847 841848 841849 841850 841851 [...] (16836 flits)
Class 0:
Remaining flits: 841842 841843 841844 841845 841846 841847 841848 841849 841850 841851 [...] (64667 flits)
Measured flits: 841842 841843 841844 841845 841846 841847 841848 841849 841850 841851 [...] (16415 flits)
Class 0:
Remaining flits: 851739 851740 851741 900558 900559 900560 900561 900562 900563 900564 [...] (65775 flits)
Measured flits: 851739 851740 851741 900558 900559 900560 900561 900562 900563 900564 [...] (15675 flits)
Class 0:
Remaining flits: 900558 900559 900560 900561 900562 900563 900564 900565 900566 900567 [...] (67311 flits)
Measured flits: 900558 900559 900560 900561 900562 900563 900564 900565 900566 900567 [...] (15436 flits)
Class 0:
Remaining flits: 1074276 1074277 1074278 1074279 1074280 1074281 1074282 1074283 1074284 1074285 [...] (64496 flits)
Measured flits: 1074276 1074277 1074278 1074279 1074280 1074281 1074282 1074283 1074284 1074285 [...] (13998 flits)
Class 0:
Remaining flits: 1074276 1074277 1074278 1074279 1074280 1074281 1074282 1074283 1074284 1074285 [...] (64303 flits)
Measured flits: 1074276 1074277 1074278 1074279 1074280 1074281 1074282 1074283 1074284 1074285 [...] (11769 flits)
Class 0:
Remaining flits: 1085418 1085419 1085420 1085421 1085422 1085423 1085424 1085425 1085426 1085427 [...] (63330 flits)
Measured flits: 1085418 1085419 1085420 1085421 1085422 1085423 1085424 1085425 1085426 1085427 [...] (10477 flits)
Class 0:
Remaining flits: 1085418 1085419 1085420 1085421 1085422 1085423 1085424 1085425 1085426 1085427 [...] (62842 flits)
Measured flits: 1085418 1085419 1085420 1085421 1085422 1085423 1085424 1085425 1085426 1085427 [...] (10134 flits)
Class 0:
Remaining flits: 1085418 1085419 1085420 1085421 1085422 1085423 1085424 1085425 1085426 1085427 [...] (63778 flits)
Measured flits: 1085418 1085419 1085420 1085421 1085422 1085423 1085424 1085425 1085426 1085427 [...] (9362 flits)
Class 0:
Remaining flits: 1085418 1085419 1085420 1085421 1085422 1085423 1085424 1085425 1085426 1085427 [...] (63734 flits)
Measured flits: 1085418 1085419 1085420 1085421 1085422 1085423 1085424 1085425 1085426 1085427 [...] (8892 flits)
Class 0:
Remaining flits: 1085418 1085419 1085420 1085421 1085422 1085423 1085424 1085425 1085426 1085427 [...] (62291 flits)
Measured flits: 1085418 1085419 1085420 1085421 1085422 1085423 1085424 1085425 1085426 1085427 [...] (7945 flits)
Class 0:
Remaining flits: 1085418 1085419 1085420 1085421 1085422 1085423 1085424 1085425 1085426 1085427 [...] (63136 flits)
Measured flits: 1085418 1085419 1085420 1085421 1085422 1085423 1085424 1085425 1085426 1085427 [...] (7046 flits)
Class 0:
Remaining flits: 1085418 1085419 1085420 1085421 1085422 1085423 1085424 1085425 1085426 1085427 [...] (64206 flits)
Measured flits: 1085418 1085419 1085420 1085421 1085422 1085423 1085424 1085425 1085426 1085427 [...] (6729 flits)
Class 0:
Remaining flits: 1085418 1085419 1085420 1085421 1085422 1085423 1085424 1085425 1085426 1085427 [...] (64754 flits)
Measured flits: 1085418 1085419 1085420 1085421 1085422 1085423 1085424 1085425 1085426 1085427 [...] (6264 flits)
Class 0:
Remaining flits: 1085418 1085419 1085420 1085421 1085422 1085423 1085424 1085425 1085426 1085427 [...] (64121 flits)
Measured flits: 1085418 1085419 1085420 1085421 1085422 1085423 1085424 1085425 1085426 1085427 [...] (5940 flits)
Class 0:
Remaining flits: 1412892 1412893 1412894 1412895 1412896 1412897 1412898 1412899 1412900 1412901 [...] (64327 flits)
Measured flits: 1471374 1471375 1471376 1471377 1471378 1471379 1471380 1471381 1471382 1471383 [...] (5578 flits)
Class 0:
Remaining flits: 1412892 1412893 1412894 1412895 1412896 1412897 1412898 1412899 1412900 1412901 [...] (63141 flits)
Measured flits: 1471374 1471375 1471376 1471377 1471378 1471379 1471380 1471381 1471382 1471383 [...] (5302 flits)
Class 0:
Remaining flits: 1412892 1412893 1412894 1412895 1412896 1412897 1412898 1412899 1412900 1412901 [...] (63798 flits)
Measured flits: 1471374 1471375 1471376 1471377 1471378 1471379 1471380 1471381 1471382 1471383 [...] (4916 flits)
Class 0:
Remaining flits: 1471374 1471375 1471376 1471377 1471378 1471379 1471380 1471381 1471382 1471383 [...] (63654 flits)
Measured flits: 1471374 1471375 1471376 1471377 1471378 1471379 1471380 1471381 1471382 1471383 [...] (4818 flits)
Class 0:
Remaining flits: 1471374 1471375 1471376 1471377 1471378 1471379 1471380 1471381 1471382 1471383 [...] (63229 flits)
Measured flits: 1471374 1471375 1471376 1471377 1471378 1471379 1471380 1471381 1471382 1471383 [...] (4880 flits)
Class 0:
Remaining flits: 1522530 1522531 1522532 1522533 1522534 1522535 1522536 1522537 1522538 1522539 [...] (61967 flits)
Measured flits: 1522530 1522531 1522532 1522533 1522534 1522535 1522536 1522537 1522538 1522539 [...] (4837 flits)
Class 0:
Remaining flits: 1522530 1522531 1522532 1522533 1522534 1522535 1522536 1522537 1522538 1522539 [...] (63346 flits)
Measured flits: 1522530 1522531 1522532 1522533 1522534 1522535 1522536 1522537 1522538 1522539 [...] (5063 flits)
Class 0:
Remaining flits: 1522531 1522532 1522533 1522534 1522535 1522536 1522537 1522538 1522539 1522540 [...] (62728 flits)
Measured flits: 1522531 1522532 1522533 1522534 1522535 1522536 1522537 1522538 1522539 1522540 [...] (4572 flits)
Class 0:
Remaining flits: 1535310 1535311 1535312 1535313 1535314 1535315 1535316 1535317 1535318 1535319 [...] (63333 flits)
Measured flits: 1729242 1729243 1729244 1729245 1729246 1729247 1729248 1729249 1729250 1729251 [...] (4279 flits)
Class 0:
Remaining flits: 1535310 1535311 1535312 1535313 1535314 1535315 1535316 1535317 1535318 1535319 [...] (62596 flits)
Measured flits: 1729242 1729243 1729244 1729245 1729246 1729247 1729248 1729249 1729250 1729251 [...] (3728 flits)
Class 0:
Remaining flits: 1535310 1535311 1535312 1535313 1535314 1535315 1535316 1535317 1535318 1535319 [...] (63485 flits)
Measured flits: 1729242 1729243 1729244 1729245 1729246 1729247 1729248 1729249 1729250 1729251 [...] (3845 flits)
Class 0:
Remaining flits: 1535317 1535318 1535319 1535320 1535321 1535322 1535323 1535324 1535325 1535326 [...] (63273 flits)
Measured flits: 1729242 1729243 1729244 1729245 1729246 1729247 1729248 1729249 1729250 1729251 [...] (3609 flits)
Class 0:
Remaining flits: 1703178 1703179 1703180 1703181 1703182 1703183 1703184 1703185 1703186 1703187 [...] (62751 flits)
Measured flits: 1845468 1845469 1845470 1845471 1845472 1845473 1845474 1845475 1845476 1845477 [...] (3369 flits)
Class 0:
Remaining flits: 1703183 1703184 1703185 1703186 1703187 1703188 1703189 1703190 1703191 1703192 [...] (63168 flits)
Measured flits: 1845473 1845474 1845475 1845476 1845477 1845478 1845479 1845480 1845481 1845482 [...] (3315 flits)
Class 0:
Remaining flits: 1703185 1703186 1703187 1703188 1703189 1703190 1703191 1703192 1703193 1703194 [...] (62448 flits)
Measured flits: 1848024 1848025 1848026 1848027 1848028 1848029 1848030 1848031 1848032 1848033 [...] (3016 flits)
Class 0:
Remaining flits: 1734768 1734769 1734770 1734771 1734772 1734773 1734774 1734775 1734776 1734777 [...] (62498 flits)
Measured flits: 1848031 1848032 1848033 1848034 1848035 1848036 1848037 1848038 1848039 1848040 [...] (2511 flits)
Class 0:
Remaining flits: 1734768 1734769 1734770 1734771 1734772 1734773 1734774 1734775 1734776 1734777 [...] (63922 flits)
Measured flits: 1958760 1958761 1958762 1958763 1958764 1958765 1958766 1958767 1958768 1958769 [...] (2541 flits)
Class 0:
Remaining flits: 1734768 1734769 1734770 1734771 1734772 1734773 1734774 1734775 1734776 1734777 [...] (61891 flits)
Measured flits: 1958760 1958761 1958762 1958763 1958764 1958765 1958766 1958767 1958768 1958769 [...] (2031 flits)
Class 0:
Remaining flits: 1734768 1734769 1734770 1734771 1734772 1734773 1734774 1734775 1734776 1734777 [...] (61321 flits)
Measured flits: 2201404 2201405 2201406 2201407 2201408 2201409 2201410 2201411 2201412 2201413 [...] (1851 flits)
Class 0:
Remaining flits: 1734776 1734777 1734778 1734779 1734780 1734781 1734782 1734783 1734784 1734785 [...] (62458 flits)
Measured flits: 2201404 2201405 2201406 2201407 2201408 2201409 2201410 2201411 2201412 2201413 [...] (1793 flits)
Class 0:
Remaining flits: 1912807 1912808 1912809 1912810 1912811 1912812 1912813 1912814 1912815 1912816 [...] (61235 flits)
Measured flits: 2201413 2201414 2201415 2201416 2201417 2204046 2204047 2204048 2204049 2204050 [...] (1793 flits)
Class 0:
Remaining flits: 1912807 1912808 1912809 1912810 1912811 1912812 1912813 1912814 1912815 1912816 [...] (63920 flits)
Measured flits: 2204046 2204047 2204048 2204049 2204050 2204051 2204052 2204053 2204054 2204055 [...] (1560 flits)
Class 0:
Remaining flits: 1912807 1912808 1912809 1912810 1912811 1912812 1912813 1912814 1912815 1912816 [...] (64914 flits)
Measured flits: 2272626 2272627 2272628 2272629 2272630 2272631 2272632 2272633 2272634 2272635 [...] (1356 flits)
Class 0:
Remaining flits: 1965312 1965313 1965314 1965315 1965316 1965317 1965318 1965319 1965320 1965321 [...] (65227 flits)
Measured flits: 2309634 2309635 2309636 2309637 2309638 2309639 2309640 2309641 2309642 2309643 [...] (1450 flits)
Class 0:
Remaining flits: 1965313 1965314 1965315 1965316 1965317 1965318 1965319 1965320 1965321 1965322 [...] (65127 flits)
Measured flits: 2309634 2309635 2309636 2309637 2309638 2309639 2309640 2309641 2309642 2309643 [...] (1164 flits)
Class 0:
Remaining flits: 1965313 1965314 1965315 1965316 1965317 1965318 1965319 1965320 1965321 1965322 [...] (64417 flits)
Measured flits: 2309634 2309635 2309636 2309637 2309638 2309639 2309640 2309641 2309642 2309643 [...] (1230 flits)
Class 0:
Remaining flits: 1965313 1965314 1965315 1965316 1965317 1965318 1965319 1965320 1965321 1965322 [...] (63914 flits)
Measured flits: 2309634 2309635 2309636 2309637 2309638 2309639 2309640 2309641 2309642 2309643 [...] (1036 flits)
Class 0:
Remaining flits: 2081034 2081035 2081036 2081037 2081038 2081039 2081040 2081041 2081042 2081043 [...] (64606 flits)
Measured flits: 2309634 2309635 2309636 2309637 2309638 2309639 2309640 2309641 2309642 2309643 [...] (925 flits)
Class 0:
Remaining flits: 2081034 2081035 2081036 2081037 2081038 2081039 2081040 2081041 2081042 2081043 [...] (64093 flits)
Measured flits: 2478240 2478241 2478242 2478243 2478244 2478245 2478246 2478247 2478248 2478249 [...] (624 flits)
Class 0:
Remaining flits: 2081034 2081035 2081036 2081037 2081038 2081039 2081040 2081041 2081042 2081043 [...] (64136 flits)
Measured flits: 2478240 2478241 2478242 2478243 2478244 2478245 2478246 2478247 2478248 2478249 [...] (545 flits)
Class 0:
Remaining flits: 2081034 2081035 2081036 2081037 2081038 2081039 2081040 2081041 2081042 2081043 [...] (64553 flits)
Measured flits: 2478240 2478241 2478242 2478243 2478244 2478245 2478246 2478247 2478248 2478249 [...] (531 flits)
Class 0:
Remaining flits: 2323278 2323279 2323280 2323281 2323282 2323283 2323284 2323285 2323286 2323287 [...] (64195 flits)
Measured flits: 2490448 2490449 2490450 2490451 2490452 2490453 2490454 2490455 2490456 2490457 [...] (325 flits)
Class 0:
Remaining flits: 2323278 2323279 2323280 2323281 2323282 2323283 2323284 2323285 2323286 2323287 [...] (63040 flits)
Measured flits: 2642148 2642149 2642150 2642151 2642152 2642153 2642154 2642155 2642156 2642157 [...] (277 flits)
Class 0:
Remaining flits: 2323278 2323279 2323280 2323281 2323282 2323283 2323284 2323285 2323286 2323287 [...] (62451 flits)
Measured flits: 2642148 2642149 2642150 2642151 2642152 2642153 2642154 2642155 2642156 2642157 [...] (214 flits)
Class 0:
Remaining flits: 2323278 2323279 2323280 2323281 2323282 2323283 2323284 2323285 2323286 2323287 [...] (61708 flits)
Measured flits: 2642148 2642149 2642150 2642151 2642152 2642153 2642154 2642155 2642156 2642157 [...] (192 flits)
Class 0:
Remaining flits: 2323278 2323279 2323280 2323281 2323282 2323283 2323284 2323285 2323286 2323287 [...] (61887 flits)
Measured flits: 2642148 2642149 2642150 2642151 2642152 2642153 2642154 2642155 2642156 2642157 [...] (162 flits)
Class 0:
Remaining flits: 2323278 2323279 2323280 2323281 2323282 2323283 2323284 2323285 2323286 2323287 [...] (61176 flits)
Measured flits: 2642148 2642149 2642150 2642151 2642152 2642153 2642154 2642155 2642156 2642157 [...] (223 flits)
Class 0:
Remaining flits: 2323278 2323279 2323280 2323281 2323282 2323283 2323284 2323285 2323286 2323287 [...] (62327 flits)
Measured flits: 2925810 2925811 2925812 2925813 2925814 2925815 2925816 2925817 2925818 2925819 [...] (119 flits)
Class 0:
Remaining flits: 2570400 2570401 2570402 2570403 2570404 2570405 2570406 2570407 2570408 2570409 [...] (64549 flits)
Measured flits: 2925810 2925811 2925812 2925813 2925814 2925815 2925816 2925817 2925818 2925819 [...] (89 flits)
Class 0:
Remaining flits: 2570400 2570401 2570402 2570403 2570404 2570405 2570406 2570407 2570408 2570409 [...] (64517 flits)
Measured flits: 2925810 2925811 2925812 2925813 2925814 2925815 2925816 2925817 2925818 2925819 [...] (54 flits)
Class 0:
Remaining flits: 2570400 2570401 2570402 2570403 2570404 2570405 2570406 2570407 2570408 2570409 [...] (62197 flits)
Measured flits: 2925810 2925811 2925812 2925813 2925814 2925815 2925816 2925817 2925818 2925819 [...] (54 flits)
Class 0:
Remaining flits: 2570400 2570401 2570402 2570403 2570404 2570405 2570406 2570407 2570408 2570409 [...] (62500 flits)
Measured flits: 2925810 2925811 2925812 2925813 2925814 2925815 2925816 2925817 2925818 2925819 [...] (36 flits)
Class 0:
Remaining flits: 2591121 2591122 2591123 2591124 2591125 2591126 2591127 2591128 2591129 2591130 [...] (61370 flits)
Measured flits: 2925810 2925811 2925812 2925813 2925814 2925815 2925816 2925817 2925818 2925819 [...] (18 flits)
Class 0:
Remaining flits: 2591121 2591122 2591123 2591124 2591125 2591126 2591127 2591128 2591129 2591130 [...] (63655 flits)
Measured flits: 2925810 2925811 2925812 2925813 2925814 2925815 2925816 2925817 2925818 2925819 [...] (18 flits)
Class 0:
Remaining flits: 2591121 2591122 2591123 2591124 2591125 2591126 2591127 2591128 2591129 2591130 [...] (62008 flits)
Measured flits: 2925810 2925811 2925812 2925813 2925814 2925815 2925816 2925817 2925818 2925819 [...] (18 flits)
Class 0:
Remaining flits: 2640780 2640781 2640782 2640783 2640784 2640785 2640786 2640787 2640788 2640789 [...] (62065 flits)
Measured flits: 2925810 2925811 2925812 2925813 2925814 2925815 2925816 2925817 2925818 2925819 [...] (18 flits)
Class 0:
Remaining flits: 2640780 2640781 2640782 2640783 2640784 2640785 2640786 2640787 2640788 2640789 [...] (61236 flits)
Measured flits: 2925810 2925811 2925812 2925813 2925814 2925815 2925816 2925817 2925818 2925819 [...] (18 flits)
Draining remaining packets ...
Class 0:
Remaining flits: 2640780 2640781 2640782 2640783 2640784 2640785 2640786 2640787 2640788 2640789 [...] (38215 flits)
Measured flits: (0 flits)
Class 0:
Remaining flits: 2640780 2640781 2640782 2640783 2640784 2640785 2640786 2640787 2640788 2640789 [...] (27211 flits)
Measured flits: (0 flits)
Class 0:
Remaining flits: 2640780 2640781 2640782 2640783 2640784 2640785 2640786 2640787 2640788 2640789 [...] (16686 flits)
Measured flits: (0 flits)
Class 0:
Remaining flits: 2810142 2810143 2810144 2810145 2810146 2810147 2810148 2810149 2810150 2810151 [...] (8404 flits)
Measured flits: (0 flits)
Class 0:
Remaining flits: 2994390 2994391 2994392 2994393 2994394 2994395 2994396 2994397 2994398 2994399 [...] (2953 flits)
Measured flits: (0 flits)
Time taken is 119383 cycles
====== Overall Traffic Statistics ======
====== Traffic class 0 ======
Packet latency average = 21739.1 (1 samples)
	minimum = 1344 (1 samples)
	maximum = 103929 (1 samples)
Network latency average = 1759.59 (1 samples)
	minimum = 23 (1 samples)
	maximum = 39926 (1 samples)
Flit latency average = 1870.18 (1 samples)
	minimum = 6 (1 samples)
	maximum = 39909 (1 samples)
Fragmentation average = 257.471 (1 samples)
	minimum = 0 (1 samples)
	maximum = 20097 (1 samples)
Injected packet rate average = 0.0115126 (1 samples)
	minimum = 0 (1 samples)
	maximum = 0.0292857 (1 samples)
Accepted packet rate average = 0.0115766 (1 samples)
	minimum = 0.00871429 (1 samples)
	maximum = 0.0147143 (1 samples)
Injected flit rate average = 0.20735 (1 samples)
	minimum = 0 (1 samples)
	maximum = 0.525429 (1 samples)
Accepted flit rate average = 0.207784 (1 samples)
	minimum = 0.154857 (1 samples)
	maximum = 0.260714 (1 samples)
Injected packet size average = 18.0106 (1 samples)
Accepted packet size average = 17.9486 (1 samples)
Hops average = 5.06097 (1 samples)
Total run time 177.922
