BEGIN Configuration File: networks/mezzanine_config
topology = mezzanine;
n = 12;

routing_function = multipath;
internal_speedup = 2.0;
latency_thres = 100000.0;
use_read_write = 0;

sample_period = 1000;
injection_rate = 0.5;
packet_size = 18;

noq = 1;
routing_delay = 0;
vc_alloc_delay = 1;
sw_alloc_delay = 1;
st_final_delay = 1;
vc_allocator = islip; 
sw_allocator = islip;
alloc_iters  = 4;
num_vcs     = 12;
buffer_policy = private; // private or shared
buf_size = -1; // -1 for buffer_policy = private;
vc_buf_size = 4096; // size of each VOQ with buffer_policy = private
output_buffer_size = -1;


traffic = uniform;

//mezW = 0.0;
//mezPredefinedPatternType = shift-inter; //shift-qfdb

END Configuration File: networks/mezzanine_config
OVERRIDE Parameter: injection_rate=0.004697
OVERRIDE Parameter: routing_function=multipath
OVERRIDE Parameter: num_vcs=12
OVERRIDE Parameter: vc_buf_size=18
OVERRIDE Parameter: internal_speedup=1.0
OVERRIDE Parameter: injection_process=on_off
OVERRIDE Parameter: sim_type=latency
OVERRIDE Parameter: burst_alpha=0.0038461538
OVERRIDE Parameter: burst_beta=0.1
network: network_0
========================== Routing table  =====================
Number of Subnets: 1
Class 0:
Packet latency average = 87.7447
	minimum = 23
	maximum = 342
Network latency average = 71.1176
	minimum = 23
	maximum = 241
Slowest packet = 43
Flit latency average = 44.6526
	minimum = 6
	maximum = 212
Slowest flit = 12167
Fragmentation average = 17.3951
	minimum = 0
	maximum = 57
Injected packet rate average = 0.00498958
	minimum = 0 (at node 1)
	maximum = 0.027 (at node 139)
Accepted packet rate average = 0.00469271
	minimum = 0.001 (at node 41)
	maximum = 0.011 (at node 140)
Injected flit rate average = 0.089
	minimum = 0 (at node 1)
	maximum = 0.486 (at node 139)
Accepted flit rate average= 0.0856927
	minimum = 0.018 (at node 41)
	maximum = 0.198 (at node 140)
Injected packet length average = 17.8372
Accepted packet length average = 18.2608
Total in-flight flits = 791 (0 measured)
latency change    = 1
throughput change = 1
Class 0:
Packet latency average = 83.614
	minimum = 23
	maximum = 419
Network latency average = 67.3871
	minimum = 23
	maximum = 285
Slowest packet = 43
Flit latency average = 42.0012
	minimum = 6
	maximum = 250
Slowest flit = 25900
Fragmentation average = 15.3691
	minimum = 0
	maximum = 59
Injected packet rate average = 0.00478125
	minimum = 0 (at node 91)
	maximum = 0.016 (at node 139)
Accepted packet rate average = 0.00461458
	minimum = 0.0005 (at node 41)
	maximum = 0.0085 (at node 70)
Injected flit rate average = 0.0856484
	minimum = 0 (at node 91)
	maximum = 0.288 (at node 139)
Accepted flit rate average= 0.083888
	minimum = 0.009 (at node 41)
	maximum = 0.153 (at node 70)
Injected packet length average = 17.9134
Accepted packet length average = 18.1789
Total in-flight flits = 835 (0 measured)
latency change    = 0.0494024
throughput change = 0.0215131
Class 0:
Packet latency average = 99.2135
	minimum = 23
	maximum = 560
Network latency average = 79.0816
	minimum = 23
	maximum = 426
Slowest packet = 1860
Flit latency average = 52.4053
	minimum = 6
	maximum = 409
Slowest flit = 41706
Fragmentation average = 17.7573
	minimum = 0
	maximum = 66
Injected packet rate average = 0.00516146
	minimum = 0 (at node 5)
	maximum = 0.017 (at node 77)
Accepted packet rate average = 0.00517188
	minimum = 0 (at node 17)
	maximum = 0.014 (at node 133)
Injected flit rate average = 0.093224
	minimum = 0 (at node 5)
	maximum = 0.304 (at node 77)
Accepted flit rate average= 0.0928958
	minimum = 0 (at node 17)
	maximum = 0.252 (at node 133)
Injected packet length average = 18.0616
Accepted packet length average = 17.9617
Total in-flight flits = 837 (0 measured)
latency change    = 0.157232
throughput change = 0.0969668
Warmed up ...Time used is 3000 cycles
Class 0:
Packet latency average = 75.0075
	minimum = 23
	maximum = 317
Network latency average = 59.1179
	minimum = 23
	maximum = 201
Slowest packet = 2842
Flit latency average = 37.3105
	minimum = 6
	maximum = 184
Slowest flit = 52973
Fragmentation average = 11.5859
	minimum = 0
	maximum = 64
Injected packet rate average = 0.00435417
	minimum = 0 (at node 32)
	maximum = 0.018 (at node 106)
Accepted packet rate average = 0.00447396
	minimum = 0 (at node 18)
	maximum = 0.011 (at node 22)
Injected flit rate average = 0.078
	minimum = 0 (at node 32)
	maximum = 0.311 (at node 106)
Accepted flit rate average= 0.0797865
	minimum = 0 (at node 18)
	maximum = 0.201 (at node 22)
Injected packet length average = 17.9139
Accepted packet length average = 17.8335
Total in-flight flits = 566 (566 measured)
latency change    = 0.322714
throughput change = 0.164306
Class 0:
Packet latency average = 75.7232
	minimum = 23
	maximum = 317
Network latency average = 59.3985
	minimum = 23
	maximum = 201
Slowest packet = 2842
Flit latency average = 36.74
	minimum = 6
	maximum = 184
Slowest flit = 52973
Fragmentation average = 12.1105
	minimum = 0
	maximum = 64
Injected packet rate average = 0.00439062
	minimum = 0 (at node 99)
	maximum = 0.0125 (at node 106)
Accepted packet rate average = 0.00435677
	minimum = 0.001 (at node 24)
	maximum = 0.0075 (at node 22)
Injected flit rate average = 0.079026
	minimum = 0 (at node 99)
	maximum = 0.225 (at node 106)
Accepted flit rate average= 0.07875
	minimum = 0.018 (at node 24)
	maximum = 0.142 (at node 152)
Injected packet length average = 17.9988
Accepted packet length average = 18.0753
Total in-flight flits = 945 (945 measured)
latency change    = 0.00945055
throughput change = 0.0131614
Class 0:
Packet latency average = 79.9477
	minimum = 23
	maximum = 347
Network latency average = 62.8773
	minimum = 23
	maximum = 269
Slowest packet = 2842
Flit latency average = 38.952
	minimum = 6
	maximum = 252
Slowest flit = 84815
Fragmentation average = 13.6165
	minimum = 0
	maximum = 64
Injected packet rate average = 0.00443056
	minimum = 0.000333333 (at node 15)
	maximum = 0.0133333 (at node 108)
Accepted packet rate average = 0.00445312
	minimum = 0.00166667 (at node 153)
	maximum = 0.008 (at node 177)
Injected flit rate average = 0.079717
	minimum = 0.006 (at node 15)
	maximum = 0.24 (at node 108)
Accepted flit rate average= 0.0798576
	minimum = 0.03 (at node 153)
	maximum = 0.143 (at node 177)
Injected packet length average = 17.9926
Accepted packet length average = 17.9329
Total in-flight flits = 775 (775 measured)
latency change    = 0.0528409
throughput change = 0.0138702
Class 0:
Packet latency average = 82.9546
	minimum = 23
	maximum = 486
Network latency average = 65.4771
	minimum = 23
	maximum = 323
Slowest packet = 2842
Flit latency average = 40.8997
	minimum = 6
	maximum = 306
Slowest flit = 102707
Fragmentation average = 14.3649
	minimum = 0
	maximum = 64
Injected packet rate average = 0.00454818
	minimum = 0.001 (at node 76)
	maximum = 0.0125 (at node 108)
Accepted packet rate average = 0.00452344
	minimum = 0.002 (at node 153)
	maximum = 0.0075 (at node 56)
Injected flit rate average = 0.0817526
	minimum = 0.018 (at node 76)
	maximum = 0.225 (at node 108)
Accepted flit rate average= 0.0815677
	minimum = 0.036 (at node 153)
	maximum = 0.135 (at node 56)
Injected packet length average = 17.9748
Accepted packet length average = 18.0322
Total in-flight flits = 1067 (1067 measured)
latency change    = 0.0362477
throughput change = 0.020965
Class 0:
Packet latency average = 83.9912
	minimum = 23
	maximum = 486
Network latency average = 66.5391
	minimum = 23
	maximum = 426
Slowest packet = 2842
Flit latency average = 41.7238
	minimum = 6
	maximum = 399
Slowest flit = 116243
Fragmentation average = 14.8532
	minimum = 0
	maximum = 65
Injected packet rate average = 0.00458542
	minimum = 0.0012 (at node 100)
	maximum = 0.0104 (at node 108)
Accepted packet rate average = 0.00455729
	minimum = 0.0024 (at node 153)
	maximum = 0.0072 (at node 56)
Injected flit rate average = 0.0824656
	minimum = 0.0216 (at node 100)
	maximum = 0.1872 (at node 108)
Accepted flit rate average= 0.082175
	minimum = 0.0432 (at node 153)
	maximum = 0.1296 (at node 56)
Injected packet length average = 17.9843
Accepted packet length average = 18.0315
Total in-flight flits = 1185 (1185 measured)
latency change    = 0.012342
throughput change = 0.00739022
Class 0:
Packet latency average = 85.5342
	minimum = 23
	maximum = 486
Network latency average = 67.7064
	minimum = 23
	maximum = 426
Slowest packet = 2842
Flit latency average = 42.525
	minimum = 6
	maximum = 399
Slowest flit = 116243
Fragmentation average = 15.2692
	minimum = 0
	maximum = 65
Injected packet rate average = 0.00461545
	minimum = 0.0015 (at node 30)
	maximum = 0.00866667 (at node 44)
Accepted packet rate average = 0.00461024
	minimum = 0.00233333 (at node 153)
	maximum = 0.00733333 (at node 16)
Injected flit rate average = 0.0829983
	minimum = 0.027 (at node 30)
	maximum = 0.156 (at node 44)
Accepted flit rate average= 0.0829774
	minimum = 0.042 (at node 153)
	maximum = 0.133 (at node 16)
Injected packet length average = 17.9827
Accepted packet length average = 17.9985
Total in-flight flits = 953 (953 measured)
latency change    = 0.0180397
throughput change = 0.00967047
Draining all recorded packets ...
Draining remaining packets ...
Time taken is 9300 cycles
====== Overall Traffic Statistics ======
====== Traffic class 0 ======
Packet latency average = 86.0325 (1 samples)
	minimum = 23 (1 samples)
	maximum = 486 (1 samples)
Network latency average = 68.1119 (1 samples)
	minimum = 23 (1 samples)
	maximum = 426 (1 samples)
Flit latency average = 42.7626 (1 samples)
	minimum = 6 (1 samples)
	maximum = 399 (1 samples)
Fragmentation average = 15.385 (1 samples)
	minimum = 0 (1 samples)
	maximum = 66 (1 samples)
Injected packet rate average = 0.00461545 (1 samples)
	minimum = 0.0015 (1 samples)
	maximum = 0.00866667 (1 samples)
Accepted packet rate average = 0.00461024 (1 samples)
	minimum = 0.00233333 (1 samples)
	maximum = 0.00733333 (1 samples)
Injected flit rate average = 0.0829983 (1 samples)
	minimum = 0.027 (1 samples)
	maximum = 0.156 (1 samples)
Accepted flit rate average = 0.0829774 (1 samples)
	minimum = 0.042 (1 samples)
	maximum = 0.133 (1 samples)
Injected packet size average = 17.9827 (1 samples)
Accepted packet size average = 17.9985 (1 samples)
Hops average = 5.08035 (1 samples)
Total run time 2.43761
