BEGIN Configuration File: networks/mezzanine_config
topology = mezzanine;
n = 12;

routing_function = multipath;
internal_speedup = 2.0;
latency_thres = 100000.0;
use_read_write = 0;

sample_period = 1000;
injection_rate = 0.5;
packet_size = 18;

noq = 1;
routing_delay = 0;
vc_alloc_delay = 1;
sw_alloc_delay = 1;
st_final_delay = 1;
vc_allocator = islip; 
sw_allocator = islip;
alloc_iters  = 4;
num_vcs     = 12;
buffer_policy = private; // private or shared
buf_size = -1; // -1 for buffer_policy = private;
vc_buf_size = 4096; // size of each VOQ with buffer_policy = private
output_buffer_size = -1;


traffic = uniform;

//mezW = 0.0;
//mezPredefinedPatternType = shift-inter; //shift-qfdb

END Configuration File: networks/mezzanine_config
OVERRIDE Parameter: injection_rate=0.035637
OVERRIDE Parameter: routing_function=min
OVERRIDE Parameter: num_vcs=64
OVERRIDE Parameter: vc_buf_size=18
OVERRIDE Parameter: internal_speedup=1.0
OVERRIDE Parameter: injection_process=on_off
OVERRIDE Parameter: sim_type=latency
OVERRIDE Parameter: burst_alpha=0.0038461538
OVERRIDE Parameter: burst_beta=0.1
network: network_0
========================== Routing table  =====================
Number of Subnets: 1
Class 0:
Packet latency average = 384.475
	minimum = 27
	maximum = 987
Network latency average = 287.987
	minimum = 25
	maximum = 886
Slowest packet = 21
Flit latency average = 202.149
	minimum = 6
	maximum = 965
Slowest flit = 2828
Fragmentation average = 193.096
	minimum = 0
	maximum = 788
Injected packet rate average = 0.0241667
	minimum = 0 (at node 63)
	maximum = 0.046 (at node 129)
Accepted packet rate average = 0.0096875
	minimum = 0.003 (at node 53)
	maximum = 0.017 (at node 88)
Injected flit rate average = 0.430068
	minimum = 0 (at node 63)
	maximum = 0.824 (at node 129)
Accepted flit rate average= 0.210667
	minimum = 0.074 (at node 174)
	maximum = 0.365 (at node 152)
Injected packet length average = 17.7959
Accepted packet length average = 21.7462
Total in-flight flits = 43162 (0 measured)
latency change    = 1
throughput change = 1
Class 0:
Packet latency average = 687.597
	minimum = 27
	maximum = 1974
Network latency average = 512.487
	minimum = 25
	maximum = 1838
Slowest packet = 21
Flit latency average = 402.182
	minimum = 6
	maximum = 1907
Slowest flit = 7696
Fragmentation average = 266.881
	minimum = 0
	maximum = 1548
Injected packet rate average = 0.0210365
	minimum = 0.0045 (at node 19)
	maximum = 0.035 (at node 61)
Accepted packet rate average = 0.0110286
	minimum = 0.005 (at node 164)
	maximum = 0.0175 (at node 22)
Injected flit rate average = 0.375721
	minimum = 0.0785 (at node 19)
	maximum = 0.626 (at node 61)
Accepted flit rate average= 0.219682
	minimum = 0.109 (at node 164)
	maximum = 0.3445 (at node 152)
Injected packet length average = 17.8605
Accepted packet length average = 19.9192
Total in-flight flits = 61172 (0 measured)
latency change    = 0.440843
throughput change = 0.0410394
Class 0:
Packet latency average = 1521.42
	minimum = 31
	maximum = 2948
Network latency average = 1020.18
	minimum = 31
	maximum = 2807
Slowest packet = 858
Flit latency average = 892.641
	minimum = 6
	maximum = 2871
Slowest flit = 11396
Fragmentation average = 307.285
	minimum = 4
	maximum = 2203
Injected packet rate average = 0.01225
	minimum = 0 (at node 3)
	maximum = 0.034 (at node 13)
Accepted packet rate average = 0.0126354
	minimum = 0.004 (at node 31)
	maximum = 0.022 (at node 33)
Injected flit rate average = 0.218995
	minimum = 0 (at node 3)
	maximum = 0.602 (at node 77)
Accepted flit rate average= 0.224922
	minimum = 0.081 (at node 31)
	maximum = 0.374 (at node 136)
Injected packet length average = 17.8771
Accepted packet length average = 17.8009
Total in-flight flits = 60395 (0 measured)
latency change    = 0.548054
throughput change = 0.0232951
Warmed up ...Time used is 3000 cycles
Class 0:
Packet latency average = 1688.8
	minimum = 41
	maximum = 3560
Network latency average = 336.778
	minimum = 28
	maximum = 942
Slowest packet = 10450
Flit latency average = 1070.85
	minimum = 6
	maximum = 3833
Slowest flit = 12901
Fragmentation average = 143.793
	minimum = 1
	maximum = 780
Injected packet rate average = 0.0102188
	minimum = 0 (at node 9)
	maximum = 0.043 (at node 33)
Accepted packet rate average = 0.0119688
	minimum = 0.004 (at node 1)
	maximum = 0.021 (at node 39)
Injected flit rate average = 0.183438
	minimum = 0 (at node 12)
	maximum = 0.772 (at node 33)
Accepted flit rate average= 0.213703
	minimum = 0.069 (at node 173)
	maximum = 0.371 (at node 44)
Injected packet length average = 17.9511
Accepted packet length average = 17.8551
Total in-flight flits = 54680 (23308 measured)
latency change    = 0.0991127
throughput change = 0.0524969
Class 0:
Packet latency average = 2155.64
	minimum = 38
	maximum = 4948
Network latency average = 544.301
	minimum = 25
	maximum = 1970
Slowest packet = 10450
Flit latency average = 1153.78
	minimum = 6
	maximum = 4792
Slowest flit = 13085
Fragmentation average = 179.164
	minimum = 1
	maximum = 1449
Injected packet rate average = 0.0104792
	minimum = 0 (at node 12)
	maximum = 0.035 (at node 187)
Accepted packet rate average = 0.0118828
	minimum = 0.007 (at node 7)
	maximum = 0.018 (at node 44)
Injected flit rate average = 0.188555
	minimum = 0 (at node 12)
	maximum = 0.6285 (at node 187)
Accepted flit rate average= 0.21151
	minimum = 0.1225 (at node 23)
	maximum = 0.328 (at node 59)
Injected packet length average = 17.9933
Accepted packet length average = 17.7997
Total in-flight flits = 51661 (34663 measured)
latency change    = 0.216569
throughput change = 0.0103669
Class 0:
Packet latency average = 2613.02
	minimum = 38
	maximum = 5768
Network latency average = 683.483
	minimum = 25
	maximum = 2965
Slowest packet = 10450
Flit latency average = 1165.57
	minimum = 6
	maximum = 5800
Slowest flit = 9539
Fragmentation average = 200.046
	minimum = 1
	maximum = 2777
Injected packet rate average = 0.010901
	minimum = 0 (at node 19)
	maximum = 0.028 (at node 82)
Accepted packet rate average = 0.0117743
	minimum = 0.00733333 (at node 189)
	maximum = 0.0173333 (at node 128)
Injected flit rate average = 0.19621
	minimum = 0 (at node 44)
	maximum = 0.502333 (at node 82)
Accepted flit rate average= 0.209972
	minimum = 0.138333 (at node 36)
	maximum = 0.319667 (at node 128)
Injected packet length average = 17.9992
Accepted packet length average = 17.8331
Total in-flight flits = 52545 (42435 measured)
latency change    = 0.175037
throughput change = 0.0073257
Class 0:
Packet latency average = 3016.88
	minimum = 38
	maximum = 6883
Network latency average = 795.321
	minimum = 25
	maximum = 3927
Slowest packet = 10450
Flit latency average = 1175.21
	minimum = 6
	maximum = 6616
Slowest flit = 22922
Fragmentation average = 216.66
	minimum = 1
	maximum = 2777
Injected packet rate average = 0.011099
	minimum = 0 (at node 19)
	maximum = 0.029 (at node 85)
Accepted packet rate average = 0.0117174
	minimum = 0.0085 (at node 36)
	maximum = 0.0165 (at node 142)
Injected flit rate average = 0.199684
	minimum = 0 (at node 125)
	maximum = 0.51925 (at node 85)
Accepted flit rate average= 0.209357
	minimum = 0.148 (at node 36)
	maximum = 0.29675 (at node 142)
Injected packet length average = 17.9912
Accepted packet length average = 17.8671
Total in-flight flits = 53023 (46658 measured)
latency change    = 0.133867
throughput change = 0.00293973
Class 0:
Packet latency average = 3424.81
	minimum = 38
	maximum = 7748
Network latency average = 871.188
	minimum = 24
	maximum = 4730
Slowest packet = 10450
Flit latency average = 1170.79
	minimum = 6
	maximum = 7619
Slowest flit = 7847
Fragmentation average = 229.747
	minimum = 1
	maximum = 3844
Injected packet rate average = 0.0112469
	minimum = 0 (at node 19)
	maximum = 0.0246 (at node 162)
Accepted packet rate average = 0.0116938
	minimum = 0.0082 (at node 86)
	maximum = 0.0162 (at node 129)
Injected flit rate average = 0.20242
	minimum = 0 (at node 125)
	maximum = 0.442 (at node 162)
Accepted flit rate average= 0.209678
	minimum = 0.1476 (at node 86)
	maximum = 0.2774 (at node 129)
Injected packet length average = 17.9979
Accepted packet length average = 17.9308
Total in-flight flits = 53522 (49069 measured)
latency change    = 0.119112
throughput change = 0.00153261
Class 0:
Packet latency average = 3820.99
	minimum = 38
	maximum = 8492
Network latency average = 938.414
	minimum = 24
	maximum = 5737
Slowest packet = 10450
Flit latency average = 1170.78
	minimum = 6
	maximum = 8633
Slowest flit = 14435
Fragmentation average = 239.081
	minimum = 1
	maximum = 5093
Injected packet rate average = 0.0113151
	minimum = 0 (at node 19)
	maximum = 0.0245 (at node 49)
Accepted packet rate average = 0.0116988
	minimum = 0.0085 (at node 139)
	maximum = 0.0151667 (at node 129)
Injected flit rate average = 0.203668
	minimum = 0 (at node 125)
	maximum = 0.442333 (at node 49)
Accepted flit rate average= 0.209784
	minimum = 0.1485 (at node 171)
	maximum = 0.265667 (at node 128)
Injected packet length average = 17.9997
Accepted packet length average = 17.9321
Total in-flight flits = 53354 (50047 measured)
latency change    = 0.103683
throughput change = 0.000503991
Class 0:
Packet latency average = 4226.09
	minimum = 38
	maximum = 9621
Network latency average = 990.294
	minimum = 24
	maximum = 6883
Slowest packet = 10450
Flit latency average = 1175.37
	minimum = 6
	maximum = 9697
Slowest flit = 24148
Fragmentation average = 246.764
	minimum = 1
	maximum = 5625
Injected packet rate average = 0.0114345
	minimum = 0 (at node 19)
	maximum = 0.023 (at node 110)
Accepted packet rate average = 0.0117128
	minimum = 0.00842857 (at node 139)
	maximum = 0.0147143 (at node 11)
Injected flit rate average = 0.205864
	minimum = 0.000285714 (at node 100)
	maximum = 0.412571 (at node 110)
Accepted flit rate average= 0.209896
	minimum = 0.149286 (at node 139)
	maximum = 0.263857 (at node 103)
Injected packet length average = 18.0037
Accepted packet length average = 17.9202
Total in-flight flits = 54991 (52543 measured)
latency change    = 0.0958579
throughput change = 0.000533499
Draining all recorded packets ...
Class 0:
Remaining flits: 19182 19183 19184 19185 19186 19187 24295 24296 24297 24298 [...] (56550 flits)
Measured flits: 188058 188059 188060 188061 188062 188063 191880 191881 191882 191883 [...] (54749 flits)
Class 0:
Remaining flits: 25488 25489 25490 25491 25492 25493 25494 25495 25496 25497 [...] (58136 flits)
Measured flits: 191880 191881 191882 191883 191884 191885 191886 191887 191888 191889 [...] (56765 flits)
Class 0:
Remaining flits: 25496 25497 25498 25499 25500 25501 25502 25503 25504 25505 [...] (56753 flits)
Measured flits: 191880 191881 191882 191883 191884 191885 191886 191887 191888 191889 [...] (55428 flits)
Class 0:
Remaining flits: 25496 25497 25498 25499 25500 25501 25502 25503 25504 25505 [...] (57948 flits)
Measured flits: 191880 191881 191882 191883 191884 191885 191886 191887 191888 191889 [...] (56046 flits)
Class 0:
Remaining flits: 25496 25497 25498 25499 25500 25501 25502 25503 25504 25505 [...] (59296 flits)
Measured flits: 191880 191881 191882 191883 191884 191885 191886 191887 191888 191889 [...] (57319 flits)
Class 0:
Remaining flits: 25496 25497 25498 25499 25500 25501 25502 25503 25504 25505 [...] (61330 flits)
Measured flits: 191880 191881 191882 191883 191884 191885 191886 191887 191888 191889 [...] (58140 flits)
Class 0:
Remaining flits: 25501 25502 25503 25504 25505 39298 39299 39300 39301 39302 [...] (61692 flits)
Measured flits: 191880 191881 191882 191883 191884 191885 191886 191887 191888 191889 [...] (58164 flits)
Class 0:
Remaining flits: 39298 39299 39300 39301 39302 39303 39304 39305 39306 39307 [...] (61359 flits)
Measured flits: 191880 191881 191882 191883 191884 191885 191886 191887 191888 191889 [...] (57159 flits)
Class 0:
Remaining flits: 39298 39299 39300 39301 39302 39303 39304 39305 39306 39307 [...] (60949 flits)
Measured flits: 191888 191889 191890 191891 191892 191893 191894 191895 191896 191897 [...] (55702 flits)
Class 0:
Remaining flits: 50562 50563 50564 50565 50566 50567 50568 50569 50570 50571 [...] (62718 flits)
Measured flits: 216270 216271 216272 216273 216274 216275 216276 216277 216278 216279 [...] (56049 flits)
Class 0:
Remaining flits: 50579 67626 67627 67628 67629 67630 67631 67632 67633 67634 [...] (63209 flits)
Measured flits: 216270 216271 216272 216273 216274 216275 216276 216277 216278 216279 [...] (53596 flits)
Class 0:
Remaining flits: 50579 67626 67627 67628 67629 67630 67631 67632 67633 67634 [...] (62496 flits)
Measured flits: 216270 216271 216272 216273 216274 216275 216276 216277 216278 216279 [...] (51685 flits)
Class 0:
Remaining flits: 67626 67627 67628 67629 67630 67631 67632 67633 67634 67635 [...] (63898 flits)
Measured flits: 317412 317413 317414 317415 317416 317417 317418 317419 317420 317421 [...] (52498 flits)
Class 0:
Remaining flits: 91530 91531 91532 91533 91534 91535 91536 91537 91538 91539 [...] (65161 flits)
Measured flits: 317412 317413 317414 317415 317416 317417 317418 317419 317420 317421 [...] (49267 flits)
Class 0:
Remaining flits: 91530 91531 91532 91533 91534 91535 91536 91537 91538 91539 [...] (65478 flits)
Measured flits: 317412 317413 317414 317415 317416 317417 317418 317419 317420 317421 [...] (47088 flits)
Class 0:
Remaining flits: 91530 91531 91532 91533 91534 91535 91536 91537 91538 91539 [...] (65875 flits)
Measured flits: 317412 317413 317414 317415 317416 317417 317418 317419 317420 317421 [...] (44932 flits)
Class 0:
Remaining flits: 91530 91531 91532 91533 91534 91535 91536 91537 91538 91539 [...] (63978 flits)
Measured flits: 317412 317413 317414 317415 317416 317417 317418 317419 317420 317421 [...] (41198 flits)
Class 0:
Remaining flits: 91530 91531 91532 91533 91534 91535 91536 91537 91538 91539 [...] (64277 flits)
Measured flits: 317412 317413 317414 317415 317416 317417 317418 317419 317420 317421 [...] (38311 flits)
Class 0:
Remaining flits: 140760 140761 140762 140763 140764 140765 140766 140767 140768 140769 [...] (64653 flits)
Measured flits: 350766 350767 350768 350769 350770 350771 350772 350773 350774 350775 [...] (36524 flits)
Class 0:
Remaining flits: 140760 140761 140762 140763 140764 140765 140766 140767 140768 140769 [...] (64382 flits)
Measured flits: 350766 350767 350768 350769 350770 350771 350772 350773 350774 350775 [...] (34093 flits)
Class 0:
Remaining flits: 140760 140761 140762 140763 140764 140765 140766 140767 140768 140769 [...] (64719 flits)
Measured flits: 350783 353016 353017 353018 353019 353020 353021 353022 353023 353024 [...] (31988 flits)
Class 0:
Remaining flits: 140760 140761 140762 140763 140764 140765 140766 140767 140768 140769 [...] (63410 flits)
Measured flits: 353021 353022 353023 353024 353025 353026 353027 353028 353029 353030 [...] (29626 flits)
Class 0:
Remaining flits: 526446 526447 526448 526449 526450 526451 526452 526453 526454 526455 [...] (64688 flits)
Measured flits: 526446 526447 526448 526449 526450 526451 526452 526453 526454 526455 [...] (27577 flits)
Class 0:
Remaining flits: 526446 526447 526448 526449 526450 526451 526452 526453 526454 526455 [...] (67250 flits)
Measured flits: 526446 526447 526448 526449 526450 526451 526452 526453 526454 526455 [...] (25523 flits)
Class 0:
Remaining flits: 526446 526447 526448 526449 526450 526451 526452 526453 526454 526455 [...] (66972 flits)
Measured flits: 526446 526447 526448 526449 526450 526451 526452 526453 526454 526455 [...] (24494 flits)
Class 0:
Remaining flits: 526446 526447 526448 526449 526450 526451 526452 526453 526454 526455 [...] (63541 flits)
Measured flits: 526446 526447 526448 526449 526450 526451 526452 526453 526454 526455 [...] (22178 flits)
Class 0:
Remaining flits: 526446 526447 526448 526449 526450 526451 526452 526453 526454 526455 [...] (59929 flits)
Measured flits: 526446 526447 526448 526449 526450 526451 526452 526453 526454 526455 [...] (19332 flits)
Class 0:
Remaining flits: 526446 526447 526448 526449 526450 526451 526452 526453 526454 526455 [...] (59644 flits)
Measured flits: 526446 526447 526448 526449 526450 526451 526452 526453 526454 526455 [...] (16079 flits)
Class 0:
Remaining flits: 526446 526447 526448 526449 526450 526451 526452 526453 526454 526455 [...] (60139 flits)
Measured flits: 526446 526447 526448 526449 526450 526451 526452 526453 526454 526455 [...] (14423 flits)
Class 0:
Remaining flits: 526446 526447 526448 526449 526450 526451 526452 526453 526454 526455 [...] (63882 flits)
Measured flits: 526446 526447 526448 526449 526450 526451 526452 526453 526454 526455 [...] (14160 flits)
Class 0:
Remaining flits: 526446 526447 526448 526449 526450 526451 526452 526453 526454 526455 [...] (66458 flits)
Measured flits: 526446 526447 526448 526449 526450 526451 526452 526453 526454 526455 [...] (13777 flits)
Class 0:
Remaining flits: 526446 526447 526448 526449 526450 526451 526452 526453 526454 526455 [...] (67487 flits)
Measured flits: 526446 526447 526448 526449 526450 526451 526452 526453 526454 526455 [...] (12939 flits)
Class 0:
Remaining flits: 526446 526447 526448 526449 526450 526451 526452 526453 526454 526455 [...] (65162 flits)
Measured flits: 526446 526447 526448 526449 526450 526451 526452 526453 526454 526455 [...] (10763 flits)
Class 0:
Remaining flits: 526446 526447 526448 526449 526450 526451 526452 526453 526454 526455 [...] (64037 flits)
Measured flits: 526446 526447 526448 526449 526450 526451 526452 526453 526454 526455 [...] (9638 flits)
Class 0:
Remaining flits: 526446 526447 526448 526449 526450 526451 526452 526453 526454 526455 [...] (64552 flits)
Measured flits: 526446 526447 526448 526449 526450 526451 526452 526453 526454 526455 [...] (8338 flits)
Class 0:
Remaining flits: 526446 526447 526448 526449 526450 526451 526452 526453 526454 526455 [...] (64514 flits)
Measured flits: 526446 526447 526448 526449 526450 526451 526452 526453 526454 526455 [...] (7555 flits)
Class 0:
Remaining flits: 526446 526447 526448 526449 526450 526451 526452 526453 526454 526455 [...] (65778 flits)
Measured flits: 526446 526447 526448 526449 526450 526451 526452 526453 526454 526455 [...] (6901 flits)
Class 0:
Remaining flits: 773028 773029 773030 773031 773032 773033 773034 773035 773036 773037 [...] (64814 flits)
Measured flits: 908784 908785 908786 908787 908788 908789 908790 908791 908792 908793 [...] (6152 flits)
Class 0:
Remaining flits: 773028 773029 773030 773031 773032 773033 773034 773035 773036 773037 [...] (61821 flits)
Measured flits: 908784 908785 908786 908787 908788 908789 908790 908791 908792 908793 [...] (5757 flits)
Class 0:
Remaining flits: 908784 908785 908786 908787 908788 908789 908790 908791 908792 908793 [...] (59141 flits)
Measured flits: 908784 908785 908786 908787 908788 908789 908790 908791 908792 908793 [...] (4944 flits)
Class 0:
Remaining flits: 998982 998983 998984 998985 998986 998987 998988 998989 998990 998991 [...] (60066 flits)
Measured flits: 1056132 1056133 1056134 1056135 1056136 1056137 1056138 1056139 1056140 1056141 [...] (4438 flits)
Class 0:
Remaining flits: 998982 998983 998984 998985 998986 998987 998988 998989 998990 998991 [...] (62461 flits)
Measured flits: 1056132 1056133 1056134 1056135 1056136 1056137 1056138 1056139 1056140 1056141 [...] (4164 flits)
Class 0:
Remaining flits: 1056132 1056133 1056134 1056135 1056136 1056137 1056138 1056139 1056140 1056141 [...] (61763 flits)
Measured flits: 1056132 1056133 1056134 1056135 1056136 1056137 1056138 1056139 1056140 1056141 [...] (4021 flits)
Class 0:
Remaining flits: 1056132 1056133 1056134 1056135 1056136 1056137 1056138 1056139 1056140 1056141 [...] (62607 flits)
Measured flits: 1056132 1056133 1056134 1056135 1056136 1056137 1056138 1056139 1056140 1056141 [...] (3242 flits)
Class 0:
Remaining flits: 1056132 1056133 1056134 1056135 1056136 1056137 1056138 1056139 1056140 1056141 [...] (63009 flits)
Measured flits: 1056132 1056133 1056134 1056135 1056136 1056137 1056138 1056139 1056140 1056141 [...] (2621 flits)
Class 0:
Remaining flits: 1056132 1056133 1056134 1056135 1056136 1056137 1056138 1056139 1056140 1056141 [...] (60919 flits)
Measured flits: 1056132 1056133 1056134 1056135 1056136 1056137 1056138 1056139 1056140 1056141 [...] (2531 flits)
Class 0:
Remaining flits: 1056132 1056133 1056134 1056135 1056136 1056137 1056138 1056139 1056140 1056141 [...] (65216 flits)
Measured flits: 1056132 1056133 1056134 1056135 1056136 1056137 1056138 1056139 1056140 1056141 [...] (2510 flits)
Class 0:
Remaining flits: 1157598 1157599 1157600 1157601 1157602 1157603 1157604 1157605 1157606 1157607 [...] (63406 flits)
Measured flits: 1269540 1269541 1269542 1269543 1269544 1269545 1269546 1269547 1269548 1269549 [...] (2393 flits)
Class 0:
Remaining flits: 1171980 1171981 1171982 1171983 1171984 1171985 1171986 1171987 1171988 1171989 [...] (63954 flits)
Measured flits: 1269540 1269541 1269542 1269543 1269544 1269545 1269546 1269547 1269548 1269549 [...] (1879 flits)
Class 0:
Remaining flits: 1242450 1242451 1242452 1242453 1242454 1242455 1242456 1242457 1242458 1242459 [...] (64969 flits)
Measured flits: 1269540 1269541 1269542 1269543 1269544 1269545 1269546 1269547 1269548 1269549 [...] (1936 flits)
Class 0:
Remaining flits: 1242450 1242451 1242452 1242453 1242454 1242455 1242456 1242457 1242458 1242459 [...] (64760 flits)
Measured flits: 1269540 1269541 1269542 1269543 1269544 1269545 1269546 1269547 1269548 1269549 [...] (1814 flits)
Class 0:
Remaining flits: 1242450 1242451 1242452 1242453 1242454 1242455 1242456 1242457 1242458 1242459 [...] (64395 flits)
Measured flits: 1269540 1269541 1269542 1269543 1269544 1269545 1269546 1269547 1269548 1269549 [...] (1661 flits)
Class 0:
Remaining flits: 1269540 1269541 1269542 1269543 1269544 1269545 1269546 1269547 1269548 1269549 [...] (63812 flits)
Measured flits: 1269540 1269541 1269542 1269543 1269544 1269545 1269546 1269547 1269548 1269549 [...] (1347 flits)
Class 0:
Remaining flits: 1269540 1269541 1269542 1269543 1269544 1269545 1269546 1269547 1269548 1269549 [...] (62807 flits)
Measured flits: 1269540 1269541 1269542 1269543 1269544 1269545 1269546 1269547 1269548 1269549 [...] (1300 flits)
Class 0:
Remaining flits: 1393129 1393130 1393131 1393132 1393133 1393134 1393135 1393136 1393137 1393138 [...] (63676 flits)
Measured flits: 1567926 1567927 1567928 1567929 1567930 1567931 1567932 1567933 1567934 1567935 [...] (1140 flits)
Class 0:
Remaining flits: 1427778 1427779 1427780 1427781 1427782 1427783 1427784 1427785 1427786 1427787 [...] (63715 flits)
Measured flits: 1617894 1617895 1617896 1617897 1617898 1617899 1617900 1617901 1617902 1617903 [...] (1061 flits)
Class 0:
Remaining flits: 1427778 1427779 1427780 1427781 1427782 1427783 1427784 1427785 1427786 1427787 [...] (62571 flits)
Measured flits: 1617903 1617904 1617905 1617906 1617907 1617908 1617909 1617910 1617911 1632798 [...] (1037 flits)
Class 0:
Remaining flits: 1427778 1427779 1427780 1427781 1427782 1427783 1427784 1427785 1427786 1427787 [...] (59810 flits)
Measured flits: 1632798 1632799 1632800 1632801 1632802 1632803 1632804 1632805 1632806 1632807 [...] (935 flits)
Class 0:
Remaining flits: 1486116 1486117 1486118 1486119 1486120 1486121 1486122 1486123 1486124 1486125 [...] (61883 flits)
Measured flits: 1632798 1632799 1632800 1632801 1632802 1632803 1632804 1632805 1632806 1632807 [...] (903 flits)
Class 0:
Remaining flits: 1486116 1486117 1486118 1486119 1486120 1486121 1486122 1486123 1486124 1486125 [...] (60000 flits)
Measured flits: 1632798 1632799 1632800 1632801 1632802 1632803 1632804 1632805 1632806 1632807 [...] (943 flits)
Class 0:
Remaining flits: 1486116 1486117 1486118 1486119 1486120 1486121 1486122 1486123 1486124 1486125 [...] (61178 flits)
Measured flits: 1632798 1632799 1632800 1632801 1632802 1632803 1632804 1632805 1632806 1632807 [...] (1080 flits)
Class 0:
Remaining flits: 1578960 1578961 1578962 1578963 1578964 1578965 1578966 1578967 1578968 1578969 [...] (61344 flits)
Measured flits: 1632798 1632799 1632800 1632801 1632802 1632803 1632804 1632805 1632806 1632807 [...] (889 flits)
Class 0:
Remaining flits: 1578960 1578961 1578962 1578963 1578964 1578965 1578966 1578967 1578968 1578969 [...] (62347 flits)
Measured flits: 1632798 1632799 1632800 1632801 1632802 1632803 1632804 1632805 1632806 1632807 [...] (819 flits)
Class 0:
Remaining flits: 1578960 1578961 1578962 1578963 1578964 1578965 1578966 1578967 1578968 1578969 [...] (64696 flits)
Measured flits: 1632798 1632799 1632800 1632801 1632802 1632803 1632804 1632805 1632806 1632807 [...] (667 flits)
Class 0:
Remaining flits: 1628820 1628821 1628822 1628823 1628824 1628825 1628826 1628827 1628828 1628829 [...] (63516 flits)
Measured flits: 1767348 1767349 1767350 1767351 1767352 1767353 1767354 1767355 1767356 1767357 [...] (714 flits)
Class 0:
Remaining flits: 1628820 1628821 1628822 1628823 1628824 1628825 1628826 1628827 1628828 1628829 [...] (62378 flits)
Measured flits: 1767348 1767349 1767350 1767351 1767352 1767353 1767354 1767355 1767356 1767357 [...] (680 flits)
Class 0:
Remaining flits: 1628820 1628821 1628822 1628823 1628824 1628825 1628826 1628827 1628828 1628829 [...] (63597 flits)
Measured flits: 1767348 1767349 1767350 1767351 1767352 1767353 1767354 1767355 1767356 1767357 [...] (741 flits)
Class 0:
Remaining flits: 1628820 1628821 1628822 1628823 1628824 1628825 1628826 1628827 1628828 1628829 [...] (63493 flits)
Measured flits: 1767348 1767349 1767350 1767351 1767352 1767353 1767354 1767355 1767356 1767357 [...] (574 flits)
Class 0:
Remaining flits: 1628820 1628821 1628822 1628823 1628824 1628825 1628826 1628827 1628828 1628829 [...] (62442 flits)
Measured flits: 1767348 1767349 1767350 1767351 1767352 1767353 1767354 1767355 1767356 1767357 [...] (534 flits)
Class 0:
Remaining flits: 1685808 1685809 1685810 1685811 1685812 1685813 1685814 1685815 1685816 1685817 [...] (63114 flits)
Measured flits: 1767348 1767349 1767350 1767351 1767352 1767353 1767354 1767355 1767356 1767357 [...] (493 flits)
Class 0:
Remaining flits: 1697760 1697761 1697762 1697763 1697764 1697765 1697766 1697767 1697768 1697769 [...] (62973 flits)
Measured flits: 1767348 1767349 1767350 1767351 1767352 1767353 1767354 1767355 1767356 1767357 [...] (488 flits)
Class 0:
Remaining flits: 1697760 1697761 1697762 1697763 1697764 1697765 1697766 1697767 1697768 1697769 [...] (61670 flits)
Measured flits: 1767348 1767349 1767350 1767351 1767352 1767353 1767354 1767355 1767356 1767357 [...] (386 flits)
Class 0:
Remaining flits: 1697760 1697761 1697762 1697763 1697764 1697765 1697766 1697767 1697768 1697769 [...] (61338 flits)
Measured flits: 1767348 1767349 1767350 1767351 1767352 1767353 1767354 1767355 1767356 1767357 [...] (472 flits)
Class 0:
Remaining flits: 1697760 1697761 1697762 1697763 1697764 1697765 1697766 1697767 1697768 1697769 [...] (64208 flits)
Measured flits: 1767348 1767349 1767350 1767351 1767352 1767353 1767354 1767355 1767356 1767357 [...] (403 flits)
Class 0:
Remaining flits: 1697760 1697761 1697762 1697763 1697764 1697765 1697766 1697767 1697768 1697769 [...] (63485 flits)
Measured flits: 2462867 2537676 2537677 2537678 2537679 2537680 2537681 2537682 2537683 2537684 [...] (389 flits)
Class 0:
Remaining flits: 1697760 1697761 1697762 1697763 1697764 1697765 1697766 1697767 1697768 1697769 [...] (62728 flits)
Measured flits: 2537680 2537681 2537682 2537683 2537684 2537685 2537686 2537687 2537688 2537689 [...] (499 flits)
Class 0:
Remaining flits: 1697760 1697761 1697762 1697763 1697764 1697765 1697766 1697767 1697768 1697769 [...] (60296 flits)
Measured flits: 2639800 2639801 2639802 2639803 2639804 2639805 2639806 2639807 2642264 2642265 [...] (370 flits)
Class 0:
Remaining flits: 1697763 1697764 1697765 1697766 1697767 1697768 1697769 1697770 1697771 1697772 [...] (60011 flits)
Measured flits: 2642264 2642265 2642266 2642267 2642268 2642269 2642270 2642271 2642272 2642273 [...] (447 flits)
Class 0:
Remaining flits: 1699920 1699921 1699922 1699923 1699924 1699925 1699926 1699927 1699928 1699929 [...] (61483 flits)
Measured flits: 2685654 2685655 2685656 2685657 2685658 2685659 2685660 2685661 2685662 2685663 [...] (481 flits)
Class 0:
Remaining flits: 1699920 1699921 1699922 1699923 1699924 1699925 1699926 1699927 1699928 1699929 [...] (62130 flits)
Measured flits: 2740752 2740753 2740754 2740755 2740756 2740757 2740758 2740759 2740760 2740761 [...] (409 flits)
Class 0:
Remaining flits: 1699920 1699921 1699922 1699923 1699924 1699925 1699926 1699927 1699928 1699929 [...] (61816 flits)
Measured flits: 2740752 2740753 2740754 2740755 2740756 2740757 2740758 2740759 2740760 2740761 [...] (296 flits)
Class 0:
Remaining flits: 1699933 1699934 1699935 1699936 1699937 1798272 1798273 1798274 1798275 1798276 [...] (61770 flits)
Measured flits: 2740752 2740753 2740754 2740755 2740756 2740757 2740758 2740759 2740760 2740761 [...] (265 flits)
Class 0:
Remaining flits: 1798272 1798273 1798274 1798275 1798276 1798277 1798278 1798279 1798280 1798281 [...] (61530 flits)
Measured flits: 2742897 2742898 2742899 2742900 2742901 2742902 2742903 2742904 2742905 2742906 [...] (233 flits)
Class 0:
Remaining flits: 1798272 1798273 1798274 1798275 1798276 1798277 1798278 1798279 1798280 1798281 [...] (60802 flits)
Measured flits: 2745756 2745757 2745758 2745759 2745760 2745761 2745762 2745763 2745764 2745765 [...] (141 flits)
Class 0:
Remaining flits: 1798272 1798273 1798274 1798275 1798276 1798277 1798278 1798279 1798280 1798281 [...] (60702 flits)
Measured flits: 2745756 2745757 2745758 2745759 2745760 2745761 2745762 2745763 2745764 2745765 [...] (282 flits)
Class 0:
Remaining flits: 1798272 1798273 1798274 1798275 1798276 1798277 1798278 1798279 1798280 1798281 [...] (61139 flits)
Measured flits: 2745756 2745757 2745758 2745759 2745760 2745761 2745762 2745763 2745764 2745765 [...] (155 flits)
Class 0:
Remaining flits: 1798272 1798273 1798274 1798275 1798276 1798277 1798278 1798279 1798280 1798281 [...] (60198 flits)
Measured flits: 2745756 2745757 2745758 2745759 2745760 2745761 2745762 2745763 2745764 2745765 [...] (144 flits)
Class 0:
Remaining flits: 1906992 1906993 1906994 1906995 1906996 1906997 1906998 1906999 1907000 1907001 [...] (61142 flits)
Measured flits: 2745756 2745757 2745758 2745759 2745760 2745761 2745762 2745763 2745764 2745765 [...] (138 flits)
Class 0:
Remaining flits: 1906992 1906993 1906994 1906995 1906996 1906997 1906998 1906999 1907000 1907001 [...] (60348 flits)
Measured flits: 2745756 2745757 2745758 2745759 2745760 2745761 2745762 2745763 2745764 2745765 [...] (115 flits)
Class 0:
Remaining flits: 2203956 2203957 2203958 2203959 2203960 2203961 2203962 2203963 2203964 2203965 [...] (59862 flits)
Measured flits: 2745756 2745757 2745758 2745759 2745760 2745761 2745762 2745763 2745764 2745765 [...] (108 flits)
Class 0:
Remaining flits: 2203956 2203957 2203958 2203959 2203960 2203961 2203962 2203963 2203964 2203965 [...] (56562 flits)
Measured flits: 2745756 2745757 2745758 2745759 2745760 2745761 2745762 2745763 2745764 2745765 [...] (97 flits)
Class 0:
Remaining flits: 2399076 2399077 2399078 2399079 2399080 2399081 2399082 2399083 2399084 2399085 [...] (58627 flits)
Measured flits: 2745756 2745757 2745758 2745759 2745760 2745761 2745762 2745763 2745764 2745765 [...] (115 flits)
Class 0:
Remaining flits: 2399076 2399077 2399078 2399079 2399080 2399081 2399082 2399083 2399084 2399085 [...] (60638 flits)
Measured flits: 2745756 2745757 2745758 2745759 2745760 2745761 2745762 2745763 2745764 2745765 [...] (183 flits)
Class 0:
Remaining flits: 2399076 2399077 2399078 2399079 2399080 2399081 2399082 2399083 2399084 2399085 [...] (60838 flits)
Measured flits: 2745756 2745757 2745758 2745759 2745760 2745761 2745762 2745763 2745764 2745765 [...] (110 flits)
Class 0:
Remaining flits: 2495520 2495521 2495522 2495523 2495524 2495525 2495526 2495527 2495528 2495529 [...] (61375 flits)
Measured flits: 2745756 2745757 2745758 2745759 2745760 2745761 2745762 2745763 2745764 2745765 [...] (180 flits)
Class 0:
Remaining flits: 2495520 2495521 2495522 2495523 2495524 2495525 2495526 2495527 2495528 2495529 [...] (59165 flits)
Measured flits: 2745756 2745757 2745758 2745759 2745760 2745761 2745762 2745763 2745764 2745765 [...] (36 flits)
Class 0:
Remaining flits: 2495520 2495521 2495522 2495523 2495524 2495525 2495526 2495527 2495528 2495529 [...] (56086 flits)
Measured flits: 2745756 2745757 2745758 2745759 2745760 2745761 2745762 2745763 2745764 2745765 [...] (36 flits)
Class 0:
Remaining flits: 2495520 2495521 2495522 2495523 2495524 2495525 2495526 2495527 2495528 2495529 [...] (57905 flits)
Measured flits: 2771730 2771731 2771732 2771733 2771734 2771735 2771736 2771737 2771738 2771739 [...] (54 flits)
Class 0:
Remaining flits: 2495520 2495521 2495522 2495523 2495524 2495525 2495526 2495527 2495528 2495529 [...] (58065 flits)
Measured flits: 2771730 2771731 2771732 2771733 2771734 2771735 2771736 2771737 2771738 2771739 [...] (54 flits)
Class 0:
Remaining flits: 2495520 2495521 2495522 2495523 2495524 2495525 2495526 2495527 2495528 2495529 [...] (58204 flits)
Measured flits: 2771730 2771731 2771732 2771733 2771734 2771735 2771736 2771737 2771738 2771739 [...] (54 flits)
Class 0:
Remaining flits: 2495520 2495521 2495522 2495523 2495524 2495525 2495526 2495527 2495528 2495529 [...] (61620 flits)
Measured flits: 3505842 3505843 3505844 3505845 3505846 3505847 3505848 3505849 3505850 3505851 [...] (18 flits)
Class 0:
Remaining flits: 2495520 2495521 2495522 2495523 2495524 2495525 2495526 2495527 2495528 2495529 [...] (61466 flits)
Measured flits: 3505842 3505843 3505844 3505845 3505846 3505847 3505848 3505849 3505850 3505851 [...] (18 flits)
Class 0:
Remaining flits: 2495520 2495521 2495522 2495523 2495524 2495525 2495526 2495527 2495528 2495529 [...] (61741 flits)
Measured flits: 3505842 3505843 3505844 3505845 3505846 3505847 3505848 3505849 3505850 3505851 [...] (18 flits)
Class 0:
Remaining flits: 2495520 2495521 2495522 2495523 2495524 2495525 2495526 2495527 2495528 2495529 [...] (60782 flits)
Measured flits: 3505855 3505856 3505857 3505858 3505859 (5 flits)
Draining remaining packets ...
Class 0:
Remaining flits: 2495520 2495521 2495522 2495523 2495524 2495525 2495526 2495527 2495528 2495529 [...] (39903 flits)
Measured flits: (0 flits)
Class 0:
Remaining flits: 2495534 2495535 2495536 2495537 2621393 2831945 2831946 2831947 2831948 2831949 [...] (28144 flits)
Measured flits: (0 flits)
Class 0:
Remaining flits: 2831956 2831957 2973996 2973997 2973998 2973999 2974000 2974001 2974002 2974003 [...] (17322 flits)
Measured flits: (0 flits)
Class 0:
Remaining flits: 2973997 2973998 2973999 2974000 2974001 2974002 2974003 2974004 2974005 2974006 [...] (8931 flits)
Measured flits: (0 flits)
Class 0:
Remaining flits: 3103586 3103587 3103588 3103589 3103590 3103591 3103592 3103593 3103594 3103595 [...] (3024 flits)
Measured flits: (0 flits)
Class 0:
Remaining flits: 3468096 3468097 3468098 3468099 3468100 3468101 3468102 3468103 3468104 3468105 [...] (899 flits)
Measured flits: (0 flits)
Time taken is 120657 cycles
====== Overall Traffic Statistics ======
====== Traffic class 0 ======
Packet latency average = 14940.7 (1 samples)
	minimum = 38 (1 samples)
	maximum = 104176 (1 samples)
Network latency average = 1738.56 (1 samples)
	minimum = 23 (1 samples)
	maximum = 37094 (1 samples)
Flit latency average = 1887.57 (1 samples)
	minimum = 6 (1 samples)
	maximum = 49103 (1 samples)
Fragmentation average = 260.522 (1 samples)
	minimum = 0 (1 samples)
	maximum = 16465 (1 samples)
Injected packet rate average = 0.0114345 (1 samples)
	minimum = 0 (1 samples)
	maximum = 0.023 (1 samples)
Accepted packet rate average = 0.0117128 (1 samples)
	minimum = 0.00842857 (1 samples)
	maximum = 0.0147143 (1 samples)
Injected flit rate average = 0.205864 (1 samples)
	minimum = 0.000285714 (1 samples)
	maximum = 0.412571 (1 samples)
Accepted flit rate average = 0.209896 (1 samples)
	minimum = 0.149286 (1 samples)
	maximum = 0.263857 (1 samples)
Injected packet size average = 18.0037 (1 samples)
Accepted packet size average = 17.9202 (1 samples)
Hops average = 5.063 (1 samples)
Total run time 176.89
