BEGIN Configuration File: networks/mezzanine_config
topology = mezzanine;
n = 12;

routing_function = multipath;
internal_speedup = 2.0;
latency_thres = 100000.0;
use_read_write = 0;

sample_period = 1000;
injection_rate = 0.5;
packet_size = 18;

noq = 1;
routing_delay = 0;
vc_alloc_delay = 1;
sw_alloc_delay = 1;
st_final_delay = 1;
vc_allocator = islip; 
sw_allocator = islip;
alloc_iters  = 4;
num_vcs     = 12;
buffer_policy = private; // private or shared
buf_size = -1; // -1 for buffer_policy = private;
vc_buf_size = 4096; // size of each VOQ with buffer_policy = private
output_buffer_size = -1;


traffic = uniform;

//mezW = 0.0;
//mezPredefinedPatternType = shift-inter; //shift-qfdb

END Configuration File: networks/mezzanine_config
OVERRIDE Parameter: injection_rate=0.011327
OVERRIDE Parameter: routing_function=multipath
OVERRIDE Parameter: num_vcs=64
OVERRIDE Parameter: vc_buf_size=144
OVERRIDE Parameter: internal_speedup=2.0
OVERRIDE Parameter: injection_process=on_off
OVERRIDE Parameter: sim_type=latency
OVERRIDE Parameter: burst_alpha=0.0038461538
OVERRIDE Parameter: burst_beta=0.1
network: network_0
========================== Routing table  =====================
Number of Subnets: 1
Class 0:
Packet latency average = 156.349
	minimum = 25
	maximum = 620
Network latency average = 108.83
	minimum = 22
	maximum = 508
Slowest packet = 33
Flit latency average = 82.543
	minimum = 5
	maximum = 491
Slowest flit = 19601
Fragmentation average = 19.605
	minimum = 0
	maximum = 163
Injected packet rate average = 0.011901
	minimum = 0 (at node 35)
	maximum = 0.037 (at node 70)
Accepted packet rate average = 0.0101146
	minimum = 0.002 (at node 174)
	maximum = 0.018 (at node 140)
Injected flit rate average = 0.212328
	minimum = 0 (at node 35)
	maximum = 0.666 (at node 88)
Accepted flit rate average= 0.186156
	minimum = 0.036 (at node 174)
	maximum = 0.324 (at node 140)
Injected packet length average = 17.8411
Accepted packet length average = 18.4047
Total in-flight flits = 5388 (0 measured)
latency change    = 1
throughput change = 1
Class 0:
Packet latency average = 188.262
	minimum = 25
	maximum = 1111
Network latency average = 136.98
	minimum = 22
	maximum = 700
Slowest packet = 33
Flit latency average = 110.045
	minimum = 5
	maximum = 683
Slowest flit = 52631
Fragmentation average = 19.8427
	minimum = 0
	maximum = 320
Injected packet rate average = 0.0115156
	minimum = 0.0005 (at node 87)
	maximum = 0.0305 (at node 70)
Accepted packet rate average = 0.0105599
	minimum = 0.0055 (at node 30)
	maximum = 0.017 (at node 22)
Injected flit rate average = 0.206414
	minimum = 0.009 (at node 87)
	maximum = 0.543 (at node 70)
Accepted flit rate average= 0.192177
	minimum = 0.099 (at node 30)
	maximum = 0.306 (at node 22)
Injected packet length average = 17.9247
Accepted packet length average = 18.1988
Total in-flight flits = 5800 (0 measured)
latency change    = 0.169512
throughput change = 0.0313296
Class 0:
Packet latency average = 198.388
	minimum = 22
	maximum = 901
Network latency average = 154.029
	minimum = 22
	maximum = 769
Slowest packet = 3101
Flit latency average = 125.405
	minimum = 5
	maximum = 752
Slowest flit = 75023
Fragmentation average = 21.2057
	minimum = 0
	maximum = 236
Injected packet rate average = 0.0113125
	minimum = 0 (at node 2)
	maximum = 0.031 (at node 97)
Accepted packet rate average = 0.0113958
	minimum = 0.004 (at node 28)
	maximum = 0.019 (at node 16)
Injected flit rate average = 0.203552
	minimum = 0 (at node 2)
	maximum = 0.542 (at node 97)
Accepted flit rate average= 0.204729
	minimum = 0.065 (at node 184)
	maximum = 0.351 (at node 16)
Injected packet length average = 17.9936
Accepted packet length average = 17.9653
Total in-flight flits = 5588 (0 measured)
latency change    = 0.0510433
throughput change = 0.0613107
Warmed up ...Time used is 3000 cycles
Class 0:
Packet latency average = 205.637
	minimum = 22
	maximum = 877
Network latency average = 155.364
	minimum = 22
	maximum = 799
Slowest packet = 6606
Flit latency average = 142.252
	minimum = 5
	maximum = 823
Slowest flit = 116855
Fragmentation average = 22.3701
	minimum = 0
	maximum = 164
Injected packet rate average = 0.0117917
	minimum = 0 (at node 78)
	maximum = 0.045 (at node 41)
Accepted packet rate average = 0.0115521
	minimum = 0.005 (at node 150)
	maximum = 0.025 (at node 120)
Injected flit rate average = 0.212542
	minimum = 0 (at node 78)
	maximum = 0.821 (at node 41)
Accepted flit rate average= 0.20688
	minimum = 0.09 (at node 163)
	maximum = 0.442 (at node 120)
Injected packet length average = 18.0247
Accepted packet length average = 17.9085
Total in-flight flits = 6619 (6619 measured)
latency change    = 0.0352531
throughput change = 0.0103975
Class 0:
Packet latency average = 231.418
	minimum = 22
	maximum = 1156
Network latency average = 178.802
	minimum = 22
	maximum = 941
Slowest packet = 6606
Flit latency average = 156.573
	minimum = 5
	maximum = 924
Slowest flit = 160703
Fragmentation average = 22.1771
	minimum = 0
	maximum = 214
Injected packet rate average = 0.0115911
	minimum = 0 (at node 131)
	maximum = 0.0365 (at node 153)
Accepted packet rate average = 0.0112526
	minimum = 0.0065 (at node 4)
	maximum = 0.019 (at node 182)
Injected flit rate average = 0.208357
	minimum = 0 (at node 131)
	maximum = 0.6575 (at node 153)
Accepted flit rate average= 0.202812
	minimum = 0.117 (at node 4)
	maximum = 0.3435 (at node 182)
Injected packet length average = 17.9755
Accepted packet length average = 18.0236
Total in-flight flits = 7826 (7826 measured)
latency change    = 0.111402
throughput change = 0.0200565
Class 0:
Packet latency average = 244.131
	minimum = 22
	maximum = 1159
Network latency average = 191.11
	minimum = 22
	maximum = 1093
Slowest packet = 6606
Flit latency average = 165.774
	minimum = 5
	maximum = 1076
Slowest flit = 166877
Fragmentation average = 22.4995
	minimum = 0
	maximum = 289
Injected packet rate average = 0.011276
	minimum = 0.00333333 (at node 28)
	maximum = 0.031 (at node 153)
Accepted packet rate average = 0.0112378
	minimum = 0.00533333 (at node 4)
	maximum = 0.0166667 (at node 129)
Injected flit rate average = 0.20297
	minimum = 0.06 (at node 28)
	maximum = 0.561333 (at node 153)
Accepted flit rate average= 0.202089
	minimum = 0.0976667 (at node 4)
	maximum = 0.297 (at node 129)
Injected packet length average = 18.0002
Accepted packet length average = 17.9829
Total in-flight flits = 6095 (6095 measured)
latency change    = 0.0520763
throughput change = 0.00358238
Class 0:
Packet latency average = 243.8
	minimum = 22
	maximum = 1572
Network latency average = 190.897
	minimum = 22
	maximum = 1284
Slowest packet = 6606
Flit latency average = 164.976
	minimum = 5
	maximum = 1267
Slowest flit = 224783
Fragmentation average = 23.1586
	minimum = 0
	maximum = 348
Injected packet rate average = 0.0112526
	minimum = 0.003 (at node 120)
	maximum = 0.028 (at node 81)
Accepted packet rate average = 0.0112122
	minimum = 0.00775 (at node 86)
	maximum = 0.0165 (at node 128)
Injected flit rate average = 0.202583
	minimum = 0.054 (at node 120)
	maximum = 0.504 (at node 81)
Accepted flit rate average= 0.201909
	minimum = 0.13775 (at node 86)
	maximum = 0.297 (at node 128)
Injected packet length average = 18.0032
Accepted packet length average = 18.0079
Total in-flight flits = 6078 (6078 measured)
latency change    = 0.00136002
throughput change = 0.000889944
Class 0:
Packet latency average = 243.748
	minimum = 22
	maximum = 1673
Network latency average = 190.794
	minimum = 22
	maximum = 1566
Slowest packet = 6606
Flit latency average = 164.119
	minimum = 5
	maximum = 1549
Slowest flit = 251639
Fragmentation average = 22.9145
	minimum = 0
	maximum = 348
Injected packet rate average = 0.0112927
	minimum = 0.005 (at node 91)
	maximum = 0.028 (at node 153)
Accepted packet rate average = 0.0112365
	minimum = 0.0076 (at node 36)
	maximum = 0.0156 (at node 128)
Injected flit rate average = 0.203272
	minimum = 0.09 (at node 91)
	maximum = 0.506 (at node 153)
Accepted flit rate average= 0.202263
	minimum = 0.1344 (at node 36)
	maximum = 0.2808 (at node 128)
Injected packet length average = 18.0003
Accepted packet length average = 18.0006
Total in-flight flits = 6554 (6554 measured)
latency change    = 0.000214358
throughput change = 0.00174845
Class 0:
Packet latency average = 240.751
	minimum = 22
	maximum = 1673
Network latency average = 188.694
	minimum = 22
	maximum = 1566
Slowest packet = 6606
Flit latency average = 161.748
	minimum = 5
	maximum = 1549
Slowest flit = 251639
Fragmentation average = 22.4878
	minimum = 0
	maximum = 348
Injected packet rate average = 0.0112187
	minimum = 0.00466667 (at node 29)
	maximum = 0.0271667 (at node 153)
Accepted packet rate average = 0.011224
	minimum = 0.008 (at node 89)
	maximum = 0.0153333 (at node 129)
Injected flit rate average = 0.201935
	minimum = 0.084 (at node 29)
	maximum = 0.490167 (at node 153)
Accepted flit rate average= 0.202004
	minimum = 0.145 (at node 89)
	maximum = 0.2745 (at node 129)
Injected packet length average = 17.9998
Accepted packet length average = 17.9976
Total in-flight flits = 5511 (5511 measured)
latency change    = 0.0124448
throughput change = 0.00127799
Draining all recorded packets ...
Class 0:
Remaining flits: 350531 351482 351483 351484 351485 351555 351556 351557 351610 351611 [...] (9454 flits)
Measured flits: 350531 351482 351483 351484 351485 351555 351556 351557 352286 352287 [...] (135 flits)
Draining remaining packets ...
Class 0:
Remaining flits: 398418 398419 398420 398421 398422 398423 398424 398425 398426 398427 [...] (294 flits)
Measured flits: (0 flits)
Time taken is 11668 cycles
====== Overall Traffic Statistics ======
====== Traffic class 0 ======
Packet latency average = 247.098 (1 samples)
	minimum = 22 (1 samples)
	maximum = 1673 (1 samples)
Network latency average = 193.965 (1 samples)
	minimum = 22 (1 samples)
	maximum = 1566 (1 samples)
Flit latency average = 170.219 (1 samples)
	minimum = 5 (1 samples)
	maximum = 1549 (1 samples)
Fragmentation average = 23.2073 (1 samples)
	minimum = 0 (1 samples)
	maximum = 348 (1 samples)
Injected packet rate average = 0.0112187 (1 samples)
	minimum = 0.00466667 (1 samples)
	maximum = 0.0271667 (1 samples)
Accepted packet rate average = 0.011224 (1 samples)
	minimum = 0.008 (1 samples)
	maximum = 0.0153333 (1 samples)
Injected flit rate average = 0.201935 (1 samples)
	minimum = 0.084 (1 samples)
	maximum = 0.490167 (1 samples)
Accepted flit rate average = 0.202004 (1 samples)
	minimum = 0.145 (1 samples)
	maximum = 0.2745 (1 samples)
Injected packet size average = 17.9998 (1 samples)
Accepted packet size average = 17.9976 (1 samples)
Hops average = 5.0805 (1 samples)
Total run time 7.83195
