BEGIN Configuration File: networks/mezzanine_config
topology = mezzanine;
n = 12;

routing_function = multipath;
internal_speedup = 2.0;
latency_thres = 100000.0;
use_read_write = 0;

sample_period = 1000;
injection_rate = 0.5;
packet_size = 18;

noq = 1;
routing_delay = 0;
vc_alloc_delay = 1;
sw_alloc_delay = 1;
st_final_delay = 1;
vc_allocator = islip; 
sw_allocator = islip;
alloc_iters  = 4;
num_vcs     = 12;
buffer_policy = private; // private or shared
buf_size = -1; // -1 for buffer_policy = private;
vc_buf_size = 4096; // size of each VOQ with buffer_policy = private
output_buffer_size = -1;


traffic = uniform;

//mezW = 0.0;
//mezPredefinedPatternType = shift-inter; //shift-qfdb

END Configuration File: networks/mezzanine_config
OVERRIDE Parameter: injection_rate=0.006907
OVERRIDE Parameter: routing_function=min
OVERRIDE Parameter: num_vcs=12
OVERRIDE Parameter: vc_buf_size=18
OVERRIDE Parameter: internal_speedup=1.0
OVERRIDE Parameter: injection_process=bernoulli
OVERRIDE Parameter: sim_type=latency
OVERRIDE Parameter: burst_alpha=0.0038461538
OVERRIDE Parameter: burst_beta=0.1
network: network_0
========================== Routing table  =====================
Number of Subnets: 1
Class 0:
Packet latency average = 72.1692
	minimum = 23
	maximum = 468
Network latency average = 70.83
	minimum = 23
	maximum = 468
Slowest packet = 632
Flit latency average = 43.7794
	minimum = 6
	maximum = 451
Slowest flit = 11393
Fragmentation average = 19.1089
	minimum = 0
	maximum = 91
Injected packet rate average = 0.00675521
	minimum = 0.001 (at node 187)
	maximum = 0.015 (at node 8)
Accepted packet rate average = 0.00621875
	minimum = 0.001 (at node 41)
	maximum = 0.013 (at node 48)
Injected flit rate average = 0.120427
	minimum = 0.018 (at node 187)
	maximum = 0.27 (at node 8)
Accepted flit rate average= 0.114297
	minimum = 0.018 (at node 41)
	maximum = 0.234 (at node 48)
Injected packet length average = 17.8273
Accepted packet length average = 18.3794
Total in-flight flits = 1401 (0 measured)
latency change    = 1
throughput change = 1
Class 0:
Packet latency average = 76.3515
	minimum = 23
	maximum = 644
Network latency average = 73.6469
	minimum = 23
	maximum = 495
Slowest packet = 857
Flit latency average = 45.9795
	minimum = 6
	maximum = 459
Slowest flit = 13769
Fragmentation average = 19.7526
	minimum = 0
	maximum = 91
Injected packet rate average = 0.0066224
	minimum = 0.002 (at node 86)
	maximum = 0.0155 (at node 31)
Accepted packet rate average = 0.00645313
	minimum = 0.0025 (at node 115)
	maximum = 0.0105 (at node 44)
Injected flit rate average = 0.118732
	minimum = 0.036 (at node 86)
	maximum = 0.279 (at node 31)
Accepted flit rate average= 0.117055
	minimum = 0.045 (at node 115)
	maximum = 0.189 (at node 44)
Injected packet length average = 17.9288
Accepted packet length average = 18.1392
Total in-flight flits = 825 (0 measured)
latency change    = 0.0547771
throughput change = 0.02356
Class 0:
Packet latency average = 73.4342
	minimum = 23
	maximum = 290
Network latency average = 72.2631
	minimum = 23
	maximum = 290
Slowest packet = 2749
Flit latency average = 44.3388
	minimum = 6
	maximum = 273
Slowest flit = 49499
Fragmentation average = 20.6387
	minimum = 0
	maximum = 71
Injected packet rate average = 0.00679167
	minimum = 0 (at node 120)
	maximum = 0.013 (at node 59)
Accepted packet rate average = 0.00657292
	minimum = 0 (at node 18)
	maximum = 0.018 (at node 22)
Injected flit rate average = 0.122052
	minimum = 0 (at node 120)
	maximum = 0.234 (at node 59)
Accepted flit rate average= 0.119542
	minimum = 0 (at node 18)
	maximum = 0.316 (at node 22)
Injected packet length average = 17.9709
Accepted packet length average = 18.187
Total in-flight flits = 1345 (0 measured)
latency change    = 0.0397262
throughput change = 0.0208043
Warmed up ...Time used is 3000 cycles
Class 0:
Packet latency average = 79.754
	minimum = 23
	maximum = 361
Network latency average = 78.5836
	minimum = 23
	maximum = 361
Slowest packet = 4560
Flit latency average = 50.761
	minimum = 6
	maximum = 344
Slowest flit = 82097
Fragmentation average = 22.1664
	minimum = 0
	maximum = 68
Injected packet rate average = 0.00718229
	minimum = 0.001 (at node 78)
	maximum = 0.016 (at node 186)
Accepted packet rate average = 0.00709896
	minimum = 0.001 (at node 153)
	maximum = 0.015 (at node 6)
Injected flit rate average = 0.129047
	minimum = 0.018 (at node 78)
	maximum = 0.288 (at node 186)
Accepted flit rate average= 0.127458
	minimum = 0.001 (at node 153)
	maximum = 0.27 (at node 6)
Injected packet length average = 17.9674
Accepted packet length average = 17.9545
Total in-flight flits = 1695 (1695 measured)
latency change    = 0.0792406
throughput change = 0.0621118
Class 0:
Packet latency average = 81.5772
	minimum = 23
	maximum = 444
Network latency average = 80.3452
	minimum = 23
	maximum = 401
Slowest packet = 4997
Flit latency average = 51.4671
	minimum = 6
	maximum = 378
Slowest flit = 89963
Fragmentation average = 22.7277
	minimum = 0
	maximum = 82
Injected packet rate average = 0.00692969
	minimum = 0.002 (at node 59)
	maximum = 0.014 (at node 31)
Accepted packet rate average = 0.00699219
	minimum = 0.003 (at node 184)
	maximum = 0.012 (at node 63)
Injected flit rate average = 0.124701
	minimum = 0.036 (at node 59)
	maximum = 0.2485 (at node 31)
Accepted flit rate average= 0.125438
	minimum = 0.054 (at node 184)
	maximum = 0.2115 (at node 63)
Injected packet length average = 17.9951
Accepted packet length average = 17.9397
Total in-flight flits = 1075 (1075 measured)
latency change    = 0.0223495
throughput change = 0.0161103
Class 0:
Packet latency average = 77.7141
	minimum = 23
	maximum = 444
Network latency average = 76.5088
	minimum = 23
	maximum = 401
Slowest packet = 4997
Flit latency average = 48.4484
	minimum = 6
	maximum = 378
Slowest flit = 89963
Fragmentation average = 21.2908
	minimum = 0
	maximum = 82
Injected packet rate average = 0.00689236
	minimum = 0.00333333 (at node 59)
	maximum = 0.0116667 (at node 162)
Accepted packet rate average = 0.00689063
	minimum = 0.00366667 (at node 91)
	maximum = 0.011 (at node 63)
Injected flit rate average = 0.124236
	minimum = 0.06 (at node 59)
	maximum = 0.21 (at node 162)
Accepted flit rate average= 0.124049
	minimum = 0.0603333 (at node 153)
	maximum = 0.195667 (at node 34)
Injected packet length average = 18.0252
Accepted packet length average = 18.0025
Total in-flight flits = 1371 (1371 measured)
latency change    = 0.0497085
throughput change = 0.0111963
Class 0:
Packet latency average = 75.9156
	minimum = 23
	maximum = 444
Network latency average = 74.7428
	minimum = 23
	maximum = 401
Slowest packet = 4997
Flit latency average = 47.005
	minimum = 6
	maximum = 378
Slowest flit = 89963
Fragmentation average = 20.5814
	minimum = 0
	maximum = 82
Injected packet rate average = 0.006875
	minimum = 0.00375 (at node 47)
	maximum = 0.011 (at node 162)
Accepted packet rate average = 0.00688281
	minimum = 0.00425 (at node 91)
	maximum = 0.011 (at node 16)
Injected flit rate average = 0.123766
	minimum = 0.06925 (at node 47)
	maximum = 0.198 (at node 162)
Accepted flit rate average= 0.123725
	minimum = 0.0765 (at node 91)
	maximum = 0.2005 (at node 16)
Injected packet length average = 18.0023
Accepted packet length average = 17.976
Total in-flight flits = 1364 (1364 measured)
latency change    = 0.023691
throughput change = 0.00261346
Draining all recorded packets ...
Draining remaining packets ...
Time taken is 7330 cycles
====== Overall Traffic Statistics ======
====== Traffic class 0 ======
Packet latency average = 76.5089 (1 samples)
	minimum = 23 (1 samples)
	maximum = 444 (1 samples)
Network latency average = 75.287 (1 samples)
	minimum = 23 (1 samples)
	maximum = 431 (1 samples)
Flit latency average = 47.6687 (1 samples)
	minimum = 6 (1 samples)
	maximum = 414 (1 samples)
Fragmentation average = 20.6694 (1 samples)
	minimum = 0 (1 samples)
	maximum = 82 (1 samples)
Injected packet rate average = 0.006875 (1 samples)
	minimum = 0.00375 (1 samples)
	maximum = 0.011 (1 samples)
Accepted packet rate average = 0.00688281 (1 samples)
	minimum = 0.00425 (1 samples)
	maximum = 0.011 (1 samples)
Injected flit rate average = 0.123766 (1 samples)
	minimum = 0.06925 (1 samples)
	maximum = 0.198 (1 samples)
Accepted flit rate average = 0.123725 (1 samples)
	minimum = 0.0765 (1 samples)
	maximum = 0.2005 (1 samples)
Injected packet size average = 18.0023 (1 samples)
Accepted packet size average = 17.976 (1 samples)
Hops average = 5.0549 (1 samples)
Total run time 2.34865
