BEGIN Configuration File: networks/mezzanine_config
topology = mezzanine;
n = 12;

routing_function = multipath;
internal_speedup = 2.0;
latency_thres = 100000.0;
use_read_write = 0;

sample_period = 1000;
injection_rate = 0.5;
packet_size = 18;

noq = 1;
routing_delay = 0;
vc_alloc_delay = 1;
sw_alloc_delay = 1;
st_final_delay = 1;
vc_allocator = islip; 
sw_allocator = islip;
alloc_iters  = 4;
num_vcs     = 12;
buffer_policy = private; // private or shared
buf_size = -1; // -1 for buffer_policy = private;
vc_buf_size = 4096; // size of each VOQ with buffer_policy = private
output_buffer_size = -1;


traffic = uniform;

//mezW = 0.0;
//mezPredefinedPatternType = shift-inter; //shift-qfdb

END Configuration File: networks/mezzanine_config
OVERRIDE Parameter: injection_rate=0.013537
OVERRIDE Parameter: routing_function=multipath
OVERRIDE Parameter: num_vcs=64
OVERRIDE Parameter: vc_buf_size=144
OVERRIDE Parameter: internal_speedup=2.0
OVERRIDE Parameter: injection_process=on_off
OVERRIDE Parameter: sim_type=latency
OVERRIDE Parameter: burst_alpha=0.0038461538
OVERRIDE Parameter: burst_beta=0.1
network: network_0
========================== Routing table  =====================
Number of Subnets: 1
Class 0:
Packet latency average = 204.88
	minimum = 22
	maximum = 766
Network latency average = 149.565
	minimum = 22
	maximum = 554
Slowest packet = 63
Flit latency average = 120.555
	minimum = 5
	maximum = 537
Slowest flit = 22967
Fragmentation average = 23.7979
	minimum = 0
	maximum = 163
Injected packet rate average = 0.0139323
	minimum = 0 (at node 30)
	maximum = 0.048 (at node 31)
Accepted packet rate average = 0.0114948
	minimum = 0.004 (at node 41)
	maximum = 0.02 (at node 44)
Injected flit rate average = 0.248964
	minimum = 0 (at node 30)
	maximum = 0.859 (at node 31)
Accepted flit rate average= 0.210776
	minimum = 0.081 (at node 41)
	maximum = 0.376 (at node 44)
Injected packet length average = 17.8695
Accepted packet length average = 18.3367
Total in-flight flits = 7681 (0 measured)
latency change    = 1
throughput change = 1
Class 0:
Packet latency average = 236.616
	minimum = 22
	maximum = 1310
Network latency average = 177.517
	minimum = 22
	maximum = 1106
Slowest packet = 63
Flit latency average = 148.947
	minimum = 5
	maximum = 1089
Slowest flit = 41993
Fragmentation average = 25.0363
	minimum = 0
	maximum = 313
Injected packet rate average = 0.0131771
	minimum = 0.001 (at node 107)
	maximum = 0.033 (at node 173)
Accepted packet rate average = 0.0116172
	minimum = 0.0065 (at node 79)
	maximum = 0.0175 (at node 166)
Injected flit rate average = 0.235995
	minimum = 0.018 (at node 107)
	maximum = 0.594 (at node 173)
Accepted flit rate average= 0.21206
	minimum = 0.119 (at node 135)
	maximum = 0.3185 (at node 166)
Injected packet length average = 17.9095
Accepted packet length average = 18.254
Total in-flight flits = 9649 (0 measured)
latency change    = 0.134124
throughput change = 0.00605421
Class 0:
Packet latency average = 320.224
	minimum = 25
	maximum = 1532
Network latency average = 256.608
	minimum = 22
	maximum = 1315
Slowest packet = 2613
Flit latency average = 225.273
	minimum = 5
	maximum = 1298
Slowest flit = 52001
Fragmentation average = 27.7976
	minimum = 0
	maximum = 381
Injected packet rate average = 0.013
	minimum = 0 (at node 76)
	maximum = 0.046 (at node 108)
Accepted packet rate average = 0.0126615
	minimum = 0.006 (at node 118)
	maximum = 0.022 (at node 24)
Injected flit rate average = 0.23474
	minimum = 0 (at node 76)
	maximum = 0.84 (at node 138)
Accepted flit rate average= 0.226781
	minimum = 0.102 (at node 184)
	maximum = 0.401 (at node 34)
Injected packet length average = 18.0569
Accepted packet length average = 17.9111
Total in-flight flits = 11035 (0 measured)
latency change    = 0.261091
throughput change = 0.0649143
Warmed up ...Time used is 3000 cycles
Class 0:
Packet latency average = 275.705
	minimum = 22
	maximum = 972
Network latency average = 213.64
	minimum = 22
	maximum = 784
Slowest packet = 7572
Flit latency average = 240.177
	minimum = 5
	maximum = 1278
Slowest flit = 122896
Fragmentation average = 27.1786
	minimum = 0
	maximum = 310
Injected packet rate average = 0.0134167
	minimum = 0 (at node 21)
	maximum = 0.046 (at node 97)
Accepted packet rate average = 0.0127917
	minimum = 0.004 (at node 68)
	maximum = 0.024 (at node 16)
Injected flit rate average = 0.241245
	minimum = 0 (at node 21)
	maximum = 0.831 (at node 97)
Accepted flit rate average= 0.231729
	minimum = 0.065 (at node 68)
	maximum = 0.432 (at node 16)
Injected packet length average = 17.981
Accepted packet length average = 18.1156
Total in-flight flits = 12911 (12221 measured)
latency change    = 0.161473
throughput change = 0.0213522
Class 0:
Packet latency average = 329.321
	minimum = 22
	maximum = 2138
Network latency average = 263.097
	minimum = 22
	maximum = 1903
Slowest packet = 7619
Flit latency average = 264.346
	minimum = 5
	maximum = 1941
Slowest flit = 137711
Fragmentation average = 29.4642
	minimum = 0
	maximum = 310
Injected packet rate average = 0.013651
	minimum = 0.0005 (at node 121)
	maximum = 0.036 (at node 97)
Accepted packet rate average = 0.0129271
	minimum = 0.006 (at node 4)
	maximum = 0.02 (at node 16)
Injected flit rate average = 0.245234
	minimum = 0.009 (at node 121)
	maximum = 0.6465 (at node 97)
Accepted flit rate average= 0.233786
	minimum = 0.102 (at node 4)
	maximum = 0.36 (at node 16)
Injected packet length average = 17.9645
Accepted packet length average = 18.085
Total in-flight flits = 15617 (15617 measured)
latency change    = 0.162808
throughput change = 0.00879988
Class 0:
Packet latency average = 369.227
	minimum = 22
	maximum = 2303
Network latency average = 301.364
	minimum = 22
	maximum = 2071
Slowest packet = 7619
Flit latency average = 287.676
	minimum = 5
	maximum = 2054
Slowest flit = 140993
Fragmentation average = 29.7556
	minimum = 0
	maximum = 363
Injected packet rate average = 0.0131684
	minimum = 0.00133333 (at node 78)
	maximum = 0.0286667 (at node 97)
Accepted packet rate average = 0.0129583
	minimum = 0.008 (at node 86)
	maximum = 0.0183333 (at node 128)
Injected flit rate average = 0.236917
	minimum = 0.024 (at node 78)
	maximum = 0.517 (at node 97)
Accepted flit rate average= 0.233042
	minimum = 0.144 (at node 86)
	maximum = 0.338667 (at node 128)
Injected packet length average = 17.9913
Accepted packet length average = 17.9839
Total in-flight flits = 13333 (13333 measured)
latency change    = 0.10808
throughput change = 0.00319596
Class 0:
Packet latency average = 380.267
	minimum = 22
	maximum = 2303
Network latency average = 312.996
	minimum = 22
	maximum = 2071
Slowest packet = 7619
Flit latency average = 293.825
	minimum = 5
	maximum = 2054
Slowest flit = 140993
Fragmentation average = 29.4772
	minimum = 0
	maximum = 363
Injected packet rate average = 0.0133529
	minimum = 0.00175 (at node 78)
	maximum = 0.02675 (at node 97)
Accepted packet rate average = 0.0128828
	minimum = 0.009 (at node 36)
	maximum = 0.0175 (at node 128)
Injected flit rate average = 0.24025
	minimum = 0.0315 (at node 78)
	maximum = 0.48225 (at node 97)
Accepted flit rate average= 0.232384
	minimum = 0.16375 (at node 36)
	maximum = 0.31525 (at node 128)
Injected packet length average = 17.9924
Accepted packet length average = 18.0383
Total in-flight flits = 17154 (17154 measured)
latency change    = 0.0290328
throughput change = 0.00282959
Class 0:
Packet latency average = 390.534
	minimum = 22
	maximum = 2303
Network latency average = 323.587
	minimum = 22
	maximum = 2071
Slowest packet = 7619
Flit latency average = 301.252
	minimum = 5
	maximum = 2054
Slowest flit = 140993
Fragmentation average = 30.6057
	minimum = 0
	maximum = 385
Injected packet rate average = 0.0133448
	minimum = 0.004 (at node 78)
	maximum = 0.0256 (at node 109)
Accepted packet rate average = 0.0128896
	minimum = 0.0088 (at node 162)
	maximum = 0.0172 (at node 128)
Injected flit rate average = 0.240096
	minimum = 0.0712 (at node 119)
	maximum = 0.4608 (at node 109)
Accepted flit rate average= 0.232596
	minimum = 0.1584 (at node 162)
	maximum = 0.3096 (at node 128)
Injected packet length average = 17.9917
Accepted packet length average = 18.0453
Total in-flight flits = 18341 (18341 measured)
latency change    = 0.0262889
throughput change = 0.000910243
Class 0:
Packet latency average = 407.689
	minimum = 22
	maximum = 2303
Network latency average = 341.065
	minimum = 22
	maximum = 2071
Slowest packet = 7619
Flit latency average = 315.144
	minimum = 5
	maximum = 2054
Slowest flit = 140993
Fragmentation average = 32.6046
	minimum = 0
	maximum = 572
Injected packet rate average = 0.013237
	minimum = 0.00566667 (at node 80)
	maximum = 0.0251667 (at node 28)
Accepted packet rate average = 0.0129132
	minimum = 0.009 (at node 86)
	maximum = 0.017 (at node 128)
Injected flit rate average = 0.238133
	minimum = 0.102 (at node 80)
	maximum = 0.450333 (at node 28)
Accepted flit rate average= 0.2329
	minimum = 0.1625 (at node 86)
	maximum = 0.307333 (at node 128)
Injected packet length average = 17.99
Accepted packet length average = 18.0358
Total in-flight flits = 17216 (17216 measured)
latency change    = 0.0420775
throughput change = 0.00130674
Draining all recorded packets ...
Class 0:
Remaining flits: 382896 382897 382898 382899 382900 382901 382902 382903 382904 382905 [...] (22500 flits)
Measured flits: 382896 382897 382898 382899 382900 382901 382902 382903 382904 382905 [...] (1447 flits)
Draining remaining packets ...
Class 0:
Remaining flits: 461555 468529 468530 468531 468532 468533 468534 468535 468536 468537 [...] (2231 flits)
Measured flits: (0 flits)
Time taken is 12732 cycles
====== Overall Traffic Statistics ======
====== Traffic class 0 ======
Packet latency average = 437.198 (1 samples)
	minimum = 22 (1 samples)
	maximum = 2303 (1 samples)
Network latency average = 369.111 (1 samples)
	minimum = 22 (1 samples)
	maximum = 2071 (1 samples)
Flit latency average = 371.529 (1 samples)
	minimum = 5 (1 samples)
	maximum = 2054 (1 samples)
Fragmentation average = 33.9534 (1 samples)
	minimum = 0 (1 samples)
	maximum = 572 (1 samples)
Injected packet rate average = 0.013237 (1 samples)
	minimum = 0.00566667 (1 samples)
	maximum = 0.0251667 (1 samples)
Accepted packet rate average = 0.0129132 (1 samples)
	minimum = 0.009 (1 samples)
	maximum = 0.017 (1 samples)
Injected flit rate average = 0.238133 (1 samples)
	minimum = 0.102 (1 samples)
	maximum = 0.450333 (1 samples)
Accepted flit rate average = 0.2329 (1 samples)
	minimum = 0.1625 (1 samples)
	maximum = 0.307333 (1 samples)
Injected packet size average = 17.99 (1 samples)
Accepted packet size average = 18.0358 (1 samples)
Hops average = 5.07657 (1 samples)
Total run time 9.59288
