BEGIN Configuration File: networks/mezzanine_config
topology = mezzanine;
n = 12;

routing_function = multipath;
internal_speedup = 2.0;
latency_thres = 100000.0;
use_read_write = 0;

sample_period = 1000;
injection_rate = 0.5;
packet_size = 18;

noq = 1;
routing_delay = 0;
vc_alloc_delay = 1;
sw_alloc_delay = 1;
st_final_delay = 1;
vc_allocator = islip; 
sw_allocator = islip;
alloc_iters  = 4;
num_vcs     = 12;
buffer_policy = private; // private or shared
buf_size = -1; // -1 for buffer_policy = private;
vc_buf_size = 4096; // size of each VOQ with buffer_policy = private
output_buffer_size = -1;


traffic = uniform;

//mezW = 0.0;
//mezPredefinedPatternType = shift-inter; //shift-qfdb

END Configuration File: networks/mezzanine_config
OVERRIDE Parameter: injection_rate=0.009117
OVERRIDE Parameter: routing_function=min
OVERRIDE Parameter: num_vcs=32
OVERRIDE Parameter: vc_buf_size=144
OVERRIDE Parameter: internal_speedup=1.0
OVERRIDE Parameter: injection_process=bernoulli
OVERRIDE Parameter: sim_type=latency
OVERRIDE Parameter: burst_alpha=0.0038461538
OVERRIDE Parameter: burst_beta=0.1
network: network_0
========================== Routing table  =====================
Number of Subnets: 1
Class 0:
Packet latency average = 105.266
	minimum = 23
	maximum = 613
Network latency average = 103.646
	minimum = 23
	maximum = 613
Slowest packet = 575
Flit latency average = 59.4692
	minimum = 6
	maximum = 611
Slowest flit = 10829
Fragmentation average = 55.6254
	minimum = 0
	maximum = 442
Injected packet rate average = 0.00905729
	minimum = 0.002 (at node 135)
	maximum = 0.02 (at node 10)
Accepted packet rate average = 0.00774479
	minimum = 0.001 (at node 41)
	maximum = 0.015 (at node 48)
Injected flit rate average = 0.161458
	minimum = 0.036 (at node 135)
	maximum = 0.343 (at node 10)
Accepted flit rate average= 0.147432
	minimum = 0.018 (at node 41)
	maximum = 0.285 (at node 48)
Injected packet length average = 17.8263
Accepted packet length average = 19.0363
Total in-flight flits = 2995 (0 measured)
latency change    = 1
throughput change = 1
Class 0:
Packet latency average = 130.553
	minimum = 23
	maximum = 978
Network latency average = 128.978
	minimum = 23
	maximum = 978
Slowest packet = 601
Flit latency average = 76.9315
	minimum = 6
	maximum = 991
Slowest flit = 31098
Fragmentation average = 71.1693
	minimum = 0
	maximum = 737
Injected packet rate average = 0.00891927
	minimum = 0.0035 (at node 122)
	maximum = 0.017 (at node 10)
Accepted packet rate average = 0.00829167
	minimum = 0.0045 (at node 174)
	maximum = 0.0135 (at node 44)
Injected flit rate average = 0.159792
	minimum = 0.063 (at node 122)
	maximum = 0.306 (at node 10)
Accepted flit rate average= 0.153078
	minimum = 0.081 (at node 174)
	maximum = 0.243 (at node 44)
Injected packet length average = 17.9153
Accepted packet length average = 18.4617
Total in-flight flits = 2868 (0 measured)
latency change    = 0.193688
throughput change = 0.036882
Class 0:
Packet latency average = 155.581
	minimum = 23
	maximum = 1498
Network latency average = 153.949
	minimum = 23
	maximum = 1498
Slowest packet = 2569
Flit latency average = 93.3051
	minimum = 6
	maximum = 1481
Slowest flit = 46259
Fragmentation average = 85.5124
	minimum = 0
	maximum = 979
Injected packet rate average = 0.00898958
	minimum = 0.002 (at node 94)
	maximum = 0.018 (at node 52)
Accepted packet rate average = 0.00884375
	minimum = 0.001 (at node 153)
	maximum = 0.016 (at node 174)
Injected flit rate average = 0.162042
	minimum = 0.036 (at node 94)
	maximum = 0.308 (at node 52)
Accepted flit rate average= 0.160047
	minimum = 0.018 (at node 153)
	maximum = 0.294 (at node 179)
Injected packet length average = 18.0255
Accepted packet length average = 18.0972
Total in-flight flits = 3207 (0 measured)
latency change    = 0.160868
throughput change = 0.0435419
Warmed up ...Time used is 3000 cycles
Class 0:
Packet latency average = 151.061
	minimum = 23
	maximum = 867
Network latency average = 149.645
	minimum = 23
	maximum = 853
Slowest packet = 5284
Flit latency average = 104.43
	minimum = 6
	maximum = 1192
Slowest flit = 66293
Fragmentation average = 85.6459
	minimum = 0
	maximum = 487
Injected packet rate average = 0.00943229
	minimum = 0.003 (at node 131)
	maximum = 0.018 (at node 0)
Accepted packet rate average = 0.00906771
	minimum = 0.001 (at node 184)
	maximum = 0.018 (at node 16)
Injected flit rate average = 0.169318
	minimum = 0.054 (at node 131)
	maximum = 0.324 (at node 0)
Accepted flit rate average= 0.16475
	minimum = 0.024 (at node 184)
	maximum = 0.339 (at node 16)
Injected packet length average = 17.9509
Accepted packet length average = 18.1689
Total in-flight flits = 4173 (4149 measured)
latency change    = 0.0299192
throughput change = 0.028547
Class 0:
Packet latency average = 163.68
	minimum = 23
	maximum = 1244
Network latency average = 162.318
	minimum = 23
	maximum = 1244
Slowest packet = 5832
Flit latency average = 106.769
	minimum = 6
	maximum = 1884
Slowest flit = 87407
Fragmentation average = 89.7783
	minimum = 0
	maximum = 1040
Injected packet rate average = 0.00911979
	minimum = 0.0035 (at node 178)
	maximum = 0.015 (at node 149)
Accepted packet rate average = 0.00923958
	minimum = 0.0045 (at node 163)
	maximum = 0.0185 (at node 16)
Injected flit rate average = 0.164026
	minimum = 0.063 (at node 178)
	maximum = 0.27 (at node 149)
Accepted flit rate average= 0.165513
	minimum = 0.0835 (at node 190)
	maximum = 0.333 (at node 16)
Injected packet length average = 17.9857
Accepted packet length average = 17.9135
Total in-flight flits = 2686 (2686 measured)
latency change    = 0.0770957
throughput change = 0.00461004
Class 0:
Packet latency average = 155.12
	minimum = 23
	maximum = 1578
Network latency average = 153.682
	minimum = 23
	maximum = 1578
Slowest packet = 5966
Flit latency average = 98.3547
	minimum = 6
	maximum = 1884
Slowest flit = 87407
Fragmentation average = 84.6082
	minimum = 0
	maximum = 1087
Injected packet rate average = 0.00910764
	minimum = 0.00466667 (at node 153)
	maximum = 0.0136667 (at node 38)
Accepted packet rate average = 0.00910764
	minimum = 0.00566667 (at node 134)
	maximum = 0.016 (at node 16)
Injected flit rate average = 0.164038
	minimum = 0.084 (at node 153)
	maximum = 0.247333 (at node 106)
Accepted flit rate average= 0.164089
	minimum = 0.102 (at node 134)
	maximum = 0.295 (at node 16)
Injected packet length average = 18.0111
Accepted packet length average = 18.0166
Total in-flight flits = 3120 (3120 measured)
latency change    = 0.0551812
throughput change = 0.00868116
Class 0:
Packet latency average = 152.576
	minimum = 23
	maximum = 1578
Network latency average = 151.105
	minimum = 23
	maximum = 1578
Slowest packet = 5966
Flit latency average = 95.2755
	minimum = 6
	maximum = 1884
Slowest flit = 87407
Fragmentation average = 83.8217
	minimum = 0
	maximum = 1087
Injected packet rate average = 0.00910156
	minimum = 0.00525 (at node 178)
	maximum = 0.0145 (at node 58)
Accepted packet rate average = 0.00911198
	minimum = 0.005 (at node 4)
	maximum = 0.0145 (at node 16)
Injected flit rate average = 0.163794
	minimum = 0.0905 (at node 178)
	maximum = 0.261 (at node 58)
Accepted flit rate average= 0.164044
	minimum = 0.08575 (at node 4)
	maximum = 0.261 (at node 16)
Injected packet length average = 17.9963
Accepted packet length average = 18.0031
Total in-flight flits = 3041 (3041 measured)
latency change    = 0.0166789
throughput change = 0.000269871
Class 0:
Packet latency average = 153.153
	minimum = 23
	maximum = 1578
Network latency average = 151.616
	minimum = 23
	maximum = 1578
Slowest packet = 5966
Flit latency average = 94.7767
	minimum = 6
	maximum = 1884
Slowest flit = 87407
Fragmentation average = 84.3485
	minimum = 0
	maximum = 1087
Injected packet rate average = 0.00906875
	minimum = 0.0058 (at node 153)
	maximum = 0.0132 (at node 58)
Accepted packet rate average = 0.00910313
	minimum = 0.006 (at node 163)
	maximum = 0.0136 (at node 16)
Injected flit rate average = 0.163312
	minimum = 0.1044 (at node 153)
	maximum = 0.2344 (at node 58)
Accepted flit rate average= 0.163675
	minimum = 0.108 (at node 163)
	maximum = 0.2448 (at node 16)
Injected packet length average = 18.0083
Accepted packet length average = 17.9801
Total in-flight flits = 2787 (2787 measured)
latency change    = 0.00376806
throughput change = 0.00225612
Class 0:
Packet latency average = 153.82
	minimum = 23
	maximum = 1578
Network latency average = 152.265
	minimum = 23
	maximum = 1578
Slowest packet = 5966
Flit latency average = 94.8716
	minimum = 6
	maximum = 1884
Slowest flit = 87407
Fragmentation average = 85.209
	minimum = 0
	maximum = 1087
Injected packet rate average = 0.00912326
	minimum = 0.00533333 (at node 153)
	maximum = 0.0128333 (at node 58)
Accepted packet rate average = 0.00905469
	minimum = 0.00633333 (at node 36)
	maximum = 0.0128333 (at node 128)
Injected flit rate average = 0.164188
	minimum = 0.096 (at node 153)
	maximum = 0.231 (at node 58)
Accepted flit rate average= 0.163391
	minimum = 0.113333 (at node 36)
	maximum = 0.231 (at node 128)
Injected packet length average = 17.9966
Accepted packet length average = 18.045
Total in-flight flits = 4160 (4160 measured)
latency change    = 0.00434048
throughput change = 0.00173514
Draining all recorded packets ...
Class 0:
Remaining flits: 262626 262627 262628 262629 262630 262631 262632 262633 262634 262635 [...] (4619 flits)
Measured flits: 262626 262627 262628 262629 262630 262631 262632 262633 262634 262635 [...] (44 flits)
Draining remaining packets ...
Time taken is 11275 cycles
====== Overall Traffic Statistics ======
====== Traffic class 0 ======
Packet latency average = 159.394 (1 samples)
	minimum = 23 (1 samples)
	maximum = 2428 (1 samples)
Network latency average = 157.83 (1 samples)
	minimum = 23 (1 samples)
	maximum = 2428 (1 samples)
Flit latency average = 103.576 (1 samples)
	minimum = 6 (1 samples)
	maximum = 2411 (1 samples)
Fragmentation average = 87.8357 (1 samples)
	minimum = 0 (1 samples)
	maximum = 1816 (1 samples)
Injected packet rate average = 0.00912326 (1 samples)
	minimum = 0.00533333 (1 samples)
	maximum = 0.0128333 (1 samples)
Accepted packet rate average = 0.00905469 (1 samples)
	minimum = 0.00633333 (1 samples)
	maximum = 0.0128333 (1 samples)
Injected flit rate average = 0.164188 (1 samples)
	minimum = 0.096 (1 samples)
	maximum = 0.231 (1 samples)
Accepted flit rate average = 0.163391 (1 samples)
	minimum = 0.113333 (1 samples)
	maximum = 0.231 (1 samples)
Injected packet size average = 17.9966 (1 samples)
Accepted packet size average = 18.045 (1 samples)
Hops average = 5.07544 (1 samples)
Total run time 5.94529
