BEGIN Configuration File: networks/mezzanine_config
topology = mezzanine;
n = 12;

routing_function = multipath;
internal_speedup = 2.0;
latency_thres = 100000.0;
use_read_write = 0;

sample_period = 1000;
injection_rate = 0.5;
packet_size = 18;

noq = 1;
routing_delay = 0;
vc_alloc_delay = 1;
sw_alloc_delay = 1;
st_final_delay = 1;
vc_allocator = islip; 
sw_allocator = islip;
alloc_iters  = 4;
num_vcs     = 12;
buffer_policy = private; // private or shared
buf_size = -1; // -1 for buffer_policy = private;
vc_buf_size = 4096; // size of each VOQ with buffer_policy = private
output_buffer_size = -1;


traffic = uniform;

//mezW = 0.0;
//mezPredefinedPatternType = shift-inter; //shift-qfdb

END Configuration File: networks/mezzanine_config
OVERRIDE Parameter: injection_rate=0.004697
OVERRIDE Parameter: routing_function=multipath
OVERRIDE Parameter: num_vcs=64
OVERRIDE Parameter: vc_buf_size=18
OVERRIDE Parameter: internal_speedup=1.0
OVERRIDE Parameter: injection_process=bernoulli
OVERRIDE Parameter: sim_type=latency
OVERRIDE Parameter: burst_alpha=0.0038461538
OVERRIDE Parameter: burst_beta=0.1
network: network_0
========================== Routing table  =====================
Number of Subnets: 1
Class 0:
Packet latency average = 53.8395
	minimum = 23
	maximum = 181
Network latency average = 52.9246
	minimum = 23
	maximum = 181
Slowest packet = 85
Flit latency average = 29.1498
	minimum = 6
	maximum = 164
Slowest flit = 1547
Fragmentation average = 13.2132
	minimum = 0
	maximum = 129
Injected packet rate average = 0.00458333
	minimum = 0 (at node 33)
	maximum = 0.01 (at node 39)
Accepted packet rate average = 0.00434896
	minimum = 0.001 (at node 4)
	maximum = 0.011 (at node 140)
Injected flit rate average = 0.0817552
	minimum = 0 (at node 33)
	maximum = 0.18 (at node 39)
Accepted flit rate average= 0.0793646
	minimum = 0.018 (at node 4)
	maximum = 0.198 (at node 140)
Injected packet length average = 17.8375
Accepted packet length average = 18.2491
Total in-flight flits = 602 (0 measured)
latency change    = 1
throughput change = 1
Class 0:
Packet latency average = 54.3571
	minimum = 23
	maximum = 223
Network latency average = 53.6053
	minimum = 23
	maximum = 211
Slowest packet = 931
Flit latency average = 29.5405
	minimum = 6
	maximum = 194
Slowest flit = 17351
Fragmentation average = 13.6752
	minimum = 0
	maximum = 173
Injected packet rate average = 0.00447656
	minimum = 0.0005 (at node 82)
	maximum = 0.0085 (at node 132)
Accepted packet rate average = 0.00435417
	minimum = 0.0005 (at node 41)
	maximum = 0.008 (at node 48)
Injected flit rate average = 0.080276
	minimum = 0.009 (at node 82)
	maximum = 0.153 (at node 132)
Accepted flit rate average= 0.0791328
	minimum = 0.009 (at node 41)
	maximum = 0.144 (at node 48)
Injected packet length average = 17.9325
Accepted packet length average = 18.174
Total in-flight flits = 555 (0 measured)
latency change    = 0.00952105
throughput change = 0.00292888
Class 0:
Packet latency average = 53.8873
	minimum = 23
	maximum = 157
Network latency average = 53.0514
	minimum = 23
	maximum = 157
Slowest packet = 2074
Flit latency average = 29.0604
	minimum = 6
	maximum = 140
Slowest flit = 37349
Fragmentation average = 13.3009
	minimum = 0
	maximum = 118
Injected packet rate average = 0.00477604
	minimum = 0 (at node 40)
	maximum = 0.013 (at node 121)
Accepted packet rate average = 0.00476042
	minimum = 0 (at node 17)
	maximum = 0.011 (at node 168)
Injected flit rate average = 0.0858698
	minimum = 0 (at node 40)
	maximum = 0.234 (at node 121)
Accepted flit rate average= 0.0855729
	minimum = 0 (at node 17)
	maximum = 0.198 (at node 168)
Injected packet length average = 17.9793
Accepted packet length average = 17.9759
Total in-flight flits = 631 (0 measured)
latency change    = 0.00871725
throughput change = 0.0752587
Warmed up ...Time used is 3000 cycles
Class 0:
Packet latency average = 56.3386
	minimum = 23
	maximum = 169
Network latency average = 55.5991
	minimum = 23
	maximum = 169
Slowest packet = 3335
Flit latency average = 30.8313
	minimum = 6
	maximum = 152
Slowest flit = 60047
Fragmentation average = 15.3318
	minimum = 0
	maximum = 118
Injected packet rate average = 0.00483854
	minimum = 0.001 (at node 0)
	maximum = 0.011 (at node 128)
Accepted packet rate average = 0.00485937
	minimum = 0 (at node 18)
	maximum = 0.013 (at node 22)
Injected flit rate average = 0.087026
	minimum = 0.018 (at node 0)
	maximum = 0.198 (at node 128)
Accepted flit rate average= 0.0871146
	minimum = 0 (at node 18)
	maximum = 0.234 (at node 22)
Injected packet length average = 17.986
Accepted packet length average = 17.9271
Total in-flight flits = 627 (627 measured)
latency change    = 0.0435103
throughput change = 0.017697
Class 0:
Packet latency average = 55.2344
	minimum = 23
	maximum = 169
Network latency average = 54.4831
	minimum = 23
	maximum = 169
Slowest packet = 3335
Flit latency average = 30.1044
	minimum = 6
	maximum = 152
Slowest flit = 60047
Fragmentation average = 14.4094
	minimum = 0
	maximum = 118
Injected packet rate average = 0.00467187
	minimum = 0.001 (at node 0)
	maximum = 0.01 (at node 128)
Accepted packet rate average = 0.0046849
	minimum = 0.001 (at node 24)
	maximum = 0.0085 (at node 22)
Injected flit rate average = 0.0840313
	minimum = 0.0095 (at node 0)
	maximum = 0.18 (at node 128)
Accepted flit rate average= 0.0842266
	minimum = 0.018 (at node 24)
	maximum = 0.153 (at node 22)
Injected packet length average = 17.9866
Accepted packet length average = 17.9783
Total in-flight flits = 580 (580 measured)
latency change    = 0.0199911
throughput change = 0.0342887
Class 0:
Packet latency average = 54.5441
	minimum = 23
	maximum = 169
Network latency average = 53.8668
	minimum = 23
	maximum = 169
Slowest packet = 3335
Flit latency average = 29.7717
	minimum = 6
	maximum = 152
Slowest flit = 60047
Fragmentation average = 13.8463
	minimum = 0
	maximum = 121
Injected packet rate average = 0.00464583
	minimum = 0.000666667 (at node 0)
	maximum = 0.008 (at node 128)
Accepted packet rate average = 0.00464931
	minimum = 0.00133333 (at node 153)
	maximum = 0.00733333 (at node 97)
Injected flit rate average = 0.0837483
	minimum = 0.012 (at node 0)
	maximum = 0.144 (at node 128)
Accepted flit rate average= 0.0837431
	minimum = 0.024 (at node 153)
	maximum = 0.132 (at node 97)
Injected packet length average = 18.0265
Accepted packet length average = 18.0119
Total in-flight flits = 563 (563 measured)
latency change    = 0.0126554
throughput change = 0.0057737
Draining all recorded packets ...
Draining remaining packets ...
Time taken is 6180 cycles
====== Overall Traffic Statistics ======
====== Traffic class 0 ======
Packet latency average = 54.8857 (1 samples)
	minimum = 23 (1 samples)
	maximum = 169 (1 samples)
Network latency average = 54.1771 (1 samples)
	minimum = 23 (1 samples)
	maximum = 169 (1 samples)
Flit latency average = 30.0118 (1 samples)
	minimum = 6 (1 samples)
	maximum = 152 (1 samples)
Fragmentation average = 14.1124 (1 samples)
	minimum = 0 (1 samples)
	maximum = 121 (1 samples)
Injected packet rate average = 0.00464583 (1 samples)
	minimum = 0.000666667 (1 samples)
	maximum = 0.008 (1 samples)
Accepted packet rate average = 0.00464931 (1 samples)
	minimum = 0.00133333 (1 samples)
	maximum = 0.00733333 (1 samples)
Injected flit rate average = 0.0837483 (1 samples)
	minimum = 0.012 (1 samples)
	maximum = 0.144 (1 samples)
Accepted flit rate average = 0.0837431 (1 samples)
	minimum = 0.024 (1 samples)
	maximum = 0.132 (1 samples)
Injected packet size average = 18.0265 (1 samples)
Accepted packet size average = 18.0119 (1 samples)
Hops average = 5.09189 (1 samples)
Total run time 2.22401
