BEGIN Configuration File: networks/mezzanine_config
topology = mezzanine;
n = 12;

routing_function = multipath;
internal_speedup = 2.0;
latency_thres = 100000.0;
use_read_write = 0;

sample_period = 1000;
injection_rate = 0.5;
packet_size = 18;

noq = 1;
routing_delay = 0;
vc_alloc_delay = 1;
sw_alloc_delay = 1;
st_final_delay = 1;
vc_allocator = islip; 
sw_allocator = islip;
alloc_iters  = 4;
num_vcs     = 12;
buffer_policy = private; // private or shared
buf_size = -1; // -1 for buffer_policy = private;
vc_buf_size = 4096; // size of each VOQ with buffer_policy = private
output_buffer_size = -1;


traffic = uniform;

//mezW = 0.0;
//mezPredefinedPatternType = shift-inter; //shift-qfdb

END Configuration File: networks/mezzanine_config
OVERRIDE Parameter: injection_rate=0.029007
OVERRIDE Parameter: routing_function=min
OVERRIDE Parameter: num_vcs=64
OVERRIDE Parameter: vc_buf_size=144
OVERRIDE Parameter: internal_speedup=1.0
OVERRIDE Parameter: injection_process=bernoulli
OVERRIDE Parameter: sim_type=latency
OVERRIDE Parameter: burst_alpha=0.0038461538
OVERRIDE Parameter: burst_beta=0.1
network: network_0
========================== Routing table  =====================
Number of Subnets: 1
Class 0:
Packet latency average = 305.177
	minimum = 23
	maximum = 956
Network latency average = 297.406
	minimum = 23
	maximum = 956
Slowest packet = 116
Flit latency average = 220.712
	minimum = 6
	maximum = 939
Slowest flit = 2105
Fragmentation average = 177.919
	minimum = 0
	maximum = 816
Injected packet rate average = 0.0288333
	minimum = 0.013 (at node 128)
	maximum = 0.043 (at node 3)
Accepted packet rate average = 0.0100625
	minimum = 0.004 (at node 4)
	maximum = 0.017 (at node 152)
Injected flit rate average = 0.514932
	minimum = 0.232 (at node 128)
	maximum = 0.774 (at node 3)
Accepted flit rate average= 0.217047
	minimum = 0.092 (at node 4)
	maximum = 0.349 (at node 22)
Injected packet length average = 17.8589
Accepted packet length average = 21.5699
Total in-flight flits = 57975 (0 measured)
latency change    = 1
throughput change = 1
Class 0:
Packet latency average = 532.543
	minimum = 23
	maximum = 1861
Network latency average = 524.052
	minimum = 23
	maximum = 1861
Slowest packet = 192
Flit latency average = 429.126
	minimum = 6
	maximum = 1933
Slowest flit = 5220
Fragmentation average = 244.381
	minimum = 0
	maximum = 1680
Injected packet rate average = 0.0287995
	minimum = 0.0195 (at node 64)
	maximum = 0.0375 (at node 191)
Accepted packet rate average = 0.0114714
	minimum = 0.006 (at node 30)
	maximum = 0.0185 (at node 34)
Injected flit rate average = 0.516167
	minimum = 0.351 (at node 64)
	maximum = 0.675 (at node 191)
Accepted flit rate average= 0.228859
	minimum = 0.1415 (at node 30)
	maximum = 0.3495 (at node 34)
Injected packet length average = 17.9228
Accepted packet length average = 19.9505
Total in-flight flits = 111180 (0 measured)
latency change    = 0.426944
throughput change = 0.0516147
Class 0:
Packet latency average = 1151.91
	minimum = 23
	maximum = 2839
Network latency average = 1142.26
	minimum = 23
	maximum = 2793
Slowest packet = 804
Flit latency average = 1042.62
	minimum = 6
	maximum = 2816
Slowest flit = 11806
Fragmentation average = 348.124
	minimum = 0
	maximum = 2041
Injected packet rate average = 0.028125
	minimum = 0.015 (at node 84)
	maximum = 0.042 (at node 61)
Accepted packet rate average = 0.0131823
	minimum = 0.006 (at node 2)
	maximum = 0.023 (at node 68)
Injected flit rate average = 0.505854
	minimum = 0.253 (at node 84)
	maximum = 0.744 (at node 61)
Accepted flit rate average= 0.241661
	minimum = 0.117 (at node 77)
	maximum = 0.443 (at node 173)
Injected packet length average = 17.9859
Accepted packet length average = 18.3323
Total in-flight flits = 161981 (0 measured)
latency change    = 0.537688
throughput change = 0.0529753
Warmed up ...Time used is 3000 cycles
Class 0:
Packet latency average = 163.038
	minimum = 25
	maximum = 1461
Network latency average = 123.174
	minimum = 25
	maximum = 917
Slowest packet = 16468
Flit latency average = 1443.85
	minimum = 6
	maximum = 3813
Slowest flit = 9665
Fragmentation average = 61.7109
	minimum = 0
	maximum = 715
Injected packet rate average = 0.0272656
	minimum = 0.007 (at node 16)
	maximum = 0.045 (at node 169)
Accepted packet rate average = 0.0136979
	minimum = 0.005 (at node 104)
	maximum = 0.026 (at node 14)
Injected flit rate average = 0.490682
	minimum = 0.133 (at node 16)
	maximum = 0.81 (at node 169)
Accepted flit rate average= 0.250031
	minimum = 0.082 (at node 179)
	maximum = 0.431 (at node 14)
Injected packet length average = 17.9964
Accepted packet length average = 18.2532
Total in-flight flits = 208205 (84055 measured)
latency change    = 6.06531
throughput change = 0.033475
Class 0:
Packet latency average = 435.905
	minimum = 25
	maximum = 2229
Network latency average = 380.568
	minimum = 23
	maximum = 1956
Slowest packet = 16468
Flit latency average = 1708.53
	minimum = 6
	maximum = 4842
Slowest flit = 12165
Fragmentation average = 133.44
	minimum = 0
	maximum = 983
Injected packet rate average = 0.0263594
	minimum = 0.0105 (at node 8)
	maximum = 0.0425 (at node 169)
Accepted packet rate average = 0.0135885
	minimum = 0.0075 (at node 138)
	maximum = 0.0215 (at node 99)
Injected flit rate average = 0.474586
	minimum = 0.1865 (at node 8)
	maximum = 0.7705 (at node 169)
Accepted flit rate average= 0.246284
	minimum = 0.1365 (at node 162)
	maximum = 0.3785 (at node 99)
Injected packet length average = 18.0044
Accepted packet length average = 18.1244
Total in-flight flits = 249604 (157843 measured)
latency change    = 0.625979
throughput change = 0.0152158
Class 0:
Packet latency average = 852.522
	minimum = 25
	maximum = 3191
Network latency average = 781.031
	minimum = 23
	maximum = 2965
Slowest packet = 16468
Flit latency average = 1987.23
	minimum = 6
	maximum = 5803
Slowest flit = 16628
Fragmentation average = 186.253
	minimum = 0
	maximum = 2679
Injected packet rate average = 0.0258333
	minimum = 0.0113333 (at node 16)
	maximum = 0.0373333 (at node 169)
Accepted packet rate average = 0.013441
	minimum = 0.00866667 (at node 86)
	maximum = 0.0196667 (at node 99)
Injected flit rate average = 0.464898
	minimum = 0.206333 (at node 16)
	maximum = 0.674667 (at node 169)
Accepted flit rate average= 0.243365
	minimum = 0.163 (at node 51)
	maximum = 0.35 (at node 128)
Injected packet length average = 17.996
Accepted packet length average = 18.1062
Total in-flight flits = 289643 (224705 measured)
latency change    = 0.488688
throughput change = 0.0119955
Class 0:
Packet latency average = 1388.49
	minimum = 25
	maximum = 4114
Network latency average = 1291.47
	minimum = 23
	maximum = 3971
Slowest packet = 16468
Flit latency average = 2263.84
	minimum = 6
	maximum = 6773
Slowest flit = 19877
Fragmentation average = 236.553
	minimum = 0
	maximum = 2679
Injected packet rate average = 0.0256445
	minimum = 0.01125 (at node 8)
	maximum = 0.03625 (at node 66)
Accepted packet rate average = 0.0132409
	minimum = 0.0095 (at node 86)
	maximum = 0.0185 (at node 128)
Injected flit rate average = 0.461457
	minimum = 0.20175 (at node 8)
	maximum = 0.6525 (at node 66)
Accepted flit rate average= 0.239112
	minimum = 0.171 (at node 86)
	maximum = 0.339 (at node 128)
Injected packet length average = 17.9944
Accepted packet length average = 18.0586
Total in-flight flits = 332853 (287981 measured)
latency change    = 0.386009
throughput change = 0.017785
Class 0:
Packet latency average = 1940.39
	minimum = 25
	maximum = 5227
Network latency average = 1801.4
	minimum = 23
	maximum = 4927
Slowest packet = 16468
Flit latency average = 2528.78
	minimum = 6
	maximum = 7740
Slowest flit = 23877
Fragmentation average = 266.555
	minimum = 0
	maximum = 3531
Injected packet rate average = 0.0257427
	minimum = 0.0118 (at node 116)
	maximum = 0.0358 (at node 71)
Accepted packet rate average = 0.0131062
	minimum = 0.0094 (at node 42)
	maximum = 0.0182 (at node 128)
Injected flit rate average = 0.463268
	minimum = 0.2128 (at node 116)
	maximum = 0.6438 (at node 71)
Accepted flit rate average= 0.236393
	minimum = 0.168 (at node 42)
	maximum = 0.322 (at node 128)
Injected packet length average = 17.9961
Accepted packet length average = 18.0366
Total in-flight flits = 379878 (349013 measured)
latency change    = 0.284425
throughput change = 0.0115032
Class 0:
Packet latency average = 2497.79
	minimum = 25
	maximum = 6410
Network latency average = 2320.49
	minimum = 23
	maximum = 5967
Slowest packet = 16468
Flit latency average = 2778.03
	minimum = 6
	maximum = 8695
Slowest flit = 24746
Fragmentation average = 290.643
	minimum = 0
	maximum = 4153
Injected packet rate average = 0.0256658
	minimum = 0.0116667 (at node 116)
	maximum = 0.0341667 (at node 167)
Accepted packet rate average = 0.0129774
	minimum = 0.00883333 (at node 42)
	maximum = 0.0175 (at node 128)
Injected flit rate average = 0.461977
	minimum = 0.210667 (at node 116)
	maximum = 0.615 (at node 167)
Accepted flit rate average= 0.233985
	minimum = 0.1625 (at node 42)
	maximum = 0.3165 (at node 128)
Injected packet length average = 17.9997
Accepted packet length average = 18.0302
Total in-flight flits = 424636 (401683 measured)
latency change    = 0.223157
throughput change = 0.010289
Class 0:
Packet latency average = 2997.62
	minimum = 25
	maximum = 7064
Network latency average = 2770.43
	minimum = 23
	maximum = 6935
Slowest packet = 16468
Flit latency average = 3024.11
	minimum = 6
	maximum = 9756
Slowest flit = 17631
Fragmentation average = 308.415
	minimum = 0
	maximum = 4668
Injected packet rate average = 0.0255246
	minimum = 0.0117143 (at node 116)
	maximum = 0.0338571 (at node 31)
Accepted packet rate average = 0.0128862
	minimum = 0.00928571 (at node 42)
	maximum = 0.0168571 (at node 103)
Injected flit rate average = 0.45943
	minimum = 0.211571 (at node 116)
	maximum = 0.611714 (at node 31)
Accepted flit rate average= 0.231552
	minimum = 0.165429 (at node 42)
	maximum = 0.304571 (at node 103)
Injected packet length average = 17.9995
Accepted packet length average = 17.9691
Total in-flight flits = 468283 (451090 measured)
latency change    = 0.166743
throughput change = 0.010508
Draining all recorded packets ...
Class 0:
Remaining flits: 24748 24749 36706 36707 36708 36709 36710 36711 36712 36713 [...] (506501 flits)
Measured flits: 296457 296458 296459 296496 296497 296498 296499 296500 296501 296502 [...] (427380 flits)
Class 0:
Remaining flits: 36787 36788 36789 36790 36791 38664 38665 38666 38667 38668 [...] (541383 flits)
Measured flits: 296496 296497 296498 296499 296500 296501 296502 296503 296504 296505 [...] (403341 flits)
Class 0:
Remaining flits: 36787 36788 36789 36790 36791 38664 38665 38666 38667 38668 [...] (569198 flits)
Measured flits: 296496 296497 296498 296499 296500 296501 296502 296503 296504 296505 [...] (378511 flits)
Class 0:
Remaining flits: 38675 38676 38677 38678 38679 38680 38681 54641 54642 54643 [...] (592173 flits)
Measured flits: 296496 296497 296498 296499 296500 296501 296502 296503 296504 296505 [...] (356380 flits)
Class 0:
Remaining flits: 54954 54955 54956 54957 54958 54959 54960 54961 54962 54963 [...] (615860 flits)
Measured flits: 296496 296497 296498 296499 296500 296501 296502 296503 296504 296505 [...] (334601 flits)
Class 0:
Remaining flits: 54954 54955 54956 54957 54958 54959 54960 54961 54962 54963 [...] (630915 flits)
Measured flits: 296496 296497 296498 296499 296500 296501 296502 296503 296504 296505 [...] (311052 flits)
Class 0:
Remaining flits: 54954 54955 54956 54957 54958 54959 54960 54961 54962 54963 [...] (649534 flits)
Measured flits: 296496 296497 296498 296499 296500 296501 296502 296503 296504 296505 [...] (286370 flits)
Class 0:
Remaining flits: 54954 54955 54956 54957 54958 54959 54960 54961 54962 54963 [...] (663821 flits)
Measured flits: 296496 296497 296498 296499 296500 296501 296502 296503 296504 296505 [...] (260550 flits)
Class 0:
Remaining flits: 54954 54955 54956 54957 54958 54959 54960 54961 54962 54963 [...] (676653 flits)
Measured flits: 297018 297019 297020 297021 297022 297023 297024 297025 297026 297027 [...] (234951 flits)
Class 0:
Remaining flits: 54954 54955 54956 54957 54958 54959 54960 54961 54962 54963 [...] (692778 flits)
Measured flits: 297018 297019 297020 297021 297022 297023 297024 297025 297026 297027 [...] (211524 flits)
Class 0:
Remaining flits: 75600 75601 75602 75603 75604 75605 75606 75607 75608 75609 [...] (706759 flits)
Measured flits: 297018 297019 297020 297021 297022 297023 297024 297025 297026 297027 [...] (190482 flits)
Class 0:
Remaining flits: 75600 75601 75602 75603 75604 75605 75606 75607 75608 75609 [...] (721891 flits)
Measured flits: 297108 297109 297110 297111 297112 297113 297114 297115 297116 297117 [...] (171226 flits)
Class 0:
Remaining flits: 75600 75601 75602 75603 75604 75605 75606 75607 75608 75609 [...] (734749 flits)
Measured flits: 297108 297109 297110 297111 297112 297113 297114 297115 297116 297117 [...] (153815 flits)
Class 0:
Remaining flits: 75600 75601 75602 75603 75604 75605 75606 75607 75608 75609 [...] (740190 flits)
Measured flits: 297108 297109 297110 297111 297112 297113 297114 297115 297116 297117 [...] (136851 flits)
Class 0:
Remaining flits: 75600 75601 75602 75603 75604 75605 75606 75607 75608 75609 [...] (738271 flits)
Measured flits: 297108 297109 297110 297111 297112 297113 297114 297115 297116 297117 [...] (122154 flits)
Class 0:
Remaining flits: 75600 75601 75602 75603 75604 75605 75606 75607 75608 75609 [...] (733943 flits)
Measured flits: 297108 297109 297110 297111 297112 297113 297114 297115 297116 297117 [...] (107540 flits)
Class 0:
Remaining flits: 75600 75601 75602 75603 75604 75605 75606 75607 75608 75609 [...] (732634 flits)
Measured flits: 297108 297109 297110 297111 297112 297113 297114 297115 297116 297117 [...] (94286 flits)
Class 0:
Remaining flits: 75600 75601 75602 75603 75604 75605 75606 75607 75608 75609 [...] (726366 flits)
Measured flits: 297108 297109 297110 297111 297112 297113 297114 297115 297116 297117 [...] (83027 flits)
Class 0:
Remaining flits: 75600 75601 75602 75603 75604 75605 75606 75607 75608 75609 [...] (720504 flits)
Measured flits: 297108 297109 297110 297111 297112 297113 297114 297115 297116 297117 [...] (72726 flits)
Class 0:
Remaining flits: 75600 75601 75602 75603 75604 75605 75606 75607 75608 75609 [...] (717326 flits)
Measured flits: 297108 297109 297110 297111 297112 297113 297114 297115 297116 297117 [...] (64616 flits)
Class 0:
Remaining flits: 101844 101845 101846 101847 101848 101849 101850 101851 101852 101853 [...] (716364 flits)
Measured flits: 297108 297109 297110 297111 297112 297113 297114 297115 297116 297117 [...] (56865 flits)
Class 0:
Remaining flits: 101844 101845 101846 101847 101848 101849 101850 101851 101852 101853 [...] (717252 flits)
Measured flits: 297108 297109 297110 297111 297112 297113 297114 297115 297116 297117 [...] (50070 flits)
Class 0:
Remaining flits: 101844 101845 101846 101847 101848 101849 101850 101851 101852 101853 [...] (714630 flits)
Measured flits: 297108 297109 297110 297111 297112 297113 297114 297115 297116 297117 [...] (43507 flits)
Class 0:
Remaining flits: 145602 145603 145604 145605 145606 145607 145608 145609 145610 145611 [...] (718027 flits)
Measured flits: 297108 297109 297110 297111 297112 297113 297114 297115 297116 297117 [...] (38103 flits)
Class 0:
Remaining flits: 145602 145603 145604 145605 145606 145607 145608 145609 145610 145611 [...] (722058 flits)
Measured flits: 297108 297109 297110 297111 297112 297113 297114 297115 297116 297117 [...] (33047 flits)
Class 0:
Remaining flits: 145602 145603 145604 145605 145606 145607 145608 145609 145610 145611 [...] (725845 flits)
Measured flits: 297108 297109 297110 297111 297112 297113 297114 297115 297116 297117 [...] (29279 flits)
Class 0:
Remaining flits: 145602 145603 145604 145605 145606 145607 145608 145609 145610 145611 [...] (725260 flits)
Measured flits: 297108 297109 297110 297111 297112 297113 297114 297115 297116 297117 [...] (25771 flits)
Class 0:
Remaining flits: 145602 145603 145604 145605 145606 145607 145608 145609 145610 145611 [...] (721437 flits)
Measured flits: 297108 297109 297110 297111 297112 297113 297114 297115 297116 297117 [...] (22117 flits)
Class 0:
Remaining flits: 145602 145603 145604 145605 145606 145607 145608 145609 145610 145611 [...] (720007 flits)
Measured flits: 297108 297109 297110 297111 297112 297113 297114 297115 297116 297117 [...] (18535 flits)
Class 0:
Remaining flits: 145602 145603 145604 145605 145606 145607 145608 145609 145610 145611 [...] (716760 flits)
Measured flits: 297108 297109 297110 297111 297112 297113 297114 297115 297116 297117 [...] (16169 flits)
Class 0:
Remaining flits: 248022 248023 248024 248025 248026 248027 248028 248029 248030 248031 [...] (712463 flits)
Measured flits: 297108 297109 297110 297111 297112 297113 297114 297115 297116 297117 [...] (13929 flits)
Class 0:
Remaining flits: 248022 248023 248024 248025 248026 248027 248028 248029 248030 248031 [...] (711826 flits)
Measured flits: 297108 297109 297110 297111 297112 297113 297114 297115 297116 297117 [...] (12241 flits)
Class 0:
Remaining flits: 248022 248023 248024 248025 248026 248027 248028 248029 248030 248031 [...] (714365 flits)
Measured flits: 297108 297109 297110 297111 297112 297113 297114 297115 297116 297117 [...] (10793 flits)
Class 0:
Remaining flits: 260982 260983 260984 260985 260986 260987 260988 260989 260990 260991 [...] (715886 flits)
Measured flits: 328140 328141 328142 328143 328144 328145 328146 328147 328148 328149 [...] (9361 flits)
Class 0:
Remaining flits: 260982 260983 260984 260985 260986 260987 260988 260989 260990 260991 [...] (717434 flits)
Measured flits: 328140 328141 328142 328143 328144 328145 328146 328147 328148 328149 [...] (8348 flits)
Class 0:
Remaining flits: 260982 260983 260984 260985 260986 260987 260988 260989 260990 260991 [...] (715090 flits)
Measured flits: 328140 328141 328142 328143 328144 328145 328146 328147 328148 328149 [...] (7247 flits)
Class 0:
Remaining flits: 260982 260983 260984 260985 260986 260987 260988 260989 260990 260991 [...] (715570 flits)
Measured flits: 328140 328141 328142 328143 328144 328145 328146 328147 328148 328149 [...] (6148 flits)
Class 0:
Remaining flits: 260982 260983 260984 260985 260986 260987 260988 260989 260990 260991 [...] (713131 flits)
Measured flits: 328140 328141 328142 328143 328144 328145 328146 328147 328148 328149 [...] (5257 flits)
Class 0:
Remaining flits: 260983 260984 260985 260986 260987 260988 260989 260990 260991 260992 [...] (710976 flits)
Measured flits: 328140 328141 328142 328143 328144 328145 328146 328147 328148 328149 [...] (4263 flits)
Class 0:
Remaining flits: 328140 328141 328142 328143 328144 328145 328146 328147 328148 328149 [...] (706779 flits)
Measured flits: 328140 328141 328142 328143 328144 328145 328146 328147 328148 328149 [...] (3669 flits)
Class 0:
Remaining flits: 328140 328141 328142 328143 328144 328145 328146 328147 328148 328149 [...] (703005 flits)
Measured flits: 328140 328141 328142 328143 328144 328145 328146 328147 328148 328149 [...] (3327 flits)
Class 0:
Remaining flits: 408618 408619 408620 408621 408622 408623 408624 408625 408626 408627 [...] (699194 flits)
Measured flits: 408618 408619 408620 408621 408622 408623 408624 408625 408626 408627 [...] (2838 flits)
Class 0:
Remaining flits: 408618 408619 408620 408621 408622 408623 408624 408625 408626 408627 [...] (694778 flits)
Measured flits: 408618 408619 408620 408621 408622 408623 408624 408625 408626 408627 [...] (2449 flits)
Class 0:
Remaining flits: 408618 408619 408620 408621 408622 408623 408624 408625 408626 408627 [...] (692455 flits)
Measured flits: 408618 408619 408620 408621 408622 408623 408624 408625 408626 408627 [...] (2207 flits)
Class 0:
Remaining flits: 408618 408619 408620 408621 408622 408623 408624 408625 408626 408627 [...] (692012 flits)
Measured flits: 408618 408619 408620 408621 408622 408623 408624 408625 408626 408627 [...] (1782 flits)
Class 0:
Remaining flits: 408618 408619 408620 408621 408622 408623 408624 408625 408626 408627 [...] (693367 flits)
Measured flits: 408618 408619 408620 408621 408622 408623 408624 408625 408626 408627 [...] (1542 flits)
Class 0:
Remaining flits: 499180 499181 499182 499183 499184 499185 499186 499187 499188 499189 [...] (692769 flits)
Measured flits: 499180 499181 499182 499183 499184 499185 499186 499187 499188 499189 [...] (1364 flits)
Class 0:
Remaining flits: 560394 560395 560396 560397 560398 560399 560400 560401 560402 560403 [...] (693033 flits)
Measured flits: 560394 560395 560396 560397 560398 560399 560400 560401 560402 560403 [...] (1108 flits)
Class 0:
Remaining flits: 560394 560395 560396 560397 560398 560399 560400 560401 560402 560403 [...] (696503 flits)
Measured flits: 560394 560395 560396 560397 560398 560399 560400 560401 560402 560403 [...] (843 flits)
Class 0:
Remaining flits: 560394 560395 560396 560397 560398 560399 560400 560401 560402 560403 [...] (695962 flits)
Measured flits: 560394 560395 560396 560397 560398 560399 560400 560401 560402 560403 [...] (718 flits)
Class 0:
Remaining flits: 560394 560395 560396 560397 560398 560399 560400 560401 560402 560403 [...] (701421 flits)
Measured flits: 560394 560395 560396 560397 560398 560399 560400 560401 560402 560403 [...] (638 flits)
Class 0:
Remaining flits: 560403 560404 560405 560406 560407 560408 560409 560410 560411 585000 [...] (701987 flits)
Measured flits: 560403 560404 560405 560406 560407 560408 560409 560410 560411 585000 [...] (502 flits)
Class 0:
Remaining flits: 560403 560404 560405 560406 560407 560408 560409 560410 560411 585000 [...] (702099 flits)
Measured flits: 560403 560404 560405 560406 560407 560408 560409 560410 560411 585000 [...] (405 flits)
Class 0:
Remaining flits: 618516 618517 618518 618519 618520 618521 618522 618523 618524 618525 [...] (696865 flits)
Measured flits: 618516 618517 618518 618519 618520 618521 618522 618523 618524 618525 [...] (342 flits)
Class 0:
Remaining flits: 618516 618517 618518 618519 618520 618521 618522 618523 618524 618525 [...] (694718 flits)
Measured flits: 618516 618517 618518 618519 618520 618521 618522 618523 618524 618525 [...] (291 flits)
Class 0:
Remaining flits: 672822 672823 672824 672825 672826 672827 672828 672829 672830 672831 [...] (693133 flits)
Measured flits: 672822 672823 672824 672825 672826 672827 672828 672829 672830 672831 [...] (270 flits)
Class 0:
Remaining flits: 672822 672823 672824 672825 672826 672827 672828 672829 672830 672831 [...] (689350 flits)
Measured flits: 672822 672823 672824 672825 672826 672827 672828 672829 672830 672831 [...] (252 flits)
Class 0:
Remaining flits: 672822 672823 672824 672825 672826 672827 672828 672829 672830 672831 [...] (685117 flits)
Measured flits: 672822 672823 672824 672825 672826 672827 672828 672829 672830 672831 [...] (251 flits)
Class 0:
Remaining flits: 672822 672823 672824 672825 672826 672827 672828 672829 672830 672831 [...] (679533 flits)
Measured flits: 672822 672823 672824 672825 672826 672827 672828 672829 672830 672831 [...] (199 flits)
Class 0:
Remaining flits: 672822 672823 672824 672825 672826 672827 672828 672829 672830 672831 [...] (675204 flits)
Measured flits: 672822 672823 672824 672825 672826 672827 672828 672829 672830 672831 [...] (181 flits)
Class 0:
Remaining flits: 672822 672823 672824 672825 672826 672827 672828 672829 672830 672831 [...] (674552 flits)
Measured flits: 672822 672823 672824 672825 672826 672827 672828 672829 672830 672831 [...] (108 flits)
Class 0:
Remaining flits: 672823 672824 672825 672826 672827 672828 672829 672830 672831 672832 [...] (672056 flits)
Measured flits: 672823 672824 672825 672826 672827 672828 672829 672830 672831 672832 [...] (90 flits)
Class 0:
Remaining flits: 672823 672824 672825 672826 672827 672828 672829 672830 672831 672832 [...] (671377 flits)
Measured flits: 672823 672824 672825 672826 672827 672828 672829 672830 672831 672832 [...] (90 flits)
Class 0:
Remaining flits: 672823 672824 672825 672826 672827 672828 672829 672830 672831 672832 [...] (664748 flits)
Measured flits: 672823 672824 672825 672826 672827 672828 672829 672830 672831 672832 [...] (90 flits)
Class 0:
Remaining flits: 672823 672824 672825 672826 672827 672828 672829 672830 672831 672832 [...] (666272 flits)
Measured flits: 672823 672824 672825 672826 672827 672828 672829 672830 672831 672832 [...] (72 flits)
Class 0:
Remaining flits: 672823 672824 672825 672826 672827 672828 672829 672830 672831 672832 [...] (668634 flits)
Measured flits: 672823 672824 672825 672826 672827 672828 672829 672830 672831 672832 [...] (72 flits)
Class 0:
Remaining flits: 672823 672824 672825 672826 672827 672828 672829 672830 672831 672832 [...] (669855 flits)
Measured flits: 672823 672824 672825 672826 672827 672828 672829 672830 672831 672832 [...] (71 flits)
Class 0:
Remaining flits: 672823 672824 672825 672826 672827 672828 672829 672830 672831 672832 [...] (669460 flits)
Measured flits: 672823 672824 672825 672826 672827 672828 672829 672830 672831 672832 [...] (71 flits)
Class 0:
Remaining flits: 672823 672824 672825 672826 672827 672828 672829 672830 672831 672832 [...] (671425 flits)
Measured flits: 672823 672824 672825 672826 672827 672828 672829 672830 672831 672832 [...] (71 flits)
Class 0:
Remaining flits: 802872 802873 802874 802875 802876 802877 802878 802879 802880 802881 [...] (675691 flits)
Measured flits: 802872 802873 802874 802875 802876 802877 802878 802879 802880 802881 [...] (54 flits)
Class 0:
Remaining flits: 840186 840187 840188 840189 840190 840191 840192 840193 840194 840195 [...] (676486 flits)
Measured flits: 840186 840187 840188 840189 840190 840191 840192 840193 840194 840195 [...] (36 flits)
Class 0:
Remaining flits: 840186 840187 840188 840189 840190 840191 840192 840193 840194 840195 [...] (676960 flits)
Measured flits: 840186 840187 840188 840189 840190 840191 840192 840193 840194 840195 [...] (36 flits)
Class 0:
Remaining flits: 840186 840187 840188 840189 840190 840191 840192 840193 840194 840195 [...] (676890 flits)
Measured flits: 840186 840187 840188 840189 840190 840191 840192 840193 840194 840195 [...] (36 flits)
Class 0:
Remaining flits: 840186 840187 840188 840189 840190 840191 840192 840193 840194 840195 [...] (675570 flits)
Measured flits: 840186 840187 840188 840189 840190 840191 840192 840193 840194 840195 [...] (36 flits)
Class 0:
Remaining flits: 840186 840187 840188 840189 840190 840191 840192 840193 840194 840195 [...] (674122 flits)
Measured flits: 840186 840187 840188 840189 840190 840191 840192 840193 840194 840195 [...] (36 flits)
Class 0:
Remaining flits: 840187 840188 840189 840190 840191 840192 840193 840194 840195 840196 [...] (667922 flits)
Measured flits: 840187 840188 840189 840190 840191 840192 840193 840194 840195 840196 [...] (35 flits)
Class 0:
Remaining flits: 1001988 1001989 1001990 1001991 1001992 1001993 1001994 1001995 1001996 1001997 [...] (665306 flits)
Measured flits: 1088856 1088857 1088858 1088859 1088860 1088861 1088862 1088863 1088864 1088865 [...] (18 flits)
Class 0:
Remaining flits: 1001988 1001989 1001990 1001991 1001992 1001993 1001994 1001995 1001996 1001997 [...] (660892 flits)
Measured flits: 1088856 1088857 1088858 1088859 1088860 1088861 1088862 1088863 1088864 1088865 [...] (18 flits)
Class 0:
Remaining flits: 1001988 1001989 1001990 1001991 1001992 1001993 1001994 1001995 1001996 1001997 [...] (656229 flits)
Measured flits: 1088856 1088857 1088858 1088859 1088860 1088861 1088862 1088863 1088864 1088865 [...] (18 flits)
Class 0:
Remaining flits: 1001988 1001989 1001990 1001991 1001992 1001993 1001994 1001995 1001996 1001997 [...] (658357 flits)
Measured flits: 1088856 1088857 1088858 1088859 1088860 1088861 1088862 1088863 1088864 1088865 [...] (18 flits)
Class 0:
Remaining flits: 1001988 1001989 1001990 1001991 1001992 1001993 1001994 1001995 1001996 1001997 [...] (662793 flits)
Measured flits: 1088856 1088857 1088858 1088859 1088860 1088861 1088862 1088863 1088864 1088865 [...] (18 flits)
Class 0:
Remaining flits: 1001988 1001989 1001990 1001991 1001992 1001993 1001994 1001995 1001996 1001997 [...] (662292 flits)
Measured flits: 1088856 1088857 1088858 1088859 1088860 1088861 1088862 1088863 1088864 1088865 [...] (18 flits)
Class 0:
Remaining flits: 1001988 1001989 1001990 1001991 1001992 1001993 1001994 1001995 1001996 1001997 [...] (663956 flits)
Measured flits: 1088856 1088857 1088858 1088859 1088860 1088861 1088862 1088863 1088864 1088865 [...] (18 flits)
Class 0:
Remaining flits: 1001988 1001989 1001990 1001991 1001992 1001993 1001994 1001995 1001996 1001997 [...] (662690 flits)
Measured flits: 1088856 1088857 1088858 1088859 1088860 1088861 1088862 1088863 1088864 1088865 [...] (18 flits)
Class 0:
Remaining flits: 1001988 1001989 1001990 1001991 1001992 1001993 1001994 1001995 1001996 1001997 [...] (659514 flits)
Measured flits: 1088856 1088857 1088858 1088859 1088860 1088861 1088862 1088863 1088864 1088865 [...] (18 flits)
Class 0:
Remaining flits: 1001988 1001989 1001990 1001991 1001992 1001993 1001994 1001995 1001996 1001997 [...] (659784 flits)
Measured flits: 1088860 1088861 1088862 1088863 1088864 1088865 1088866 1088867 1088868 1088869 [...] (14 flits)
Class 0:
Remaining flits: 1001988 1001989 1001990 1001991 1001992 1001993 1001994 1001995 1001996 1001997 [...] (661423 flits)
Measured flits: 1088860 1088861 1088862 1088863 1088864 1088865 1088866 1088867 1088868 1088869 [...] (14 flits)
Class 0:
Remaining flits: 1001988 1001989 1001990 1001991 1001992 1001993 1001994 1001995 1001996 1001997 [...] (661880 flits)
Measured flits: 1088860 1088861 1088862 1088863 1088864 1088865 1088866 1088867 1088868 1088869 [...] (14 flits)
Class 0:
Remaining flits: 1001988 1001989 1001990 1001991 1001992 1001993 1001994 1001995 1001996 1001997 [...] (663231 flits)
Measured flits: 1088860 1088861 1088862 1088863 1088864 1088865 1088866 1088867 1088868 1088869 [...] (14 flits)
Class 0:
Remaining flits: 1001988 1001989 1001990 1001991 1001992 1001993 1001994 1001995 1001996 1001997 [...] (663768 flits)
Measured flits: 1088860 1088861 1088862 1088863 1088864 1088865 1088866 1088867 1088868 1088869 [...] (14 flits)
Class 0:
Remaining flits: 1001988 1001989 1001990 1001991 1001992 1001993 1001994 1001995 1001996 1001997 [...] (657047 flits)
Measured flits: 1088860 1088861 1088862 1088863 1088864 1088865 1088866 1088867 1088868 1088869 [...] (14 flits)
Class 0:
Remaining flits: 1001988 1001989 1001990 1001991 1001992 1001993 1001994 1001995 1001996 1001997 [...] (651564 flits)
Measured flits: 1088860 1088861 1088862 1088863 1088864 1088865 1088866 1088867 1088868 1088869 [...] (14 flits)
Draining remaining packets ...
Class 0:
Remaining flits: 1215666 1215667 1215668 1215669 1215670 1215671 1215672 1215673 1215674 1215675 [...] (616080 flits)
Measured flits: (0 flits)
Class 0:
Remaining flits: 1215666 1215667 1215668 1215669 1215670 1215671 1215672 1215673 1215674 1215675 [...] (582691 flits)
Measured flits: (0 flits)
Class 0:
Remaining flits: 1215666 1215667 1215668 1215669 1215670 1215671 1215672 1215673 1215674 1215675 [...] (549289 flits)
Measured flits: (0 flits)
Class 0:
Remaining flits: 1215666 1215667 1215668 1215669 1215670 1215671 1215672 1215673 1215674 1215675 [...] (517230 flits)
Measured flits: (0 flits)
Class 0:
Remaining flits: 1215666 1215667 1215668 1215669 1215670 1215671 1215672 1215673 1215674 1215675 [...] (483753 flits)
Measured flits: (0 flits)
Class 0:
Remaining flits: 1215666 1215667 1215668 1215669 1215670 1215671 1215672 1215673 1215674 1215675 [...] (452432 flits)
Measured flits: (0 flits)
Class 0:
Remaining flits: 1215666 1215667 1215668 1215669 1215670 1215671 1215672 1215673 1215674 1215675 [...] (420675 flits)
Measured flits: (0 flits)
Class 0:
Remaining flits: 1215666 1215667 1215668 1215669 1215670 1215671 1215672 1215673 1215674 1215675 [...] (388399 flits)
Measured flits: (0 flits)
Class 0:
Remaining flits: 1215666 1215667 1215668 1215669 1215670 1215671 1215672 1215673 1215674 1215675 [...] (357197 flits)
Measured flits: (0 flits)
Class 0:
Remaining flits: 1215666 1215667 1215668 1215669 1215670 1215671 1215672 1215673 1215674 1215675 [...] (326215 flits)
Measured flits: (0 flits)
Class 0:
Remaining flits: 1215666 1215667 1215668 1215669 1215670 1215671 1215672 1215673 1215674 1215675 [...] (295984 flits)
Measured flits: (0 flits)
Class 0:
Remaining flits: 1638666 1638667 1638668 1638669 1638670 1638671 1638672 1638673 1638674 1638675 [...] (266536 flits)
Measured flits: (0 flits)
Class 0:
Remaining flits: 1659276 1659277 1659278 1659279 1659280 1659281 1659282 1659283 1659284 1659285 [...] (237462 flits)
Measured flits: (0 flits)
Class 0:
Remaining flits: 1659276 1659277 1659278 1659279 1659280 1659281 1659282 1659283 1659284 1659285 [...] (210151 flits)
Measured flits: (0 flits)
Class 0:
Remaining flits: 1659276 1659277 1659278 1659279 1659280 1659281 1659282 1659283 1659284 1659285 [...] (181829 flits)
Measured flits: (0 flits)
Class 0:
Remaining flits: 1659276 1659277 1659278 1659279 1659280 1659281 1659282 1659283 1659284 1659285 [...] (154948 flits)
Measured flits: (0 flits)
Class 0:
Remaining flits: 1733490 1733491 1733492 1733493 1733494 1733495 1733496 1733497 1733498 1733499 [...] (129106 flits)
Measured flits: (0 flits)
Class 0:
Remaining flits: 1733493 1733494 1733495 1733496 1733497 1733498 1733499 1733500 1733501 1733502 [...] (103767 flits)
Measured flits: (0 flits)
Class 0:
Remaining flits: 1733500 1733501 1733502 1733503 1733504 1733505 1733506 1733507 1893060 1893061 [...] (79436 flits)
Measured flits: (0 flits)
Class 0:
Remaining flits: 1733500 1733501 1733502 1733503 1733504 1733505 1733506 1733507 1893060 1893061 [...] (57705 flits)
Measured flits: (0 flits)
Class 0:
Remaining flits: 1962342 1962343 1962344 1962345 1962346 1962347 1962348 1962349 1962350 1962351 [...] (39441 flits)
Measured flits: (0 flits)
Class 0:
Remaining flits: 2054831 2054832 2054833 2054834 2054835 2054836 2054837 2054838 2054839 2054840 [...] (25121 flits)
Measured flits: (0 flits)
Class 0:
Remaining flits: 2234440 2234441 2234442 2234443 2234444 2234445 2234446 2234447 2643186 2643187 [...] (13380 flits)
Measured flits: (0 flits)
Class 0:
Remaining flits: 2760912 2760913 2760914 2760915 2760916 2760917 2760918 2760919 2760920 2760921 [...] (6411 flits)
Measured flits: (0 flits)
Class 0:
Remaining flits: 2760912 2760913 2760914 2760915 2760916 2760917 2760918 2760919 2760920 2760921 [...] (2292 flits)
Measured flits: (0 flits)
Class 0:
Remaining flits: 3137562 3137563 3137564 3137565 3137566 3137567 3137568 3137569 3137570 3137571 [...] (809 flits)
Measured flits: (0 flits)
Time taken is 129420 cycles
====== Overall Traffic Statistics ======
====== Traffic class 0 ======
Packet latency average = 10676.7 (1 samples)
	minimum = 25 (1 samples)
	maximum = 95467 (1 samples)
Network latency average = 9735.4 (1 samples)
	minimum = 23 (1 samples)
	maximum = 90328 (1 samples)
Flit latency average = 17158.9 (1 samples)
	minimum = 6 (1 samples)
	maximum = 100314 (1 samples)
Fragmentation average = 312.171 (1 samples)
	minimum = 0 (1 samples)
	maximum = 9872 (1 samples)
Injected packet rate average = 0.0255246 (1 samples)
	minimum = 0.0117143 (1 samples)
	maximum = 0.0338571 (1 samples)
Accepted packet rate average = 0.0128862 (1 samples)
	minimum = 0.00928571 (1 samples)
	maximum = 0.0168571 (1 samples)
Injected flit rate average = 0.45943 (1 samples)
	minimum = 0.211571 (1 samples)
	maximum = 0.611714 (1 samples)
Accepted flit rate average = 0.231552 (1 samples)
	minimum = 0.165429 (1 samples)
	maximum = 0.304571 (1 samples)
Injected packet size average = 17.9995 (1 samples)
Accepted packet size average = 17.9691 (1 samples)
Hops average = 5.06668 (1 samples)
Total run time 262.412
