BEGIN Configuration File: networks/mezzanine_config
topology = mezzanine;
n = 12;

routing_function = multipath;
internal_speedup = 2.0;
latency_thres = 100000.0;
use_read_write = 0;

sample_period = 1000;
injection_rate = 0.5;
packet_size = 18;

noq = 1;
routing_delay = 0;
vc_alloc_delay = 1;
sw_alloc_delay = 1;
st_final_delay = 1;
vc_allocator = islip; 
sw_allocator = islip;
alloc_iters  = 4;
num_vcs     = 12;
buffer_policy = private; // private or shared
buf_size = -1; // -1 for buffer_policy = private;
vc_buf_size = 4096; // size of each VOQ with buffer_policy = private
output_buffer_size = -1;


traffic = uniform;

//mezW = 0.0;
//mezPredefinedPatternType = shift-inter; //shift-qfdb

END Configuration File: networks/mezzanine_config
OVERRIDE Parameter: injection_rate=0.040057
OVERRIDE Parameter: routing_function=multipath
OVERRIDE Parameter: num_vcs=64
OVERRIDE Parameter: vc_buf_size=1024
OVERRIDE Parameter: internal_speedup=1.0
OVERRIDE Parameter: injection_process=bernoulli
OVERRIDE Parameter: sim_type=latency
OVERRIDE Parameter: burst_alpha=0.0038461538
OVERRIDE Parameter: burst_beta=0.1
network: network_0
========================== Routing table  =====================
Number of Subnets: 1
Class 0:
Packet latency average = 326.826
	minimum = 23
	maximum = 911
Network latency average = 312.628
	minimum = 23
	maximum = 891
Slowest packet = 249
Flit latency average = 239.993
	minimum = 6
	maximum = 930
Slowest flit = 5676
Fragmentation average = 189.007
	minimum = 0
	maximum = 840
Injected packet rate average = 0.0391458
	minimum = 0.026 (at node 68)
	maximum = 0.052 (at node 62)
Accepted packet rate average = 0.0109323
	minimum = 0.003 (at node 112)
	maximum = 0.018 (at node 73)
Injected flit rate average = 0.698708
	minimum = 0.452 (at node 68)
	maximum = 0.921 (at node 62)
Accepted flit rate average= 0.235552
	minimum = 0.087 (at node 112)
	maximum = 0.371 (at node 22)
Injected packet length average = 17.8489
Accepted packet length average = 21.5465
Total in-flight flits = 90062 (0 measured)
latency change    = 1
throughput change = 1
Class 0:
Packet latency average = 566.108
	minimum = 23
	maximum = 1879
Network latency average = 548.546
	minimum = 23
	maximum = 1879
Slowest packet = 288
Flit latency average = 464.039
	minimum = 6
	maximum = 1934
Slowest flit = 4910
Fragmentation average = 243.757
	minimum = 0
	maximum = 1688
Injected packet rate average = 0.0397656
	minimum = 0.0285 (at node 88)
	maximum = 0.0485 (at node 100)
Accepted packet rate average = 0.012487
	minimum = 0.0065 (at node 84)
	maximum = 0.019 (at node 44)
Injected flit rate average = 0.712951
	minimum = 0.5055 (at node 88)
	maximum = 0.8645 (at node 100)
Accepted flit rate average= 0.249531
	minimum = 0.142 (at node 84)
	maximum = 0.371 (at node 44)
Injected packet length average = 17.9288
Accepted packet length average = 19.9833
Total in-flight flits = 179040 (0 measured)
latency change    = 0.422678
throughput change = 0.0560217
Class 0:
Packet latency average = 1248.44
	minimum = 25
	maximum = 2868
Network latency average = 1227.95
	minimum = 23
	maximum = 2839
Slowest packet = 895
Flit latency average = 1143.65
	minimum = 6
	maximum = 2932
Slowest flit = 6295
Fragmentation average = 354.091
	minimum = 0
	maximum = 2039
Injected packet rate average = 0.0396615
	minimum = 0.026 (at node 91)
	maximum = 0.054 (at node 36)
Accepted packet rate average = 0.0143281
	minimum = 0.005 (at node 30)
	maximum = 0.024 (at node 56)
Injected flit rate average = 0.713333
	minimum = 0.465 (at node 91)
	maximum = 0.969 (at node 139)
Accepted flit rate average= 0.261417
	minimum = 0.103 (at node 30)
	maximum = 0.46 (at node 70)
Injected packet length average = 17.9856
Accepted packet length average = 18.245
Total in-flight flits = 265918 (0 measured)
latency change    = 0.546549
throughput change = 0.0454654
Warmed up ...Time used is 3000 cycles
Class 0:
Packet latency average = 75.4677
	minimum = 24
	maximum = 925
Network latency average = 54.8242
	minimum = 23
	maximum = 925
Slowest packet = 23394
Flit latency average = 1622.66
	minimum = 6
	maximum = 3863
Slowest flit = 11734
Fragmentation average = 16.5806
	minimum = 0
	maximum = 349
Injected packet rate average = 0.0406562
	minimum = 0.027 (at node 70)
	maximum = 0.056 (at node 66)
Accepted packet rate average = 0.0146667
	minimum = 0.006 (at node 134)
	maximum = 0.026 (at node 91)
Injected flit rate average = 0.732083
	minimum = 0.478 (at node 70)
	maximum = 1 (at node 66)
Accepted flit rate average= 0.26625
	minimum = 0.126 (at node 79)
	maximum = 0.437 (at node 91)
Injected packet length average = 18.0067
Accepted packet length average = 18.1534
Total in-flight flits = 355306 (129071 measured)
latency change    = 15.5427
throughput change = 0.0181534
Class 0:
Packet latency average = 136.913
	minimum = 24
	maximum = 1961
Network latency average = 115.592
	minimum = 23
	maximum = 1954
Slowest packet = 23219
Flit latency average = 1923.38
	minimum = 6
	maximum = 4728
Slowest flit = 33078
Fragmentation average = 29.2362
	minimum = 0
	maximum = 677
Injected packet rate average = 0.0401901
	minimum = 0.0295 (at node 92)
	maximum = 0.051 (at node 117)
Accepted packet rate average = 0.014638
	minimum = 0.008 (at node 79)
	maximum = 0.0205 (at node 73)
Injected flit rate average = 0.723805
	minimum = 0.532 (at node 92)
	maximum = 0.923 (at node 117)
Accepted flit rate average= 0.264318
	minimum = 0.1535 (at node 141)
	maximum = 0.3605 (at node 87)
Injected packet length average = 18.0095
Accepted packet length average = 18.0569
Total in-flight flits = 442214 (254137 measured)
latency change    = 0.448789
throughput change = 0.00731049
Class 0:
Packet latency average = 305.006
	minimum = 24
	maximum = 2947
Network latency average = 283.89
	minimum = 23
	maximum = 2911
Slowest packet = 23034
Flit latency average = 2216.25
	minimum = 6
	maximum = 5792
Slowest flit = 24527
Fragmentation average = 50.1394
	minimum = 0
	maximum = 893
Injected packet rate average = 0.0401163
	minimum = 0.0286667 (at node 92)
	maximum = 0.0493333 (at node 117)
Accepted packet rate average = 0.0145104
	minimum = 0.00966667 (at node 141)
	maximum = 0.0196667 (at node 188)
Injected flit rate average = 0.722292
	minimum = 0.514667 (at node 92)
	maximum = 0.886667 (at node 117)
Accepted flit rate average= 0.262174
	minimum = 0.165 (at node 141)
	maximum = 0.356 (at node 47)
Injected packet length average = 18.0049
Accepted packet length average = 18.068
Total in-flight flits = 530832 (377720 measured)
latency change    = 0.551115
throughput change = 0.00817816
Class 0:
Packet latency average = 607.155
	minimum = 24
	maximum = 3955
Network latency average = 585.782
	minimum = 23
	maximum = 3908
Slowest packet = 22931
Flit latency average = 2493.78
	minimum = 6
	maximum = 6842
Slowest flit = 17417
Fragmentation average = 78.5107
	minimum = 0
	maximum = 1896
Injected packet rate average = 0.0401615
	minimum = 0.032 (at node 92)
	maximum = 0.0495 (at node 104)
Accepted packet rate average = 0.0145586
	minimum = 0.01 (at node 79)
	maximum = 0.01875 (at node 188)
Injected flit rate average = 0.722917
	minimum = 0.57475 (at node 92)
	maximum = 0.891 (at node 104)
Accepted flit rate average= 0.262017
	minimum = 0.18875 (at node 156)
	maximum = 0.3315 (at node 40)
Injected packet length average = 18.0003
Accepted packet length average = 17.9974
Total in-flight flits = 619881 (498253 measured)
latency change    = 0.497647
throughput change = 0.000597992
Class 0:
Packet latency average = 973.468
	minimum = 24
	maximum = 4959
Network latency average = 951.709
	minimum = 23
	maximum = 4949
Slowest packet = 23087
Flit latency average = 2762.15
	minimum = 6
	maximum = 7809
Slowest flit = 18089
Fragmentation average = 109.168
	minimum = 0
	maximum = 2188
Injected packet rate average = 0.0402271
	minimum = 0.0334 (at node 80)
	maximum = 0.0476 (at node 104)
Accepted packet rate average = 0.0145573
	minimum = 0.0108 (at node 171)
	maximum = 0.0176 (at node 19)
Injected flit rate average = 0.724119
	minimum = 0.6012 (at node 80)
	maximum = 0.8568 (at node 104)
Accepted flit rate average= 0.261889
	minimum = 0.1904 (at node 171)
	maximum = 0.3254 (at node 157)
Injected packet length average = 18.0008
Accepted packet length average = 17.9902
Total in-flight flits = 709629 (615210 measured)
latency change    = 0.376296
throughput change = 0.000490229
Class 0:
Packet latency average = 1375.36
	minimum = 23
	maximum = 5982
Network latency average = 1353.62
	minimum = 23
	maximum = 5957
Slowest packet = 22984
Flit latency average = 3035.34
	minimum = 6
	maximum = 8662
Slowest flit = 41433
Fragmentation average = 135.078
	minimum = 0
	maximum = 2799
Injected packet rate average = 0.0402257
	minimum = 0.0346667 (at node 92)
	maximum = 0.0475 (at node 12)
Accepted packet rate average = 0.0145408
	minimum = 0.0108333 (at node 31)
	maximum = 0.0183333 (at node 103)
Injected flit rate average = 0.724063
	minimum = 0.622833 (at node 92)
	maximum = 0.855333 (at node 12)
Accepted flit rate average= 0.261426
	minimum = 0.193167 (at node 31)
	maximum = 0.3305 (at node 103)
Injected packet length average = 18
Accepted packet length average = 17.9788
Total in-flight flits = 798875 (728314 measured)
latency change    = 0.292207
throughput change = 0.00176848
Class 0:
Packet latency average = 1852.92
	minimum = 23
	maximum = 6957
Network latency average = 1831.44
	minimum = 23
	maximum = 6920
Slowest packet = 23129
Flit latency average = 3295.91
	minimum = 6
	maximum = 9717
Slowest flit = 34776
Fragmentation average = 160.25
	minimum = 0
	maximum = 3501
Injected packet rate average = 0.0401332
	minimum = 0.0347143 (at node 113)
	maximum = 0.0471429 (at node 12)
Accepted packet rate average = 0.0144583
	minimum = 0.0112857 (at node 31)
	maximum = 0.018 (at node 87)
Injected flit rate average = 0.722361
	minimum = 0.624286 (at node 113)
	maximum = 0.849143 (at node 12)
Accepted flit rate average= 0.259996
	minimum = 0.197857 (at node 31)
	maximum = 0.322857 (at node 87)
Injected packet length average = 17.9991
Accepted packet length average = 17.9825
Total in-flight flits = 887385 (834406 measured)
latency change    = 0.257735
throughput change = 0.00549983
Draining all recorded packets ...
Class 0:
Remaining flits: 23382 23383 23384 23385 23386 23387 23388 23389 23390 23391 [...] (977770 flits)
Measured flits: 411930 411931 411932 411933 411934 411935 411936 411937 411938 411939 [...] (812400 flits)
Class 0:
Remaining flits: 23382 23383 23384 23385 23386 23387 23388 23389 23390 23391 [...] (1064691 flits)
Measured flits: 411930 411931 411932 411933 411934 411935 411936 411937 411938 411939 [...] (785131 flits)
Class 0:
Remaining flits: 23382 23383 23384 23385 23386 23387 23388 23389 23390 23391 [...] (1155942 flits)
Measured flits: 411930 411931 411932 411933 411934 411935 411936 411937 411938 411939 [...] (756167 flits)
Class 0:
Remaining flits: 23399 44604 44605 44606 44607 44608 44609 44610 44611 44612 [...] (1246011 flits)
Measured flits: 411930 411931 411932 411933 411934 411935 411936 411937 411938 411939 [...] (726427 flits)
Class 0:
Remaining flits: 23399 44604 44605 44606 44607 44608 44609 44610 44611 44612 [...] (1329392 flits)
Measured flits: 411966 411967 411968 411969 411970 411971 411972 411973 411974 411975 [...] (695399 flits)
Class 0:
Remaining flits: 44604 44605 44606 44607 44608 44609 44610 44611 44612 44613 [...] (1409046 flits)
Measured flits: 411966 411967 411968 411969 411970 411971 411972 411973 411974 411975 [...] (664048 flits)
Class 0:
Remaining flits: 44604 44605 44606 44607 44608 44609 44610 44611 44612 44613 [...] (1481612 flits)
Measured flits: 411966 411967 411968 411969 411970 411971 411972 411973 411974 411975 [...] (632158 flits)
Class 0:
Remaining flits: 44621 51616 51617 51618 51619 51620 51621 51622 51623 55187 [...] (1555076 flits)
Measured flits: 411966 411967 411968 411969 411970 411971 411972 411973 411974 411975 [...] (600956 flits)
Class 0:
Remaining flits: 44621 51616 51617 51618 51619 51620 51621 51622 51623 62980 [...] (1628690 flits)
Measured flits: 411966 411967 411968 411969 411970 411971 411972 411973 411974 411975 [...] (570114 flits)
Class 0:
Remaining flits: 44621 62980 62981 64188 64189 64190 64191 64192 64193 64194 [...] (1703469 flits)
Measured flits: 411966 411967 411968 411969 411970 411971 411972 411973 411974 411975 [...] (539602 flits)
Class 0:
Remaining flits: 44621 64188 64189 64190 64191 64192 64193 64194 64195 64196 [...] (1779302 flits)
Measured flits: 411966 411967 411968 411969 411970 411971 411972 411973 411974 411975 [...] (509392 flits)
Class 0:
Remaining flits: 44621 78246 78247 78248 78249 78250 78251 78252 78253 78254 [...] (1855951 flits)
Measured flits: 411966 411967 411968 411969 411970 411971 411972 411973 411974 411975 [...] (480135 flits)
Class 0:
Remaining flits: 44621 78246 78247 78248 78249 78250 78251 78252 78253 78254 [...] (1933095 flits)
Measured flits: 412632 412633 412634 412635 412636 412637 412638 412639 412640 412641 [...] (451200 flits)
Class 0:
Remaining flits: 44621 78246 78247 78248 78249 78250 78251 78252 78253 78254 [...] (2008175 flits)
Measured flits: 412632 412633 412634 412635 412636 412637 412638 412639 412640 412641 [...] (422433 flits)
Class 0:
Remaining flits: 78246 78247 78248 78249 78250 78251 78252 78253 78254 78255 [...] (2086216 flits)
Measured flits: 412632 412633 412634 412635 412636 412637 412638 412639 412640 412641 [...] (394721 flits)
Class 0:
Remaining flits: 78246 78247 78248 78249 78250 78251 78252 78253 78254 78255 [...] (2163495 flits)
Measured flits: 412632 412633 412634 412635 412636 412637 412638 412639 412640 412641 [...] (368628 flits)
Class 0:
Remaining flits: 78246 78247 78248 78249 78250 78251 78252 78253 78254 78255 [...] (2242767 flits)
Measured flits: 412632 412633 412634 412635 412636 412637 412638 412639 412640 412641 [...] (344788 flits)
Class 0:
Remaining flits: 78246 78247 78248 78249 78250 78251 78252 78253 78254 78255 [...] (2323216 flits)
Measured flits: 412632 412633 412634 412635 412636 412637 412638 412639 412640 412641 [...] (321206 flits)
Class 0:
Remaining flits: 78246 78247 78248 78249 78250 78251 78252 78253 78254 78255 [...] (2403557 flits)
Measured flits: 412632 412633 412634 412635 412636 412637 412638 412639 412640 412641 [...] (298000 flits)
Class 0:
Remaining flits: 78246 78247 78248 78249 78250 78251 78252 78253 78254 78255 [...] (2481758 flits)
Measured flits: 412632 412633 412634 412635 412636 412637 412638 412639 412640 412641 [...] (275904 flits)
Class 0:
Remaining flits: 78246 78247 78248 78249 78250 78251 78252 78253 78254 78255 [...] (2559227 flits)
Measured flits: 413442 413443 413444 413445 413446 413447 413448 413449 413450 413451 [...] (255265 flits)
Class 0:
Remaining flits: 78246 78247 78248 78249 78250 78251 78252 78253 78254 78255 [...] (2637202 flits)
Measured flits: 413442 413443 413444 413445 413446 413447 413448 413449 413450 413451 [...] (235734 flits)
Class 0:
Remaining flits: 78246 78247 78248 78249 78250 78251 78252 78253 78254 78255 [...] (2717164 flits)
Measured flits: 413442 413443 413444 413445 413446 413447 413448 413449 413450 413451 [...] (216768 flits)
Class 0:
Remaining flits: 78246 78247 78248 78249 78250 78251 78252 78253 78254 78255 [...] (2794720 flits)
Measured flits: 413456 413457 413458 413459 413496 413497 413498 413499 413500 413501 [...] (199823 flits)
Class 0:
Remaining flits: 78246 78247 78248 78249 78250 78251 78252 78253 78254 78255 [...] (2873253 flits)
Measured flits: 413496 413497 413498 413499 413500 413501 413502 413503 413504 413505 [...] (184518 flits)
Class 0:
Remaining flits: 78246 78247 78248 78249 78250 78251 78252 78253 78254 78255 [...] (2951399 flits)
Measured flits: 413496 413497 413498 413499 413500 413501 413502 413503 413504 413505 [...] (170126 flits)
Class 0:
Remaining flits: 78246 78247 78248 78249 78250 78251 78252 78253 78254 78255 [...] (3032494 flits)
Measured flits: 413496 413497 413498 413499 413500 413501 413502 413503 413504 413505 [...] (156551 flits)
Class 0:
Remaining flits: 81864 81865 81866 81867 81868 81869 81870 81871 81872 81873 [...] (3111747 flits)
Measured flits: 413496 413497 413498 413499 413500 413501 413502 413503 413504 413505 [...] (143724 flits)
Class 0:
Remaining flits: 149958 149959 149960 149961 149962 149963 149964 149965 149966 149967 [...] (3192016 flits)
Measured flits: 425610 425611 425612 425613 425614 425615 425616 425617 425618 425619 [...] (132076 flits)
Class 0:
Remaining flits: 149958 149959 149960 149961 149962 149963 149964 149965 149966 149967 [...] (3271519 flits)
Measured flits: 429444 429445 429446 429447 429448 429449 429450 429451 429452 429453 [...] (120440 flits)
Class 0:
Remaining flits: 149958 149959 149960 149961 149962 149963 149964 149965 149966 149967 [...] (3351543 flits)
Measured flits: 429444 429445 429446 429447 429448 429449 429450 429451 429452 429453 [...] (110876 flits)
Class 0:
Remaining flits: 149960 149961 149962 149963 149964 149965 149966 149967 149968 149969 [...] (3434865 flits)
Measured flits: 429444 429445 429446 429447 429448 429449 429450 429451 429452 429453 [...] (101212 flits)
Class 0:
Remaining flits: 219042 219043 219044 219045 219046 219047 219048 219049 219050 219051 [...] (3515988 flits)
Measured flits: 429444 429445 429446 429447 429448 429449 429450 429451 429452 429453 [...] (93147 flits)
Class 0:
Remaining flits: 219042 219043 219044 219045 219046 219047 219048 219049 219050 219051 [...] (3594485 flits)
Measured flits: 429444 429445 429446 429447 429448 429449 429450 429451 429452 429453 [...] (85106 flits)
Class 0:
Remaining flits: 275742 275743 275744 275745 275746 275747 275748 275749 275750 275751 [...] (3671338 flits)
Measured flits: 429444 429445 429446 429447 429448 429449 429450 429451 429452 429453 [...] (77576 flits)
Class 0:
Remaining flits: 275742 275743 275744 275745 275746 275747 275748 275749 275750 275751 [...] (3746248 flits)
Measured flits: 448056 448057 448058 448059 448060 448061 448062 448063 448064 448065 [...] (70664 flits)
Class 0:
Remaining flits: 275742 275743 275744 275745 275746 275747 275748 275749 275750 275751 [...] (3820290 flits)
Measured flits: 448056 448057 448058 448059 448060 448061 448062 448063 448064 448065 [...] (64172 flits)
Class 0:
Remaining flits: 275742 275743 275744 275745 275746 275747 275748 275749 275750 275751 [...] (3892914 flits)
Measured flits: 448056 448057 448058 448059 448060 448061 448062 448063 448064 448065 [...] (58234 flits)
Class 0:
Remaining flits: 275742 275743 275744 275745 275746 275747 275748 275749 275750 275751 [...] (3951811 flits)
Measured flits: 448056 448057 448058 448059 448060 448061 448062 448063 448064 448065 [...] (52999 flits)
Class 0:
Remaining flits: 275742 275743 275744 275745 275746 275747 275748 275749 275750 275751 [...] (4005591 flits)
Measured flits: 448056 448057 448058 448059 448060 448061 448062 448063 448064 448065 [...] (48875 flits)
Class 0:
Remaining flits: 275742 275743 275744 275745 275746 275747 275748 275749 275750 275751 [...] (4043632 flits)
Measured flits: 448056 448057 448058 448059 448060 448061 448062 448063 448064 448065 [...] (44446 flits)
Class 0:
Remaining flits: 275742 275743 275744 275745 275746 275747 275748 275749 275750 275751 [...] (4073942 flits)
Measured flits: 448056 448057 448058 448059 448060 448061 448062 448063 448064 448065 [...] (40479 flits)
Class 0:
Remaining flits: 275742 275743 275744 275745 275746 275747 275748 275749 275750 275751 [...] (4094514 flits)
Measured flits: 448056 448057 448058 448059 448060 448061 448062 448063 448064 448065 [...] (37069 flits)
Class 0:
Remaining flits: 275742 275743 275744 275745 275746 275747 275748 275749 275750 275751 [...] (4108583 flits)
Measured flits: 448056 448057 448058 448059 448060 448061 448062 448063 448064 448065 [...] (34074 flits)
Class 0:
Remaining flits: 275742 275743 275744 275745 275746 275747 275748 275749 275750 275751 [...] (4117726 flits)
Measured flits: 448056 448057 448058 448059 448060 448061 448062 448063 448064 448065 [...] (31254 flits)
Class 0:
Remaining flits: 275742 275743 275744 275745 275746 275747 275748 275749 275750 275751 [...] (4132255 flits)
Measured flits: 448056 448057 448058 448059 448060 448061 448062 448063 448064 448065 [...] (28546 flits)
Class 0:
Remaining flits: 275742 275743 275744 275745 275746 275747 275748 275749 275750 275751 [...] (4144776 flits)
Measured flits: 448056 448057 448058 448059 448060 448061 448062 448063 448064 448065 [...] (25969 flits)
Class 0:
Remaining flits: 275742 275743 275744 275745 275746 275747 275748 275749 275750 275751 [...] (4151542 flits)
Measured flits: 448056 448057 448058 448059 448060 448061 448062 448063 448064 448065 [...] (23260 flits)
Class 0:
Remaining flits: 275742 275743 275744 275745 275746 275747 275748 275749 275750 275751 [...] (4160028 flits)
Measured flits: 448056 448057 448058 448059 448060 448061 448062 448063 448064 448065 [...] (20773 flits)
Class 0:
Remaining flits: 275742 275743 275744 275745 275746 275747 275748 275749 275750 275751 [...] (4167757 flits)
Measured flits: 448056 448057 448058 448059 448060 448061 448062 448063 448064 448065 [...] (18792 flits)
Class 0:
Remaining flits: 448056 448057 448058 448059 448060 448061 448062 448063 448064 448065 [...] (4179003 flits)
Measured flits: 448056 448057 448058 448059 448060 448061 448062 448063 448064 448065 [...] (16863 flits)
Class 0:
Remaining flits: 448056 448057 448058 448059 448060 448061 448062 448063 448064 448065 [...] (4188795 flits)
Measured flits: 448056 448057 448058 448059 448060 448061 448062 448063 448064 448065 [...] (15217 flits)
Class 0:
Remaining flits: 448056 448057 448058 448059 448060 448061 448062 448063 448064 448065 [...] (4196791 flits)
Measured flits: 448056 448057 448058 448059 448060 448061 448062 448063 448064 448065 [...] (13585 flits)
Class 0:
Remaining flits: 448056 448057 448058 448059 448060 448061 448062 448063 448064 448065 [...] (4208600 flits)
Measured flits: 448056 448057 448058 448059 448060 448061 448062 448063 448064 448065 [...] (12105 flits)
Class 0:
Remaining flits: 448056 448057 448058 448059 448060 448061 448062 448063 448064 448065 [...] (4217853 flits)
Measured flits: 448056 448057 448058 448059 448060 448061 448062 448063 448064 448065 [...] (10872 flits)
Class 0:
Remaining flits: 448056 448057 448058 448059 448060 448061 448062 448063 448064 448065 [...] (4227869 flits)
Measured flits: 448056 448057 448058 448059 448060 448061 448062 448063 448064 448065 [...] (9971 flits)
Class 0:
Remaining flits: 448056 448057 448058 448059 448060 448061 448062 448063 448064 448065 [...] (4239113 flits)
Measured flits: 448056 448057 448058 448059 448060 448061 448062 448063 448064 448065 [...] (8711 flits)
Class 0:
Remaining flits: 559512 559513 559514 559515 559516 559517 559518 559519 559520 559521 [...] (4250449 flits)
Measured flits: 559512 559513 559514 559515 559516 559517 559518 559519 559520 559521 [...] (7796 flits)
Class 0:
Remaining flits: 559512 559513 559514 559515 559516 559517 559518 559519 559520 559521 [...] (4260742 flits)
Measured flits: 559512 559513 559514 559515 559516 559517 559518 559519 559520 559521 [...] (6741 flits)
Class 0:
Remaining flits: 559512 559513 559514 559515 559516 559517 559518 559519 559520 559521 [...] (4269605 flits)
Measured flits: 559512 559513 559514 559515 559516 559517 559518 559519 559520 559521 [...] (6188 flits)
Class 0:
Remaining flits: 559512 559513 559514 559515 559516 559517 559518 559519 559520 559521 [...] (4281950 flits)
Measured flits: 559512 559513 559514 559515 559516 559517 559518 559519 559520 559521 [...] (5931 flits)
Class 0:
Remaining flits: 559512 559513 559514 559515 559516 559517 559518 559519 559520 559521 [...] (4296089 flits)
Measured flits: 559512 559513 559514 559515 559516 559517 559518 559519 559520 559521 [...] (5411 flits)
Class 0:
Remaining flits: 559512 559513 559514 559515 559516 559517 559518 559519 559520 559521 [...] (4306883 flits)
Measured flits: 559512 559513 559514 559515 559516 559517 559518 559519 559520 559521 [...] (4711 flits)
Class 0:
Remaining flits: 559516 559517 559518 559519 559520 559521 559522 559523 559524 559525 [...] (4319384 flits)
Measured flits: 559516 559517 559518 559519 559520 559521 559522 559523 559524 559525 [...] (4298 flits)
Class 0:
Remaining flits: 578574 578575 578576 578577 578578 578579 578580 578581 578582 578583 [...] (4330835 flits)
Measured flits: 578574 578575 578576 578577 578578 578579 578580 578581 578582 578583 [...] (4007 flits)
Class 0:
Remaining flits: 578574 578575 578576 578577 578578 578579 578580 578581 578582 578583 [...] (4341015 flits)
Measured flits: 578574 578575 578576 578577 578578 578579 578580 578581 578582 578583 [...] (3541 flits)
Class 0:
Remaining flits: 578574 578575 578576 578577 578578 578579 578580 578581 578582 578583 [...] (4350911 flits)
Measured flits: 578574 578575 578576 578577 578578 578579 578580 578581 578582 578583 [...] (3270 flits)
Class 0:
Remaining flits: 578574 578575 578576 578577 578578 578579 578580 578581 578582 578583 [...] (4366259 flits)
Measured flits: 578574 578575 578576 578577 578578 578579 578580 578581 578582 578583 [...] (2911 flits)
Class 0:
Remaining flits: 578574 578575 578576 578577 578578 578579 578580 578581 578582 578583 [...] (4376818 flits)
Measured flits: 578574 578575 578576 578577 578578 578579 578580 578581 578582 578583 [...] (2683 flits)
Class 0:
Remaining flits: 578574 578575 578576 578577 578578 578579 578580 578581 578582 578583 [...] (4389319 flits)
Measured flits: 578574 578575 578576 578577 578578 578579 578580 578581 578582 578583 [...] (2548 flits)
Class 0:
Remaining flits: 578574 578575 578576 578577 578578 578579 578580 578581 578582 578583 [...] (4401769 flits)
Measured flits: 578574 578575 578576 578577 578578 578579 578580 578581 578582 578583 [...] (2331 flits)
Class 0:
Remaining flits: 578574 578575 578576 578577 578578 578579 578580 578581 578582 578583 [...] (4415825 flits)
Measured flits: 578574 578575 578576 578577 578578 578579 578580 578581 578582 578583 [...] (2002 flits)
Class 0:
Remaining flits: 578574 578575 578576 578577 578578 578579 578580 578581 578582 578583 [...] (4424520 flits)
Measured flits: 578574 578575 578576 578577 578578 578579 578580 578581 578582 578583 [...] (1749 flits)
Class 0:
Remaining flits: 578574 578575 578576 578577 578578 578579 578580 578581 578582 578583 [...] (4437101 flits)
Measured flits: 578574 578575 578576 578577 578578 578579 578580 578581 578582 578583 [...] (1556 flits)
Class 0:
Remaining flits: 578574 578575 578576 578577 578578 578579 578580 578581 578582 578583 [...] (4450182 flits)
Measured flits: 578574 578575 578576 578577 578578 578579 578580 578581 578582 578583 [...] (1387 flits)
Class 0:
Remaining flits: 590873 590874 590875 590876 590877 590878 590879 590880 590881 590882 [...] (4462976 flits)
Measured flits: 590873 590874 590875 590876 590877 590878 590879 590880 590881 590882 [...] (1252 flits)
Class 0:
Remaining flits: 590885 771066 771067 771068 771069 771070 771071 771072 771073 771074 [...] (4472258 flits)
Measured flits: 590885 771066 771067 771068 771069 771070 771071 771072 771073 771074 [...] (1111 flits)
Class 0:
Remaining flits: 590885 771066 771067 771068 771069 771070 771071 771072 771073 771074 [...] (4484590 flits)
Measured flits: 590885 771066 771067 771068 771069 771070 771071 771072 771073 771074 [...] (972 flits)
Class 0:
Remaining flits: 590885 771066 771067 771068 771069 771070 771071 771072 771073 771074 [...] (4498242 flits)
Measured flits: 590885 771066 771067 771068 771069 771070 771071 771072 771073 771074 [...] (891 flits)
Class 0:
Remaining flits: 590885 771066 771067 771068 771069 771070 771071 771072 771073 771074 [...] (4511080 flits)
Measured flits: 590885 771066 771067 771068 771069 771070 771071 771072 771073 771074 [...] (746 flits)
Class 0:
Remaining flits: 590885 771066 771067 771068 771069 771070 771071 771072 771073 771074 [...] (4526721 flits)
Measured flits: 590885 771066 771067 771068 771069 771070 771071 771072 771073 771074 [...] (717 flits)
Class 0:
Remaining flits: 590885 771066 771067 771068 771069 771070 771071 771072 771073 771074 [...] (4534261 flits)
Measured flits: 590885 771066 771067 771068 771069 771070 771071 771072 771073 771074 [...] (667 flits)
Class 0:
Remaining flits: 590885 771066 771067 771068 771069 771070 771071 771072 771073 771074 [...] (4545070 flits)
Measured flits: 590885 771066 771067 771068 771069 771070 771071 771072 771073 771074 [...] (595 flits)
Class 0:
Remaining flits: 590885 771066 771067 771068 771069 771070 771071 771072 771073 771074 [...] (4556993 flits)
Measured flits: 590885 771066 771067 771068 771069 771070 771071 771072 771073 771074 [...] (577 flits)
Class 0:
Remaining flits: 590885 771066 771067 771068 771069 771070 771071 771072 771073 771074 [...] (4564840 flits)
Measured flits: 590885 771066 771067 771068 771069 771070 771071 771072 771073 771074 [...] (523 flits)
Class 0:
Remaining flits: 771073 771074 771075 771076 771077 771078 771079 771080 771081 771082 [...] (4571561 flits)
Measured flits: 771073 771074 771075 771076 771077 771078 771079 771080 771081 771082 [...] (461 flits)
Class 0:
Remaining flits: 890622 890623 890624 890625 890626 890627 890628 890629 890630 890631 [...] (4584109 flits)
Measured flits: 890622 890623 890624 890625 890626 890627 890628 890629 890630 890631 [...] (396 flits)
Class 0:
Remaining flits: 890622 890623 890624 890625 890626 890627 890628 890629 890630 890631 [...] (4592003 flits)
Measured flits: 890622 890623 890624 890625 890626 890627 890628 890629 890630 890631 [...] (342 flits)
Class 0:
Remaining flits: 890622 890623 890624 890625 890626 890627 890628 890629 890630 890631 [...] (4599927 flits)
Measured flits: 890622 890623 890624 890625 890626 890627 890628 890629 890630 890631 [...] (342 flits)
Class 0:
Remaining flits: 890622 890623 890624 890625 890626 890627 890628 890629 890630 890631 [...] (4610207 flits)
Measured flits: 890622 890623 890624 890625 890626 890627 890628 890629 890630 890631 [...] (342 flits)
Class 0:
Remaining flits: 891954 891955 891956 891957 891958 891959 891960 891961 891962 891963 [...] (4622831 flits)
Measured flits: 891954 891955 891956 891957 891958 891959 891960 891961 891962 891963 [...] (270 flits)
Class 0:
Remaining flits: 891954 891955 891956 891957 891958 891959 891960 891961 891962 891963 [...] (4633321 flits)
Measured flits: 891954 891955 891956 891957 891958 891959 891960 891961 891962 891963 [...] (216 flits)
Class 0:
Remaining flits: 1111284 1111285 1111286 1111287 1111288 1111289 1111290 1111291 1111292 1111293 [...] (4639103 flits)
Measured flits: 1111284 1111285 1111286 1111287 1111288 1111289 1111290 1111291 1111292 1111293 [...] (179 flits)
Class 0:
Remaining flits: 1111284 1111285 1111286 1111287 1111288 1111289 1111290 1111291 1111292 1111293 [...] (4650636 flits)
Measured flits: 1111284 1111285 1111286 1111287 1111288 1111289 1111290 1111291 1111292 1111293 [...] (167 flits)
Class 0:
Remaining flits: 1210140 1210141 1210142 1210143 1210144 1210145 1210146 1210147 1210148 1210149 [...] (4659562 flits)
Measured flits: 1210140 1210141 1210142 1210143 1210144 1210145 1210146 1210147 1210148 1210149 [...] (54 flits)
Class 0:
Remaining flits: 1210140 1210141 1210142 1210143 1210144 1210145 1210146 1210147 1210148 1210149 [...] (4668104 flits)
Measured flits: 1210140 1210141 1210142 1210143 1210144 1210145 1210146 1210147 1210148 1210149 [...] (54 flits)
Class 0:
Remaining flits: 1210140 1210141 1210142 1210143 1210144 1210145 1210146 1210147 1210148 1210149 [...] (4674830 flits)
Measured flits: 1210140 1210141 1210142 1210143 1210144 1210145 1210146 1210147 1210148 1210149 [...] (54 flits)
Class 0:
Remaining flits: 1210140 1210141 1210142 1210143 1210144 1210145 1210146 1210147 1210148 1210149 [...] (4682894 flits)
Measured flits: 1210140 1210141 1210142 1210143 1210144 1210145 1210146 1210147 1210148 1210149 [...] (54 flits)
Class 0:
Remaining flits: 1210140 1210141 1210142 1210143 1210144 1210145 1210146 1210147 1210148 1210149 [...] (4690610 flits)
Measured flits: 1210140 1210141 1210142 1210143 1210144 1210145 1210146 1210147 1210148 1210149 [...] (54 flits)
Class 0:
Remaining flits: 1210140 1210141 1210142 1210143 1210144 1210145 1210146 1210147 1210148 1210149 [...] (4698602 flits)
Measured flits: 1210140 1210141 1210142 1210143 1210144 1210145 1210146 1210147 1210148 1210149 [...] (54 flits)
Class 0:
Remaining flits: 1210140 1210141 1210142 1210143 1210144 1210145 1210146 1210147 1210148 1210149 [...] (4708787 flits)
Measured flits: 1210140 1210141 1210142 1210143 1210144 1210145 1210146 1210147 1210148 1210149 [...] (54 flits)
Class 0:
Remaining flits: 1210140 1210141 1210142 1210143 1210144 1210145 1210146 1210147 1210148 1210149 [...] (4712792 flits)
Measured flits: 1210140 1210141 1210142 1210143 1210144 1210145 1210146 1210147 1210148 1210149 [...] (54 flits)
Class 0:
Remaining flits: 1210140 1210141 1210142 1210143 1210144 1210145 1210146 1210147 1210148 1210149 [...] (4719852 flits)
Measured flits: 1210140 1210141 1210142 1210143 1210144 1210145 1210146 1210147 1210148 1210149 [...] (54 flits)
Class 0:
Remaining flits: 1210140 1210141 1210142 1210143 1210144 1210145 1210146 1210147 1210148 1210149 [...] (4723963 flits)
Measured flits: 1210140 1210141 1210142 1210143 1210144 1210145 1210146 1210147 1210148 1210149 [...] (54 flits)
Class 0:
Remaining flits: 1210140 1210141 1210142 1210143 1210144 1210145 1210146 1210147 1210148 1210149 [...] (4730477 flits)
Measured flits: 1210140 1210141 1210142 1210143 1210144 1210145 1210146 1210147 1210148 1210149 [...] (54 flits)
Class 0:
Remaining flits: 1210140 1210141 1210142 1210143 1210144 1210145 1210146 1210147 1210148 1210149 [...] (4735720 flits)
Measured flits: 1210140 1210141 1210142 1210143 1210144 1210145 1210146 1210147 1210148 1210149 [...] (54 flits)
Class 0:
Remaining flits: 1210140 1210141 1210142 1210143 1210144 1210145 1210146 1210147 1210148 1210149 [...] (4742607 flits)
Measured flits: 1210140 1210141 1210142 1210143 1210144 1210145 1210146 1210147 1210148 1210149 [...] (54 flits)
Class 0:
Remaining flits: 1349100 1349101 1349102 1349103 1349104 1349105 1349106 1349107 1349108 1349109 [...] (4743628 flits)
Measured flits: 1349100 1349101 1349102 1349103 1349104 1349105 1349106 1349107 1349108 1349109 [...] (36 flits)
Class 0:
Remaining flits: 1349100 1349101 1349102 1349103 1349104 1349105 1349106 1349107 1349108 1349109 [...] (4749806 flits)
Measured flits: 1349100 1349101 1349102 1349103 1349104 1349105 1349106 1349107 1349108 1349109 [...] (36 flits)
Class 0:
Remaining flits: 1349100 1349101 1349102 1349103 1349104 1349105 1349106 1349107 1349108 1349109 [...] (4759130 flits)
Measured flits: 1349100 1349101 1349102 1349103 1349104 1349105 1349106 1349107 1349108 1349109 [...] (36 flits)
Class 0:
Remaining flits: 1384434 1384435 1384436 1384437 1384438 1384439 1384440 1384441 1384442 1384443 [...] (4765817 flits)
Measured flits: 1384434 1384435 1384436 1384437 1384438 1384439 1384440 1384441 1384442 1384443 [...] (18 flits)
Class 0:
Remaining flits: 1384434 1384435 1384436 1384437 1384438 1384439 1384440 1384441 1384442 1384443 [...] (4773825 flits)
Measured flits: 1384434 1384435 1384436 1384437 1384438 1384439 1384440 1384441 1384442 1384443 [...] (18 flits)
Class 0:
Remaining flits: 1384434 1384435 1384436 1384437 1384438 1384439 1384440 1384441 1384442 1384443 [...] (4783674 flits)
Measured flits: 1384434 1384435 1384436 1384437 1384438 1384439 1384440 1384441 1384442 1384443 [...] (18 flits)
Class 0:
Remaining flits: 1384434 1384435 1384436 1384437 1384438 1384439 1384440 1384441 1384442 1384443 [...] (4792101 flits)
Measured flits: 1384434 1384435 1384436 1384437 1384438 1384439 1384440 1384441 1384442 1384443 [...] (18 flits)
Class 0:
Remaining flits: 1384434 1384435 1384436 1384437 1384438 1384439 1384440 1384441 1384442 1384443 [...] (4801153 flits)
Measured flits: 1384434 1384435 1384436 1384437 1384438 1384439 1384440 1384441 1384442 1384443 [...] (18 flits)
Draining remaining packets ...
Class 0:
Remaining flits: 1498536 1498537 1498538 1498539 1498540 1498541 1498542 1498543 1498544 1498545 [...] (4773607 flits)
Measured flits: (0 flits)
Class 0:
Remaining flits: 1498536 1498537 1498538 1498539 1498540 1498541 1498542 1498543 1498544 1498545 [...] (4740842 flits)
Measured flits: (0 flits)
Class 0:
Remaining flits: 1498536 1498537 1498538 1498539 1498540 1498541 1498542 1498543 1498544 1498545 [...] (4707403 flits)
Measured flits: (0 flits)
Class 0:
Remaining flits: 1498536 1498537 1498538 1498539 1498540 1498541 1498542 1498543 1498544 1498545 [...] (4673262 flits)
Measured flits: (0 flits)
Class 0:
Remaining flits: 1498536 1498537 1498538 1498539 1498540 1498541 1498542 1498543 1498544 1498545 [...] (4639435 flits)
Measured flits: (0 flits)
Class 0:
Remaining flits: 1498536 1498537 1498538 1498539 1498540 1498541 1498542 1498543 1498544 1498545 [...] (4606618 flits)
Measured flits: (0 flits)
Class 0:
Remaining flits: 1498536 1498537 1498538 1498539 1498540 1498541 1498542 1498543 1498544 1498545 [...] (4574730 flits)
Measured flits: (0 flits)
Class 0:
Remaining flits: 1498536 1498537 1498538 1498539 1498540 1498541 1498542 1498543 1498544 1498545 [...] (4542620 flits)
Measured flits: (0 flits)
Class 0:
Remaining flits: 1498536 1498537 1498538 1498539 1498540 1498541 1498542 1498543 1498544 1498545 [...] (4510541 flits)
Measured flits: (0 flits)
Class 0:
Remaining flits: 1498536 1498537 1498538 1498539 1498540 1498541 1498542 1498543 1498544 1498545 [...] (4477929 flits)
Measured flits: (0 flits)
Class 0:
Remaining flits: 1498536 1498537 1498538 1498539 1498540 1498541 1498542 1498543 1498544 1498545 [...] (4445593 flits)
Measured flits: (0 flits)
Class 0:
Remaining flits: 1498536 1498537 1498538 1498539 1498540 1498541 1498542 1498543 1498544 1498545 [...] (4411991 flits)
Measured flits: (0 flits)
Class 0:
Remaining flits: 1498536 1498537 1498538 1498539 1498540 1498541 1498542 1498543 1498544 1498545 [...] (4378624 flits)
Measured flits: (0 flits)
Class 0:
Remaining flits: 1498536 1498537 1498538 1498539 1498540 1498541 1498542 1498543 1498544 1498545 [...] (4345514 flits)
Measured flits: (0 flits)
Class 0:
Remaining flits: 1498536 1498537 1498538 1498539 1498540 1498541 1498542 1498543 1498544 1498545 [...] (4312868 flits)
Measured flits: (0 flits)
Class 0:
Remaining flits: 1608156 1608157 1608158 1608159 1608160 1608161 1608162 1608163 1608164 1608165 [...] (4279503 flits)
Measured flits: (0 flits)
Class 0:
Remaining flits: 1728036 1728037 1728038 1728039 1728040 1728041 1728042 1728043 1728044 1728045 [...] (4246915 flits)
Measured flits: (0 flits)
Class 0:
Remaining flits: 1728036 1728037 1728038 1728039 1728040 1728041 1728042 1728043 1728044 1728045 [...] (4213740 flits)
Measured flits: (0 flits)
Class 0:
Remaining flits: 1728036 1728037 1728038 1728039 1728040 1728041 1728042 1728043 1728044 1728045 [...] (4180302 flits)
Measured flits: (0 flits)
Class 0:
Remaining flits: 1728036 1728037 1728038 1728039 1728040 1728041 1728042 1728043 1728044 1728045 [...] (4147271 flits)
Measured flits: (0 flits)
Class 0:
Remaining flits: 1728036 1728037 1728038 1728039 1728040 1728041 1728042 1728043 1728044 1728045 [...] (4113657 flits)
Measured flits: (0 flits)
Class 0:
Remaining flits: 1783998 1783999 1784000 1784001 1784002 1784003 1784004 1784005 1784006 1784007 [...] (4080588 flits)
Measured flits: (0 flits)
Class 0:
Remaining flits: 1783998 1783999 1784000 1784001 1784002 1784003 1784004 1784005 1784006 1784007 [...] (4046713 flits)
Measured flits: (0 flits)
Class 0:
Remaining flits: 1783998 1783999 1784000 1784001 1784002 1784003 1784004 1784005 1784006 1784007 [...] (4013210 flits)
Measured flits: (0 flits)
Class 0:
Remaining flits: 1783998 1783999 1784000 1784001 1784002 1784003 1784004 1784005 1784006 1784007 [...] (3980100 flits)
Measured flits: (0 flits)
Class 0:
Remaining flits: 1783998 1783999 1784000 1784001 1784002 1784003 1784004 1784005 1784006 1784007 [...] (3947785 flits)
Measured flits: (0 flits)
Class 0:
Remaining flits: 1783998 1783999 1784000 1784001 1784002 1784003 1784004 1784005 1784006 1784007 [...] (3914907 flits)
Measured flits: (0 flits)
Class 0:
Remaining flits: 1783998 1783999 1784000 1784001 1784002 1784003 1784004 1784005 1784006 1784007 [...] (3881755 flits)
Measured flits: (0 flits)
Class 0:
Remaining flits: 1783998 1783999 1784000 1784001 1784002 1784003 1784004 1784005 1784006 1784007 [...] (3848771 flits)
Measured flits: (0 flits)
Class 0:
Remaining flits: 2056752 2056753 2056754 2056755 2056756 2056757 2056758 2056759 2056760 2056761 [...] (3816090 flits)
Measured flits: (0 flits)
Class 0:
Remaining flits: 2056752 2056753 2056754 2056755 2056756 2056757 2056758 2056759 2056760 2056761 [...] (3782361 flits)
Measured flits: (0 flits)
Class 0:
Remaining flits: 2056752 2056753 2056754 2056755 2056756 2056757 2056758 2056759 2056760 2056761 [...] (3749214 flits)
Measured flits: (0 flits)
Class 0:
Remaining flits: 2056752 2056753 2056754 2056755 2056756 2056757 2056758 2056759 2056760 2056761 [...] (3717152 flits)
Measured flits: (0 flits)
Class 0:
Remaining flits: 2056752 2056753 2056754 2056755 2056756 2056757 2056758 2056759 2056760 2056761 [...] (3685490 flits)
Measured flits: (0 flits)
Class 0:
Remaining flits: 2056752 2056753 2056754 2056755 2056756 2056757 2056758 2056759 2056760 2056761 [...] (3652713 flits)
Measured flits: (0 flits)
Class 0:
Remaining flits: 2193786 2193787 2193788 2193789 2193790 2193791 2193792 2193793 2193794 2193795 [...] (3619152 flits)
Measured flits: (0 flits)
Class 0:
Remaining flits: 2265966 2265967 2265968 2265969 2265970 2265971 2265972 2265973 2265974 2265975 [...] (3585431 flits)
Measured flits: (0 flits)
Class 0:
Remaining flits: 2265966 2265967 2265968 2265969 2265970 2265971 2265972 2265973 2265974 2265975 [...] (3551813 flits)
Measured flits: (0 flits)
Class 0:
Remaining flits: 2265966 2265967 2265968 2265969 2265970 2265971 2265972 2265973 2265974 2265975 [...] (3519417 flits)
Measured flits: (0 flits)
Class 0:
Remaining flits: 2265966 2265967 2265968 2265969 2265970 2265971 2265972 2265973 2265974 2265975 [...] (3486503 flits)
Measured flits: (0 flits)
Class 0:
Remaining flits: 2265966 2265967 2265968 2265969 2265970 2265971 2265972 2265973 2265974 2265975 [...] (3454534 flits)
Measured flits: (0 flits)
Class 0:
Remaining flits: 2368674 2368675 2368676 2368677 2368678 2368679 2368680 2368681 2368682 2368683 [...] (3421646 flits)
Measured flits: (0 flits)
Class 0:
Remaining flits: 2368674 2368675 2368676 2368677 2368678 2368679 2368680 2368681 2368682 2368683 [...] (3388945 flits)
Measured flits: (0 flits)
Class 0:
Remaining flits: 2368674 2368675 2368676 2368677 2368678 2368679 2368680 2368681 2368682 2368683 [...] (3355822 flits)
Measured flits: (0 flits)
Class 0:
Remaining flits: 2368674 2368675 2368676 2368677 2368678 2368679 2368680 2368681 2368682 2368683 [...] (3324284 flits)
Measured flits: (0 flits)
Class 0:
Remaining flits: 2368674 2368675 2368676 2368677 2368678 2368679 2368680 2368681 2368682 2368683 [...] (3294090 flits)
Measured flits: (0 flits)
Class 0:
Remaining flits: 2368674 2368675 2368676 2368677 2368678 2368679 2368680 2368681 2368682 2368683 [...] (3262022 flits)
Measured flits: (0 flits)
Class 0:
Remaining flits: 2368674 2368675 2368676 2368677 2368678 2368679 2368680 2368681 2368682 2368683 [...] (3231094 flits)
Measured flits: (0 flits)
Class 0:
Remaining flits: 2368674 2368675 2368676 2368677 2368678 2368679 2368680 2368681 2368682 2368683 [...] (3200120 flits)
Measured flits: (0 flits)
Class 0:
Remaining flits: 2368674 2368675 2368676 2368677 2368678 2368679 2368680 2368681 2368682 2368683 [...] (3167320 flits)
Measured flits: (0 flits)
Class 0:
Remaining flits: 2368674 2368675 2368676 2368677 2368678 2368679 2368680 2368681 2368682 2368683 [...] (3134723 flits)
Measured flits: (0 flits)
Class 0:
Remaining flits: 2368674 2368675 2368676 2368677 2368678 2368679 2368680 2368681 2368682 2368683 [...] (3102425 flits)
Measured flits: (0 flits)
Class 0:
Remaining flits: 2368674 2368675 2368676 2368677 2368678 2368679 2368680 2368681 2368682 2368683 [...] (3070406 flits)
Measured flits: (0 flits)
Class 0:
Remaining flits: 2368674 2368675 2368676 2368677 2368678 2368679 2368680 2368681 2368682 2368683 [...] (3037890 flits)
Measured flits: (0 flits)
Class 0:
Remaining flits: 2368674 2368675 2368676 2368677 2368678 2368679 2368680 2368681 2368682 2368683 [...] (3004670 flits)
Measured flits: (0 flits)
Class 0:
Remaining flits: 2368674 2368675 2368676 2368677 2368678 2368679 2368680 2368681 2368682 2368683 [...] (2972591 flits)
Measured flits: (0 flits)
Class 0:
Remaining flits: 2368674 2368675 2368676 2368677 2368678 2368679 2368680 2368681 2368682 2368683 [...] (2940973 flits)
Measured flits: (0 flits)
Class 0:
Remaining flits: 2368674 2368675 2368676 2368677 2368678 2368679 2368680 2368681 2368682 2368683 [...] (2910386 flits)
Measured flits: (0 flits)
Class 0:
Remaining flits: 2368674 2368675 2368676 2368677 2368678 2368679 2368680 2368681 2368682 2368683 [...] (2879534 flits)
Measured flits: (0 flits)
Class 0:
Remaining flits: 2368674 2368675 2368676 2368677 2368678 2368679 2368680 2368681 2368682 2368683 [...] (2849046 flits)
Measured flits: (0 flits)
Class 0:
Remaining flits: 2368674 2368675 2368676 2368677 2368678 2368679 2368680 2368681 2368682 2368683 [...] (2817512 flits)
Measured flits: (0 flits)
Class 0:
Remaining flits: 2368674 2368675 2368676 2368677 2368678 2368679 2368680 2368681 2368682 2368683 [...] (2785079 flits)
Measured flits: (0 flits)
Class 0:
Remaining flits: 2368674 2368675 2368676 2368677 2368678 2368679 2368680 2368681 2368682 2368683 [...] (2752789 flits)
Measured flits: (0 flits)
Class 0:
Remaining flits: 2368675 2368676 2368677 2368678 2368679 2368680 2368681 2368682 2368683 2368684 [...] (2720339 flits)
Measured flits: (0 flits)
Class 0:
Remaining flits: 2368675 2368676 2368677 2368678 2368679 2368680 2368681 2368682 2368683 2368684 [...] (2687795 flits)
Measured flits: (0 flits)
Class 0:
Remaining flits: 2368675 2368676 2368677 2368678 2368679 2368680 2368681 2368682 2368683 2368684 [...] (2655400 flits)
Measured flits: (0 flits)
Class 0:
Remaining flits: 2368675 2368676 2368677 2368678 2368679 2368680 2368681 2368682 2368683 2368684 [...] (2622354 flits)
Measured flits: (0 flits)
Class 0:
Remaining flits: 2368675 2368676 2368677 2368678 2368679 2368680 2368681 2368682 2368683 2368684 [...] (2589353 flits)
Measured flits: (0 flits)
Class 0:
Remaining flits: 2490516 2490517 2490518 2490519 2490520 2490521 2490522 2490523 2490524 2490525 [...] (2557301 flits)
Measured flits: (0 flits)
Class 0:
Remaining flits: 2490516 2490517 2490518 2490519 2490520 2490521 2490522 2490523 2490524 2490525 [...] (2525351 flits)
Measured flits: (0 flits)
Class 0:
Remaining flits: 2490516 2490517 2490518 2490519 2490520 2490521 2490522 2490523 2490524 2490525 [...] (2493033 flits)
Measured flits: (0 flits)
Class 0:
Remaining flits: 2490516 2490517 2490518 2490519 2490520 2490521 2490522 2490523 2490524 2490525 [...] (2461403 flits)
Measured flits: (0 flits)
Class 0:
Remaining flits: 2490516 2490517 2490518 2490519 2490520 2490521 2490522 2490523 2490524 2490525 [...] (2429237 flits)
Measured flits: (0 flits)
Class 0:
Remaining flits: 2490516 2490517 2490518 2490519 2490520 2490521 2490522 2490523 2490524 2490525 [...] (2398075 flits)
Measured flits: (0 flits)
Class 0:
Remaining flits: 2490516 2490517 2490518 2490519 2490520 2490521 2490522 2490523 2490524 2490525 [...] (2366731 flits)
Measured flits: (0 flits)
Class 0:
Remaining flits: 2490516 2490517 2490518 2490519 2490520 2490521 2490522 2490523 2490524 2490525 [...] (2334512 flits)
Measured flits: (0 flits)
Class 0:
Remaining flits: 2490516 2490517 2490518 2490519 2490520 2490521 2490522 2490523 2490524 2490525 [...] (2302038 flits)
Measured flits: (0 flits)
Class 0:
Remaining flits: 2490516 2490517 2490518 2490519 2490520 2490521 2490522 2490523 2490524 2490525 [...] (2270026 flits)
Measured flits: (0 flits)
Class 0:
Remaining flits: 2781598 2781599 2781600 2781601 2781602 2781603 2781604 2781605 2781606 2781607 [...] (2237431 flits)
Measured flits: (0 flits)
Class 0:
Remaining flits: 2926242 2926243 2926244 2926245 2926246 2926247 2926248 2926249 2926250 2926251 [...] (2204210 flits)
Measured flits: (0 flits)
Class 0:
Remaining flits: 2926242 2926243 2926244 2926245 2926246 2926247 2926248 2926249 2926250 2926251 [...] (2171946 flits)
Measured flits: (0 flits)
Class 0:
Remaining flits: 2926242 2926243 2926244 2926245 2926246 2926247 2926248 2926249 2926250 2926251 [...] (2139000 flits)
Measured flits: (0 flits)
Class 0:
Remaining flits: 2926242 2926243 2926244 2926245 2926246 2926247 2926248 2926249 2926250 2926251 [...] (2106130 flits)
Measured flits: (0 flits)
Class 0:
Remaining flits: 3058362 3058363 3058364 3058365 3058366 3058367 3058368 3058369 3058370 3058371 [...] (2073383 flits)
Measured flits: (0 flits)
Class 0:
Remaining flits: 3058362 3058363 3058364 3058365 3058366 3058367 3058368 3058369 3058370 3058371 [...] (2041120 flits)
Measured flits: (0 flits)
Class 0:
Remaining flits: 3154014 3154015 3154016 3154017 3154018 3154019 3154020 3154021 3154022 3154023 [...] (2008935 flits)
Measured flits: (0 flits)
Class 0:
Remaining flits: 3154014 3154015 3154016 3154017 3154018 3154019 3154020 3154021 3154022 3154023 [...] (1976270 flits)
Measured flits: (0 flits)
Class 0:
Remaining flits: 3154014 3154015 3154016 3154017 3154018 3154019 3154020 3154021 3154022 3154023 [...] (1943644 flits)
Measured flits: (0 flits)
Class 0:
Remaining flits: 3154014 3154015 3154016 3154017 3154018 3154019 3154020 3154021 3154022 3154023 [...] (1912530 flits)
Measured flits: (0 flits)
Class 0:
Remaining flits: 3154014 3154015 3154016 3154017 3154018 3154019 3154020 3154021 3154022 3154023 [...] (1881427 flits)
Measured flits: (0 flits)
Class 0:
Remaining flits: 3154014 3154015 3154016 3154017 3154018 3154019 3154020 3154021 3154022 3154023 [...] (1849934 flits)
Measured flits: (0 flits)
Class 0:
Remaining flits: 3154014 3154015 3154016 3154017 3154018 3154019 3154020 3154021 3154022 3154023 [...] (1818075 flits)
Measured flits: (0 flits)
Class 0:
Remaining flits: 3154014 3154015 3154016 3154017 3154018 3154019 3154020 3154021 3154022 3154023 [...] (1785670 flits)
Measured flits: (0 flits)
Class 0:
Remaining flits: 3154014 3154015 3154016 3154017 3154018 3154019 3154020 3154021 3154022 3154023 [...] (1752763 flits)
Measured flits: (0 flits)
Class 0:
Remaining flits: 3154014 3154015 3154016 3154017 3154018 3154019 3154020 3154021 3154022 3154023 [...] (1721036 flits)
Measured flits: (0 flits)
Class 0:
Remaining flits: 3154014 3154015 3154016 3154017 3154018 3154019 3154020 3154021 3154022 3154023 [...] (1690218 flits)
Measured flits: (0 flits)
Class 0:
Remaining flits: 3154014 3154015 3154016 3154017 3154018 3154019 3154020 3154021 3154022 3154023 [...] (1657760 flits)
Measured flits: (0 flits)
Class 0:
Remaining flits: 3154014 3154015 3154016 3154017 3154018 3154019 3154020 3154021 3154022 3154023 [...] (1625975 flits)
Measured flits: (0 flits)
Class 0:
Remaining flits: 3154014 3154015 3154016 3154017 3154018 3154019 3154020 3154021 3154022 3154023 [...] (1594681 flits)
Measured flits: (0 flits)
Class 0:
Remaining flits: 3257028 3257029 3257030 3257031 3257032 3257033 3257034 3257035 3257036 3257037 [...] (1563081 flits)
Measured flits: (0 flits)
Class 0:
Remaining flits: 3257028 3257029 3257030 3257031 3257032 3257033 3257034 3257035 3257036 3257037 [...] (1531233 flits)
Measured flits: (0 flits)
Class 0:
Remaining flits: 3666798 3666799 3666800 3666801 3666802 3666803 3666804 3666805 3666806 3666807 [...] (1498831 flits)
Measured flits: (0 flits)
Class 0:
Remaining flits: 3673422 3673423 3673424 3673425 3673426 3673427 3673428 3673429 3673430 3673431 [...] (1466302 flits)
Measured flits: (0 flits)
Class 0:
Remaining flits: 3673422 3673423 3673424 3673425 3673426 3673427 3673428 3673429 3673430 3673431 [...] (1434615 flits)
Measured flits: (0 flits)
Class 0:
Remaining flits: 3673422 3673423 3673424 3673425 3673426 3673427 3673428 3673429 3673430 3673431 [...] (1402321 flits)
Measured flits: (0 flits)
Class 0:
Remaining flits: 3673422 3673423 3673424 3673425 3673426 3673427 3673428 3673429 3673430 3673431 [...] (1370361 flits)
Measured flits: (0 flits)
Class 0:
Remaining flits: 3673422 3673423 3673424 3673425 3673426 3673427 3673428 3673429 3673430 3673431 [...] (1338491 flits)
Measured flits: (0 flits)
Class 0:
Remaining flits: 3673422 3673423 3673424 3673425 3673426 3673427 3673428 3673429 3673430 3673431 [...] (1306465 flits)
Measured flits: (0 flits)
Class 0:
Remaining flits: 3673422 3673423 3673424 3673425 3673426 3673427 3673428 3673429 3673430 3673431 [...] (1274840 flits)
Measured flits: (0 flits)
Class 0:
Remaining flits: 3673422 3673423 3673424 3673425 3673426 3673427 3673428 3673429 3673430 3673431 [...] (1245170 flits)
Measured flits: (0 flits)
Class 0:
Remaining flits: 3673432 3673433 3673434 3673435 3673436 3673437 3673438 3673439 3985182 3985183 [...] (1214052 flits)
Measured flits: (0 flits)
Class 0:
Remaining flits: 4070394 4070395 4070396 4070397 4070398 4070399 4070400 4070401 4070402 4070403 [...] (1182993 flits)
Measured flits: (0 flits)
Class 0:
Remaining flits: 4070394 4070395 4070396 4070397 4070398 4070399 4070400 4070401 4070402 4070403 [...] (1152381 flits)
Measured flits: (0 flits)
Class 0:
Remaining flits: 4070394 4070395 4070396 4070397 4070398 4070399 4070400 4070401 4070402 4070403 [...] (1120699 flits)
Measured flits: (0 flits)
Class 0:
Remaining flits: 4070394 4070395 4070396 4070397 4070398 4070399 4070400 4070401 4070402 4070403 [...] (1090526 flits)
Measured flits: (0 flits)
Class 0:
Remaining flits: 4070394 4070395 4070396 4070397 4070398 4070399 4070400 4070401 4070402 4070403 [...] (1059820 flits)
Measured flits: (0 flits)
Class 0:
Remaining flits: 4070394 4070395 4070396 4070397 4070398 4070399 4070400 4070401 4070402 4070403 [...] (1027686 flits)
Measured flits: (0 flits)
Class 0:
Remaining flits: 4070394 4070395 4070396 4070397 4070398 4070399 4070400 4070401 4070402 4070403 [...] (996607 flits)
Measured flits: (0 flits)
Class 0:
Remaining flits: 4102812 4102813 4102814 4102815 4102816 4102817 4102818 4102819 4102820 4102821 [...] (965209 flits)
Measured flits: (0 flits)
Class 0:
Remaining flits: 4102812 4102813 4102814 4102815 4102816 4102817 4102818 4102819 4102820 4102821 [...] (932701 flits)
Measured flits: (0 flits)
Class 0:
Remaining flits: 4102812 4102813 4102814 4102815 4102816 4102817 4102818 4102819 4102820 4102821 [...] (901211 flits)
Measured flits: (0 flits)
Class 0:
Remaining flits: 4102812 4102813 4102814 4102815 4102816 4102817 4102818 4102819 4102820 4102821 [...] (868188 flits)
Measured flits: (0 flits)
Class 0:
Remaining flits: 4102812 4102813 4102814 4102815 4102816 4102817 4102818 4102819 4102820 4102821 [...] (836470 flits)
Measured flits: (0 flits)
Class 0:
Remaining flits: 4102812 4102813 4102814 4102815 4102816 4102817 4102818 4102819 4102820 4102821 [...] (804291 flits)
Measured flits: (0 flits)
Class 0:
Remaining flits: 4102812 4102813 4102814 4102815 4102816 4102817 4102818 4102819 4102820 4102821 [...] (771221 flits)
Measured flits: (0 flits)
Class 0:
Remaining flits: 4102812 4102813 4102814 4102815 4102816 4102817 4102818 4102819 4102820 4102821 [...] (738540 flits)
Measured flits: (0 flits)
Class 0:
Remaining flits: 4102812 4102813 4102814 4102815 4102816 4102817 4102818 4102819 4102820 4102821 [...] (705830 flits)
Measured flits: (0 flits)
Class 0:
Remaining flits: 4102812 4102813 4102814 4102815 4102816 4102817 4102818 4102819 4102820 4102821 [...] (672354 flits)
Measured flits: (0 flits)
Class 0:
Remaining flits: 4102812 4102813 4102814 4102815 4102816 4102817 4102818 4102819 4102820 4102821 [...] (639637 flits)
Measured flits: (0 flits)
Class 0:
Remaining flits: 4102812 4102813 4102814 4102815 4102816 4102817 4102818 4102819 4102820 4102821 [...] (606835 flits)
Measured flits: (0 flits)
Class 0:
Remaining flits: 4422780 4422781 4422782 4422783 4422784 4422785 4422786 4422787 4422788 4422789 [...] (574956 flits)
Measured flits: (0 flits)
Class 0:
Remaining flits: 4521132 4521133 4521134 4521135 4521136 4521137 4521138 4521139 4521140 4521141 [...] (542350 flits)
Measured flits: (0 flits)
Class 0:
Remaining flits: 4521132 4521133 4521134 4521135 4521136 4521137 4521138 4521139 4521140 4521141 [...] (510020 flits)
Measured flits: (0 flits)
Class 0:
Remaining flits: 4521132 4521133 4521134 4521135 4521136 4521137 4521138 4521139 4521140 4521141 [...] (477261 flits)
Measured flits: (0 flits)
Class 0:
Remaining flits: 4521132 4521133 4521134 4521135 4521136 4521137 4521138 4521139 4521140 4521141 [...] (445807 flits)
Measured flits: (0 flits)
Class 0:
Remaining flits: 4521132 4521133 4521134 4521135 4521136 4521137 4521138 4521139 4521140 4521141 [...] (414856 flits)
Measured flits: (0 flits)
Class 0:
Remaining flits: 4521132 4521133 4521134 4521135 4521136 4521137 4521138 4521139 4521140 4521141 [...] (383800 flits)
Measured flits: (0 flits)
Class 0:
Remaining flits: 4521132 4521133 4521134 4521135 4521136 4521137 4521138 4521139 4521140 4521141 [...] (352848 flits)
Measured flits: (0 flits)
Class 0:
Remaining flits: 4521132 4521133 4521134 4521135 4521136 4521137 4521138 4521139 4521140 4521141 [...] (322314 flits)
Measured flits: (0 flits)
Class 0:
Remaining flits: 4521132 4521133 4521134 4521135 4521136 4521137 4521138 4521139 4521140 4521141 [...] (291697 flits)
Measured flits: (0 flits)
Class 0:
Remaining flits: 4521132 4521133 4521134 4521135 4521136 4521137 4521138 4521139 4521140 4521141 [...] (262088 flits)
Measured flits: (0 flits)
Class 0:
Remaining flits: 4521132 4521133 4521134 4521135 4521136 4521137 4521138 4521139 4521140 4521141 [...] (232953 flits)
Measured flits: (0 flits)
Class 0:
Remaining flits: 4521132 4521133 4521134 4521135 4521136 4521137 4521138 4521139 4521140 4521141 [...] (204029 flits)
Measured flits: (0 flits)
Class 0:
Remaining flits: 4521132 4521133 4521134 4521135 4521136 4521137 4521138 4521139 4521140 4521141 [...] (176166 flits)
Measured flits: (0 flits)
Class 0:
Remaining flits: 4521132 4521133 4521134 4521135 4521136 4521137 4521138 4521139 4521140 4521141 [...] (149602 flits)
Measured flits: (0 flits)
Class 0:
Remaining flits: 4521132 4521133 4521134 4521135 4521136 4521137 4521138 4521139 4521140 4521141 [...] (124378 flits)
Measured flits: (0 flits)
Class 0:
Remaining flits: 4521132 4521133 4521134 4521135 4521136 4521137 4521138 4521139 4521140 4521141 [...] (101525 flits)
Measured flits: (0 flits)
Class 0:
Remaining flits: 4521141 4521142 4521143 4521144 4521145 4521146 4521147 4521148 4521149 4745160 [...] (78589 flits)
Measured flits: (0 flits)
Class 0:
Remaining flits: 4521141 4521142 4521143 4521144 4521145 4521146 4521147 4521148 4521149 4745160 [...] (57779 flits)
Measured flits: (0 flits)
Class 0:
Remaining flits: 4745160 4745161 4745162 4745163 4745164 4745165 4745166 4745167 4745168 4745169 [...] (41201 flits)
Measured flits: (0 flits)
Class 0:
Remaining flits: 4745160 4745161 4745162 4745163 4745164 4745165 4745166 4745167 4745168 4745169 [...] (28044 flits)
Measured flits: (0 flits)
Class 0:
Remaining flits: 4745160 4745161 4745162 4745163 4745164 4745165 4745166 4745167 4745168 4745169 [...] (18607 flits)
Measured flits: (0 flits)
Class 0:
Remaining flits: 5212548 5212549 5212550 5212551 5212552 5212553 5212554 5212555 5212556 5212557 [...] (11254 flits)
Measured flits: (0 flits)
Class 0:
Remaining flits: 5212548 5212549 5212550 5212551 5212552 5212553 5212554 5212555 5212556 5212557 [...] (6615 flits)
Measured flits: (0 flits)
Class 0:
Remaining flits: 5933574 5933575 5933576 5933577 5933578 5933579 5933580 5933581 5933582 5933583 [...] (3973 flits)
Measured flits: (0 flits)
Class 0:
Remaining flits: 5952312 5952313 5952314 5952315 5952316 5952317 5952318 5952319 5952320 5952321 [...] (1975 flits)
Measured flits: (0 flits)
Class 0:
Remaining flits: 6634116 6634117 6634118 6634119 6634120 6634121 6634122 6634123 6634124 6634125 [...] (593 flits)
Measured flits: (0 flits)
Time taken is 283508 cycles
====== Overall Traffic Statistics ======
====== Traffic class 0 ======
Packet latency average = 17759.6 (1 samples)
	minimum = 23 (1 samples)
	maximum = 115960 (1 samples)
Network latency average = 17737.3 (1 samples)
	minimum = 23 (1 samples)
	maximum = 115896 (1 samples)
Flit latency average = 84887.7 (1 samples)
	minimum = 6 (1 samples)
	maximum = 240185 (1 samples)
Fragmentation average = 278.126 (1 samples)
	minimum = 0 (1 samples)
	maximum = 10953 (1 samples)
Injected packet rate average = 0.0401332 (1 samples)
	minimum = 0.0347143 (1 samples)
	maximum = 0.0471429 (1 samples)
Accepted packet rate average = 0.0144583 (1 samples)
	minimum = 0.0112857 (1 samples)
	maximum = 0.018 (1 samples)
Injected flit rate average = 0.722361 (1 samples)
	minimum = 0.624286 (1 samples)
	maximum = 0.849143 (1 samples)
Accepted flit rate average = 0.259996 (1 samples)
	minimum = 0.197857 (1 samples)
	maximum = 0.322857 (1 samples)
Injected packet size average = 17.9991 (1 samples)
Accepted packet size average = 17.9825 (1 samples)
Hops average = 5.07047 (1 samples)
Total run time 598.775
