BEGIN Configuration File: networks/mezzanine_config
topology = mezzanine;
n = 12;

routing_function = multipath;
internal_speedup = 2.0;
latency_thres = 100000.0;
use_read_write = 0;

sample_period = 1000;
injection_rate = 0.5;
packet_size = 18;

noq = 1;
routing_delay = 0;
vc_alloc_delay = 1;
sw_alloc_delay = 1;
st_final_delay = 1;
vc_allocator = islip; 
sw_allocator = islip;
alloc_iters  = 4;
num_vcs     = 12;
buffer_policy = private; // private or shared
buf_size = -1; // -1 for buffer_policy = private;
vc_buf_size = 4096; // size of each VOQ with buffer_policy = private
output_buffer_size = -1;


traffic = uniform;

//mezW = 0.0;
//mezPredefinedPatternType = shift-inter; //shift-qfdb

END Configuration File: networks/mezzanine_config
OVERRIDE Parameter: injection_rate=0.055527
OVERRIDE Parameter: routing_function=min
OVERRIDE Parameter: num_vcs=64
OVERRIDE Parameter: vc_buf_size=18
OVERRIDE Parameter: internal_speedup=1.0
OVERRIDE Parameter: injection_process=bernoulli
OVERRIDE Parameter: sim_type=latency
OVERRIDE Parameter: burst_alpha=0.0038461538
OVERRIDE Parameter: burst_beta=0.1
network: network_0
========================== Routing table  =====================
Number of Subnets: 1
Class 0:
Packet latency average = 426.513
	minimum = 23
	maximum = 970
Network latency average = 380.928
	minimum = 23
	maximum = 968
Slowest packet = 167
Flit latency average = 280.886
	minimum = 6
	maximum = 962
Slowest flit = 2478
Fragmentation average = 270.363
	minimum = 0
	maximum = 675
Injected packet rate average = 0.0307292
	minimum = 0.017 (at node 20)
	maximum = 0.04 (at node 90)
Accepted packet rate average = 0.00994792
	minimum = 0.004 (at node 39)
	maximum = 0.018 (at node 44)
Injected flit rate average = 0.547349
	minimum = 0.293 (at node 96)
	maximum = 0.707 (at node 90)
Accepted flit rate average= 0.224995
	minimum = 0.086 (at node 57)
	maximum = 0.395 (at node 152)
Injected packet length average = 17.812
Accepted packet length average = 22.6173
Total in-flight flits = 63109 (0 measured)
latency change    = 1
throughput change = 1
Class 0:
Packet latency average = 822.024
	minimum = 23
	maximum = 1914
Network latency average = 683.79
	minimum = 23
	maximum = 1904
Slowest packet = 387
Flit latency average = 548.66
	minimum = 6
	maximum = 1926
Slowest flit = 6962
Fragmentation average = 325.79
	minimum = 0
	maximum = 1509
Injected packet rate average = 0.022013
	minimum = 0.0095 (at node 40)
	maximum = 0.029 (at node 137)
Accepted packet rate average = 0.0111198
	minimum = 0.0045 (at node 62)
	maximum = 0.0165 (at node 34)
Injected flit rate average = 0.392784
	minimum = 0.171 (at node 40)
	maximum = 0.522 (at node 137)
Accepted flit rate average= 0.222987
	minimum = 0.1145 (at node 62)
	maximum = 0.3275 (at node 34)
Injected packet length average = 17.8433
Accepted packet length average = 20.0532
Total in-flight flits = 66689 (0 measured)
latency change    = 0.481143
throughput change = 0.00900417
Class 0:
Packet latency average = 1853.9
	minimum = 754
	maximum = 2907
Network latency average = 1212.99
	minimum = 29
	maximum = 2856
Slowest packet = 445
Flit latency average = 1073.25
	minimum = 6
	maximum = 2917
Slowest flit = 10122
Fragmentation average = 324.884
	minimum = 2
	maximum = 2470
Injected packet rate average = 0.00943229
	minimum = 0 (at node 7)
	maximum = 0.037 (at node 2)
Accepted packet rate average = 0.0125313
	minimum = 0.004 (at node 147)
	maximum = 0.021 (at node 16)
Injected flit rate average = 0.168698
	minimum = 0 (at node 7)
	maximum = 0.661 (at node 2)
Accepted flit rate average= 0.219625
	minimum = 0.075 (at node 147)
	maximum = 0.421 (at node 182)
Injected packet length average = 17.8851
Accepted packet length average = 17.5262
Total in-flight flits = 57155 (0 measured)
latency change    = 0.556596
throughput change = 0.0153078
Warmed up ...Time used is 3000 cycles
Class 0:
Packet latency average = 2567.48
	minimum = 1632
	maximum = 3604
Network latency average = 333.254
	minimum = 30
	maximum = 937
Slowest packet = 10290
Flit latency average = 1189.96
	minimum = 6
	maximum = 3952
Slowest flit = 4600
Fragmentation average = 150.252
	minimum = 3
	maximum = 617
Injected packet rate average = 0.0100313
	minimum = 0 (at node 1)
	maximum = 0.037 (at node 155)
Accepted packet rate average = 0.0118021
	minimum = 0.004 (at node 96)
	maximum = 0.022 (at node 129)
Injected flit rate average = 0.180547
	minimum = 0 (at node 1)
	maximum = 0.668 (at node 155)
Accepted flit rate average= 0.21113
	minimum = 0.074 (at node 4)
	maximum = 0.416 (at node 129)
Injected packet length average = 17.9984
Accepted packet length average = 17.8892
Total in-flight flits = 51214 (22003 measured)
latency change    = 0.277933
throughput change = 0.0402348
Class 0:
Packet latency average = 3075.4
	minimum = 1632
	maximum = 4460
Network latency average = 533.441
	minimum = 26
	maximum = 1896
Slowest packet = 10290
Flit latency average = 1190.61
	minimum = 6
	maximum = 4851
Slowest flit = 20422
Fragmentation average = 182.721
	minimum = 2
	maximum = 1310
Injected packet rate average = 0.0102318
	minimum = 0 (at node 1)
	maximum = 0.0305 (at node 119)
Accepted packet rate average = 0.0117682
	minimum = 0.007 (at node 161)
	maximum = 0.019 (at node 129)
Injected flit rate average = 0.184224
	minimum = 0 (at node 1)
	maximum = 0.5475 (at node 119)
Accepted flit rate average= 0.209987
	minimum = 0.1285 (at node 174)
	maximum = 0.3685 (at node 129)
Injected packet length average = 18.0051
Accepted packet length average = 17.8435
Total in-flight flits = 47206 (30612 measured)
latency change    = 0.165154
throughput change = 0.00544429
Class 0:
Packet latency average = 3548.19
	minimum = 1632
	maximum = 5472
Network latency average = 657.771
	minimum = 23
	maximum = 2915
Slowest packet = 10290
Flit latency average = 1183.05
	minimum = 6
	maximum = 5854
Slowest flit = 8747
Fragmentation average = 201.229
	minimum = 0
	maximum = 1913
Injected packet rate average = 0.010717
	minimum = 0 (at node 21)
	maximum = 0.0256667 (at node 119)
Accepted packet rate average = 0.0117083
	minimum = 0.00733333 (at node 86)
	maximum = 0.0176667 (at node 129)
Injected flit rate average = 0.192795
	minimum = 0 (at node 40)
	maximum = 0.463333 (at node 155)
Accepted flit rate average= 0.208592
	minimum = 0.123 (at node 86)
	maximum = 0.318333 (at node 129)
Injected packet length average = 17.9896
Accepted packet length average = 17.8157
Total in-flight flits = 48138 (38114 measured)
latency change    = 0.133248
throughput change = 0.00668753
Class 0:
Packet latency average = 4018.88
	minimum = 1632
	maximum = 6275
Network latency average = 746.303
	minimum = 23
	maximum = 3922
Slowest packet = 10290
Flit latency average = 1158.69
	minimum = 6
	maximum = 6925
Slowest flit = 8934
Fragmentation average = 216.986
	minimum = 0
	maximum = 2708
Injected packet rate average = 0.0110573
	minimum = 0 (at node 21)
	maximum = 0.0265 (at node 119)
Accepted packet rate average = 0.0116966
	minimum = 0.0075 (at node 96)
	maximum = 0.01625 (at node 129)
Injected flit rate average = 0.199007
	minimum = 0 (at node 40)
	maximum = 0.4765 (at node 119)
Accepted flit rate average= 0.209143
	minimum = 0.14575 (at node 2)
	maximum = 0.29475 (at node 129)
Injected packet length average = 17.9978
Accepted packet length average = 17.8807
Total in-flight flits = 49515 (42664 measured)
latency change    = 0.117121
throughput change = 0.00263559
Class 0:
Packet latency average = 4461.26
	minimum = 1632
	maximum = 7363
Network latency average = 817.821
	minimum = 23
	maximum = 4762
Slowest packet = 10290
Flit latency average = 1148.21
	minimum = 6
	maximum = 7927
Slowest flit = 7640
Fragmentation average = 227.104
	minimum = 0
	maximum = 3542
Injected packet rate average = 0.0111125
	minimum = 0 (at node 21)
	maximum = 0.0244 (at node 41)
Accepted packet rate average = 0.011674
	minimum = 0.008 (at node 162)
	maximum = 0.0158 (at node 177)
Injected flit rate average = 0.2001
	minimum = 0 (at node 40)
	maximum = 0.4384 (at node 41)
Accepted flit rate average= 0.209335
	minimum = 0.1498 (at node 162)
	maximum = 0.2806 (at node 177)
Injected packet length average = 18.0067
Accepted packet length average = 17.9318
Total in-flight flits = 48289 (43305 measured)
latency change    = 0.099161
throughput change = 0.000918084
Class 0:
Packet latency average = 4879.57
	minimum = 1632
	maximum = 8361
Network latency average = 868.621
	minimum = 23
	maximum = 5673
Slowest packet = 10290
Flit latency average = 1138.17
	minimum = 6
	maximum = 8920
Slowest flit = 8976
Fragmentation average = 236.593
	minimum = 0
	maximum = 4312
Injected packet rate average = 0.0112483
	minimum = 0 (at node 40)
	maximum = 0.0241667 (at node 41)
Accepted packet rate average = 0.0116753
	minimum = 0.00866667 (at node 67)
	maximum = 0.0153333 (at node 118)
Injected flit rate average = 0.202421
	minimum = 0 (at node 40)
	maximum = 0.433167 (at node 41)
Accepted flit rate average= 0.209464
	minimum = 0.1575 (at node 86)
	maximum = 0.276 (at node 118)
Injected packet length average = 17.9958
Accepted packet length average = 17.9407
Total in-flight flits = 49078 (45382 measured)
latency change    = 0.0857261
throughput change = 0.000615823
Class 0:
Packet latency average = 5282.25
	minimum = 1632
	maximum = 9120
Network latency average = 915.473
	minimum = 23
	maximum = 6681
Slowest packet = 10290
Flit latency average = 1138.14
	minimum = 6
	maximum = 9848
Slowest flit = 17891
Fragmentation average = 243.773
	minimum = 0
	maximum = 5227
Injected packet rate average = 0.0112269
	minimum = 0 (at node 40)
	maximum = 0.0231429 (at node 163)
Accepted packet rate average = 0.0116674
	minimum = 0.00914286 (at node 86)
	maximum = 0.015 (at node 90)
Injected flit rate average = 0.202108
	minimum = 0 (at node 40)
	maximum = 0.417 (at node 163)
Accepted flit rate average= 0.209156
	minimum = 0.160857 (at node 86)
	maximum = 0.264143 (at node 95)
Injected packet length average = 18.0021
Accepted packet length average = 17.9265
Total in-flight flits = 47760 (44993 measured)
latency change    = 0.076233
throughput change = 0.00147691
Draining all recorded packets ...
Class 0:
Remaining flits: 15912 15913 15914 15915 15916 15917 15918 15919 15920 15921 [...] (50296 flits)
Measured flits: 186858 186859 186860 186861 186862 186863 186864 186865 186866 186867 [...] (48377 flits)
Class 0:
Remaining flits: 15912 15913 15914 15915 15916 15917 15918 15919 15920 15921 [...] (55231 flits)
Measured flits: 186858 186859 186860 186861 186862 186863 186864 186865 186866 186867 [...] (53780 flits)
Class 0:
Remaining flits: 15912 15913 15914 15915 15916 15917 15918 15919 15920 15921 [...] (56407 flits)
Measured flits: 186858 186859 186860 186861 186862 186863 186864 186865 186866 186867 [...] (55383 flits)
Class 0:
Remaining flits: 15912 15913 15914 15915 15916 15917 15918 15919 15920 15921 [...] (55950 flits)
Measured flits: 186859 186860 186861 186862 186863 186864 186865 186866 186867 186868 [...] (55224 flits)
Class 0:
Remaining flits: 15912 15913 15914 15915 15916 15917 15918 15919 15920 15921 [...] (55369 flits)
Measured flits: 186859 186860 186861 186862 186863 186864 186865 186866 186867 186868 [...] (54786 flits)
Class 0:
Remaining flits: 16998 16999 17000 17001 17002 17003 17004 17005 17006 17007 [...] (53112 flits)
Measured flits: 186859 186860 186861 186862 186863 186864 186865 186866 186867 186868 [...] (52698 flits)
Class 0:
Remaining flits: 17002 17003 17004 17005 17006 17007 17008 17009 34344 34345 [...] (51276 flits)
Measured flits: 186875 188115 188116 188117 192834 192835 192836 192837 192838 192839 [...] (50988 flits)
Class 0:
Remaining flits: 34352 34353 34354 34355 34356 34357 34358 34359 34360 34361 [...] (55357 flits)
Measured flits: 188116 188117 223051 223052 223053 223054 223055 226206 226207 226208 [...] (55195 flits)
Class 0:
Remaining flits: 34360 34361 51759 51760 51761 51762 51763 51764 51765 51766 [...] (56755 flits)
Measured flits: 223051 223052 223053 223054 223055 226206 226207 226208 226209 226210 [...] (56616 flits)
Class 0:
Remaining flits: 51759 51760 51761 51762 51763 51764 51765 51766 51767 68634 [...] (59971 flits)
Measured flits: 223051 223052 223053 223054 223055 226206 226207 226208 226209 226210 [...] (59835 flits)
Class 0:
Remaining flits: 51759 51760 51761 51762 51763 51764 51765 51766 51767 68634 [...] (57943 flits)
Measured flits: 226206 226207 226208 226209 226210 226211 226212 226213 226214 226215 [...] (57807 flits)
Class 0:
Remaining flits: 51760 51761 51762 51763 51764 51765 51766 51767 68634 68635 [...] (58128 flits)
Measured flits: 226206 226207 226208 226209 226210 226211 226212 226213 226214 226215 [...] (57993 flits)
Class 0:
Remaining flits: 68634 68635 68636 68637 68638 68639 68640 68641 68642 68643 [...] (57148 flits)
Measured flits: 240174 240175 240176 240177 240178 240179 240180 240181 240182 240183 [...] (57042 flits)
Class 0:
Remaining flits: 68634 68635 68636 68637 68638 68639 68640 68641 68642 68643 [...] (62072 flits)
Measured flits: 240174 240175 240176 240177 240178 240179 240180 240181 240182 240183 [...] (61966 flits)
Class 0:
Remaining flits: 68634 68635 68636 68637 68638 68639 68640 68641 68642 68643 [...] (61564 flits)
Measured flits: 240174 240175 240176 240177 240178 240179 240180 240181 240182 240183 [...] (61458 flits)
Class 0:
Remaining flits: 68634 68635 68636 68637 68638 68639 68640 68641 68642 68643 [...] (60994 flits)
Measured flits: 240174 240175 240176 240177 240178 240179 240180 240181 240182 240183 [...] (60888 flits)
Class 0:
Remaining flits: 68634 68635 68636 68637 68638 68639 68640 68641 68642 68643 [...] (61551 flits)
Measured flits: 240174 240175 240176 240177 240178 240179 240180 240181 240182 240183 [...] (61445 flits)
Class 0:
Remaining flits: 68641 68642 68643 68644 68645 68646 68647 68648 68649 68650 [...] (60379 flits)
Measured flits: 240174 240175 240176 240177 240178 240179 240180 240181 240182 240183 [...] (60296 flits)
Class 0:
Remaining flits: 125496 125497 125498 125499 125500 125501 125502 125503 125504 125505 [...] (60570 flits)
Measured flits: 240174 240175 240176 240177 240178 240179 240180 240181 240182 240183 [...] (60534 flits)
Class 0:
Remaining flits: 125496 125497 125498 125499 125500 125501 125502 125503 125504 125505 [...] (61108 flits)
Measured flits: 240174 240175 240176 240177 240178 240179 240180 240181 240182 240183 [...] (61072 flits)
Class 0:
Remaining flits: 125496 125497 125498 125499 125500 125501 125502 125503 125504 125505 [...] (61144 flits)
Measured flits: 240174 240175 240176 240177 240178 240179 240180 240181 240182 240183 [...] (60805 flits)
Class 0:
Remaining flits: 125496 125497 125498 125499 125500 125501 125502 125503 125504 125505 [...] (62668 flits)
Measured flits: 240181 240182 240183 240184 240185 240186 240187 240188 240189 240190 [...] (61953 flits)
Class 0:
Remaining flits: 125496 125497 125498 125499 125500 125501 125502 125503 125504 125505 [...] (62725 flits)
Measured flits: 304110 304111 304112 304113 304114 304115 304116 304117 304118 304119 [...] (61812 flits)
Class 0:
Remaining flits: 125496 125497 125498 125499 125500 125501 125502 125503 125504 125505 [...] (61945 flits)
Measured flits: 304110 304111 304112 304113 304114 304115 304116 304117 304118 304119 [...] (60500 flits)
Class 0:
Remaining flits: 125496 125497 125498 125499 125500 125501 125502 125503 125504 125505 [...] (60231 flits)
Measured flits: 304110 304111 304112 304113 304114 304115 304116 304117 304118 304119 [...] (58099 flits)
Class 0:
Remaining flits: 304110 304111 304112 304113 304114 304115 304116 304117 304118 304119 [...] (62483 flits)
Measured flits: 304110 304111 304112 304113 304114 304115 304116 304117 304118 304119 [...] (59899 flits)
Class 0:
Remaining flits: 304110 304111 304112 304113 304114 304115 304116 304117 304118 304119 [...] (61261 flits)
Measured flits: 304110 304111 304112 304113 304114 304115 304116 304117 304118 304119 [...] (58343 flits)
Class 0:
Remaining flits: 304110 304111 304112 304113 304114 304115 304116 304117 304118 304119 [...] (63052 flits)
Measured flits: 304110 304111 304112 304113 304114 304115 304116 304117 304118 304119 [...] (58286 flits)
Class 0:
Remaining flits: 304110 304111 304112 304113 304114 304115 304116 304117 304118 304119 [...] (63891 flits)
Measured flits: 304110 304111 304112 304113 304114 304115 304116 304117 304118 304119 [...] (57850 flits)
Class 0:
Remaining flits: 304110 304111 304112 304113 304114 304115 304116 304117 304118 304119 [...] (62796 flits)
Measured flits: 304110 304111 304112 304113 304114 304115 304116 304117 304118 304119 [...] (55920 flits)
Class 0:
Remaining flits: 304120 304121 304122 304123 304124 304125 304126 304127 627246 627247 [...] (64068 flits)
Measured flits: 304120 304121 304122 304123 304124 304125 304126 304127 627246 627247 [...] (56588 flits)
Class 0:
Remaining flits: 304120 304121 304122 304123 304124 304125 304126 304127 760806 760807 [...] (63183 flits)
Measured flits: 304120 304121 304122 304123 304124 304125 304126 304127 760806 760807 [...] (53462 flits)
Class 0:
Remaining flits: 760806 760807 760808 760809 760810 760811 760812 760813 760814 760815 [...] (65201 flits)
Measured flits: 760806 760807 760808 760809 760810 760811 760812 760813 760814 760815 [...] (52606 flits)
Class 0:
Remaining flits: 760806 760807 760808 760809 760810 760811 760812 760813 760814 760815 [...] (65041 flits)
Measured flits: 760806 760807 760808 760809 760810 760811 760812 760813 760814 760815 [...] (49194 flits)
Class 0:
Remaining flits: 760806 760807 760808 760809 760810 760811 760812 760813 760814 760815 [...] (63724 flits)
Measured flits: 760806 760807 760808 760809 760810 760811 760812 760813 760814 760815 [...] (46085 flits)
Class 0:
Remaining flits: 877780 877781 877782 877783 877784 877785 877786 877787 887274 887275 [...] (62674 flits)
Measured flits: 877780 877781 877782 877783 877784 877785 877786 877787 887274 887275 [...] (42243 flits)
Class 0:
Remaining flits: 887274 887275 887276 887277 887278 887279 887280 887281 887282 887283 [...] (64368 flits)
Measured flits: 887274 887275 887276 887277 887278 887279 887280 887281 887282 887283 [...] (40879 flits)
Class 0:
Remaining flits: 980334 980335 980336 980337 980338 980339 980340 980341 980342 980343 [...] (63127 flits)
Measured flits: 980334 980335 980336 980337 980338 980339 980340 980341 980342 980343 [...] (37543 flits)
Class 0:
Remaining flits: 980334 980335 980336 980337 980338 980339 980340 980341 980342 980343 [...] (63138 flits)
Measured flits: 980334 980335 980336 980337 980338 980339 980340 980341 980342 980343 [...] (34842 flits)
Class 0:
Remaining flits: 980334 980335 980336 980337 980338 980339 980340 980341 980342 980343 [...] (62105 flits)
Measured flits: 980334 980335 980336 980337 980338 980339 980340 980341 980342 980343 [...] (32649 flits)
Class 0:
Remaining flits: 980334 980335 980336 980337 980338 980339 980340 980341 980342 980343 [...] (60713 flits)
Measured flits: 980334 980335 980336 980337 980338 980339 980340 980341 980342 980343 [...] (30962 flits)
Class 0:
Remaining flits: 980334 980335 980336 980337 980338 980339 980340 980341 980342 980343 [...] (61352 flits)
Measured flits: 980334 980335 980336 980337 980338 980339 980340 980341 980342 980343 [...] (29593 flits)
Class 0:
Remaining flits: 980334 980335 980336 980337 980338 980339 980340 980341 980342 980343 [...] (61905 flits)
Measured flits: 980334 980335 980336 980337 980338 980339 980340 980341 980342 980343 [...] (26457 flits)
Class 0:
Remaining flits: 980334 980335 980336 980337 980338 980339 980340 980341 980342 980343 [...] (61265 flits)
Measured flits: 980334 980335 980336 980337 980338 980339 980340 980341 980342 980343 [...] (23358 flits)
Class 0:
Remaining flits: 980334 980335 980336 980337 980338 980339 980340 980341 980342 980343 [...] (61429 flits)
Measured flits: 980334 980335 980336 980337 980338 980339 980340 980341 980342 980343 [...] (22292 flits)
Class 0:
Remaining flits: 980334 980335 980336 980337 980338 980339 980340 980341 980342 980343 [...] (61432 flits)
Measured flits: 980334 980335 980336 980337 980338 980339 980340 980341 980342 980343 [...] (20363 flits)
Class 0:
Remaining flits: 980334 980335 980336 980337 980338 980339 980340 980341 980342 980343 [...] (60644 flits)
Measured flits: 980334 980335 980336 980337 980338 980339 980340 980341 980342 980343 [...] (19099 flits)
Class 0:
Remaining flits: 980345 980346 980347 980348 980349 980350 980351 1064879 1171746 1171747 [...] (61891 flits)
Measured flits: 980345 980346 980347 980348 980349 980350 980351 1064879 1171746 1171747 [...] (17495 flits)
Class 0:
Remaining flits: 980346 980347 980348 980349 980350 980351 1171746 1171747 1171748 1171749 [...] (61392 flits)
Measured flits: 980346 980347 980348 980349 980350 980351 1171746 1171747 1171748 1171749 [...] (16998 flits)
Class 0:
Remaining flits: 980346 980347 980348 980349 980350 980351 1171746 1171747 1171748 1171749 [...] (61352 flits)
Measured flits: 980346 980347 980348 980349 980350 980351 1171746 1171747 1171748 1171749 [...] (15343 flits)
Class 0:
Remaining flits: 980346 980347 980348 980349 980350 980351 1214208 1214209 1214210 1214211 [...] (61795 flits)
Measured flits: 980346 980347 980348 980349 980350 980351 1214208 1214209 1214210 1214211 [...] (14806 flits)
Class 0:
Remaining flits: 980346 980347 980348 980349 980350 980351 1214208 1214209 1214210 1214211 [...] (61403 flits)
Measured flits: 980346 980347 980348 980349 980350 980351 1214208 1214209 1214210 1214211 [...] (13635 flits)
Class 0:
Remaining flits: 1214208 1214209 1214210 1214211 1214212 1214213 1214214 1214215 1214216 1214217 [...] (60735 flits)
Measured flits: 1214208 1214209 1214210 1214211 1214212 1214213 1214214 1214215 1214216 1214217 [...] (12978 flits)
Class 0:
Remaining flits: 1306800 1306801 1306802 1306803 1306804 1306805 1306806 1306807 1306808 1306809 [...] (60517 flits)
Measured flits: 1306800 1306801 1306802 1306803 1306804 1306805 1306806 1306807 1306808 1306809 [...] (12165 flits)
Class 0:
Remaining flits: 1306800 1306801 1306802 1306803 1306804 1306805 1306806 1306807 1306808 1306809 [...] (61484 flits)
Measured flits: 1306800 1306801 1306802 1306803 1306804 1306805 1306806 1306807 1306808 1306809 [...] (11843 flits)
Class 0:
Remaining flits: 1306816 1306817 1422306 1422307 1422308 1422309 1422310 1422311 1422312 1422313 [...] (60195 flits)
Measured flits: 1306816 1306817 1422306 1422307 1422308 1422309 1422310 1422311 1422312 1422313 [...] (10970 flits)
Class 0:
Remaining flits: 1422306 1422307 1422308 1422309 1422310 1422311 1422312 1422313 1422314 1422315 [...] (60039 flits)
Measured flits: 1422306 1422307 1422308 1422309 1422310 1422311 1422312 1422313 1422314 1422315 [...] (9816 flits)
Class 0:
Remaining flits: 1422306 1422307 1422308 1422309 1422310 1422311 1422312 1422313 1422314 1422315 [...] (62274 flits)
Measured flits: 1422306 1422307 1422308 1422309 1422310 1422311 1422312 1422313 1422314 1422315 [...] (9339 flits)
Class 0:
Remaining flits: 1430496 1430497 1430498 1430499 1430500 1430501 1430502 1430503 1430504 1430505 [...] (60712 flits)
Measured flits: 1430496 1430497 1430498 1430499 1430500 1430501 1430502 1430503 1430504 1430505 [...] (8788 flits)
Class 0:
Remaining flits: 1438668 1438669 1438670 1438671 1438672 1438673 1438674 1438675 1438676 1438677 [...] (61373 flits)
Measured flits: 1438668 1438669 1438670 1438671 1438672 1438673 1438674 1438675 1438676 1438677 [...] (8311 flits)
Class 0:
Remaining flits: 1438668 1438669 1438670 1438671 1438672 1438673 1438674 1438675 1438676 1438677 [...] (62676 flits)
Measured flits: 1438668 1438669 1438670 1438671 1438672 1438673 1438674 1438675 1438676 1438677 [...] (8103 flits)
Class 0:
Remaining flits: 1438668 1438669 1438670 1438671 1438672 1438673 1438674 1438675 1438676 1438677 [...] (62874 flits)
Measured flits: 1438668 1438669 1438670 1438671 1438672 1438673 1438674 1438675 1438676 1438677 [...] (7611 flits)
Class 0:
Remaining flits: 1438678 1438679 1438680 1438681 1438682 1438683 1438684 1438685 1548720 1548721 [...] (63274 flits)
Measured flits: 1438678 1438679 1438680 1438681 1438682 1438683 1438684 1438685 1548720 1548721 [...] (7146 flits)
Class 0:
Remaining flits: 1548720 1548721 1548722 1548723 1548724 1548725 1548726 1548727 1548728 1548729 [...] (63012 flits)
Measured flits: 1548720 1548721 1548722 1548723 1548724 1548725 1548726 1548727 1548728 1548729 [...] (6880 flits)
Class 0:
Remaining flits: 1548720 1548721 1548722 1548723 1548724 1548725 1548726 1548727 1548728 1548729 [...] (63348 flits)
Measured flits: 1548720 1548721 1548722 1548723 1548724 1548725 1548726 1548727 1548728 1548729 [...] (6002 flits)
Class 0:
Remaining flits: 1551024 1551025 1551026 1551027 1551028 1551029 1551030 1551031 1551032 1551033 [...] (65474 flits)
Measured flits: 1551024 1551025 1551026 1551027 1551028 1551029 1551030 1551031 1551032 1551033 [...] (5638 flits)
Class 0:
Remaining flits: 1749806 1749807 1749808 1749809 1749810 1749811 1749812 1749813 1749814 1749815 [...] (64054 flits)
Measured flits: 1766063 1766064 1766065 1766066 1766067 1766068 1766069 1845162 1845163 1845164 [...] (5746 flits)
Class 0:
Remaining flits: 1749806 1749807 1749808 1749809 1749810 1749811 1749812 1749813 1749814 1749815 [...] (62855 flits)
Measured flits: 1845162 1845163 1845164 1845165 1845166 1845167 1845168 1845169 1845170 1845171 [...] (5171 flits)
Class 0:
Remaining flits: 1749806 1749807 1749808 1749809 1749810 1749811 1749812 1749813 1749814 1749815 [...] (65498 flits)
Measured flits: 1953498 1953499 1953500 1953501 1953502 1953503 2005128 2005129 2005130 2005131 [...] (5215 flits)
Class 0:
Remaining flits: 1749808 1749809 1749810 1749811 1749812 1749813 1749814 1749815 1851948 1851949 [...] (65645 flits)
Measured flits: 1953498 1953499 1953500 1953501 1953502 1953503 2014614 2014615 2014616 2014617 [...] (4976 flits)
Class 0:
Remaining flits: 1851948 1851949 1851950 1851951 1851952 1851953 1851954 1851955 1851956 1851957 [...] (64975 flits)
Measured flits: 1953498 1953499 1953500 1953501 1953502 1953503 2014614 2014615 2014616 2014617 [...] (4384 flits)
Class 0:
Remaining flits: 1851948 1851949 1851950 1851951 1851952 1851953 1851954 1851955 1851956 1851957 [...] (63594 flits)
Measured flits: 2014614 2014615 2014616 2014617 2014618 2014619 2014620 2014621 2014622 2014623 [...] (4287 flits)
Class 0:
Remaining flits: 1924656 1924657 1924658 1924659 1924660 1924661 1924662 1924663 1924664 1924665 [...] (65708 flits)
Measured flits: 2014614 2014615 2014616 2014617 2014618 2014619 2014620 2014621 2014622 2014623 [...] (3878 flits)
Class 0:
Remaining flits: 1924656 1924657 1924658 1924659 1924660 1924661 1924662 1924663 1924664 1924665 [...] (64030 flits)
Measured flits: 2014614 2014615 2014616 2014617 2014618 2014619 2014620 2014621 2014622 2014623 [...] (3367 flits)
Class 0:
Remaining flits: 1924656 1924657 1924658 1924659 1924660 1924661 1924662 1924663 1924664 1924665 [...] (65522 flits)
Measured flits: 2014614 2014615 2014616 2014617 2014618 2014619 2014620 2014621 2014622 2014623 [...] (3223 flits)
Class 0:
Remaining flits: 2014614 2014615 2014616 2014617 2014618 2014619 2014620 2014621 2014622 2014623 [...] (61494 flits)
Measured flits: 2014614 2014615 2014616 2014617 2014618 2014619 2014620 2014621 2014622 2014623 [...] (3020 flits)
Class 0:
Remaining flits: 2066022 2066023 2066024 2066025 2066026 2066027 2066028 2066029 2066030 2066031 [...] (59681 flits)
Measured flits: 2077715 2077716 2077717 2077718 2077719 2077720 2077721 2257524 2257525 2257526 [...] (2748 flits)
Class 0:
Remaining flits: 2066022 2066023 2066024 2066025 2066026 2066027 2066028 2066029 2066030 2066031 [...] (60003 flits)
Measured flits: 2077715 2077716 2077717 2077718 2077719 2077720 2077721 2257524 2257525 2257526 [...] (2639 flits)
Class 0:
Remaining flits: 2066022 2066023 2066024 2066025 2066026 2066027 2066028 2066029 2066030 2066031 [...] (58963 flits)
Measured flits: 2077715 2077716 2077717 2077718 2077719 2077720 2077721 2257524 2257525 2257526 [...] (2623 flits)
Class 0:
Remaining flits: 2066022 2066023 2066024 2066025 2066026 2066027 2066028 2066029 2066030 2066031 [...] (57856 flits)
Measured flits: 2257524 2257525 2257526 2257527 2257528 2257529 2257530 2257531 2257532 2257533 [...] (2271 flits)
Class 0:
Remaining flits: 2066022 2066023 2066024 2066025 2066026 2066027 2066028 2066029 2066030 2066031 [...] (59579 flits)
Measured flits: 2257524 2257525 2257526 2257527 2257528 2257529 2257530 2257531 2257532 2257533 [...] (2258 flits)
Class 0:
Remaining flits: 2066022 2066023 2066024 2066025 2066026 2066027 2066028 2066029 2066030 2066031 [...] (59341 flits)
Measured flits: 2257524 2257525 2257526 2257527 2257528 2257529 2257530 2257531 2257532 2257533 [...] (2019 flits)
Class 0:
Remaining flits: 2066022 2066023 2066024 2066025 2066026 2066027 2066028 2066029 2066030 2066031 [...] (61476 flits)
Measured flits: 2257524 2257525 2257526 2257527 2257528 2257529 2257530 2257531 2257532 2257533 [...] (1923 flits)
Class 0:
Remaining flits: 2066022 2066023 2066024 2066025 2066026 2066027 2066028 2066029 2066030 2066031 [...] (61941 flits)
Measured flits: 2257524 2257525 2257526 2257527 2257528 2257529 2257530 2257531 2257532 2257533 [...] (1749 flits)
Class 0:
Remaining flits: 2066022 2066023 2066024 2066025 2066026 2066027 2066028 2066029 2066030 2066031 [...] (60056 flits)
Measured flits: 2257524 2257525 2257526 2257527 2257528 2257529 2257530 2257531 2257532 2257533 [...] (1605 flits)
Class 0:
Remaining flits: 2238696 2238697 2238698 2238699 2238700 2238701 2238702 2238703 2238704 2238705 [...] (59866 flits)
Measured flits: 2401327 2401328 2401329 2401330 2401331 2401332 2401333 2401334 2401335 2401336 [...] (1645 flits)
Class 0:
Remaining flits: 2255418 2255419 2255420 2255421 2255422 2255423 2255424 2255425 2255426 2255427 [...] (61762 flits)
Measured flits: 2401328 2401329 2401330 2401331 2401332 2401333 2401334 2401335 2401336 2401337 [...] (1306 flits)
Class 0:
Remaining flits: 2255418 2255419 2255420 2255421 2255422 2255423 2255424 2255425 2255426 2255427 [...] (61305 flits)
Measured flits: 2682432 2682433 2682434 2682435 2682436 2682437 2682438 2682439 2682440 2682441 [...] (1469 flits)
Class 0:
Remaining flits: 2255418 2255419 2255420 2255421 2255422 2255423 2255424 2255425 2255426 2255427 [...] (60807 flits)
Measured flits: 2682432 2682433 2682434 2682435 2682436 2682437 2682438 2682439 2682440 2682441 [...] (1372 flits)
Class 0:
Remaining flits: 2437686 2437687 2437688 2437689 2437690 2437691 2437692 2437693 2437694 2437695 [...] (63286 flits)
Measured flits: 2683332 2683333 2683334 2683335 2683336 2683337 2683338 2683339 2683340 2683341 [...] (1244 flits)
Class 0:
Remaining flits: 2437686 2437687 2437688 2437689 2437690 2437691 2437692 2437693 2437694 2437695 [...] (62368 flits)
Measured flits: 2683332 2683333 2683334 2683335 2683336 2683337 2683338 2683339 2683340 2683341 [...] (1257 flits)
Class 0:
Remaining flits: 2437686 2437687 2437688 2437689 2437690 2437691 2437692 2437693 2437694 2437695 [...] (62512 flits)
Measured flits: 2683332 2683333 2683334 2683335 2683336 2683337 2683338 2683339 2683340 2683341 [...] (1086 flits)
Class 0:
Remaining flits: 2437686 2437687 2437688 2437689 2437690 2437691 2437692 2437693 2437694 2437695 [...] (61912 flits)
Measured flits: 2683332 2683333 2683334 2683335 2683336 2683337 2683338 2683339 2683340 2683341 [...] (1035 flits)
Class 0:
Remaining flits: 2437686 2437687 2437688 2437689 2437690 2437691 2437692 2437693 2437694 2437695 [...] (63485 flits)
Measured flits: 2777922 2777923 2777924 2777925 2777926 2777927 2777928 2777929 2777930 2777931 [...] (1025 flits)
Class 0:
Remaining flits: 2437686 2437687 2437688 2437689 2437690 2437691 2437692 2437693 2437694 2437695 [...] (61481 flits)
Measured flits: 2777922 2777923 2777924 2777925 2777926 2777927 2777928 2777929 2777930 2777931 [...] (971 flits)
Class 0:
Remaining flits: 2437686 2437687 2437688 2437689 2437690 2437691 2437692 2437693 2437694 2437695 [...] (63986 flits)
Measured flits: 2777922 2777923 2777924 2777925 2777926 2777927 2777928 2777929 2777930 2777931 [...] (849 flits)
Class 0:
Remaining flits: 2437686 2437687 2437688 2437689 2437690 2437691 2437692 2437693 2437694 2437695 [...] (62847 flits)
Measured flits: 2846466 2846467 2846468 2846469 2846470 2846471 2846472 2846473 2846474 2846475 [...] (837 flits)
Class 0:
Remaining flits: 2643291 2643292 2643293 2643294 2643295 2643296 2643297 2643298 2643299 2651166 [...] (63663 flits)
Measured flits: 2846466 2846467 2846468 2846469 2846470 2846471 2846472 2846473 2846474 2846475 [...] (645 flits)
Class 0:
Remaining flits: 2643291 2643292 2643293 2643294 2643295 2643296 2643297 2643298 2643299 2651166 [...] (62040 flits)
Measured flits: 2846466 2846467 2846468 2846469 2846470 2846471 2846472 2846473 2846474 2846475 [...] (625 flits)
Class 0:
Remaining flits: 2651170 2651171 2651172 2651173 2651174 2651175 2651176 2651177 2651178 2651179 [...] (61787 flits)
Measured flits: 2877714 2877715 2877716 2877717 2877718 2877719 2877720 2877721 2877722 2877723 [...] (589 flits)
Class 0:
Remaining flits: 2681658 2681659 2681660 2681661 2681662 2681663 2681664 2681665 2681666 2681667 [...] (62862 flits)
Measured flits: 2877720 2877721 2877722 2877723 2877724 2877725 2877726 2877727 2877728 2877729 [...] (641 flits)
Class 0:
Remaining flits: 2714886 2714887 2714888 2714889 2714890 2714891 2714892 2714893 2714894 2714895 [...] (64112 flits)
Measured flits: 3038927 3038928 3038929 3038930 3038931 3038932 3038933 3038934 3038935 3038936 [...] (519 flits)
Class 0:
Remaining flits: 2714886 2714887 2714888 2714889 2714890 2714891 2714892 2714893 2714894 2714895 [...] (65913 flits)
Measured flits: 3038927 3038928 3038929 3038930 3038931 3038932 3038933 3038934 3038935 3038936 [...] (553 flits)
Class 0:
Remaining flits: 2714886 2714887 2714888 2714889 2714890 2714891 2714892 2714893 2714894 2714895 [...] (67613 flits)
Measured flits: 3038927 3038928 3038929 3038930 3038931 3038932 3038933 3038934 3038935 3038936 [...] (410 flits)
Class 0:
Remaining flits: 2714886 2714887 2714888 2714889 2714890 2714891 2714892 2714893 2714894 2714895 [...] (64466 flits)
Measured flits: 3038927 3038928 3038929 3038930 3038931 3038932 3038933 3038934 3038935 3038936 [...] (349 flits)
Class 0:
Remaining flits: 2888406 2888407 2888408 2888409 2888410 2888411 2888412 2888413 2888414 2888415 [...] (63160 flits)
Measured flits: 3300768 3300769 3300770 3300771 3300772 3300773 3300774 3300775 3300776 3300777 [...] (438 flits)
Class 0:
Remaining flits: 2888406 2888407 2888408 2888409 2888410 2888411 2888412 2888413 2888414 2888415 [...] (62750 flits)
Measured flits: 3300768 3300769 3300770 3300771 3300772 3300773 3300774 3300775 3300776 3300777 [...] (224 flits)
Class 0:
Remaining flits: 2888406 2888407 2888408 2888409 2888410 2888411 2888412 2888413 2888414 2888415 [...] (62996 flits)
Measured flits: 3300768 3300769 3300770 3300771 3300772 3300773 3300774 3300775 3300776 3300777 [...] (163 flits)
Class 0:
Remaining flits: 2888406 2888407 2888408 2888409 2888410 2888411 2888412 2888413 2888414 2888415 [...] (62578 flits)
Measured flits: 3300768 3300769 3300770 3300771 3300772 3300773 3300774 3300775 3300776 3300777 [...] (259 flits)
Class 0:
Remaining flits: 2961036 2961037 2961038 2961039 2961040 2961041 2961042 2961043 2961044 2961045 [...] (60499 flits)
Measured flits: 3765168 3765169 3765170 3765171 3765172 3765173 3765174 3765175 3765176 3765177 [...] (234 flits)
Class 0:
Remaining flits: 2961036 2961037 2961038 2961039 2961040 2961041 2961042 2961043 2961044 2961045 [...] (61587 flits)
Measured flits: 3765168 3765169 3765170 3765171 3765172 3765173 3765174 3765175 3765176 3765177 [...] (198 flits)
Class 0:
Remaining flits: 2961036 2961037 2961038 2961039 2961040 2961041 2961042 2961043 2961044 2961045 [...] (63290 flits)
Measured flits: 3765168 3765169 3765170 3765171 3765172 3765173 3765174 3765175 3765176 3765177 [...] (200 flits)
Class 0:
Remaining flits: 2961041 2961042 2961043 2961044 2961045 2961046 2961047 2961048 2961049 2961050 [...] (61644 flits)
Measured flits: 3765168 3765169 3765170 3765171 3765172 3765173 3765174 3765175 3765176 3765177 [...] (126 flits)
Class 0:
Remaining flits: 3047976 3047977 3047978 3047979 3047980 3047981 3047982 3047983 3047984 3047985 [...] (62282 flits)
Measured flits: 3765168 3765169 3765170 3765171 3765172 3765173 3765174 3765175 3765176 3765177 [...] (126 flits)
Class 0:
Remaining flits: 3047976 3047977 3047978 3047979 3047980 3047981 3047982 3047983 3047984 3047985 [...] (62969 flits)
Measured flits: 3765168 3765169 3765170 3765171 3765172 3765173 3765174 3765175 3765176 3765177 [...] (126 flits)
Class 0:
Remaining flits: 3047976 3047977 3047978 3047979 3047980 3047981 3047982 3047983 3047984 3047985 [...] (62268 flits)
Measured flits: 3765168 3765169 3765170 3765171 3765172 3765173 3765174 3765175 3765176 3765177 [...] (126 flits)
Class 0:
Remaining flits: 3047976 3047977 3047978 3047979 3047980 3047981 3047982 3047983 3047984 3047985 [...] (61843 flits)
Measured flits: 3765168 3765169 3765170 3765171 3765172 3765173 3765174 3765175 3765176 3765177 [...] (109 flits)
Class 0:
Remaining flits: 3047976 3047977 3047978 3047979 3047980 3047981 3047982 3047983 3047984 3047985 [...] (60508 flits)
Measured flits: 3765169 3765170 3765171 3765172 3765173 3765174 3765175 3765176 3765177 3765178 [...] (107 flits)
Class 0:
Remaining flits: 3047976 3047977 3047978 3047979 3047980 3047981 3047982 3047983 3047984 3047985 [...] (62506 flits)
Measured flits: 3765171 3765172 3765173 3765174 3765175 3765176 3765177 3765178 3765179 3765180 [...] (96 flits)
Draining remaining packets ...
Class 0:
Remaining flits: 3047976 3047977 3047978 3047979 3047980 3047981 3047982 3047983 3047984 3047985 [...] (39986 flits)
Measured flits: (0 flits)
Class 0:
Remaining flits: 3047976 3047977 3047978 3047979 3047980 3047981 3047982 3047983 3047984 3047985 [...] (29192 flits)
Measured flits: (0 flits)
Class 0:
Remaining flits: 3047976 3047977 3047978 3047979 3047980 3047981 3047982 3047983 3047984 3047985 [...] (20387 flits)
Measured flits: (0 flits)
Class 0:
Remaining flits: 3047976 3047977 3047978 3047979 3047980 3047981 3047982 3047983 3047984 3047985 [...] (11855 flits)
Measured flits: (0 flits)
Class 0:
Remaining flits: 3085146 3085147 3085148 3085149 3085150 3085151 3085152 3085153 3085154 3085155 [...] (5943 flits)
Measured flits: (0 flits)
Class 0:
Remaining flits: 3497130 3497131 3497132 3497133 3497134 3497135 3497136 3497137 3497138 3497139 [...] (1553 flits)
Measured flits: (0 flits)
Time taken is 136554 cycles
====== Overall Traffic Statistics ======
====== Traffic class 0 ======
Packet latency average = 24915.5 (1 samples)
	minimum = 1632 (1 samples)
	maximum = 120711 (1 samples)
Network latency average = 1777.29 (1 samples)
	minimum = 23 (1 samples)
	maximum = 39242 (1 samples)
Flit latency average = 1830.48 (1 samples)
	minimum = 6 (1 samples)
	maximum = 45120 (1 samples)
Fragmentation average = 255.815 (1 samples)
	minimum = 0 (1 samples)
	maximum = 16387 (1 samples)
Injected packet rate average = 0.0112269 (1 samples)
	minimum = 0 (1 samples)
	maximum = 0.0231429 (1 samples)
Accepted packet rate average = 0.0116674 (1 samples)
	minimum = 0.00914286 (1 samples)
	maximum = 0.015 (1 samples)
Injected flit rate average = 0.202108 (1 samples)
	minimum = 0 (1 samples)
	maximum = 0.417 (1 samples)
Accepted flit rate average = 0.209156 (1 samples)
	minimum = 0.160857 (1 samples)
	maximum = 0.264143 (1 samples)
Injected packet size average = 18.0021 (1 samples)
Accepted packet size average = 17.9265 (1 samples)
Hops average = 5.0638 (1 samples)
Total run time 202.179
