BEGIN Configuration File: networks/mezzanine_config
topology = mezzanine;
n = 12;

routing_function = multipath;
internal_speedup = 2.0;
latency_thres = 100000.0;
use_read_write = 0;

sample_period = 1000;
injection_rate = 0.5;
packet_size = 18;

noq = 1;
routing_delay = 0;
vc_alloc_delay = 1;
sw_alloc_delay = 1;
st_final_delay = 1;
vc_allocator = islip; 
sw_allocator = islip;
alloc_iters  = 4;
num_vcs     = 12;
buffer_policy = private; // private or shared
buf_size = -1; // -1 for buffer_policy = private;
vc_buf_size = 4096; // size of each VOQ with buffer_policy = private
output_buffer_size = -1;


traffic = uniform;

//mezW = 0.0;
//mezPredefinedPatternType = shift-inter; //shift-qfdb

END Configuration File: networks/mezzanine_config
OVERRIDE Parameter: injection_rate=0.006907
OVERRIDE Parameter: routing_function=min
OVERRIDE Parameter: num_vcs=32
OVERRIDE Parameter: vc_buf_size=18
OVERRIDE Parameter: internal_speedup=1.0
OVERRIDE Parameter: injection_process=bernoulli
OVERRIDE Parameter: sim_type=latency
OVERRIDE Parameter: burst_alpha=0.0038461538
OVERRIDE Parameter: burst_beta=0.1
network: network_0
========================== Routing table  =====================
Number of Subnets: 1
Class 0:
Packet latency average = 72.1239
	minimum = 23
	maximum = 388
Network latency average = 70.8861
	minimum = 23
	maximum = 388
Slowest packet = 649
Flit latency average = 39.0649
	minimum = 6
	maximum = 371
Slowest flit = 11699
Fragmentation average = 28.8869
	minimum = 0
	maximum = 215
Injected packet rate average = 0.00677083
	minimum = 0.001 (at node 79)
	maximum = 0.015 (at node 8)
Accepted packet rate average = 0.00626563
	minimum = 0.001 (at node 41)
	maximum = 0.013 (at node 152)
Injected flit rate average = 0.120693
	minimum = 0.018 (at node 79)
	maximum = 0.27 (at node 173)
Accepted flit rate average= 0.115719
	minimum = 0.018 (at node 41)
	maximum = 0.234 (at node 152)
Injected packet length average = 17.8254
Accepted packet length average = 18.4688
Total in-flight flits = 1182 (0 measured)
latency change    = 1
throughput change = 1
Class 0:
Packet latency average = 73.2876
	minimum = 23
	maximum = 388
Network latency average = 72.1595
	minimum = 23
	maximum = 388
Slowest packet = 649
Flit latency average = 40.1052
	minimum = 6
	maximum = 371
Slowest flit = 11699
Fragmentation average = 29.5509
	minimum = 0
	maximum = 215
Injected packet rate average = 0.0066224
	minimum = 0.0025 (at node 101)
	maximum = 0.0115 (at node 173)
Accepted packet rate average = 0.00640104
	minimum = 0.0025 (at node 115)
	maximum = 0.0105 (at node 44)
Injected flit rate average = 0.118729
	minimum = 0.045 (at node 101)
	maximum = 0.207 (at node 173)
Accepted flit rate average= 0.116474
	minimum = 0.045 (at node 115)
	maximum = 0.189 (at node 44)
Injected packet length average = 17.9284
Accepted packet length average = 18.1961
Total in-flight flits = 1048 (0 measured)
latency change    = 0.0158796
throughput change = 0.00648392
Class 0:
Packet latency average = 77.855
	minimum = 23
	maximum = 409
Network latency average = 76.462
	minimum = 23
	maximum = 409
Slowest packet = 2774
Flit latency average = 42.265
	minimum = 6
	maximum = 392
Slowest flit = 49949
Fragmentation average = 33.4612
	minimum = 0
	maximum = 280
Injected packet rate average = 0.00679167
	minimum = 0.001 (at node 9)
	maximum = 0.017 (at node 29)
Accepted packet rate average = 0.00671875
	minimum = 0.001 (at node 65)
	maximum = 0.019 (at node 22)
Injected flit rate average = 0.122078
	minimum = 0.018 (at node 9)
	maximum = 0.306 (at node 29)
Accepted flit rate average= 0.121521
	minimum = 0.018 (at node 65)
	maximum = 0.32 (at node 22)
Injected packet length average = 17.9747
Accepted packet length average = 18.0868
Total in-flight flits = 1188 (0 measured)
latency change    = 0.0586655
throughput change = 0.0415309
Warmed up ...Time used is 3000 cycles
Class 0:
Packet latency average = 78.8552
	minimum = 23
	maximum = 352
Network latency average = 77.7605
	minimum = 23
	maximum = 352
Slowest packet = 4357
Flit latency average = 43.7049
	minimum = 6
	maximum = 372
Slowest flit = 63359
Fragmentation average = 34.9014
	minimum = 0
	maximum = 309
Injected packet rate average = 0.00718229
	minimum = 0.002 (at node 58)
	maximum = 0.015 (at node 53)
Accepted packet rate average = 0.0070625
	minimum = 0 (at node 153)
	maximum = 0.013 (at node 6)
Injected flit rate average = 0.129187
	minimum = 0.036 (at node 58)
	maximum = 0.254 (at node 53)
Accepted flit rate average= 0.127922
	minimum = 0 (at node 153)
	maximum = 0.249 (at node 6)
Injected packet length average = 17.9869
Accepted packet length average = 18.1128
Total in-flight flits = 1449 (1449 measured)
latency change    = 0.0126837
throughput change = 0.0500387
Class 0:
Packet latency average = 79.6138
	minimum = 23
	maximum = 488
Network latency average = 78.494
	minimum = 23
	maximum = 488
Slowest packet = 4814
Flit latency average = 43.913
	minimum = 6
	maximum = 471
Slowest flit = 86669
Fragmentation average = 35.2163
	minimum = 0
	maximum = 337
Injected packet rate average = 0.00692969
	minimum = 0.0025 (at node 104)
	maximum = 0.012 (at node 93)
Accepted packet rate average = 0.007
	minimum = 0.003 (at node 184)
	maximum = 0.0115 (at node 119)
Injected flit rate average = 0.124703
	minimum = 0.0485 (at node 104)
	maximum = 0.2135 (at node 93)
Accepted flit rate average= 0.125383
	minimum = 0.054 (at node 184)
	maximum = 0.2055 (at node 119)
Injected packet length average = 17.9955
Accepted packet length average = 17.9118
Total in-flight flits = 939 (939 measured)
latency change    = 0.00952775
throughput change = 0.0202505
Class 0:
Packet latency average = 76.9543
	minimum = 23
	maximum = 488
Network latency average = 75.8465
	minimum = 23
	maximum = 488
Slowest packet = 4814
Flit latency average = 42.2337
	minimum = 6
	maximum = 471
Slowest flit = 86669
Fragmentation average = 33.0351
	minimum = 0
	maximum = 337
Injected packet rate average = 0.0068941
	minimum = 0.00333333 (at node 154)
	maximum = 0.0106667 (at node 138)
Accepted packet rate average = 0.00689063
	minimum = 0.00333333 (at node 153)
	maximum = 0.0113333 (at node 34)
Injected flit rate average = 0.124273
	minimum = 0.0616667 (at node 154)
	maximum = 0.189667 (at node 138)
Accepted flit rate average= 0.124269
	minimum = 0.06 (at node 153)
	maximum = 0.196667 (at node 34)
Injected packet length average = 18.0259
Accepted packet length average = 18.0345
Total in-flight flits = 1087 (1087 measured)
latency change    = 0.0345593
throughput change = 0.00896213
Class 0:
Packet latency average = 77.5312
	minimum = 23
	maximum = 488
Network latency average = 76.4517
	minimum = 23
	maximum = 488
Slowest packet = 4814
Flit latency average = 42.6563
	minimum = 6
	maximum = 471
Slowest flit = 86669
Fragmentation average = 33.3789
	minimum = 0
	maximum = 337
Injected packet rate average = 0.006875
	minimum = 0.00375 (at node 154)
	maximum = 0.01075 (at node 13)
Accepted packet rate average = 0.0068776
	minimum = 0.00425 (at node 91)
	maximum = 0.0115 (at node 16)
Injected flit rate average = 0.123781
	minimum = 0.06875 (at node 154)
	maximum = 0.19025 (at node 13)
Accepted flit rate average= 0.123812
	minimum = 0.0765 (at node 91)
	maximum = 0.20675 (at node 16)
Injected packet length average = 18.0045
Accepted packet length average = 18.0023
Total in-flight flits = 1140 (1140 measured)
latency change    = 0.00744083
throughput change = 0.00368781
Draining all recorded packets ...
Draining remaining packets ...
Time taken is 7331 cycles
====== Overall Traffic Statistics ======
====== Traffic class 0 ======
Packet latency average = 77.8778 (1 samples)
	minimum = 23 (1 samples)
	maximum = 488 (1 samples)
Network latency average = 76.7985 (1 samples)
	minimum = 23 (1 samples)
	maximum = 488 (1 samples)
Flit latency average = 42.8233 (1 samples)
	minimum = 6 (1 samples)
	maximum = 471 (1 samples)
Fragmentation average = 33.6081 (1 samples)
	minimum = 0 (1 samples)
	maximum = 337 (1 samples)
Injected packet rate average = 0.006875 (1 samples)
	minimum = 0.00375 (1 samples)
	maximum = 0.01075 (1 samples)
Accepted packet rate average = 0.0068776 (1 samples)
	minimum = 0.00425 (1 samples)
	maximum = 0.0115 (1 samples)
Injected flit rate average = 0.123781 (1 samples)
	minimum = 0.06875 (1 samples)
	maximum = 0.19025 (1 samples)
Accepted flit rate average = 0.123812 (1 samples)
	minimum = 0.0765 (1 samples)
	maximum = 0.20675 (1 samples)
Injected packet size average = 18.0045 (1 samples)
Accepted packet size average = 18.0023 (1 samples)
Hops average = 5.07936 (1 samples)
Total run time 2.92767
