BEGIN Configuration File: networks/mezzanine_config
topology = mezzanine;
n = 12;

routing_function = multipath;
internal_speedup = 2.0;
latency_thres = 100000.0;
use_read_write = 0;

sample_period = 1000;
injection_rate = 0.5;
packet_size = 18;

noq = 1;
routing_delay = 0;
vc_alloc_delay = 1;
sw_alloc_delay = 1;
st_final_delay = 1;
vc_allocator = islip; 
sw_allocator = islip;
alloc_iters  = 4;
num_vcs     = 12;
buffer_policy = private; // private or shared
buf_size = -1; // -1 for buffer_policy = private;
vc_buf_size = 4096; // size of each VOQ with buffer_policy = private
output_buffer_size = -1;


traffic = uniform;

//mezW = 0.0;
//mezPredefinedPatternType = shift-inter; //shift-qfdb

END Configuration File: networks/mezzanine_config
OVERRIDE Parameter: injection_rate=0.004697
OVERRIDE Parameter: routing_function=multipath
OVERRIDE Parameter: num_vcs=12
OVERRIDE Parameter: vc_buf_size=144
OVERRIDE Parameter: internal_speedup=1.0
OVERRIDE Parameter: injection_process=on_off
OVERRIDE Parameter: sim_type=latency
OVERRIDE Parameter: burst_alpha=0.0038461538
OVERRIDE Parameter: burst_beta=0.1
network: network_0
========================== Routing table  =====================
Number of Subnets: 1
Class 0:
Packet latency average = 81.5865
	minimum = 23
	maximum = 244
Network latency average = 65.8697
	minimum = 23
	maximum = 195
Slowest packet = 13
Flit latency average = 40.7006
	minimum = 6
	maximum = 178
Slowest flit = 2753
Fragmentation average = 15.0673
	minimum = 0
	maximum = 57
Injected packet rate average = 0.00510938
	minimum = 0 (at node 5)
	maximum = 0.02 (at node 161)
Accepted packet rate average = 0.004875
	minimum = 0.001 (at node 41)
	maximum = 0.011 (at node 140)
Injected flit rate average = 0.090974
	minimum = 0 (at node 5)
	maximum = 0.36 (at node 161)
Accepted flit rate average= 0.0884844
	minimum = 0.018 (at node 41)
	maximum = 0.198 (at node 140)
Injected packet length average = 17.8053
Accepted packet length average = 18.1506
Total in-flight flits = 669 (0 measured)
latency change    = 1
throughput change = 1
Class 0:
Packet latency average = 79.7223
	minimum = 23
	maximum = 329
Network latency average = 64.453
	minimum = 23
	maximum = 268
Slowest packet = 1141
Flit latency average = 39.7988
	minimum = 6
	maximum = 251
Slowest flit = 21257
Fragmentation average = 14.1639
	minimum = 0
	maximum = 61
Injected packet rate average = 0.00473437
	minimum = 0 (at node 37)
	maximum = 0.014 (at node 161)
Accepted packet rate average = 0.00457552
	minimum = 0.0005 (at node 41)
	maximum = 0.008 (at node 48)
Injected flit rate average = 0.0848724
	minimum = 0 (at node 37)
	maximum = 0.251 (at node 161)
Accepted flit rate average= 0.0830078
	minimum = 0.009 (at node 41)
	maximum = 0.1455 (at node 70)
Injected packet length average = 17.9268
Accepted packet length average = 18.1417
Total in-flight flits = 849 (0 measured)
latency change    = 0.0233847
throughput change = 0.0659765
Class 0:
Packet latency average = 85.7617
	minimum = 27
	maximum = 386
Network latency average = 69.6273
	minimum = 23
	maximum = 350
Slowest packet = 2111
Flit latency average = 43.6046
	minimum = 6
	maximum = 333
Slowest flit = 38015
Fragmentation average = 17.1475
	minimum = 0
	maximum = 66
Injected packet rate average = 0.00475521
	minimum = 0 (at node 1)
	maximum = 0.025 (at node 22)
Accepted packet rate average = 0.00476562
	minimum = 0 (at node 17)
	maximum = 0.015 (at node 173)
Injected flit rate average = 0.0857448
	minimum = 0 (at node 1)
	maximum = 0.467 (at node 22)
Accepted flit rate average= 0.0863021
	minimum = 0 (at node 17)
	maximum = 0.258 (at node 173)
Injected packet length average = 18.0318
Accepted packet length average = 18.1093
Total in-flight flits = 713 (0 measured)
latency change    = 0.0704218
throughput change = 0.0381714
Warmed up ...Time used is 3000 cycles
Class 0:
Packet latency average = 81.3247
	minimum = 23
	maximum = 301
Network latency average = 63.5615
	minimum = 23
	maximum = 248
Slowest packet = 2733
Flit latency average = 40.3645
	minimum = 6
	maximum = 231
Slowest flit = 61847
Fragmentation average = 13.5826
	minimum = 0
	maximum = 61
Injected packet rate average = 0.00471875
	minimum = 0 (at node 0)
	maximum = 0.016 (at node 115)
Accepted packet rate average = 0.00475
	minimum = 0 (at node 18)
	maximum = 0.011 (at node 22)
Injected flit rate average = 0.084651
	minimum = 0 (at node 0)
	maximum = 0.272 (at node 115)
Accepted flit rate average= 0.0850938
	minimum = 0 (at node 18)
	maximum = 0.202 (at node 22)
Injected packet length average = 17.9393
Accepted packet length average = 17.9145
Total in-flight flits = 683 (683 measured)
latency change    = 0.0545592
throughput change = 0.0142
Class 0:
Packet latency average = 78.9138
	minimum = 23
	maximum = 391
Network latency average = 63.4959
	minimum = 23
	maximum = 367
Slowest packet = 3472
Flit latency average = 39.7966
	minimum = 6
	maximum = 350
Slowest flit = 62513
Fragmentation average = 13.3731
	minimum = 0
	maximum = 61
Injected packet rate average = 0.00454948
	minimum = 0 (at node 58)
	maximum = 0.012 (at node 115)
Accepted packet rate average = 0.0045651
	minimum = 0.001 (at node 24)
	maximum = 0.0085 (at node 166)
Injected flit rate average = 0.0819323
	minimum = 0 (at node 58)
	maximum = 0.216 (at node 115)
Accepted flit rate average= 0.081974
	minimum = 0.018 (at node 24)
	maximum = 0.153 (at node 166)
Injected packet length average = 18.0092
Accepted packet length average = 17.9566
Total in-flight flits = 681 (681 measured)
latency change    = 0.0305513
throughput change = 0.0380583
Class 0:
Packet latency average = 78.6186
	minimum = 23
	maximum = 391
Network latency average = 62.8199
	minimum = 23
	maximum = 367
Slowest packet = 3472
Flit latency average = 39.1284
	minimum = 6
	maximum = 350
Slowest flit = 62513
Fragmentation average = 13.2862
	minimum = 0
	maximum = 69
Injected packet rate average = 0.00444097
	minimum = 0.000333333 (at node 119)
	maximum = 0.00933333 (at node 173)
Accepted packet rate average = 0.00442187
	minimum = 0.00133333 (at node 153)
	maximum = 0.00733333 (at node 174)
Injected flit rate average = 0.0799531
	minimum = 0.006 (at node 119)
	maximum = 0.168 (at node 173)
Accepted flit rate average= 0.079592
	minimum = 0.024 (at node 153)
	maximum = 0.132 (at node 174)
Injected packet length average = 18.0035
Accepted packet length average = 17.9996
Total in-flight flits = 912 (912 measured)
latency change    = 0.0037554
throughput change = 0.0299269
Class 0:
Packet latency average = 83.9077
	minimum = 23
	maximum = 529
Network latency average = 67.009
	minimum = 23
	maximum = 409
Slowest packet = 3472
Flit latency average = 42.2203
	minimum = 6
	maximum = 392
Slowest flit = 105497
Fragmentation average = 15.1355
	minimum = 0
	maximum = 83
Injected packet rate average = 0.00458984
	minimum = 0.00075 (at node 119)
	maximum = 0.01075 (at node 115)
Accepted packet rate average = 0.00457552
	minimum = 0.002 (at node 153)
	maximum = 0.0075 (at node 56)
Injected flit rate average = 0.0825677
	minimum = 0.0135 (at node 119)
	maximum = 0.1935 (at node 115)
Accepted flit rate average= 0.0823581
	minimum = 0.036 (at node 153)
	maximum = 0.1345 (at node 56)
Injected packet length average = 17.9892
Accepted packet length average = 17.9997
Total in-flight flits = 912 (912 measured)
latency change    = 0.0630348
throughput change = 0.0335858
Class 0:
Packet latency average = 85.852
	minimum = 23
	maximum = 584
Network latency average = 68.9191
	minimum = 23
	maximum = 449
Slowest packet = 3472
Flit latency average = 43.4856
	minimum = 6
	maximum = 432
Slowest flit = 105785
Fragmentation average = 16.0739
	minimum = 0
	maximum = 83
Injected packet rate average = 0.00466771
	minimum = 0.0008 (at node 58)
	maximum = 0.0096 (at node 140)
Accepted packet rate average = 0.00465729
	minimum = 0.0024 (at node 153)
	maximum = 0.0074 (at node 56)
Injected flit rate average = 0.0840292
	minimum = 0.0144 (at node 58)
	maximum = 0.1728 (at node 140)
Accepted flit rate average= 0.0838437
	minimum = 0.0432 (at node 153)
	maximum = 0.1328 (at node 56)
Injected packet length average = 18.0022
Accepted packet length average = 18.0027
Total in-flight flits = 881 (881 measured)
latency change    = 0.0226474
throughput change = 0.0177196
Class 0:
Packet latency average = 84.6581
	minimum = 23
	maximum = 584
Network latency average = 67.8991
	minimum = 23
	maximum = 449
Slowest packet = 3472
Flit latency average = 42.694
	minimum = 6
	maximum = 432
Slowest flit = 105785
Fragmentation average = 15.5624
	minimum = 0
	maximum = 83
Injected packet rate average = 0.00468229
	minimum = 0.00133333 (at node 3)
	maximum = 0.0113333 (at node 115)
Accepted packet rate average = 0.00466927
	minimum = 0.00233333 (at node 153)
	maximum = 0.00716667 (at node 16)
Injected flit rate average = 0.0842101
	minimum = 0.0213333 (at node 58)
	maximum = 0.201167 (at node 115)
Accepted flit rate average= 0.0839905
	minimum = 0.042 (at node 153)
	maximum = 0.130667 (at node 16)
Injected packet length average = 17.9848
Accepted packet length average = 17.9879
Total in-flight flits = 1048 (1048 measured)
latency change    = 0.0141028
throughput change = 0.00174664
Class 0:
Packet latency average = 84.7182
	minimum = 23
	maximum = 584
Network latency average = 67.8516
	minimum = 23
	maximum = 449
Slowest packet = 3472
Flit latency average = 42.7275
	minimum = 6
	maximum = 432
Slowest flit = 105785
Fragmentation average = 15.465
	minimum = 0
	maximum = 83
Injected packet rate average = 0.00474033
	minimum = 0.00128571 (at node 138)
	maximum = 0.01 (at node 115)
Accepted packet rate average = 0.00474628
	minimum = 0.00285714 (at node 153)
	maximum = 0.00785714 (at node 16)
Injected flit rate average = 0.0853586
	minimum = 0.0231429 (at node 138)
	maximum = 0.18 (at node 115)
Accepted flit rate average= 0.0853705
	minimum = 0.0514286 (at node 153)
	maximum = 0.142143 (at node 16)
Injected packet length average = 18.0069
Accepted packet length average = 17.9868
Total in-flight flits = 653 (653 measured)
latency change    = 0.00070957
throughput change = 0.0161658
Draining all recorded packets ...
Draining remaining packets ...
Time taken is 10263 cycles
====== Overall Traffic Statistics ======
====== Traffic class 0 ======
Packet latency average = 85.0016 (1 samples)
	minimum = 23 (1 samples)
	maximum = 584 (1 samples)
Network latency average = 68.039 (1 samples)
	minimum = 23 (1 samples)
	maximum = 449 (1 samples)
Flit latency average = 42.8324 (1 samples)
	minimum = 6 (1 samples)
	maximum = 432 (1 samples)
Fragmentation average = 15.5191 (1 samples)
	minimum = 0 (1 samples)
	maximum = 83 (1 samples)
Injected packet rate average = 0.00474033 (1 samples)
	minimum = 0.00128571 (1 samples)
	maximum = 0.01 (1 samples)
Accepted packet rate average = 0.00474628 (1 samples)
	minimum = 0.00285714 (1 samples)
	maximum = 0.00785714 (1 samples)
Injected flit rate average = 0.0853586 (1 samples)
	minimum = 0.0231429 (1 samples)
	maximum = 0.18 (1 samples)
Accepted flit rate average = 0.0853705 (1 samples)
	minimum = 0.0514286 (1 samples)
	maximum = 0.142143 (1 samples)
Injected packet size average = 18.0069 (1 samples)
Accepted packet size average = 17.9868 (1 samples)
Hops average = 5.05341 (1 samples)
Total run time 2.68726
