BEGIN Configuration File: networks/mezzanine_config
topology = mezzanine;
n = 12;

routing_function = multipath;
internal_speedup = 2.0;
latency_thres = 100000.0;
use_read_write = 0;

sample_period = 1000;
injection_rate = 0.5;
packet_size = 18;

noq = 1;
routing_delay = 0;
vc_alloc_delay = 1;
sw_alloc_delay = 1;
st_final_delay = 1;
vc_allocator = islip; 
sw_allocator = islip;
alloc_iters  = 4;
num_vcs     = 12;
buffer_policy = private; // private or shared
buf_size = -1; // -1 for buffer_policy = private;
vc_buf_size = 4096; // size of each VOQ with buffer_policy = private
output_buffer_size = -1;


traffic = uniform;

//mezW = 0.0;
//mezPredefinedPatternType = shift-inter; //shift-qfdb

END Configuration File: networks/mezzanine_config
OVERRIDE Parameter: injection_rate=0.006907
OVERRIDE Parameter: routing_function=min
OVERRIDE Parameter: num_vcs=32
OVERRIDE Parameter: vc_buf_size=1024
OVERRIDE Parameter: internal_speedup=1.0
OVERRIDE Parameter: injection_process=bernoulli
OVERRIDE Parameter: sim_type=latency
OVERRIDE Parameter: burst_alpha=0.0038461538
OVERRIDE Parameter: burst_beta=0.1
network: network_0
========================== Routing table  =====================
Number of Subnets: 1
Class 0:
Packet latency average = 72.3664
	minimum = 23
	maximum = 438
Network latency average = 71.1042
	minimum = 23
	maximum = 438
Slowest packet = 614
Flit latency average = 39.5779
	minimum = 6
	maximum = 466
Slowest flit = 11690
Fragmentation average = 29.1101
	minimum = 0
	maximum = 364
Injected packet rate average = 0.00677083
	minimum = 0.001 (at node 176)
	maximum = 0.014 (at node 173)
Accepted packet rate average = 0.00619792
	minimum = 0.001 (at node 41)
	maximum = 0.013 (at node 48)
Injected flit rate average = 0.120698
	minimum = 0.018 (at node 176)
	maximum = 0.252 (at node 173)
Accepted flit rate average= 0.114839
	minimum = 0.018 (at node 41)
	maximum = 0.234 (at node 48)
Injected packet length average = 17.8262
Accepted packet length average = 18.5286
Total in-flight flits = 1351 (0 measured)
latency change    = 1
throughput change = 1
Class 0:
Packet latency average = 74.0593
	minimum = 23
	maximum = 530
Network latency average = 72.8197
	minimum = 23
	maximum = 530
Slowest packet = 649
Flit latency average = 40.5053
	minimum = 6
	maximum = 513
Slowest flit = 11699
Fragmentation average = 29.9736
	minimum = 0
	maximum = 364
Injected packet rate average = 0.0066224
	minimum = 0.002 (at node 37)
	maximum = 0.0125 (at node 172)
Accepted packet rate average = 0.00641406
	minimum = 0.0025 (at node 115)
	maximum = 0.0105 (at node 44)
Injected flit rate average = 0.118724
	minimum = 0.036 (at node 37)
	maximum = 0.225 (at node 172)
Accepted flit rate average= 0.11682
	minimum = 0.045 (at node 115)
	maximum = 0.189 (at node 44)
Injected packet length average = 17.9276
Accepted packet length average = 18.2132
Total in-flight flits = 915 (0 measured)
latency change    = 0.0228586
throughput change = 0.0169643
Class 0:
Packet latency average = 75.1316
	minimum = 23
	maximum = 404
Network latency average = 73.9026
	minimum = 23
	maximum = 404
Slowest packet = 2610
Flit latency average = 41.1717
	minimum = 6
	maximum = 387
Slowest flit = 46997
Fragmentation average = 30.5522
	minimum = 0
	maximum = 319
Injected packet rate average = 0.00679167
	minimum = 0.001 (at node 125)
	maximum = 0.016 (at node 34)
Accepted packet rate average = 0.0066875
	minimum = 0.001 (at node 18)
	maximum = 0.018 (at node 22)
Injected flit rate average = 0.122089
	minimum = 0.018 (at node 125)
	maximum = 0.288 (at node 34)
Accepted flit rate average= 0.120896
	minimum = 0.018 (at node 18)
	maximum = 0.317 (at node 22)
Injected packet length average = 17.9762
Accepted packet length average = 18.0779
Total in-flight flits = 1175 (0 measured)
latency change    = 0.0142729
throughput change = 0.033711
Warmed up ...Time used is 3000 cycles
Class 0:
Packet latency average = 74.8081
	minimum = 23
	maximum = 419
Network latency average = 73.6334
	minimum = 23
	maximum = 419
Slowest packet = 4023
Flit latency average = 41.1087
	minimum = 6
	maximum = 402
Slowest flit = 72431
Fragmentation average = 31.3167
	minimum = 0
	maximum = 372
Injected packet rate average = 0.00718229
	minimum = 0.002 (at node 28)
	maximum = 0.018 (at node 115)
Accepted packet rate average = 0.00719792
	minimum = 0.001 (at node 121)
	maximum = 0.015 (at node 6)
Injected flit rate average = 0.129193
	minimum = 0.036 (at node 28)
	maximum = 0.324 (at node 115)
Accepted flit rate average= 0.129354
	minimum = 0.02 (at node 121)
	maximum = 0.258 (at node 6)
Injected packet length average = 17.9877
Accepted packet length average = 17.9711
Total in-flight flits = 1161 (1161 measured)
latency change    = 0.0043245
throughput change = 0.065389
Class 0:
Packet latency average = 74.3589
	minimum = 23
	maximum = 419
Network latency average = 73.3157
	minimum = 23
	maximum = 419
Slowest packet = 4023
Flit latency average = 40.8528
	minimum = 6
	maximum = 402
Slowest flit = 72431
Fragmentation average = 30.7181
	minimum = 0
	maximum = 372
Injected packet rate average = 0.00692969
	minimum = 0.0025 (at node 2)
	maximum = 0.0115 (at node 5)
Accepted packet rate average = 0.00702344
	minimum = 0.003 (at node 184)
	maximum = 0.0115 (at node 63)
Injected flit rate average = 0.124703
	minimum = 0.045 (at node 2)
	maximum = 0.207 (at node 5)
Accepted flit rate average= 0.12544
	minimum = 0.054 (at node 184)
	maximum = 0.2035 (at node 63)
Injected packet length average = 17.9955
Accepted packet length average = 17.8602
Total in-flight flits = 904 (904 measured)
latency change    = 0.00604147
throughput change = 0.0312026
Class 0:
Packet latency average = 74.277
	minimum = 23
	maximum = 419
Network latency average = 73.1874
	minimum = 23
	maximum = 419
Slowest packet = 4023
Flit latency average = 40.6614
	minimum = 6
	maximum = 402
Slowest flit = 72431
Fragmentation average = 30.6743
	minimum = 0
	maximum = 372
Injected packet rate average = 0.0068941
	minimum = 0.003 (at node 112)
	maximum = 0.0106667 (at node 191)
Accepted packet rate average = 0.00688021
	minimum = 0.00366667 (at node 91)
	maximum = 0.011 (at node 187)
Injected flit rate average = 0.124269
	minimum = 0.054 (at node 112)
	maximum = 0.195 (at node 191)
Accepted flit rate average= 0.12391
	minimum = 0.0623333 (at node 153)
	maximum = 0.195 (at node 34)
Injected packet length average = 18.0254
Accepted packet length average = 18.0096
Total in-flight flits = 1281 (1281 measured)
latency change    = 0.00110248
throughput change = 0.0123508
Class 0:
Packet latency average = 76.3456
	minimum = 23
	maximum = 419
Network latency average = 75.2538
	minimum = 23
	maximum = 419
Slowest packet = 4023
Flit latency average = 41.899
	minimum = 6
	maximum = 430
Slowest flit = 153608
Fragmentation average = 32.2985
	minimum = 0
	maximum = 372
Injected packet rate average = 0.006875
	minimum = 0.0035 (at node 112)
	maximum = 0.01025 (at node 69)
Accepted packet rate average = 0.00686198
	minimum = 0.00425 (at node 91)
	maximum = 0.0115 (at node 16)
Injected flit rate average = 0.123779
	minimum = 0.063 (at node 112)
	maximum = 0.186 (at node 191)
Accepted flit rate average= 0.123668
	minimum = 0.0765 (at node 91)
	maximum = 0.2085 (at node 16)
Injected packet length average = 18.0042
Accepted packet length average = 18.0222
Total in-flight flits = 1238 (1238 measured)
latency change    = 0.027096
throughput change = 0.00195486
Draining all recorded packets ...
Draining remaining packets ...
Time taken is 7263 cycles
====== Overall Traffic Statistics ======
====== Traffic class 0 ======
Packet latency average = 76.9758 (1 samples)
	minimum = 23 (1 samples)
	maximum = 479 (1 samples)
Network latency average = 75.8854 (1 samples)
	minimum = 23 (1 samples)
	maximum = 459 (1 samples)
Flit latency average = 42.524 (1 samples)
	minimum = 6 (1 samples)
	maximum = 442 (1 samples)
Fragmentation average = 32.6946 (1 samples)
	minimum = 0 (1 samples)
	maximum = 372 (1 samples)
Injected packet rate average = 0.006875 (1 samples)
	minimum = 0.0035 (1 samples)
	maximum = 0.01025 (1 samples)
Accepted packet rate average = 0.00686198 (1 samples)
	minimum = 0.00425 (1 samples)
	maximum = 0.0115 (1 samples)
Injected flit rate average = 0.123779 (1 samples)
	minimum = 0.063 (1 samples)
	maximum = 0.186 (1 samples)
Accepted flit rate average = 0.123668 (1 samples)
	minimum = 0.0765 (1 samples)
	maximum = 0.2085 (1 samples)
Injected packet size average = 18.0042 (1 samples)
Accepted packet size average = 18.0222 (1 samples)
Hops average = 5.07574 (1 samples)
Total run time 2.76947
