BEGIN Configuration File: networks/mezzanine_config
topology = mezzanine;
n = 12;

routing_function = multipath;
internal_speedup = 2.0;
latency_thres = 100000.0;
use_read_write = 0;

sample_period = 1000;
injection_rate = 0.5;
packet_size = 18;

noq = 1;
routing_delay = 0;
vc_alloc_delay = 1;
sw_alloc_delay = 1;
st_final_delay = 1;
vc_allocator = islip; 
sw_allocator = islip;
alloc_iters  = 4;
num_vcs     = 12;
buffer_policy = private; // private or shared
buf_size = -1; // -1 for buffer_policy = private;
vc_buf_size = 4096; // size of each VOQ with buffer_policy = private
output_buffer_size = -1;


traffic = uniform;

//mezW = 0.0;
//mezPredefinedPatternType = shift-inter; //shift-qfdb

END Configuration File: networks/mezzanine_config
OVERRIDE Parameter: injection_rate=0.002487
OVERRIDE Parameter: routing_function=multipath
OVERRIDE Parameter: num_vcs=32
OVERRIDE Parameter: vc_buf_size=18
OVERRIDE Parameter: internal_speedup=1.0
OVERRIDE Parameter: injection_process=on_off
OVERRIDE Parameter: sim_type=latency
OVERRIDE Parameter: burst_alpha=0.0038461538
OVERRIDE Parameter: burst_beta=0.1
network: network_0
========================== Routing table  =====================
Number of Subnets: 1
Class 0:
Packet latency average = 56.5431
	minimum = 23
	maximum = 170
Network latency average = 50.3664
	minimum = 23
	maximum = 138
Slowest packet = 384
Flit latency average = 27.8633
	minimum = 6
	maximum = 121
Slowest flit = 6929
Fragmentation average = 10.6034
	minimum = 0
	maximum = 81
Injected packet rate average = 0.00258333
	minimum = 0 (at node 5)
	maximum = 0.015 (at node 173)
Accepted packet rate average = 0.00241667
	minimum = 0 (at node 11)
	maximum = 0.008 (at node 140)
Injected flit rate average = 0.046026
	minimum = 0 (at node 5)
	maximum = 0.27 (at node 173)
Accepted flit rate average= 0.0444271
	minimum = 0 (at node 11)
	maximum = 0.144 (at node 140)
Injected packet length average = 17.8165
Accepted packet length average = 18.3836
Total in-flight flits = 398 (0 measured)
latency change    = 1
throughput change = 1
Class 0:
Packet latency average = 53.8285
	minimum = 23
	maximum = 170
Network latency average = 48.0359
	minimum = 23
	maximum = 138
Slowest packet = 384
Flit latency average = 26.709
	minimum = 6
	maximum = 121
Slowest flit = 6929
Fragmentation average = 8.26457
	minimum = 0
	maximum = 82
Injected packet rate average = 0.00238021
	minimum = 0 (at node 18)
	maximum = 0.008 (at node 0)
Accepted packet rate average = 0.00232292
	minimum = 0.0005 (at node 14)
	maximum = 0.0055 (at node 140)
Injected flit rate average = 0.0426458
	minimum = 0 (at node 18)
	maximum = 0.144 (at node 0)
Accepted flit rate average= 0.0420651
	minimum = 0.009 (at node 35)
	maximum = 0.099 (at node 140)
Injected packet length average = 17.9168
Accepted packet length average = 18.1087
Total in-flight flits = 299 (0 measured)
latency change    = 0.0504311
throughput change = 0.0561506
Class 0:
Packet latency average = 54.6532
	minimum = 23
	maximum = 155
Network latency average = 47.9899
	minimum = 23
	maximum = 139
Slowest packet = 989
Flit latency average = 26.7765
	minimum = 6
	maximum = 122
Slowest flit = 17819
Fragmentation average = 8.52218
	minimum = 0
	maximum = 98
Injected packet rate average = 0.00260417
	minimum = 0 (at node 4)
	maximum = 0.012 (at node 1)
Accepted packet rate average = 0.00258333
	minimum = 0 (at node 10)
	maximum = 0.007 (at node 22)
Injected flit rate average = 0.047099
	minimum = 0 (at node 4)
	maximum = 0.216 (at node 1)
Accepted flit rate average= 0.0469115
	minimum = 0 (at node 10)
	maximum = 0.126 (at node 22)
Injected packet length average = 18.086
Accepted packet length average = 18.1593
Total in-flight flits = 292 (0 measured)
latency change    = 0.0150906
throughput change = 0.103309
Warmed up ...Time used is 3000 cycles
Class 0:
Packet latency average = 58.1226
	minimum = 26
	maximum = 225
Network latency average = 50.043
	minimum = 23
	maximum = 171
Slowest packet = 1416
Flit latency average = 28.3713
	minimum = 6
	maximum = 154
Slowest flit = 27521
Fragmentation average = 9.95484
	minimum = 0
	maximum = 82
Injected packet rate average = 0.00250521
	minimum = 0 (at node 2)
	maximum = 0.009 (at node 5)
Accepted packet rate average = 0.00255729
	minimum = 0 (at node 32)
	maximum = 0.007 (at node 44)
Injected flit rate average = 0.0447135
	minimum = 0 (at node 2)
	maximum = 0.162 (at node 5)
Accepted flit rate average= 0.0452813
	minimum = 0 (at node 32)
	maximum = 0.126 (at node 182)
Injected packet length average = 17.8482
Accepted packet length average = 17.7067
Total in-flight flits = 256 (256 measured)
latency change    = 0.0596903
throughput change = 0.0360018
Class 0:
Packet latency average = 57.7923
	minimum = 23
	maximum = 225
Network latency average = 49.4746
	minimum = 23
	maximum = 171
Slowest packet = 1416
Flit latency average = 27.789
	minimum = 6
	maximum = 154
Slowest flit = 27521
Fragmentation average = 9.48494
	minimum = 0
	maximum = 82
Injected packet rate average = 0.00254427
	minimum = 0 (at node 86)
	maximum = 0.0075 (at node 132)
Accepted packet rate average = 0.00257552
	minimum = 0 (at node 116)
	maximum = 0.006 (at node 44)
Injected flit rate average = 0.0457943
	minimum = 0 (at node 86)
	maximum = 0.1335 (at node 132)
Accepted flit rate average= 0.0461016
	minimum = 0 (at node 116)
	maximum = 0.108 (at node 65)
Injected packet length average = 17.999
Accepted packet length average = 17.8999
Total in-flight flits = 175 (175 measured)
latency change    = 0.00571469
throughput change = 0.0177936
Class 0:
Packet latency average = 57.1857
	minimum = 23
	maximum = 225
Network latency average = 48.9824
	minimum = 23
	maximum = 171
Slowest packet = 1416
Flit latency average = 27.3758
	minimum = 6
	maximum = 154
Slowest flit = 27521
Fragmentation average = 9.13572
	minimum = 0
	maximum = 82
Injected packet rate average = 0.00251736
	minimum = 0 (at node 171)
	maximum = 0.00666667 (at node 116)
Accepted packet rate average = 0.00251389
	minimum = 0.000333333 (at node 116)
	maximum = 0.006 (at node 44)
Injected flit rate average = 0.0452049
	minimum = 0 (at node 171)
	maximum = 0.12 (at node 116)
Accepted flit rate average= 0.0451771
	minimum = 0.006 (at node 116)
	maximum = 0.0973333 (at node 173)
Injected packet length average = 17.9572
Accepted packet length average = 17.971
Total in-flight flits = 370 (370 measured)
latency change    = 0.0106086
throughput change = 0.0204635
Class 0:
Packet latency average = 56.7396
	minimum = 23
	maximum = 225
Network latency average = 48.5882
	minimum = 23
	maximum = 171
Slowest packet = 1416
Flit latency average = 27.0938
	minimum = 6
	maximum = 154
Slowest flit = 27521
Fragmentation average = 8.87056
	minimum = 0
	maximum = 86
Injected packet rate average = 0.00251563
	minimum = 0 (at node 171)
	maximum = 0.00625 (at node 167)
Accepted packet rate average = 0.00252865
	minimum = 0.001 (at node 116)
	maximum = 0.00475 (at node 44)
Injected flit rate average = 0.0452865
	minimum = 0 (at node 171)
	maximum = 0.11375 (at node 167)
Accepted flit rate average= 0.0454349
	minimum = 0.018 (at node 116)
	maximum = 0.0855 (at node 166)
Injected packet length average = 18.0021
Accepted packet length average = 17.9681
Total in-flight flits = 174 (174 measured)
latency change    = 0.00786211
throughput change = 0.00567433
Draining all recorded packets ...
Draining remaining packets ...
Time taken is 7128 cycles
====== Overall Traffic Statistics ======
====== Traffic class 0 ======
Packet latency average = 56.9649 (1 samples)
	minimum = 23 (1 samples)
	maximum = 225 (1 samples)
Network latency average = 48.7309 (1 samples)
	minimum = 23 (1 samples)
	maximum = 171 (1 samples)
Flit latency average = 27.1327 (1 samples)
	minimum = 6 (1 samples)
	maximum = 154 (1 samples)
Fragmentation average = 9.01395 (1 samples)
	minimum = 0 (1 samples)
	maximum = 86 (1 samples)
Injected packet rate average = 0.00251563 (1 samples)
	minimum = 0 (1 samples)
	maximum = 0.00625 (1 samples)
Accepted packet rate average = 0.00252865 (1 samples)
	minimum = 0.001 (1 samples)
	maximum = 0.00475 (1 samples)
Injected flit rate average = 0.0452865 (1 samples)
	minimum = 0 (1 samples)
	maximum = 0.11375 (1 samples)
Accepted flit rate average = 0.0454349 (1 samples)
	minimum = 0.018 (1 samples)
	maximum = 0.0855 (1 samples)
Injected packet size average = 18.0021 (1 samples)
Accepted packet size average = 17.9681 (1 samples)
Hops average = 5.04597 (1 samples)
Total run time 1.44921
