BEGIN Configuration File: networks/mezzanine_config
topology = mezzanine;
n = 12;

routing_function = multipath;
internal_speedup = 2.0;
latency_thres = 100000.0;
use_read_write = 0;

sample_period = 1000;
injection_rate = 0.5;
packet_size = 18;

noq = 1;
routing_delay = 0;
vc_alloc_delay = 1;
sw_alloc_delay = 1;
st_final_delay = 1;
vc_allocator = islip; 
sw_allocator = islip;
alloc_iters  = 4;
num_vcs     = 12;
buffer_policy = private; // private or shared
buf_size = -1; // -1 for buffer_policy = private;
vc_buf_size = 4096; // size of each VOQ with buffer_policy = private
output_buffer_size = -1;


traffic = uniform;

//mezW = 0.0;
//mezPredefinedPatternType = shift-inter; //shift-qfdb

END Configuration File: networks/mezzanine_config
OVERRIDE Parameter: injection_rate=0.026797
OVERRIDE Parameter: routing_function=multipath
OVERRIDE Parameter: num_vcs=64
OVERRIDE Parameter: vc_buf_size=1024
OVERRIDE Parameter: internal_speedup=1.0
OVERRIDE Parameter: injection_process=on_off
OVERRIDE Parameter: sim_type=latency
OVERRIDE Parameter: burst_alpha=0.0038461538
OVERRIDE Parameter: burst_beta=0.1
network: network_0
========================== Routing table  =====================
Number of Subnets: 1
Class 0:
Packet latency average = 350.332
	minimum = 23
	maximum = 986
Network latency average = 266.844
	minimum = 23
	maximum = 940
Slowest packet = 181
Flit latency average = 194.915
	minimum = 6
	maximum = 958
Slowest flit = 2832
Fragmentation average = 154.877
	minimum = 0
	maximum = 794
Injected packet rate average = 0.0242188
	minimum = 0 (at node 30)
	maximum = 0.056 (at node 6)
Accepted packet rate average = 0.00985938
	minimum = 0.002 (at node 93)
	maximum = 0.019 (at node 44)
Injected flit rate average = 0.431948
	minimum = 0 (at node 30)
	maximum = 1 (at node 6)
Accepted flit rate average= 0.206635
	minimum = 0.072 (at node 150)
	maximum = 0.36 (at node 44)
Injected packet length average = 17.8353
Accepted packet length average = 20.9583
Total in-flight flits = 44026 (0 measured)
latency change    = 1
throughput change = 1
Class 0:
Packet latency average = 566.154
	minimum = 23
	maximum = 1955
Network latency average = 455.926
	minimum = 23
	maximum = 1829
Slowest packet = 181
Flit latency average = 363.108
	minimum = 6
	maximum = 1947
Slowest flit = 3307
Fragmentation average = 216.931
	minimum = 0
	maximum = 1578
Injected packet rate average = 0.024125
	minimum = 0 (at node 30)
	maximum = 0.0545 (at node 91)
Accepted packet rate average = 0.0111016
	minimum = 0.0065 (at node 4)
	maximum = 0.0155 (at node 88)
Injected flit rate average = 0.432654
	minimum = 0 (at node 30)
	maximum = 0.974 (at node 91)
Accepted flit rate average= 0.21887
	minimum = 0.1285 (at node 83)
	maximum = 0.3045 (at node 70)
Injected packet length average = 17.9338
Accepted packet length average = 19.7152
Total in-flight flits = 82706 (0 measured)
latency change    = 0.381207
throughput change = 0.055898
Class 0:
Packet latency average = 1095.31
	minimum = 25
	maximum = 2924
Network latency average = 948.303
	minimum = 23
	maximum = 2744
Slowest packet = 183
Flit latency average = 846.101
	minimum = 6
	maximum = 2834
Slowest flit = 11210
Fragmentation average = 313.905
	minimum = 0
	maximum = 2566
Injected packet rate average = 0.0251198
	minimum = 0 (at node 46)
	maximum = 0.056 (at node 0)
Accepted packet rate average = 0.0129844
	minimum = 0.004 (at node 17)
	maximum = 0.021 (at node 78)
Injected flit rate average = 0.451083
	minimum = 0 (at node 46)
	maximum = 1 (at node 0)
Accepted flit rate average= 0.239885
	minimum = 0.064 (at node 17)
	maximum = 0.361 (at node 6)
Injected packet length average = 17.9573
Accepted packet length average = 18.4749
Total in-flight flits = 123462 (0 measured)
latency change    = 0.48311
throughput change = 0.0876069
Warmed up ...Time used is 3000 cycles
Class 0:
Packet latency average = 353.225
	minimum = 23
	maximum = 1423
Network latency average = 202.373
	minimum = 23
	maximum = 953
Slowest packet = 14113
Flit latency average = 1182.65
	minimum = 6
	maximum = 3878
Slowest flit = 6735
Fragmentation average = 109.866
	minimum = 0
	maximum = 763
Injected packet rate average = 0.0257135
	minimum = 0 (at node 93)
	maximum = 0.056 (at node 9)
Accepted packet rate average = 0.013276
	minimum = 0.005 (at node 41)
	maximum = 0.022 (at node 158)
Injected flit rate average = 0.463339
	minimum = 0.013 (at node 96)
	maximum = 1 (at node 9)
Accepted flit rate average= 0.242536
	minimum = 0.082 (at node 41)
	maximum = 0.385 (at node 0)
Injected packet length average = 18.0192
Accepted packet length average = 18.2687
Total in-flight flits = 165761 (76418 measured)
latency change    = 2.10088
throughput change = 0.0109305
Class 0:
Packet latency average = 630.179
	minimum = 23
	maximum = 2402
Network latency average = 475.768
	minimum = 23
	maximum = 1927
Slowest packet = 14113
Flit latency average = 1366.15
	minimum = 6
	maximum = 4757
Slowest flit = 19144
Fragmentation average = 177.049
	minimum = 0
	maximum = 1261
Injected packet rate average = 0.0262682
	minimum = 0.0045 (at node 190)
	maximum = 0.0555 (at node 53)
Accepted packet rate average = 0.0134609
	minimum = 0.008 (at node 60)
	maximum = 0.0205 (at node 65)
Injected flit rate average = 0.472961
	minimum = 0.087 (at node 190)
	maximum = 1 (at node 53)
Accepted flit rate average= 0.245451
	minimum = 0.143 (at node 60)
	maximum = 0.3885 (at node 66)
Injected packet length average = 18.0051
Accepted packet length average = 18.2343
Total in-flight flits = 210775 (145933 measured)
latency change    = 0.439485
throughput change = 0.0118723
Class 0:
Packet latency average = 955.572
	minimum = 23
	maximum = 3463
Network latency average = 800.072
	minimum = 23
	maximum = 2915
Slowest packet = 14113
Flit latency average = 1571.57
	minimum = 6
	maximum = 5671
Slowest flit = 25703
Fragmentation average = 227.233
	minimum = 0
	maximum = 2184
Injected packet rate average = 0.0263455
	minimum = 0.00566667 (at node 48)
	maximum = 0.0553333 (at node 53)
Accepted packet rate average = 0.0134566
	minimum = 0.00833333 (at node 35)
	maximum = 0.0183333 (at node 128)
Injected flit rate average = 0.474405
	minimum = 0.102 (at node 48)
	maximum = 1 (at node 123)
Accepted flit rate average= 0.244679
	minimum = 0.145 (at node 45)
	maximum = 0.325667 (at node 128)
Injected packet length average = 18.0071
Accepted packet length average = 18.1828
Total in-flight flits = 255677 (208274 measured)
latency change    = 0.340521
throughput change = 0.00315394
Class 0:
Packet latency average = 1283.55
	minimum = 23
	maximum = 4445
Network latency average = 1126.26
	minimum = 23
	maximum = 3962
Slowest packet = 14113
Flit latency average = 1788.97
	minimum = 6
	maximum = 6783
Slowest flit = 15195
Fragmentation average = 255.515
	minimum = 0
	maximum = 2184
Injected packet rate average = 0.0263372
	minimum = 0.007 (at node 46)
	maximum = 0.05275 (at node 123)
Accepted packet rate average = 0.0134336
	minimum = 0.00825 (at node 35)
	maximum = 0.018 (at node 44)
Injected flit rate average = 0.474254
	minimum = 0.126 (at node 46)
	maximum = 0.9535 (at node 123)
Accepted flit rate average= 0.243706
	minimum = 0.1525 (at node 35)
	maximum = 0.3105 (at node 44)
Injected packet length average = 18.007
Accepted packet length average = 18.1415
Total in-flight flits = 300382 (266278 measured)
latency change    = 0.255525
throughput change = 0.00399289
Class 0:
Packet latency average = 1620.81
	minimum = 23
	maximum = 5603
Network latency average = 1460.43
	minimum = 23
	maximum = 4925
Slowest packet = 14113
Flit latency average = 2013.6
	minimum = 6
	maximum = 7671
Slowest flit = 13355
Fragmentation average = 273.594
	minimum = 0
	maximum = 3246
Injected packet rate average = 0.0265667
	minimum = 0.0088 (at node 46)
	maximum = 0.0518 (at node 60)
Accepted packet rate average = 0.01345
	minimum = 0.0084 (at node 35)
	maximum = 0.0194 (at node 90)
Injected flit rate average = 0.478122
	minimum = 0.1584 (at node 46)
	maximum = 0.9318 (at node 60)
Accepted flit rate average= 0.243216
	minimum = 0.1576 (at node 35)
	maximum = 0.3388 (at node 90)
Injected packet length average = 17.9971
Accepted packet length average = 18.0829
Total in-flight flits = 349047 (324843 measured)
latency change    = 0.208081
throughput change = 0.0020151
Class 0:
Packet latency average = 1957.52
	minimum = 23
	maximum = 6734
Network latency average = 1790.9
	minimum = 23
	maximum = 5898
Slowest packet = 14113
Flit latency average = 2229.88
	minimum = 6
	maximum = 8639
Slowest flit = 28455
Fragmentation average = 288.736
	minimum = 0
	maximum = 3902
Injected packet rate average = 0.0267813
	minimum = 0.0085 (at node 46)
	maximum = 0.0453333 (at node 60)
Accepted packet rate average = 0.013441
	minimum = 0.00916667 (at node 35)
	maximum = 0.0195 (at node 90)
Injected flit rate average = 0.482087
	minimum = 0.153 (at node 46)
	maximum = 0.816 (at node 170)
Accepted flit rate average= 0.242803
	minimum = 0.168 (at node 35)
	maximum = 0.338833 (at node 90)
Injected packet length average = 18.0009
Accepted packet length average = 18.0644
Total in-flight flits = 399089 (381745 measured)
latency change    = 0.172007
throughput change = 0.00169962
Class 0:
Packet latency average = 2282.01
	minimum = 23
	maximum = 7280
Network latency average = 2110.47
	minimum = 23
	maximum = 6879
Slowest packet = 14113
Flit latency average = 2438.02
	minimum = 6
	maximum = 9136
Slowest flit = 56933
Fragmentation average = 299.782
	minimum = 0
	maximum = 5636
Injected packet rate average = 0.0268036
	minimum = 0.01 (at node 46)
	maximum = 0.0461429 (at node 162)
Accepted packet rate average = 0.013433
	minimum = 0.00971429 (at node 35)
	maximum = 0.0185714 (at node 90)
Injected flit rate average = 0.482461
	minimum = 0.18 (at node 46)
	maximum = 0.830857 (at node 162)
Accepted flit rate average= 0.242424
	minimum = 0.175857 (at node 35)
	maximum = 0.322143 (at node 90)
Injected packet length average = 17.9999
Accepted packet length average = 18.0469
Total in-flight flits = 446076 (433104 measured)
latency change    = 0.142196
throughput change = 0.00156273
Draining all recorded packets ...
Class 0:
Remaining flits: 13501 13502 13503 13504 13505 13506 13507 13508 13509 13510 [...] (497870 flits)
Measured flits: 253908 253909 253910 253911 253912 253913 253914 253915 253916 253917 [...] (419198 flits)
Class 0:
Remaining flits: 13501 13502 13503 13504 13505 13506 13507 13508 13509 13510 [...] (554098 flits)
Measured flits: 253908 253909 253910 253911 253912 253913 253914 253915 253916 253917 [...] (385563 flits)
Class 0:
Remaining flits: 13501 13502 13503 13504 13505 13506 13507 13508 13509 13510 [...] (600852 flits)
Measured flits: 254376 254377 254378 254379 254380 254381 254382 254383 254384 254385 [...] (352244 flits)
Class 0:
Remaining flits: 13509 13510 13511 13512 13513 13514 13515 13516 13517 25370 [...] (648457 flits)
Measured flits: 254376 254377 254378 254379 254380 254381 254382 254383 254384 254385 [...] (320540 flits)
Class 0:
Remaining flits: 25370 25371 25372 25373 25374 25375 25376 25377 25378 25379 [...] (697206 flits)
Measured flits: 254376 254377 254378 254379 254380 254381 254382 254383 254384 254385 [...] (290955 flits)
Class 0:
Remaining flits: 25370 25371 25372 25373 25374 25375 25376 25377 25378 25379 [...] (746703 flits)
Measured flits: 254376 254377 254378 254379 254380 254381 254382 254383 254384 254385 [...] (262845 flits)
Class 0:
Remaining flits: 25370 25371 25372 25373 25374 25375 25376 25377 25378 25379 [...] (793924 flits)
Measured flits: 254389 254390 254391 254392 254393 254700 254701 254702 254703 254704 [...] (237903 flits)
Class 0:
Remaining flits: 25375 25376 25377 25378 25379 41400 41401 41402 41403 41404 [...] (845125 flits)
Measured flits: 254700 254701 254702 254703 254704 254705 254706 254707 254708 254709 [...] (213657 flits)
Class 0:
Remaining flits: 41400 41401 41402 41403 41404 41405 41406 41407 41408 41409 [...] (890464 flits)
Measured flits: 254700 254701 254702 254703 254704 254705 254706 254707 254708 254709 [...] (191481 flits)
Class 0:
Remaining flits: 41400 41401 41402 41403 41404 41405 41406 41407 41408 41409 [...] (937981 flits)
Measured flits: 254700 254701 254702 254703 254704 254705 254706 254707 254708 254709 [...] (171118 flits)
Class 0:
Remaining flits: 41400 41401 41402 41403 41404 41405 41406 41407 41408 41409 [...] (984589 flits)
Measured flits: 254700 254701 254702 254703 254704 254705 254706 254707 254708 254709 [...] (153323 flits)
Class 0:
Remaining flits: 41400 41401 41402 41403 41404 41405 41406 41407 41408 41409 [...] (1036721 flits)
Measured flits: 254988 254989 254990 254991 254992 254993 254994 254995 254996 254997 [...] (137404 flits)
Class 0:
Remaining flits: 41400 41401 41402 41403 41404 41405 41406 41407 41408 41409 [...] (1087706 flits)
Measured flits: 254988 254989 254990 254991 254992 254993 254994 254995 254996 254997 [...] (122528 flits)
Class 0:
Remaining flits: 41400 41401 41402 41403 41404 41405 41406 41407 41408 41409 [...] (1136540 flits)
Measured flits: 254988 254989 254990 254991 254992 254993 254994 254995 254996 254997 [...] (109201 flits)
Class 0:
Remaining flits: 41400 41401 41402 41403 41404 41405 41406 41407 41408 41409 [...] (1190460 flits)
Measured flits: 254988 254989 254990 254991 254992 254993 254994 254995 254996 254997 [...] (97174 flits)
Class 0:
Remaining flits: 68364 68365 68366 68367 68368 68369 68370 68371 68372 68373 [...] (1243002 flits)
Measured flits: 254988 254989 254990 254991 254992 254993 254994 254995 254996 254997 [...] (86800 flits)
Class 0:
Remaining flits: 68364 68365 68366 68367 68368 68369 68370 68371 68372 68373 [...] (1293346 flits)
Measured flits: 254988 254989 254990 254991 254992 254993 254994 254995 254996 254997 [...] (77967 flits)
Class 0:
Remaining flits: 68364 68365 68366 68367 68368 68369 68370 68371 68372 68373 [...] (1344661 flits)
Measured flits: 254988 254989 254990 254991 254992 254993 254994 254995 254996 254997 [...] (69930 flits)
Class 0:
Remaining flits: 68364 68365 68366 68367 68368 68369 68370 68371 68372 68373 [...] (1392906 flits)
Measured flits: 254988 254989 254990 254991 254992 254993 254994 254995 254996 254997 [...] (62699 flits)
Class 0:
Remaining flits: 149428 149429 149430 149431 149432 149433 149434 149435 163494 163495 [...] (1442800 flits)
Measured flits: 254988 254989 254990 254991 254992 254993 254994 254995 254996 254997 [...] (56267 flits)
Class 0:
Remaining flits: 163494 163495 163496 163497 163498 163499 163500 163501 163502 163503 [...] (1490755 flits)
Measured flits: 254988 254989 254990 254991 254992 254993 254994 254995 254996 254997 [...] (49871 flits)
Class 0:
Remaining flits: 163494 163495 163496 163497 163498 163499 163500 163501 163502 163503 [...] (1538541 flits)
Measured flits: 254988 254989 254990 254991 254992 254993 254994 254995 254996 254997 [...] (44686 flits)
Class 0:
Remaining flits: 219618 219619 219620 219621 219622 219623 219624 219625 219626 219627 [...] (1588464 flits)
Measured flits: 258930 258931 258932 258933 258934 258935 258936 258937 258938 258939 [...] (39938 flits)
Class 0:
Remaining flits: 225484 225485 245286 245287 245288 245289 245290 245291 245292 245293 [...] (1636184 flits)
Measured flits: 258930 258931 258932 258933 258934 258935 258936 258937 258938 258939 [...] (35591 flits)
Class 0:
Remaining flits: 245286 245287 245288 245289 245290 245291 245292 245293 245294 245295 [...] (1680961 flits)
Measured flits: 258930 258931 258932 258933 258934 258935 258936 258937 258938 258939 [...] (31385 flits)
Class 0:
Remaining flits: 245286 245287 245288 245289 245290 245291 245292 245293 245294 245295 [...] (1726822 flits)
Measured flits: 258930 258931 258932 258933 258934 258935 258936 258937 258938 258939 [...] (27756 flits)
Class 0:
Remaining flits: 245286 245287 245288 245289 245290 245291 245292 245293 245294 245295 [...] (1770458 flits)
Measured flits: 283993 283994 283995 283996 283997 283998 283999 284000 284001 284002 [...] (24684 flits)
Class 0:
Remaining flits: 245286 245287 245288 245289 245290 245291 245292 245293 245294 245295 [...] (1816384 flits)
Measured flits: 291600 291601 291602 291603 291604 291605 291606 291607 291608 291609 [...] (21807 flits)
Class 0:
Remaining flits: 291600 291601 291602 291603 291604 291605 291606 291607 291608 291609 [...] (1857728 flits)
Measured flits: 291600 291601 291602 291603 291604 291605 291606 291607 291608 291609 [...] (19509 flits)
Class 0:
Remaining flits: 291600 291601 291602 291603 291604 291605 291606 291607 291608 291609 [...] (1902823 flits)
Measured flits: 291600 291601 291602 291603 291604 291605 291606 291607 291608 291609 [...] (17324 flits)
Class 0:
Remaining flits: 291600 291601 291602 291603 291604 291605 291606 291607 291608 291609 [...] (1947901 flits)
Measured flits: 291600 291601 291602 291603 291604 291605 291606 291607 291608 291609 [...] (15451 flits)
Class 0:
Remaining flits: 291600 291601 291602 291603 291604 291605 291606 291607 291608 291609 [...] (1992291 flits)
Measured flits: 291600 291601 291602 291603 291604 291605 291606 291607 291608 291609 [...] (13878 flits)
Class 0:
Remaining flits: 291600 291601 291602 291603 291604 291605 291606 291607 291608 291609 [...] (2033995 flits)
Measured flits: 291600 291601 291602 291603 291604 291605 291606 291607 291608 291609 [...] (12457 flits)
Class 0:
Remaining flits: 291600 291601 291602 291603 291604 291605 291606 291607 291608 291609 [...] (2076960 flits)
Measured flits: 291600 291601 291602 291603 291604 291605 291606 291607 291608 291609 [...] (11249 flits)
Class 0:
Remaining flits: 342180 342181 342182 342183 342184 342185 342186 342187 342188 342189 [...] (2120989 flits)
Measured flits: 342180 342181 342182 342183 342184 342185 342186 342187 342188 342189 [...] (9936 flits)
Class 0:
Remaining flits: 342180 342181 342182 342183 342184 342185 342186 342187 342188 342189 [...] (2159409 flits)
Measured flits: 342180 342181 342182 342183 342184 342185 342186 342187 342188 342189 [...] (8843 flits)
Class 0:
Remaining flits: 342180 342181 342182 342183 342184 342185 342186 342187 342188 342189 [...] (2205420 flits)
Measured flits: 342180 342181 342182 342183 342184 342185 342186 342187 342188 342189 [...] (7931 flits)
Class 0:
Remaining flits: 342180 342181 342182 342183 342184 342185 342186 342187 342188 342189 [...] (2249774 flits)
Measured flits: 342180 342181 342182 342183 342184 342185 342186 342187 342188 342189 [...] (7233 flits)
Class 0:
Remaining flits: 342180 342181 342182 342183 342184 342185 342186 342187 342188 342189 [...] (2291312 flits)
Measured flits: 342180 342181 342182 342183 342184 342185 342186 342187 342188 342189 [...] (6121 flits)
Class 0:
Remaining flits: 342180 342181 342182 342183 342184 342185 342186 342187 342188 342189 [...] (2338012 flits)
Measured flits: 342180 342181 342182 342183 342184 342185 342186 342187 342188 342189 [...] (5264 flits)
Class 0:
Remaining flits: 342180 342181 342182 342183 342184 342185 342186 342187 342188 342189 [...] (2376535 flits)
Measured flits: 342180 342181 342182 342183 342184 342185 342186 342187 342188 342189 [...] (4665 flits)
Class 0:
Remaining flits: 342180 342181 342182 342183 342184 342185 342186 342187 342188 342189 [...] (2420684 flits)
Measured flits: 342180 342181 342182 342183 342184 342185 342186 342187 342188 342189 [...] (4177 flits)
Class 0:
Remaining flits: 342180 342181 342182 342183 342184 342185 342186 342187 342188 342189 [...] (2465491 flits)
Measured flits: 342180 342181 342182 342183 342184 342185 342186 342187 342188 342189 [...] (3874 flits)
Class 0:
Remaining flits: 342180 342181 342182 342183 342184 342185 342186 342187 342188 342189 [...] (2504441 flits)
Measured flits: 342180 342181 342182 342183 342184 342185 342186 342187 342188 342189 [...] (3512 flits)
Class 0:
Remaining flits: 342180 342181 342182 342183 342184 342185 342186 342187 342188 342189 [...] (2543830 flits)
Measured flits: 342180 342181 342182 342183 342184 342185 342186 342187 342188 342189 [...] (3014 flits)
Class 0:
Remaining flits: 342180 342181 342182 342183 342184 342185 342186 342187 342188 342189 [...] (2585426 flits)
Measured flits: 342180 342181 342182 342183 342184 342185 342186 342187 342188 342189 [...] (2648 flits)
Class 0:
Remaining flits: 342180 342181 342182 342183 342184 342185 342186 342187 342188 342189 [...] (2632080 flits)
Measured flits: 342180 342181 342182 342183 342184 342185 342186 342187 342188 342189 [...] (2278 flits)
Class 0:
Remaining flits: 342180 342181 342182 342183 342184 342185 342186 342187 342188 342189 [...] (2683843 flits)
Measured flits: 342180 342181 342182 342183 342184 342185 342186 342187 342188 342189 [...] (1674 flits)
Class 0:
Remaining flits: 342180 342181 342182 342183 342184 342185 342186 342187 342188 342189 [...] (2730834 flits)
Measured flits: 342180 342181 342182 342183 342184 342185 342186 342187 342188 342189 [...] (1583 flits)
Class 0:
Remaining flits: 342180 342181 342182 342183 342184 342185 342186 342187 342188 342189 [...] (2767608 flits)
Measured flits: 342180 342181 342182 342183 342184 342185 342186 342187 342188 342189 [...] (1398 flits)
Class 0:
Remaining flits: 342182 342183 342184 342185 342186 342187 342188 342189 342190 342191 [...] (2802980 flits)
Measured flits: 342182 342183 342184 342185 342186 342187 342188 342189 342190 342191 [...] (1262 flits)
Class 0:
Remaining flits: 532710 532711 532712 532713 532714 532715 532716 532717 532718 532719 [...] (2850437 flits)
Measured flits: 532710 532711 532712 532713 532714 532715 532716 532717 532718 532719 [...] (1092 flits)
Class 0:
Remaining flits: 592038 592039 592040 592041 592042 592043 592044 592045 592046 592047 [...] (2886777 flits)
Measured flits: 592038 592039 592040 592041 592042 592043 592044 592045 592046 592047 [...] (989 flits)
Class 0:
Remaining flits: 592038 592039 592040 592041 592042 592043 592044 592045 592046 592047 [...] (2925594 flits)
Measured flits: 592038 592039 592040 592041 592042 592043 592044 592045 592046 592047 [...] (829 flits)
Class 0:
Remaining flits: 592038 592039 592040 592041 592042 592043 592044 592045 592046 592047 [...] (2977411 flits)
Measured flits: 592038 592039 592040 592041 592042 592043 592044 592045 592046 592047 [...] (706 flits)
Class 0:
Remaining flits: 592038 592039 592040 592041 592042 592043 592044 592045 592046 592047 [...] (3018168 flits)
Measured flits: 592038 592039 592040 592041 592042 592043 592044 592045 592046 592047 [...] (676 flits)
Class 0:
Remaining flits: 596646 596647 596648 596649 596650 596651 596652 596653 596654 596655 [...] (3061549 flits)
Measured flits: 596646 596647 596648 596649 596650 596651 596652 596653 596654 596655 [...] (556 flits)
Class 0:
Remaining flits: 647801 666054 666055 666056 666057 666058 666059 666060 666061 666062 [...] (3108189 flits)
Measured flits: 647801 666054 666055 666056 666057 666058 666059 666060 666061 666062 [...] (433 flits)
Class 0:
Remaining flits: 697608 697609 697610 697611 697612 697613 697614 697615 697616 697617 [...] (3156631 flits)
Measured flits: 697608 697609 697610 697611 697612 697613 697614 697615 697616 697617 [...] (342 flits)
Class 0:
Remaining flits: 697608 697609 697610 697611 697612 697613 697614 697615 697616 697617 [...] (3206434 flits)
Measured flits: 697608 697609 697610 697611 697612 697613 697614 697615 697616 697617 [...] (270 flits)
Class 0:
Remaining flits: 697608 697609 697610 697611 697612 697613 697614 697615 697616 697617 [...] (3252778 flits)
Measured flits: 697608 697609 697610 697611 697612 697613 697614 697615 697616 697617 [...] (244 flits)
Class 0:
Remaining flits: 697608 697609 697610 697611 697612 697613 697614 697615 697616 697617 [...] (3293497 flits)
Measured flits: 697608 697609 697610 697611 697612 697613 697614 697615 697616 697617 [...] (203 flits)
Class 0:
Remaining flits: 697608 697609 697610 697611 697612 697613 697614 697615 697616 697617 [...] (3336159 flits)
Measured flits: 697608 697609 697610 697611 697612 697613 697614 697615 697616 697617 [...] (180 flits)
Class 0:
Remaining flits: 697608 697609 697610 697611 697612 697613 697614 697615 697616 697617 [...] (3380724 flits)
Measured flits: 697608 697609 697610 697611 697612 697613 697614 697615 697616 697617 [...] (144 flits)
Class 0:
Remaining flits: 697608 697609 697610 697611 697612 697613 697614 697615 697616 697617 [...] (3431715 flits)
Measured flits: 697608 697609 697610 697611 697612 697613 697614 697615 697616 697617 [...] (144 flits)
Class 0:
Remaining flits: 697625 705564 705565 705566 705567 705568 705569 705570 705571 705572 [...] (3477624 flits)
Measured flits: 697625 705564 705565 705566 705567 705568 705569 705570 705571 705572 [...] (73 flits)
Class 0:
Remaining flits: 705564 705565 705566 705567 705568 705569 705570 705571 705572 705573 [...] (3526168 flits)
Measured flits: 705564 705565 705566 705567 705568 705569 705570 705571 705572 705573 [...] (72 flits)
Class 0:
Remaining flits: 705564 705565 705566 705567 705568 705569 705570 705571 705572 705573 [...] (3573240 flits)
Measured flits: 705564 705565 705566 705567 705568 705569 705570 705571 705572 705573 [...] (72 flits)
Class 0:
Remaining flits: 705564 705565 705566 705567 705568 705569 705570 705571 705572 705573 [...] (3612222 flits)
Measured flits: 705564 705565 705566 705567 705568 705569 705570 705571 705572 705573 [...] (72 flits)
Class 0:
Remaining flits: 705564 705565 705566 705567 705568 705569 705570 705571 705572 705573 [...] (3655051 flits)
Measured flits: 705564 705565 705566 705567 705568 705569 705570 705571 705572 705573 [...] (72 flits)
Class 0:
Remaining flits: 705564 705565 705566 705567 705568 705569 705570 705571 705572 705573 [...] (3698920 flits)
Measured flits: 705564 705565 705566 705567 705568 705569 705570 705571 705572 705573 [...] (72 flits)
Class 0:
Remaining flits: 756594 756595 756596 756597 756598 756599 756600 756601 756602 756603 [...] (3739849 flits)
Measured flits: 756594 756595 756596 756597 756598 756599 756600 756601 756602 756603 [...] (54 flits)
Class 0:
Remaining flits: 756594 756595 756596 756597 756598 756599 756600 756601 756602 756603 [...] (3783546 flits)
Measured flits: 756594 756595 756596 756597 756598 756599 756600 756601 756602 756603 [...] (45 flits)
Class 0:
Remaining flits: 756594 756595 756596 756597 756598 756599 756600 756601 756602 756603 [...] (3825958 flits)
Measured flits: 756594 756595 756596 756597 756598 756599 756600 756601 756602 756603 [...] (18 flits)
Class 0:
Remaining flits: 756594 756595 756596 756597 756598 756599 756600 756601 756602 756603 [...] (3863834 flits)
Measured flits: 756594 756595 756596 756597 756598 756599 756600 756601 756602 756603 [...] (18 flits)
Class 0:
Remaining flits: 756594 756595 756596 756597 756598 756599 756600 756601 756602 756603 [...] (3901781 flits)
Measured flits: 756594 756595 756596 756597 756598 756599 756600 756601 756602 756603 [...] (18 flits)
Draining remaining packets ...
Class 0:
Remaining flits: 1000890 1000891 1000892 1000893 1000894 1000895 1000896 1000897 1000898 1000899 [...] (3894994 flits)
Measured flits: (0 flits)
Class 0:
Remaining flits: 1000890 1000891 1000892 1000893 1000894 1000895 1000896 1000897 1000898 1000899 [...] (3861116 flits)
Measured flits: (0 flits)
Class 0:
Remaining flits: 1000890 1000891 1000892 1000893 1000894 1000895 1000896 1000897 1000898 1000899 [...] (3826360 flits)
Measured flits: (0 flits)
Class 0:
Remaining flits: 1000890 1000891 1000892 1000893 1000894 1000895 1000896 1000897 1000898 1000899 [...] (3791673 flits)
Measured flits: (0 flits)
Class 0:
Remaining flits: 1000890 1000891 1000892 1000893 1000894 1000895 1000896 1000897 1000898 1000899 [...] (3757126 flits)
Measured flits: (0 flits)
Class 0:
Remaining flits: 1000890 1000891 1000892 1000893 1000894 1000895 1000896 1000897 1000898 1000899 [...] (3723360 flits)
Measured flits: (0 flits)
Class 0:
Remaining flits: 1000890 1000891 1000892 1000893 1000894 1000895 1000896 1000897 1000898 1000899 [...] (3690368 flits)
Measured flits: (0 flits)
Class 0:
Remaining flits: 1000890 1000891 1000892 1000893 1000894 1000895 1000896 1000897 1000898 1000899 [...] (3655485 flits)
Measured flits: (0 flits)
Class 0:
Remaining flits: 1000890 1000891 1000892 1000893 1000894 1000895 1000896 1000897 1000898 1000899 [...] (3620925 flits)
Measured flits: (0 flits)
Class 0:
Remaining flits: 1000890 1000891 1000892 1000893 1000894 1000895 1000896 1000897 1000898 1000899 [...] (3586413 flits)
Measured flits: (0 flits)
Class 0:
Remaining flits: 1000890 1000891 1000892 1000893 1000894 1000895 1000896 1000897 1000898 1000899 [...] (3552058 flits)
Measured flits: (0 flits)
Class 0:
Remaining flits: 1000890 1000891 1000892 1000893 1000894 1000895 1000896 1000897 1000898 1000899 [...] (3518106 flits)
Measured flits: (0 flits)
Class 0:
Remaining flits: 1000890 1000891 1000892 1000893 1000894 1000895 1000896 1000897 1000898 1000899 [...] (3483312 flits)
Measured flits: (0 flits)
Class 0:
Remaining flits: 1000890 1000891 1000892 1000893 1000894 1000895 1000896 1000897 1000898 1000899 [...] (3447858 flits)
Measured flits: (0 flits)
Class 0:
Remaining flits: 1000890 1000891 1000892 1000893 1000894 1000895 1000896 1000897 1000898 1000899 [...] (3413284 flits)
Measured flits: (0 flits)
Class 0:
Remaining flits: 1000890 1000891 1000892 1000893 1000894 1000895 1000896 1000897 1000898 1000899 [...] (3378226 flits)
Measured flits: (0 flits)
Class 0:
Remaining flits: 1000890 1000891 1000892 1000893 1000894 1000895 1000896 1000897 1000898 1000899 [...] (3341624 flits)
Measured flits: (0 flits)
Class 0:
Remaining flits: 1000890 1000891 1000892 1000893 1000894 1000895 1000896 1000897 1000898 1000899 [...] (3306086 flits)
Measured flits: (0 flits)
Class 0:
Remaining flits: 1226898 1226899 1226900 1226901 1226902 1226903 1226904 1226905 1226906 1226907 [...] (3270735 flits)
Measured flits: (0 flits)
Class 0:
Remaining flits: 1226898 1226899 1226900 1226901 1226902 1226903 1226904 1226905 1226906 1226907 [...] (3237115 flits)
Measured flits: (0 flits)
Class 0:
Remaining flits: 1226898 1226899 1226900 1226901 1226902 1226903 1226904 1226905 1226906 1226907 [...] (3203050 flits)
Measured flits: (0 flits)
Class 0:
Remaining flits: 1226903 1226904 1226905 1226906 1226907 1226908 1226909 1226910 1226911 1226912 [...] (3169020 flits)
Measured flits: (0 flits)
Class 0:
Remaining flits: 1243746 1243747 1243748 1243749 1243750 1243751 1243752 1243753 1243754 1243755 [...] (3134231 flits)
Measured flits: (0 flits)
Class 0:
Remaining flits: 1243746 1243747 1243748 1243749 1243750 1243751 1243752 1243753 1243754 1243755 [...] (3102203 flits)
Measured flits: (0 flits)
Class 0:
Remaining flits: 1243746 1243747 1243748 1243749 1243750 1243751 1243752 1243753 1243754 1243755 [...] (3069014 flits)
Measured flits: (0 flits)
Class 0:
Remaining flits: 1243746 1243747 1243748 1243749 1243750 1243751 1243752 1243753 1243754 1243755 [...] (3034675 flits)
Measured flits: (0 flits)
Class 0:
Remaining flits: 1243746 1243747 1243748 1243749 1243750 1243751 1243752 1243753 1243754 1243755 [...] (3001191 flits)
Measured flits: (0 flits)
Class 0:
Remaining flits: 1243746 1243747 1243748 1243749 1243750 1243751 1243752 1243753 1243754 1243755 [...] (2968429 flits)
Measured flits: (0 flits)
Class 0:
Remaining flits: 1243746 1243747 1243748 1243749 1243750 1243751 1243752 1243753 1243754 1243755 [...] (2935874 flits)
Measured flits: (0 flits)
Class 0:
Remaining flits: 1243746 1243747 1243748 1243749 1243750 1243751 1243752 1243753 1243754 1243755 [...] (2903108 flits)
Measured flits: (0 flits)
Class 0:
Remaining flits: 1243746 1243747 1243748 1243749 1243750 1243751 1243752 1243753 1243754 1243755 [...] (2870031 flits)
Measured flits: (0 flits)
Class 0:
Remaining flits: 1243746 1243747 1243748 1243749 1243750 1243751 1243752 1243753 1243754 1243755 [...] (2836933 flits)
Measured flits: (0 flits)
Class 0:
Remaining flits: 1243746 1243747 1243748 1243749 1243750 1243751 1243752 1243753 1243754 1243755 [...] (2804227 flits)
Measured flits: (0 flits)
Class 0:
Remaining flits: 1358374 1358375 1358376 1358377 1358378 1358379 1358380 1358381 1358382 1358383 [...] (2773534 flits)
Measured flits: (0 flits)
Class 0:
Remaining flits: 1442574 1442575 1442576 1442577 1442578 1442579 1442580 1442581 1442582 1442583 [...] (2742440 flits)
Measured flits: (0 flits)
Class 0:
Remaining flits: 1442574 1442575 1442576 1442577 1442578 1442579 1442580 1442581 1442582 1442583 [...] (2710953 flits)
Measured flits: (0 flits)
Class 0:
Remaining flits: 1442574 1442575 1442576 1442577 1442578 1442579 1442580 1442581 1442582 1442583 [...] (2680364 flits)
Measured flits: (0 flits)
Class 0:
Remaining flits: 1552014 1552015 1552016 1552017 1552018 1552019 1552020 1552021 1552022 1552023 [...] (2647944 flits)
Measured flits: (0 flits)
Class 0:
Remaining flits: 1552014 1552015 1552016 1552017 1552018 1552019 1552020 1552021 1552022 1552023 [...] (2616128 flits)
Measured flits: (0 flits)
Class 0:
Remaining flits: 1552014 1552015 1552016 1552017 1552018 1552019 1552020 1552021 1552022 1552023 [...] (2585673 flits)
Measured flits: (0 flits)
Class 0:
Remaining flits: 1552014 1552015 1552016 1552017 1552018 1552019 1552020 1552021 1552022 1552023 [...] (2554179 flits)
Measured flits: (0 flits)
Class 0:
Remaining flits: 1552014 1552015 1552016 1552017 1552018 1552019 1552020 1552021 1552022 1552023 [...] (2523215 flits)
Measured flits: (0 flits)
Class 0:
Remaining flits: 1552014 1552015 1552016 1552017 1552018 1552019 1552020 1552021 1552022 1552023 [...] (2492205 flits)
Measured flits: (0 flits)
Class 0:
Remaining flits: 1552014 1552015 1552016 1552017 1552018 1552019 1552020 1552021 1552022 1552023 [...] (2460961 flits)
Measured flits: (0 flits)
Class 0:
Remaining flits: 1552014 1552015 1552016 1552017 1552018 1552019 1552020 1552021 1552022 1552023 [...] (2429771 flits)
Measured flits: (0 flits)
Class 0:
Remaining flits: 1552014 1552015 1552016 1552017 1552018 1552019 1552020 1552021 1552022 1552023 [...] (2397919 flits)
Measured flits: (0 flits)
Class 0:
Remaining flits: 1552014 1552015 1552016 1552017 1552018 1552019 1552020 1552021 1552022 1552023 [...] (2366967 flits)
Measured flits: (0 flits)
Class 0:
Remaining flits: 1552014 1552015 1552016 1552017 1552018 1552019 1552020 1552021 1552022 1552023 [...] (2336665 flits)
Measured flits: (0 flits)
Class 0:
Remaining flits: 1552014 1552015 1552016 1552017 1552018 1552019 1552020 1552021 1552022 1552023 [...] (2305578 flits)
Measured flits: (0 flits)
Class 0:
Remaining flits: 1552014 1552015 1552016 1552017 1552018 1552019 1552020 1552021 1552022 1552023 [...] (2274559 flits)
Measured flits: (0 flits)
Class 0:
Remaining flits: 1552014 1552015 1552016 1552017 1552018 1552019 1552020 1552021 1552022 1552023 [...] (2243646 flits)
Measured flits: (0 flits)
Class 0:
Remaining flits: 1672038 1672039 1672040 1672041 1672042 1672043 1672044 1672045 1672046 1672047 [...] (2215015 flits)
Measured flits: (0 flits)
Class 0:
Remaining flits: 1672038 1672039 1672040 1672041 1672042 1672043 1672044 1672045 1672046 1672047 [...] (2186331 flits)
Measured flits: (0 flits)
Class 0:
Remaining flits: 1672038 1672039 1672040 1672041 1672042 1672043 1672044 1672045 1672046 1672047 [...] (2156837 flits)
Measured flits: (0 flits)
Class 0:
Remaining flits: 1672038 1672039 1672040 1672041 1672042 1672043 1672044 1672045 1672046 1672047 [...] (2126309 flits)
Measured flits: (0 flits)
Class 0:
Remaining flits: 1672038 1672039 1672040 1672041 1672042 1672043 1672044 1672045 1672046 1672047 [...] (2095985 flits)
Measured flits: (0 flits)
Class 0:
Remaining flits: 1672038 1672039 1672040 1672041 1672042 1672043 1672044 1672045 1672046 1672047 [...] (2063943 flits)
Measured flits: (0 flits)
Class 0:
Remaining flits: 1672038 1672039 1672040 1672041 1672042 1672043 1672044 1672045 1672046 1672047 [...] (2031465 flits)
Measured flits: (0 flits)
Class 0:
Remaining flits: 1672038 1672039 1672040 1672041 1672042 1672043 1672044 1672045 1672046 1672047 [...] (1999774 flits)
Measured flits: (0 flits)
Class 0:
Remaining flits: 1672038 1672039 1672040 1672041 1672042 1672043 1672044 1672045 1672046 1672047 [...] (1969019 flits)
Measured flits: (0 flits)
Class 0:
Remaining flits: 1672039 1672040 1672041 1672042 1672043 1672044 1672045 1672046 1672047 1672048 [...] (1937273 flits)
Measured flits: (0 flits)
Class 0:
Remaining flits: 1815374 1815375 1815376 1815377 1815378 1815379 1815380 1815381 1815382 1815383 [...] (1907116 flits)
Measured flits: (0 flits)
Class 0:
Remaining flits: 1922922 1922923 1922924 1922925 1922926 1922927 1922928 1922929 1922930 1922931 [...] (1876620 flits)
Measured flits: (0 flits)
Class 0:
Remaining flits: 1922922 1922923 1922924 1922925 1922926 1922927 1922928 1922929 1922930 1922931 [...] (1846225 flits)
Measured flits: (0 flits)
Class 0:
Remaining flits: 1922922 1922923 1922924 1922925 1922926 1922927 1922928 1922929 1922930 1922931 [...] (1815218 flits)
Measured flits: (0 flits)
Class 0:
Remaining flits: 1922922 1922923 1922924 1922925 1922926 1922927 1922928 1922929 1922930 1922931 [...] (1782714 flits)
Measured flits: (0 flits)
Class 0:
Remaining flits: 1922922 1922923 1922924 1922925 1922926 1922927 1922928 1922929 1922930 1922931 [...] (1751534 flits)
Measured flits: (0 flits)
Class 0:
Remaining flits: 1922922 1922923 1922924 1922925 1922926 1922927 1922928 1922929 1922930 1922931 [...] (1719761 flits)
Measured flits: (0 flits)
Class 0:
Remaining flits: 2050344 2050345 2050346 2050347 2050348 2050349 2050350 2050351 2050352 2050353 [...] (1687926 flits)
Measured flits: (0 flits)
Class 0:
Remaining flits: 2050344 2050345 2050346 2050347 2050348 2050349 2050350 2050351 2050352 2050353 [...] (1655296 flits)
Measured flits: (0 flits)
Class 0:
Remaining flits: 2050344 2050345 2050346 2050347 2050348 2050349 2050350 2050351 2050352 2050353 [...] (1623148 flits)
Measured flits: (0 flits)
Class 0:
Remaining flits: 2259396 2259397 2259398 2259399 2259400 2259401 2259402 2259403 2259404 2259405 [...] (1591611 flits)
Measured flits: (0 flits)
Class 0:
Remaining flits: 2282562 2282563 2282564 2282565 2282566 2282567 2282568 2282569 2282570 2282571 [...] (1559880 flits)
Measured flits: (0 flits)
Class 0:
Remaining flits: 2282562 2282563 2282564 2282565 2282566 2282567 2282568 2282569 2282570 2282571 [...] (1527734 flits)
Measured flits: (0 flits)
Class 0:
Remaining flits: 2282562 2282563 2282564 2282565 2282566 2282567 2282568 2282569 2282570 2282571 [...] (1495547 flits)
Measured flits: (0 flits)
Class 0:
Remaining flits: 2282562 2282563 2282564 2282565 2282566 2282567 2282568 2282569 2282570 2282571 [...] (1463926 flits)
Measured flits: (0 flits)
Class 0:
Remaining flits: 2328606 2328607 2328608 2328609 2328610 2328611 2328612 2328613 2328614 2328615 [...] (1433955 flits)
Measured flits: (0 flits)
Class 0:
Remaining flits: 2328606 2328607 2328608 2328609 2328610 2328611 2328612 2328613 2328614 2328615 [...] (1402504 flits)
Measured flits: (0 flits)
Class 0:
Remaining flits: 2328606 2328607 2328608 2328609 2328610 2328611 2328612 2328613 2328614 2328615 [...] (1370729 flits)
Measured flits: (0 flits)
Class 0:
Remaining flits: 2328606 2328607 2328608 2328609 2328610 2328611 2328612 2328613 2328614 2328615 [...] (1339114 flits)
Measured flits: (0 flits)
Class 0:
Remaining flits: 2328606 2328607 2328608 2328609 2328610 2328611 2328612 2328613 2328614 2328615 [...] (1308158 flits)
Measured flits: (0 flits)
Class 0:
Remaining flits: 2328606 2328607 2328608 2328609 2328610 2328611 2328612 2328613 2328614 2328615 [...] (1277579 flits)
Measured flits: (0 flits)
Class 0:
Remaining flits: 2386890 2386891 2386892 2386893 2386894 2386895 2386896 2386897 2386898 2386899 [...] (1245570 flits)
Measured flits: (0 flits)
Class 0:
Remaining flits: 2386890 2386891 2386892 2386893 2386894 2386895 2386896 2386897 2386898 2386899 [...] (1212993 flits)
Measured flits: (0 flits)
Class 0:
Remaining flits: 2386897 2386898 2386899 2386900 2386901 2386902 2386903 2386904 2386905 2386906 [...] (1180870 flits)
Measured flits: (0 flits)
Class 0:
Remaining flits: 2386897 2386898 2386899 2386900 2386901 2386902 2386903 2386904 2386905 2386906 [...] (1148690 flits)
Measured flits: (0 flits)
Class 0:
Remaining flits: 2386897 2386898 2386899 2386900 2386901 2386902 2386903 2386904 2386905 2386906 [...] (1116323 flits)
Measured flits: (0 flits)
Class 0:
Remaining flits: 2386897 2386898 2386899 2386900 2386901 2386902 2386903 2386904 2386905 2386906 [...] (1084356 flits)
Measured flits: (0 flits)
Class 0:
Remaining flits: 2386897 2386898 2386899 2386900 2386901 2386902 2386903 2386904 2386905 2386906 [...] (1052295 flits)
Measured flits: (0 flits)
Class 0:
Remaining flits: 2559726 2559727 2559728 2559729 2559730 2559731 2559732 2559733 2559734 2559735 [...] (1019751 flits)
Measured flits: (0 flits)
Class 0:
Remaining flits: 2673612 2673613 2673614 2673615 2673616 2673617 2673618 2673619 2673620 2673621 [...] (987777 flits)
Measured flits: (0 flits)
Class 0:
Remaining flits: 2673612 2673613 2673614 2673615 2673616 2673617 2673618 2673619 2673620 2673621 [...] (955551 flits)
Measured flits: (0 flits)
Class 0:
Remaining flits: 2673612 2673613 2673614 2673615 2673616 2673617 2673618 2673619 2673620 2673621 [...] (923397 flits)
Measured flits: (0 flits)
Class 0:
Remaining flits: 2842164 2842165 2842166 2842167 2842168 2842169 2842170 2842171 2842172 2842173 [...] (891364 flits)
Measured flits: (0 flits)
Class 0:
Remaining flits: 2842164 2842165 2842166 2842167 2842168 2842169 2842170 2842171 2842172 2842173 [...] (859132 flits)
Measured flits: (0 flits)
Class 0:
Remaining flits: 2842164 2842165 2842166 2842167 2842168 2842169 2842170 2842171 2842172 2842173 [...] (827002 flits)
Measured flits: (0 flits)
Class 0:
Remaining flits: 2842164 2842165 2842166 2842167 2842168 2842169 2842170 2842171 2842172 2842173 [...] (794385 flits)
Measured flits: (0 flits)
Class 0:
Remaining flits: 2842166 2842167 2842168 2842169 2842170 2842171 2842172 2842173 2842174 2842175 [...] (762366 flits)
Measured flits: (0 flits)
Class 0:
Remaining flits: 3004056 3004057 3004058 3004059 3004060 3004061 3004062 3004063 3004064 3004065 [...] (729691 flits)
Measured flits: (0 flits)
Class 0:
Remaining flits: 3004056 3004057 3004058 3004059 3004060 3004061 3004062 3004063 3004064 3004065 [...] (697906 flits)
Measured flits: (0 flits)
Class 0:
Remaining flits: 3004056 3004057 3004058 3004059 3004060 3004061 3004062 3004063 3004064 3004065 [...] (666747 flits)
Measured flits: (0 flits)
Class 0:
Remaining flits: 3004056 3004057 3004058 3004059 3004060 3004061 3004062 3004063 3004064 3004065 [...] (635256 flits)
Measured flits: (0 flits)
Class 0:
Remaining flits: 3004056 3004057 3004058 3004059 3004060 3004061 3004062 3004063 3004064 3004065 [...] (603906 flits)
Measured flits: (0 flits)
Class 0:
Remaining flits: 3004056 3004057 3004058 3004059 3004060 3004061 3004062 3004063 3004064 3004065 [...] (571897 flits)
Measured flits: (0 flits)
Class 0:
Remaining flits: 3004056 3004057 3004058 3004059 3004060 3004061 3004062 3004063 3004064 3004065 [...] (540302 flits)
Measured flits: (0 flits)
Class 0:
Remaining flits: 3004056 3004057 3004058 3004059 3004060 3004061 3004062 3004063 3004064 3004065 [...] (509144 flits)
Measured flits: (0 flits)
Class 0:
Remaining flits: 3004067 3004068 3004069 3004070 3004071 3004072 3004073 3018600 3018601 3018602 [...] (476867 flits)
Measured flits: (0 flits)
Class 0:
Remaining flits: 3018600 3018601 3018602 3018603 3018604 3018605 3018606 3018607 3018608 3018609 [...] (444151 flits)
Measured flits: (0 flits)
Class 0:
Remaining flits: 3018600 3018601 3018602 3018603 3018604 3018605 3018606 3018607 3018608 3018609 [...] (411855 flits)
Measured flits: (0 flits)
Class 0:
Remaining flits: 3018600 3018601 3018602 3018603 3018604 3018605 3018606 3018607 3018608 3018609 [...] (380371 flits)
Measured flits: (0 flits)
Class 0:
Remaining flits: 3018600 3018601 3018602 3018603 3018604 3018605 3018606 3018607 3018608 3018609 [...] (348438 flits)
Measured flits: (0 flits)
Class 0:
Remaining flits: 3049236 3049237 3049238 3049239 3049240 3049241 3049242 3049243 3049244 3049245 [...] (317042 flits)
Measured flits: (0 flits)
Class 0:
Remaining flits: 3049236 3049237 3049238 3049239 3049240 3049241 3049242 3049243 3049244 3049245 [...] (286474 flits)
Measured flits: (0 flits)
Class 0:
Remaining flits: 3049236 3049237 3049238 3049239 3049240 3049241 3049242 3049243 3049244 3049245 [...] (257377 flits)
Measured flits: (0 flits)
Class 0:
Remaining flits: 3049236 3049237 3049238 3049239 3049240 3049241 3049242 3049243 3049244 3049245 [...] (229082 flits)
Measured flits: (0 flits)
Class 0:
Remaining flits: 3049236 3049237 3049238 3049239 3049240 3049241 3049242 3049243 3049244 3049245 [...] (202732 flits)
Measured flits: (0 flits)
Class 0:
Remaining flits: 3152808 3152809 3152810 3152811 3152812 3152813 3152814 3152815 3152816 3152817 [...] (178512 flits)
Measured flits: (0 flits)
Class 0:
Remaining flits: 3152808 3152809 3152810 3152811 3152812 3152813 3152814 3152815 3152816 3152817 [...] (155168 flits)
Measured flits: (0 flits)
Class 0:
Remaining flits: 3152808 3152809 3152810 3152811 3152812 3152813 3152814 3152815 3152816 3152817 [...] (134735 flits)
Measured flits: (0 flits)
Class 0:
Remaining flits: 3152808 3152809 3152810 3152811 3152812 3152813 3152814 3152815 3152816 3152817 [...] (113683 flits)
Measured flits: (0 flits)
Class 0:
Remaining flits: 3460750 3460751 3469410 3469411 3469412 3469413 3469414 3469415 3469416 3469417 [...] (95929 flits)
Measured flits: (0 flits)
Class 0:
Remaining flits: 3460750 3460751 3469410 3469411 3469412 3469413 3469414 3469415 3469416 3469417 [...] (80690 flits)
Measured flits: (0 flits)
Class 0:
Remaining flits: 3460750 3460751 3469410 3469411 3469412 3469413 3469414 3469415 3469416 3469417 [...] (66996 flits)
Measured flits: (0 flits)
Class 0:
Remaining flits: 3469410 3469411 3469412 3469413 3469414 3469415 3469416 3469417 3469418 3469419 [...] (55882 flits)
Measured flits: (0 flits)
Class 0:
Remaining flits: 3469410 3469411 3469412 3469413 3469414 3469415 3469416 3469417 3469418 3469419 [...] (45871 flits)
Measured flits: (0 flits)
Class 0:
Remaining flits: 3469410 3469411 3469412 3469413 3469414 3469415 3469416 3469417 3469418 3469419 [...] (37922 flits)
Measured flits: (0 flits)
Class 0:
Remaining flits: 3469410 3469411 3469412 3469413 3469414 3469415 3469416 3469417 3469418 3469419 [...] (30888 flits)
Measured flits: (0 flits)
Class 0:
Remaining flits: 3546918 3546919 3546920 3546921 3546922 3546923 3546924 3546925 3546926 3546927 [...] (24331 flits)
Measured flits: (0 flits)
Class 0:
Remaining flits: 3546918 3546919 3546920 3546921 3546922 3546923 3546924 3546925 3546926 3546927 [...] (18502 flits)
Measured flits: (0 flits)
Class 0:
Remaining flits: 3546918 3546919 3546920 3546921 3546922 3546923 3546924 3546925 3546926 3546927 [...] (14292 flits)
Measured flits: (0 flits)
Class 0:
Remaining flits: 3546918 3546919 3546920 3546921 3546922 3546923 3546924 3546925 3546926 3546927 [...] (11231 flits)
Measured flits: (0 flits)
Class 0:
Remaining flits: 3546920 3546921 3546922 3546923 3546924 3546925 3546926 3546927 3546928 3546929 [...] (8655 flits)
Measured flits: (0 flits)
Class 0:
Remaining flits: 3732798 3732799 3732800 3732801 3732802 3732803 3763278 3763279 3763280 3763281 [...] (6697 flits)
Measured flits: (0 flits)
Class 0:
Remaining flits: 3763278 3763279 3763280 3763281 3763282 3763283 3763284 3763285 3763286 3763287 [...] (4862 flits)
Measured flits: (0 flits)
Class 0:
Remaining flits: 3763278 3763279 3763280 3763281 3763282 3763283 3763284 3763285 3763286 3763287 [...] (3047 flits)
Measured flits: (0 flits)
Class 0:
Remaining flits: 4434444 4434445 4434446 4434447 4434448 4434449 4434450 4434451 4434452 4434453 [...] (1843 flits)
Measured flits: (0 flits)
Class 0:
Remaining flits: 5380002 5380003 5380004 5380005 5380006 5380007 5380008 5380009 5380010 5380011 [...] (842 flits)
Measured flits: (0 flits)
Time taken is 224491 cycles
====== Overall Traffic Statistics ======
====== Traffic class 0 ======
Packet latency average = 9504.34 (1 samples)
	minimum = 23 (1 samples)
	maximum = 78625 (1 samples)
Network latency average = 9292.97 (1 samples)
	minimum = 23 (1 samples)
	maximum = 78198 (1 samples)
Flit latency average = 57109.8 (1 samples)
	minimum = 6 (1 samples)
	maximum = 180100 (1 samples)
Fragmentation average = 344.125 (1 samples)
	minimum = 0 (1 samples)
	maximum = 13926 (1 samples)
Injected packet rate average = 0.0268036 (1 samples)
	minimum = 0.01 (1 samples)
	maximum = 0.0461429 (1 samples)
Accepted packet rate average = 0.013433 (1 samples)
	minimum = 0.00971429 (1 samples)
	maximum = 0.0185714 (1 samples)
Injected flit rate average = 0.482461 (1 samples)
	minimum = 0.18 (1 samples)
	maximum = 0.830857 (1 samples)
Accepted flit rate average = 0.242424 (1 samples)
	minimum = 0.175857 (1 samples)
	maximum = 0.322143 (1 samples)
Injected packet size average = 17.9999 (1 samples)
Accepted packet size average = 18.0469 (1 samples)
Hops average = 5.06903 (1 samples)
Total run time 410.638
