BEGIN Configuration File: networks/mezzanine_config
topology = mezzanine;
n = 12;

routing_function = multipath;
internal_speedup = 2.0;
latency_thres = 100000.0;
use_read_write = 0;

sample_period = 1000;
injection_rate = 0.5;
packet_size = 18;

noq = 1;
routing_delay = 0;
vc_alloc_delay = 1;
sw_alloc_delay = 1;
st_final_delay = 1;
vc_allocator = islip; 
sw_allocator = islip;
alloc_iters  = 4;
num_vcs     = 12;
buffer_policy = private; // private or shared
buf_size = -1; // -1 for buffer_policy = private;
vc_buf_size = 4096; // size of each VOQ with buffer_policy = private
output_buffer_size = -1;


traffic = uniform;

//mezW = 0.0;
//mezPredefinedPatternType = shift-inter; //shift-qfdb

END Configuration File: networks/mezzanine_config
OVERRIDE Parameter: injection_rate=0.053317
OVERRIDE Parameter: routing_function=min
OVERRIDE Parameter: num_vcs=64
OVERRIDE Parameter: vc_buf_size=1024
OVERRIDE Parameter: internal_speedup=1.0
OVERRIDE Parameter: injection_process=bernoulli
OVERRIDE Parameter: sim_type=latency
OVERRIDE Parameter: burst_alpha=0.0038461538
OVERRIDE Parameter: burst_beta=0.1
network: network_0
========================== Routing table  =====================
Number of Subnets: 1
Class 0:
Packet latency average = 344.283
	minimum = 23
	maximum = 944
Network latency average = 316.123
	minimum = 23
	maximum = 936
Slowest packet = 184
Flit latency average = 246.59
	minimum = 6
	maximum = 960
Slowest flit = 3306
Fragmentation average = 192.774
	minimum = 0
	maximum = 783
Injected packet rate average = 0.0488958
	minimum = 0.036 (at node 30)
	maximum = 0.056 (at node 79)
Accepted packet rate average = 0.0115937
	minimum = 0.005 (at node 61)
	maximum = 0.021 (at node 91)
Injected flit rate average = 0.872245
	minimum = 0.634 (at node 30)
	maximum = 1 (at node 101)
Accepted flit rate average= 0.249323
	minimum = 0.128 (at node 185)
	maximum = 0.395 (at node 91)
Injected packet length average = 17.8388
Accepted packet length average = 21.5049
Total in-flight flits = 121114 (0 measured)
latency change    = 1
throughput change = 1
Class 0:
Packet latency average = 607.028
	minimum = 23
	maximum = 1919
Network latency average = 564.898
	minimum = 23
	maximum = 1919
Slowest packet = 487
Flit latency average = 480.835
	minimum = 6
	maximum = 1915
Slowest flit = 9644
Fragmentation average = 252.707
	minimum = 0
	maximum = 1733
Injected packet rate average = 0.0506302
	minimum = 0.04 (at node 59)
	maximum = 0.056 (at node 101)
Accepted packet rate average = 0.0131146
	minimum = 0.0075 (at node 4)
	maximum = 0.0195 (at node 173)
Injected flit rate average = 0.907271
	minimum = 0.7125 (at node 59)
	maximum = 1 (at node 101)
Accepted flit rate average= 0.262456
	minimum = 0.143 (at node 4)
	maximum = 0.395 (at node 173)
Injected packet length average = 17.9196
Accepted packet length average = 20.0125
Total in-flight flits = 249173 (0 measured)
latency change    = 0.432838
throughput change = 0.0500382
Class 0:
Packet latency average = 1284.84
	minimum = 25
	maximum = 2939
Network latency average = 1210.22
	minimum = 25
	maximum = 2939
Slowest packet = 346
Flit latency average = 1161.65
	minimum = 6
	maximum = 2922
Slowest flit = 6245
Fragmentation average = 333.804
	minimum = 1
	maximum = 2079
Injected packet rate average = 0.052125
	minimum = 0.041 (at node 43)
	maximum = 0.056 (at node 1)
Accepted packet rate average = 0.0155729
	minimum = 0.007 (at node 32)
	maximum = 0.025 (at node 44)
Injected flit rate average = 0.938458
	minimum = 0.732 (at node 43)
	maximum = 1 (at node 1)
Accepted flit rate average= 0.283953
	minimum = 0.12 (at node 139)
	maximum = 0.51 (at node 115)
Injected packet length average = 18.004
Accepted packet length average = 18.2338
Total in-flight flits = 374798 (0 measured)
latency change    = 0.527547
throughput change = 0.0757076
Warmed up ...Time used is 3000 cycles
Class 0:
Packet latency average = 186.083
	minimum = 25
	maximum = 713
Network latency average = 56.1252
	minimum = 23
	maximum = 669
Slowest packet = 29946
Flit latency average = 1697.43
	minimum = 6
	maximum = 3907
Slowest flit = 10002
Fragmentation average = 18.5784
	minimum = 0
	maximum = 100
Injected packet rate average = 0.0529427
	minimum = 0.034 (at node 163)
	maximum = 0.056 (at node 2)
Accepted packet rate average = 0.016026
	minimum = 0.004 (at node 139)
	maximum = 0.027 (at node 10)
Injected flit rate average = 0.952562
	minimum = 0.607 (at node 163)
	maximum = 1 (at node 1)
Accepted flit rate average= 0.287714
	minimum = 0.118 (at node 168)
	maximum = 0.475 (at node 10)
Injected packet length average = 17.9923
Accepted packet length average = 17.9529
Total in-flight flits = 502527 (167850 measured)
latency change    = 5.9047
throughput change = 0.01307
Class 0:
Packet latency average = 194.248
	minimum = 25
	maximum = 777
Network latency average = 56.8465
	minimum = 23
	maximum = 669
Slowest packet = 29946
Flit latency average = 1978.71
	minimum = 6
	maximum = 4766
Slowest flit = 18521
Fragmentation average = 18.065
	minimum = 0
	maximum = 100
Injected packet rate average = 0.0530859
	minimum = 0.044 (at node 18)
	maximum = 0.056 (at node 4)
Accepted packet rate average = 0.0158802
	minimum = 0.0085 (at node 79)
	maximum = 0.0245 (at node 107)
Injected flit rate average = 0.955115
	minimum = 0.7975 (at node 18)
	maximum = 1 (at node 1)
Accepted flit rate average= 0.284977
	minimum = 0.1655 (at node 79)
	maximum = 0.4155 (at node 107)
Injected packet length average = 17.9919
Accepted packet length average = 17.9454
Total in-flight flits = 632297 (336634 measured)
latency change    = 0.042036
throughput change = 0.00960423
Class 0:
Packet latency average = 204.492
	minimum = 25
	maximum = 2941
Network latency average = 66.3495
	minimum = 23
	maximum = 2764
Slowest packet = 30064
Flit latency average = 2264.3
	minimum = 6
	maximum = 5812
Slowest flit = 24191
Fragmentation average = 19.5549
	minimum = 0
	maximum = 555
Injected packet rate average = 0.0529236
	minimum = 0.0436667 (at node 124)
	maximum = 0.0556667 (at node 4)
Accepted packet rate average = 0.0157899
	minimum = 0.0106667 (at node 168)
	maximum = 0.0223333 (at node 107)
Injected flit rate average = 0.952755
	minimum = 0.785667 (at node 124)
	maximum = 1 (at node 1)
Accepted flit rate average= 0.283974
	minimum = 0.197667 (at node 46)
	maximum = 0.390333 (at node 105)
Injected packet length average = 18.0025
Accepted packet length average = 17.9845
Total in-flight flits = 759941 (502610 measured)
latency change    = 0.0500962
throughput change = 0.00353062
Class 0:
Packet latency average = 269.821
	minimum = 25
	maximum = 4251
Network latency average = 128.353
	minimum = 23
	maximum = 3960
Slowest packet = 29572
Flit latency average = 2555.47
	minimum = 6
	maximum = 6833
Slowest flit = 18436
Fragmentation average = 24.898
	minimum = 0
	maximum = 828
Injected packet rate average = 0.0529583
	minimum = 0.04275 (at node 157)
	maximum = 0.05575 (at node 7)
Accepted packet rate average = 0.0157435
	minimum = 0.01175 (at node 18)
	maximum = 0.021 (at node 107)
Injected flit rate average = 0.953161
	minimum = 0.772 (at node 157)
	maximum = 1 (at node 1)
Accepted flit rate average= 0.282659
	minimum = 0.207 (at node 33)
	maximum = 0.3655 (at node 105)
Injected packet length average = 17.9983
Accepted packet length average = 17.954
Total in-flight flits = 889812 (669638 measured)
latency change    = 0.242118
throughput change = 0.00465262
Class 0:
Packet latency average = 420.142
	minimum = 24
	maximum = 5315
Network latency average = 273.54
	minimum = 23
	maximum = 4950
Slowest packet = 29572
Flit latency average = 2826.79
	minimum = 6
	maximum = 7780
Slowest flit = 29444
Fragmentation average = 33.8124
	minimum = 0
	maximum = 1098
Injected packet rate average = 0.0529937
	minimum = 0.043 (at node 157)
	maximum = 0.0556 (at node 5)
Accepted packet rate average = 0.015725
	minimum = 0.0118 (at node 79)
	maximum = 0.0198 (at node 103)
Injected flit rate average = 0.953851
	minimum = 0.7732 (at node 157)
	maximum = 1 (at node 1)
Accepted flit rate average= 0.282126
	minimum = 0.213 (at node 190)
	maximum = 0.3624 (at node 103)
Injected packet length average = 17.9993
Accepted packet length average = 17.9412
Total in-flight flits = 1019689 (833371 measured)
latency change    = 0.357787
throughput change = 0.00188856
Class 0:
Packet latency average = 673.921
	minimum = 24
	maximum = 6135
Network latency average = 524.514
	minimum = 23
	maximum = 5943
Slowest packet = 29572
Flit latency average = 3097.37
	minimum = 6
	maximum = 8767
Slowest flit = 30905
Fragmentation average = 49.5619
	minimum = 0
	maximum = 2750
Injected packet rate average = 0.0530069
	minimum = 0.045 (at node 157)
	maximum = 0.0556667 (at node 37)
Accepted packet rate average = 0.0156502
	minimum = 0.0123333 (at node 120)
	maximum = 0.0191667 (at node 105)
Injected flit rate average = 0.954002
	minimum = 0.809333 (at node 157)
	maximum = 1 (at node 1)
Accepted flit rate average= 0.280561
	minimum = 0.220833 (at node 120)
	maximum = 0.349167 (at node 103)
Injected packet length average = 17.9977
Accepted packet length average = 17.927
Total in-flight flits = 1150744 (995000 measured)
latency change    = 0.376571
throughput change = 0.0055791
Class 0:
Packet latency average = 994.887
	minimum = 24
	maximum = 7203
Network latency average = 844.485
	minimum = 23
	maximum = 6962
Slowest packet = 29572
Flit latency average = 3359.53
	minimum = 6
	maximum = 9716
Slowest flit = 41654
Fragmentation average = 66.9465
	minimum = 0
	maximum = 2750
Injected packet rate average = 0.0528207
	minimum = 0.0464286 (at node 157)
	maximum = 0.0555714 (at node 5)
Accepted packet rate average = 0.0155521
	minimum = 0.0124286 (at node 42)
	maximum = 0.019 (at node 107)
Injected flit rate average = 0.950682
	minimum = 0.836571 (at node 157)
	maximum = 1 (at node 1)
Accepted flit rate average= 0.27859
	minimum = 0.218 (at node 42)
	maximum = 0.342429 (at node 103)
Injected packet length average = 17.9983
Accepted packet length average = 17.9134
Total in-flight flits = 1278211 (1149419 measured)
latency change    = 0.322615
throughput change = 0.00707396
Draining all recorded packets ...
Class 0:
Remaining flits: 28922 28923 28924 28925 37316 37317 37318 37319 37320 37321 [...] (1388045 flits)
Measured flits: 530118 530119 530120 530121 530122 530123 530124 530125 530126 530127 [...] (1167947 flits)
Class 0:
Remaining flits: 38300 38301 38302 38303 47636 47637 47638 47639 47640 47641 [...] (1491562 flits)
Measured flits: 530118 530119 530120 530121 530122 530123 530124 530125 530126 530127 [...] (1154879 flits)
Class 0:
Remaining flits: 38300 38301 38302 38303 49482 49483 49484 49485 49486 49487 [...] (1594148 flits)
Measured flits: 530118 530119 530120 530121 530122 530123 530124 530125 530126 530127 [...] (1136838 flits)
Class 0:
Remaining flits: 49482 49483 49484 49485 49486 49487 49488 49489 49490 49491 [...] (1700313 flits)
Measured flits: 530118 530119 530120 530121 530122 530123 530124 530125 530126 530127 [...] (1114789 flits)
Class 0:
Remaining flits: 49482 49483 49484 49485 49486 49487 49488 49489 49490 49491 [...] (1809372 flits)
Measured flits: 530118 530119 530120 530121 530122 530123 530124 530125 530126 530127 [...] (1091420 flits)
Class 0:
Remaining flits: 49482 49483 49484 49485 49486 49487 49488 49489 49490 49491 [...] (1918439 flits)
Measured flits: 530118 530119 530120 530121 530122 530123 530124 530125 530126 530127 [...] (1065753 flits)
Class 0:
Remaining flits: 49482 49483 49484 49485 49486 49487 49488 49489 49490 49491 [...] (2030412 flits)
Measured flits: 530118 530119 530120 530121 530122 530123 530124 530125 530126 530127 [...] (1039102 flits)
Class 0:
Remaining flits: 49482 49483 49484 49485 49486 49487 49488 49489 49490 49491 [...] (2140666 flits)
Measured flits: 530118 530119 530120 530121 530122 530123 530124 530125 530126 530127 [...] (1011209 flits)
Class 0:
Remaining flits: 49482 49483 49484 49485 49486 49487 49488 49489 49490 49491 [...] (2250284 flits)
Measured flits: 530118 530119 530120 530121 530122 530123 530124 530125 530126 530127 [...] (982484 flits)
Class 0:
Remaining flits: 59220 59221 59222 59223 59224 59225 59226 59227 59228 59229 [...] (2360242 flits)
Measured flits: 530118 530119 530120 530121 530122 530123 530124 530125 530126 530127 [...] (953731 flits)
Class 0:
Remaining flits: 59220 59221 59222 59223 59224 59225 59226 59227 59228 59229 [...] (2470978 flits)
Measured flits: 530118 530119 530120 530121 530122 530123 530124 530125 530126 530127 [...] (923385 flits)
Class 0:
Remaining flits: 59220 59221 59222 59223 59224 59225 59226 59227 59228 59229 [...] (2581763 flits)
Measured flits: 530172 530173 530174 530175 530176 530177 530178 530179 530180 530181 [...] (893107 flits)
Class 0:
Remaining flits: 59220 59221 59222 59223 59224 59225 59226 59227 59228 59229 [...] (2692455 flits)
Measured flits: 530172 530173 530174 530175 530176 530177 530178 530179 530180 530181 [...] (862744 flits)
Class 0:
Remaining flits: 81954 81955 81956 81957 81958 81959 81960 81961 81962 81963 [...] (2804387 flits)
Measured flits: 530172 530173 530174 530175 530176 530177 530178 530179 530180 530181 [...] (833022 flits)
Class 0:
Remaining flits: 81954 81955 81956 81957 81958 81959 81960 81961 81962 81963 [...] (2916505 flits)
Measured flits: 530172 530173 530174 530175 530176 530177 530178 530179 530180 530181 [...] (803186 flits)
Class 0:
Remaining flits: 81958 81959 81960 81961 81962 81963 81964 81965 81966 81967 [...] (3026656 flits)
Measured flits: 530172 530173 530174 530175 530176 530177 530178 530179 530180 530181 [...] (772659 flits)
Class 0:
Remaining flits: 95040 95041 95042 95043 95044 95045 95046 95047 95048 95049 [...] (3137836 flits)
Measured flits: 530172 530173 530174 530175 530176 530177 530178 530179 530180 530181 [...] (741893 flits)
Class 0:
Remaining flits: 95040 95041 95042 95043 95044 95045 95046 95047 95048 95049 [...] (3249762 flits)
Measured flits: 530172 530173 530174 530175 530176 530177 530178 530179 530180 530181 [...] (711973 flits)
Class 0:
Remaining flits: 95040 95041 95042 95043 95044 95045 95046 95047 95048 95049 [...] (3361638 flits)
Measured flits: 530172 530173 530174 530175 530176 530177 530178 530179 530180 530181 [...] (681882 flits)
Class 0:
Remaining flits: 95040 95041 95042 95043 95044 95045 95046 95047 95048 95049 [...] (3473249 flits)
Measured flits: 530676 530677 530678 530679 530680 530681 530682 530683 530684 530685 [...] (652614 flits)
Class 0:
Remaining flits: 95040 95041 95042 95043 95044 95045 95046 95047 95048 95049 [...] (3581289 flits)
Measured flits: 530676 530677 530678 530679 530680 530681 530682 530683 530684 530685 [...] (622881 flits)
Class 0:
Remaining flits: 95040 95041 95042 95043 95044 95045 95046 95047 95048 95049 [...] (3686750 flits)
Measured flits: 530676 530677 530678 530679 530680 530681 530682 530683 530684 530685 [...] (593493 flits)
Class 0:
Remaining flits: 95040 95041 95042 95043 95044 95045 95046 95047 95048 95049 [...] (3777152 flits)
Measured flits: 530676 530677 530678 530679 530680 530681 530682 530683 530684 530685 [...] (565407 flits)
Class 0:
Remaining flits: 95040 95041 95042 95043 95044 95045 95046 95047 95048 95049 [...] (3838184 flits)
Measured flits: 530676 530677 530678 530679 530680 530681 530682 530683 530684 530685 [...] (536980 flits)
Class 0:
Remaining flits: 95040 95041 95042 95043 95044 95045 95046 95047 95048 95049 [...] (3871641 flits)
Measured flits: 530676 530677 530678 530679 530680 530681 530682 530683 530684 530685 [...] (508407 flits)
Class 0:
Remaining flits: 95040 95041 95042 95043 95044 95045 95046 95047 95048 95049 [...] (3888294 flits)
Measured flits: 530676 530677 530678 530679 530680 530681 530682 530683 530684 530685 [...] (481618 flits)
Class 0:
Remaining flits: 95040 95041 95042 95043 95044 95045 95046 95047 95048 95049 [...] (3898704 flits)
Measured flits: 530676 530677 530678 530679 530680 530681 530682 530683 530684 530685 [...] (456269 flits)
Class 0:
Remaining flits: 95040 95041 95042 95043 95044 95045 95046 95047 95048 95049 [...] (3905874 flits)
Measured flits: 530676 530677 530678 530679 530680 530681 530682 530683 530684 530685 [...] (430315 flits)
Class 0:
Remaining flits: 95040 95041 95042 95043 95044 95045 95046 95047 95048 95049 [...] (3917239 flits)
Measured flits: 530676 530677 530678 530679 530680 530681 530682 530683 530684 530685 [...] (406036 flits)
Class 0:
Remaining flits: 259524 259525 259526 259527 259528 259529 259530 259531 259532 259533 [...] (3930119 flits)
Measured flits: 530676 530677 530678 530679 530680 530681 530682 530683 530684 530685 [...] (383076 flits)
Class 0:
Remaining flits: 259524 259525 259526 259527 259528 259529 259530 259531 259532 259533 [...] (3939257 flits)
Measured flits: 531864 531865 531866 531867 531868 531869 531870 531871 531872 531873 [...] (360547 flits)
Class 0:
Remaining flits: 259524 259525 259526 259527 259528 259529 259530 259531 259532 259533 [...] (3953226 flits)
Measured flits: 531864 531865 531866 531867 531868 531869 531870 531871 531872 531873 [...] (339972 flits)
Class 0:
Remaining flits: 259524 259525 259526 259527 259528 259529 259530 259531 259532 259533 [...] (3962519 flits)
Measured flits: 531864 531865 531866 531867 531868 531869 531870 531871 531872 531873 [...] (318981 flits)
Class 0:
Remaining flits: 259524 259525 259526 259527 259528 259529 259530 259531 259532 259533 [...] (3975358 flits)
Measured flits: 531864 531865 531866 531867 531868 531869 531870 531871 531872 531873 [...] (299006 flits)
Class 0:
Remaining flits: 259524 259525 259526 259527 259528 259529 259530 259531 259532 259533 [...] (3984315 flits)
Measured flits: 531864 531865 531866 531867 531868 531869 531870 531871 531872 531873 [...] (280173 flits)
Class 0:
Remaining flits: 259524 259525 259526 259527 259528 259529 259530 259531 259532 259533 [...] (3993961 flits)
Measured flits: 531864 531865 531866 531867 531868 531869 531870 531871 531872 531873 [...] (262331 flits)
Class 0:
Remaining flits: 259524 259525 259526 259527 259528 259529 259530 259531 259532 259533 [...] (4002421 flits)
Measured flits: 531864 531865 531866 531867 531868 531869 531870 531871 531872 531873 [...] (245286 flits)
Class 0:
Remaining flits: 259524 259525 259526 259527 259528 259529 259530 259531 259532 259533 [...] (4014483 flits)
Measured flits: 531864 531865 531866 531867 531868 531869 531870 531871 531872 531873 [...] (229874 flits)
Class 0:
Remaining flits: 310752 310753 310754 310755 310756 310757 310758 310759 310760 310761 [...] (4022676 flits)
Measured flits: 531864 531865 531866 531867 531868 531869 531870 531871 531872 531873 [...] (213709 flits)
Class 0:
Remaining flits: 310752 310753 310754 310755 310756 310757 310758 310759 310760 310761 [...] (4032018 flits)
Measured flits: 531864 531865 531866 531867 531868 531869 531870 531871 531872 531873 [...] (198708 flits)
Class 0:
Remaining flits: 310752 310753 310754 310755 310756 310757 310758 310759 310760 310761 [...] (4042844 flits)
Measured flits: 531864 531865 531866 531867 531868 531869 531870 531871 531872 531873 [...] (184735 flits)
Class 0:
Remaining flits: 310752 310753 310754 310755 310756 310757 310758 310759 310760 310761 [...] (4051752 flits)
Measured flits: 531864 531865 531866 531867 531868 531869 531870 531871 531872 531873 [...] (171896 flits)
Class 0:
Remaining flits: 310752 310753 310754 310755 310756 310757 310758 310759 310760 310761 [...] (4062206 flits)
Measured flits: 531864 531865 531866 531867 531868 531869 531870 531871 531872 531873 [...] (159619 flits)
Class 0:
Remaining flits: 310752 310753 310754 310755 310756 310757 310758 310759 310760 310761 [...] (4071351 flits)
Measured flits: 531864 531865 531866 531867 531868 531869 531870 531871 531872 531873 [...] (147458 flits)
Class 0:
Remaining flits: 310752 310753 310754 310755 310756 310757 310758 310759 310760 310761 [...] (4079955 flits)
Measured flits: 531876 531877 531878 531879 531880 531881 556668 556669 556670 556671 [...] (136724 flits)
Class 0:
Remaining flits: 310752 310753 310754 310755 310756 310757 310758 310759 310760 310761 [...] (4092715 flits)
Measured flits: 556668 556669 556670 556671 556672 556673 556674 556675 556676 556677 [...] (126794 flits)
Class 0:
Remaining flits: 310752 310753 310754 310755 310756 310757 310758 310759 310760 310761 [...] (4101610 flits)
Measured flits: 556668 556669 556670 556671 556672 556673 556674 556675 556676 556677 [...] (117706 flits)
Class 0:
Remaining flits: 310752 310753 310754 310755 310756 310757 310758 310759 310760 310761 [...] (4107839 flits)
Measured flits: 556668 556669 556670 556671 556672 556673 556674 556675 556676 556677 [...] (108716 flits)
Class 0:
Remaining flits: 310755 310756 310757 310758 310759 310760 310761 310762 310763 310764 [...] (4120393 flits)
Measured flits: 556668 556669 556670 556671 556672 556673 556674 556675 556676 556677 [...] (100517 flits)
Class 0:
Remaining flits: 556668 556669 556670 556671 556672 556673 556674 556675 556676 556677 [...] (4131310 flits)
Measured flits: 556668 556669 556670 556671 556672 556673 556674 556675 556676 556677 [...] (93082 flits)
Class 0:
Remaining flits: 556668 556669 556670 556671 556672 556673 556674 556675 556676 556677 [...] (4139367 flits)
Measured flits: 556668 556669 556670 556671 556672 556673 556674 556675 556676 556677 [...] (86967 flits)
Class 0:
Remaining flits: 556668 556669 556670 556671 556672 556673 556674 556675 556676 556677 [...] (4145117 flits)
Measured flits: 556668 556669 556670 556671 556672 556673 556674 556675 556676 556677 [...] (79999 flits)
Class 0:
Remaining flits: 556668 556669 556670 556671 556672 556673 556674 556675 556676 556677 [...] (4157762 flits)
Measured flits: 556668 556669 556670 556671 556672 556673 556674 556675 556676 556677 [...] (73923 flits)
Class 0:
Remaining flits: 556668 556669 556670 556671 556672 556673 556674 556675 556676 556677 [...] (4168724 flits)
Measured flits: 556668 556669 556670 556671 556672 556673 556674 556675 556676 556677 [...] (68415 flits)
Class 0:
Remaining flits: 556668 556669 556670 556671 556672 556673 556674 556675 556676 556677 [...] (4176899 flits)
Measured flits: 556668 556669 556670 556671 556672 556673 556674 556675 556676 556677 [...] (63411 flits)
Class 0:
Remaining flits: 625644 625645 625646 625647 625648 625649 625650 625651 625652 625653 [...] (4186272 flits)
Measured flits: 625644 625645 625646 625647 625648 625649 625650 625651 625652 625653 [...] (58701 flits)
Class 0:
Remaining flits: 625644 625645 625646 625647 625648 625649 625650 625651 625652 625653 [...] (4202739 flits)
Measured flits: 625644 625645 625646 625647 625648 625649 625650 625651 625652 625653 [...] (54787 flits)
Class 0:
Remaining flits: 625644 625645 625646 625647 625648 625649 625650 625651 625652 625653 [...] (4210358 flits)
Measured flits: 625644 625645 625646 625647 625648 625649 625650 625651 625652 625653 [...] (50197 flits)
Class 0:
Remaining flits: 625644 625645 625646 625647 625648 625649 625650 625651 625652 625653 [...] (4221189 flits)
Measured flits: 625644 625645 625646 625647 625648 625649 625650 625651 625652 625653 [...] (45880 flits)
Class 0:
Remaining flits: 625644 625645 625646 625647 625648 625649 625650 625651 625652 625653 [...] (4232033 flits)
Measured flits: 625644 625645 625646 625647 625648 625649 625650 625651 625652 625653 [...] (41750 flits)
Class 0:
Remaining flits: 625644 625645 625646 625647 625648 625649 625650 625651 625652 625653 [...] (4240769 flits)
Measured flits: 625644 625645 625646 625647 625648 625649 625650 625651 625652 625653 [...] (38417 flits)
Class 0:
Remaining flits: 625644 625645 625646 625647 625648 625649 625650 625651 625652 625653 [...] (4253412 flits)
Measured flits: 625644 625645 625646 625647 625648 625649 625650 625651 625652 625653 [...] (35130 flits)
Class 0:
Remaining flits: 625644 625645 625646 625647 625648 625649 625650 625651 625652 625653 [...] (4263797 flits)
Measured flits: 625644 625645 625646 625647 625648 625649 625650 625651 625652 625653 [...] (31648 flits)
Class 0:
Remaining flits: 625644 625645 625646 625647 625648 625649 625650 625651 625652 625653 [...] (4274954 flits)
Measured flits: 625644 625645 625646 625647 625648 625649 625650 625651 625652 625653 [...] (28314 flits)
Class 0:
Remaining flits: 625644 625645 625646 625647 625648 625649 625650 625651 625652 625653 [...] (4283443 flits)
Measured flits: 625644 625645 625646 625647 625648 625649 625650 625651 625652 625653 [...] (25336 flits)
Class 0:
Remaining flits: 625644 625645 625646 625647 625648 625649 625650 625651 625652 625653 [...] (4292941 flits)
Measured flits: 625644 625645 625646 625647 625648 625649 625650 625651 625652 625653 [...] (22997 flits)
Class 0:
Remaining flits: 764982 764983 764984 764985 764986 764987 764988 764989 764990 764991 [...] (4305264 flits)
Measured flits: 764982 764983 764984 764985 764986 764987 764988 764989 764990 764991 [...] (20931 flits)
Class 0:
Remaining flits: 764982 764983 764984 764985 764986 764987 764988 764989 764990 764991 [...] (4316957 flits)
Measured flits: 764982 764983 764984 764985 764986 764987 764988 764989 764990 764991 [...] (18774 flits)
Class 0:
Remaining flits: 764982 764983 764984 764985 764986 764987 764988 764989 764990 764991 [...] (4325361 flits)
Measured flits: 764982 764983 764984 764985 764986 764987 764988 764989 764990 764991 [...] (16957 flits)
Class 0:
Remaining flits: 764982 764983 764984 764985 764986 764987 764988 764989 764990 764991 [...] (4335863 flits)
Measured flits: 764982 764983 764984 764985 764986 764987 764988 764989 764990 764991 [...] (15235 flits)
Class 0:
Remaining flits: 764982 764983 764984 764985 764986 764987 764988 764989 764990 764991 [...] (4351573 flits)
Measured flits: 764982 764983 764984 764985 764986 764987 764988 764989 764990 764991 [...] (13898 flits)
Class 0:
Remaining flits: 764982 764983 764984 764985 764986 764987 764988 764989 764990 764991 [...] (4361991 flits)
Measured flits: 764982 764983 764984 764985 764986 764987 764988 764989 764990 764991 [...] (12614 flits)
Class 0:
Remaining flits: 848230 848231 962136 962137 962138 962139 962140 962141 962142 962143 [...] (4371453 flits)
Measured flits: 848230 848231 962136 962137 962138 962139 962140 962141 962142 962143 [...] (11466 flits)
Class 0:
Remaining flits: 848230 848231 962136 962137 962138 962139 962140 962141 962142 962143 [...] (4382547 flits)
Measured flits: 848230 848231 962136 962137 962138 962139 962140 962141 962142 962143 [...] (10306 flits)
Class 0:
Remaining flits: 962136 962137 962138 962139 962140 962141 962142 962143 962144 962145 [...] (4393968 flits)
Measured flits: 962136 962137 962138 962139 962140 962141 962142 962143 962144 962145 [...] (9376 flits)
Class 0:
Remaining flits: 1008198 1008199 1008200 1008201 1008202 1008203 1008204 1008205 1008206 1008207 [...] (4403344 flits)
Measured flits: 1008198 1008199 1008200 1008201 1008202 1008203 1008204 1008205 1008206 1008207 [...] (8675 flits)
Class 0:
Remaining flits: 1008198 1008199 1008200 1008201 1008202 1008203 1008204 1008205 1008206 1008207 [...] (4415616 flits)
Measured flits: 1008198 1008199 1008200 1008201 1008202 1008203 1008204 1008205 1008206 1008207 [...] (7992 flits)
Class 0:
Remaining flits: 1008198 1008199 1008200 1008201 1008202 1008203 1008204 1008205 1008206 1008207 [...] (4431570 flits)
Measured flits: 1008198 1008199 1008200 1008201 1008202 1008203 1008204 1008205 1008206 1008207 [...] (7596 flits)
Class 0:
Remaining flits: 1008198 1008199 1008200 1008201 1008202 1008203 1008204 1008205 1008206 1008207 [...] (4440198 flits)
Measured flits: 1008198 1008199 1008200 1008201 1008202 1008203 1008204 1008205 1008206 1008207 [...] (6832 flits)
Class 0:
Remaining flits: 1008198 1008199 1008200 1008201 1008202 1008203 1008204 1008205 1008206 1008207 [...] (4452273 flits)
Measured flits: 1008198 1008199 1008200 1008201 1008202 1008203 1008204 1008205 1008206 1008207 [...] (6236 flits)
Class 0:
Remaining flits: 1113714 1113715 1113716 1113717 1113718 1113719 1113720 1113721 1113722 1113723 [...] (4463557 flits)
Measured flits: 1113714 1113715 1113716 1113717 1113718 1113719 1113720 1113721 1113722 1113723 [...] (5789 flits)
Class 0:
Remaining flits: 1128222 1128223 1128224 1128225 1128226 1128227 1128228 1128229 1128230 1128231 [...] (4477568 flits)
Measured flits: 1128222 1128223 1128224 1128225 1128226 1128227 1128228 1128229 1128230 1128231 [...] (5268 flits)
Class 0:
Remaining flits: 1128222 1128223 1128224 1128225 1128226 1128227 1128228 1128229 1128230 1128231 [...] (4486936 flits)
Measured flits: 1128222 1128223 1128224 1128225 1128226 1128227 1128228 1128229 1128230 1128231 [...] (4785 flits)
Class 0:
Remaining flits: 1128222 1128223 1128224 1128225 1128226 1128227 1128228 1128229 1128230 1128231 [...] (4499630 flits)
Measured flits: 1128222 1128223 1128224 1128225 1128226 1128227 1128228 1128229 1128230 1128231 [...] (4457 flits)
Class 0:
Remaining flits: 1128222 1128223 1128224 1128225 1128226 1128227 1128228 1128229 1128230 1128231 [...] (4509502 flits)
Measured flits: 1128222 1128223 1128224 1128225 1128226 1128227 1128228 1128229 1128230 1128231 [...] (4218 flits)
Class 0:
Remaining flits: 1128222 1128223 1128224 1128225 1128226 1128227 1128228 1128229 1128230 1128231 [...] (4518527 flits)
Measured flits: 1128222 1128223 1128224 1128225 1128226 1128227 1128228 1128229 1128230 1128231 [...] (4024 flits)
Class 0:
Remaining flits: 1128222 1128223 1128224 1128225 1128226 1128227 1128228 1128229 1128230 1128231 [...] (4524550 flits)
Measured flits: 1128222 1128223 1128224 1128225 1128226 1128227 1128228 1128229 1128230 1128231 [...] (3369 flits)
Class 0:
Remaining flits: 1128222 1128223 1128224 1128225 1128226 1128227 1128228 1128229 1128230 1128231 [...] (4532030 flits)
Measured flits: 1128222 1128223 1128224 1128225 1128226 1128227 1128228 1128229 1128230 1128231 [...] (3079 flits)
Class 0:
Remaining flits: 1128222 1128223 1128224 1128225 1128226 1128227 1128228 1128229 1128230 1128231 [...] (4541357 flits)
Measured flits: 1128222 1128223 1128224 1128225 1128226 1128227 1128228 1128229 1128230 1128231 [...] (2776 flits)
Class 0:
Remaining flits: 1128222 1128223 1128224 1128225 1128226 1128227 1128228 1128229 1128230 1128231 [...] (4547491 flits)
Measured flits: 1128222 1128223 1128224 1128225 1128226 1128227 1128228 1128229 1128230 1128231 [...] (2471 flits)
Class 0:
Remaining flits: 1128222 1128223 1128224 1128225 1128226 1128227 1128228 1128229 1128230 1128231 [...] (4554742 flits)
Measured flits: 1128222 1128223 1128224 1128225 1128226 1128227 1128228 1128229 1128230 1128231 [...] (2207 flits)
Class 0:
Remaining flits: 1128222 1128223 1128224 1128225 1128226 1128227 1128228 1128229 1128230 1128231 [...] (4562244 flits)
Measured flits: 1128222 1128223 1128224 1128225 1128226 1128227 1128228 1128229 1128230 1128231 [...] (2098 flits)
Class 0:
Remaining flits: 1128222 1128223 1128224 1128225 1128226 1128227 1128228 1128229 1128230 1128231 [...] (4573183 flits)
Measured flits: 1128222 1128223 1128224 1128225 1128226 1128227 1128228 1128229 1128230 1128231 [...] (1842 flits)
Class 0:
Remaining flits: 1128222 1128223 1128224 1128225 1128226 1128227 1128228 1128229 1128230 1128231 [...] (4585210 flits)
Measured flits: 1128222 1128223 1128224 1128225 1128226 1128227 1128228 1128229 1128230 1128231 [...] (1674 flits)
Class 0:
Remaining flits: 1128222 1128223 1128224 1128225 1128226 1128227 1128228 1128229 1128230 1128231 [...] (4596400 flits)
Measured flits: 1128222 1128223 1128224 1128225 1128226 1128227 1128228 1128229 1128230 1128231 [...] (1561 flits)
Class 0:
Remaining flits: 1128222 1128223 1128224 1128225 1128226 1128227 1128228 1128229 1128230 1128231 [...] (4600283 flits)
Measured flits: 1128222 1128223 1128224 1128225 1128226 1128227 1128228 1128229 1128230 1128231 [...] (1512 flits)
Class 0:
Remaining flits: 1128222 1128223 1128224 1128225 1128226 1128227 1128228 1128229 1128230 1128231 [...] (4608153 flits)
Measured flits: 1128222 1128223 1128224 1128225 1128226 1128227 1128228 1128229 1128230 1128231 [...] (1429 flits)
Class 0:
Remaining flits: 1128222 1128223 1128224 1128225 1128226 1128227 1128228 1128229 1128230 1128231 [...] (4616267 flits)
Measured flits: 1128222 1128223 1128224 1128225 1128226 1128227 1128228 1128229 1128230 1128231 [...] (1221 flits)
Class 0:
Remaining flits: 1420452 1420453 1420454 1420455 1420456 1420457 1420458 1420459 1420460 1420461 [...] (4622359 flits)
Measured flits: 1420452 1420453 1420454 1420455 1420456 1420457 1420458 1420459 1420460 1420461 [...] (1049 flits)
Class 0:
Remaining flits: 1420452 1420453 1420454 1420455 1420456 1420457 1420458 1420459 1420460 1420461 [...] (4630289 flits)
Measured flits: 1420452 1420453 1420454 1420455 1420456 1420457 1420458 1420459 1420460 1420461 [...] (909 flits)
Class 0:
Remaining flits: 1420452 1420453 1420454 1420455 1420456 1420457 1420458 1420459 1420460 1420461 [...] (4637251 flits)
Measured flits: 1420452 1420453 1420454 1420455 1420456 1420457 1420458 1420459 1420460 1420461 [...] (792 flits)
Class 0:
Remaining flits: 1420452 1420453 1420454 1420455 1420456 1420457 1420458 1420459 1420460 1420461 [...] (4643928 flits)
Measured flits: 1420452 1420453 1420454 1420455 1420456 1420457 1420458 1420459 1420460 1420461 [...] (756 flits)
Class 0:
Remaining flits: 1420452 1420453 1420454 1420455 1420456 1420457 1420458 1420459 1420460 1420461 [...] (4649980 flits)
Measured flits: 1420452 1420453 1420454 1420455 1420456 1420457 1420458 1420459 1420460 1420461 [...] (720 flits)
Class 0:
Remaining flits: 1420452 1420453 1420454 1420455 1420456 1420457 1420458 1420459 1420460 1420461 [...] (4659004 flits)
Measured flits: 1420452 1420453 1420454 1420455 1420456 1420457 1420458 1420459 1420460 1420461 [...] (576 flits)
Class 0:
Remaining flits: 1420452 1420453 1420454 1420455 1420456 1420457 1420458 1420459 1420460 1420461 [...] (4672724 flits)
Measured flits: 1420452 1420453 1420454 1420455 1420456 1420457 1420458 1420459 1420460 1420461 [...] (540 flits)
Class 0:
Remaining flits: 1420452 1420453 1420454 1420455 1420456 1420457 1420458 1420459 1420460 1420461 [...] (4685229 flits)
Measured flits: 1420452 1420453 1420454 1420455 1420456 1420457 1420458 1420459 1420460 1420461 [...] (468 flits)
Class 0:
Remaining flits: 1420452 1420453 1420454 1420455 1420456 1420457 1420458 1420459 1420460 1420461 [...] (4695621 flits)
Measured flits: 1420452 1420453 1420454 1420455 1420456 1420457 1420458 1420459 1420460 1420461 [...] (450 flits)
Class 0:
Remaining flits: 1420452 1420453 1420454 1420455 1420456 1420457 1420458 1420459 1420460 1420461 [...] (4701960 flits)
Measured flits: 1420452 1420453 1420454 1420455 1420456 1420457 1420458 1420459 1420460 1420461 [...] (450 flits)
Class 0:
Remaining flits: 1420452 1420453 1420454 1420455 1420456 1420457 1420458 1420459 1420460 1420461 [...] (4710686 flits)
Measured flits: 1420452 1420453 1420454 1420455 1420456 1420457 1420458 1420459 1420460 1420461 [...] (450 flits)
Class 0:
Remaining flits: 1420452 1420453 1420454 1420455 1420456 1420457 1420458 1420459 1420460 1420461 [...] (4718607 flits)
Measured flits: 1420452 1420453 1420454 1420455 1420456 1420457 1420458 1420459 1420460 1420461 [...] (406 flits)
Class 0:
Remaining flits: 1420452 1420453 1420454 1420455 1420456 1420457 1420458 1420459 1420460 1420461 [...] (4727738 flits)
Measured flits: 1420452 1420453 1420454 1420455 1420456 1420457 1420458 1420459 1420460 1420461 [...] (342 flits)
Class 0:
Remaining flits: 1420452 1420453 1420454 1420455 1420456 1420457 1420458 1420459 1420460 1420461 [...] (4735730 flits)
Measured flits: 1420452 1420453 1420454 1420455 1420456 1420457 1420458 1420459 1420460 1420461 [...] (324 flits)
Class 0:
Remaining flits: 1420452 1420453 1420454 1420455 1420456 1420457 1420458 1420459 1420460 1420461 [...] (4744358 flits)
Measured flits: 1420452 1420453 1420454 1420455 1420456 1420457 1420458 1420459 1420460 1420461 [...] (306 flits)
Class 0:
Remaining flits: 1420452 1420453 1420454 1420455 1420456 1420457 1420458 1420459 1420460 1420461 [...] (4755390 flits)
Measured flits: 1420452 1420453 1420454 1420455 1420456 1420457 1420458 1420459 1420460 1420461 [...] (306 flits)
Class 0:
Remaining flits: 1574820 1574821 1574822 1574823 1574824 1574825 1574826 1574827 1574828 1574829 [...] (4760846 flits)
Measured flits: 1574820 1574821 1574822 1574823 1574824 1574825 1574826 1574827 1574828 1574829 [...] (234 flits)
Class 0:
Remaining flits: 1574820 1574821 1574822 1574823 1574824 1574825 1574826 1574827 1574828 1574829 [...] (4766511 flits)
Measured flits: 1574820 1574821 1574822 1574823 1574824 1574825 1574826 1574827 1574828 1574829 [...] (234 flits)
Class 0:
Remaining flits: 1574820 1574821 1574822 1574823 1574824 1574825 1574826 1574827 1574828 1574829 [...] (4775650 flits)
Measured flits: 1574820 1574821 1574822 1574823 1574824 1574825 1574826 1574827 1574828 1574829 [...] (234 flits)
Class 0:
Remaining flits: 1574820 1574821 1574822 1574823 1574824 1574825 1574826 1574827 1574828 1574829 [...] (4782347 flits)
Measured flits: 1574820 1574821 1574822 1574823 1574824 1574825 1574826 1574827 1574828 1574829 [...] (234 flits)
Class 0:
Remaining flits: 1574820 1574821 1574822 1574823 1574824 1574825 1574826 1574827 1574828 1574829 [...] (4781078 flits)
Measured flits: 1574820 1574821 1574822 1574823 1574824 1574825 1574826 1574827 1574828 1574829 [...] (234 flits)
Class 0:
Remaining flits: 1574820 1574821 1574822 1574823 1574824 1574825 1574826 1574827 1574828 1574829 [...] (4783707 flits)
Measured flits: 1574820 1574821 1574822 1574823 1574824 1574825 1574826 1574827 1574828 1574829 [...] (198 flits)
Class 0:
Remaining flits: 1574820 1574821 1574822 1574823 1574824 1574825 1574826 1574827 1574828 1574829 [...] (4784346 flits)
Measured flits: 1574820 1574821 1574822 1574823 1574824 1574825 1574826 1574827 1574828 1574829 [...] (181 flits)
Class 0:
Remaining flits: 1574820 1574821 1574822 1574823 1574824 1574825 1574826 1574827 1574828 1574829 [...] (4784221 flits)
Measured flits: 1574820 1574821 1574822 1574823 1574824 1574825 1574826 1574827 1574828 1574829 [...] (160 flits)
Class 0:
Remaining flits: 1635318 1635319 1635320 1635321 1635322 1635323 1635324 1635325 1635326 1635327 [...] (4782811 flits)
Measured flits: 1635318 1635319 1635320 1635321 1635322 1635323 1635324 1635325 1635326 1635327 [...] (56 flits)
Class 0:
Remaining flits: 1635318 1635319 1635320 1635321 1635322 1635323 1635324 1635325 1635326 1635327 [...] (4780705 flits)
Measured flits: 1635318 1635319 1635320 1635321 1635322 1635323 1635324 1635325 1635326 1635327 [...] (54 flits)
Class 0:
Remaining flits: 1635318 1635319 1635320 1635321 1635322 1635323 1635324 1635325 1635326 1635327 [...] (4779433 flits)
Measured flits: 1635318 1635319 1635320 1635321 1635322 1635323 1635324 1635325 1635326 1635327 [...] (18 flits)
Class 0:
Remaining flits: 1635318 1635319 1635320 1635321 1635322 1635323 1635324 1635325 1635326 1635327 [...] (4778366 flits)
Measured flits: 1635318 1635319 1635320 1635321 1635322 1635323 1635324 1635325 1635326 1635327 [...] (18 flits)
Class 0:
Remaining flits: 1635318 1635319 1635320 1635321 1635322 1635323 1635324 1635325 1635326 1635327 [...] (4775478 flits)
Measured flits: 1635318 1635319 1635320 1635321 1635322 1635323 1635324 1635325 1635326 1635327 [...] (18 flits)
Draining remaining packets ...
Class 0:
Remaining flits: 1841652 1841653 1841654 1841655 1841656 1841657 1841658 1841659 1841660 1841661 [...] (4739916 flits)
Measured flits: (0 flits)
Class 0:
Remaining flits: 1841652 1841653 1841654 1841655 1841656 1841657 1841658 1841659 1841660 1841661 [...] (4707193 flits)
Measured flits: (0 flits)
Class 0:
Remaining flits: 1841652 1841653 1841654 1841655 1841656 1841657 1841658 1841659 1841660 1841661 [...] (4674709 flits)
Measured flits: (0 flits)
Class 0:
Remaining flits: 1841652 1841653 1841654 1841655 1841656 1841657 1841658 1841659 1841660 1841661 [...] (4642931 flits)
Measured flits: (0 flits)
Class 0:
Remaining flits: 2040282 2040283 2040284 2040285 2040286 2040287 2040288 2040289 2040290 2040291 [...] (4609333 flits)
Measured flits: (0 flits)
Class 0:
Remaining flits: 2040282 2040283 2040284 2040285 2040286 2040287 2040288 2040289 2040290 2040291 [...] (4575986 flits)
Measured flits: (0 flits)
Class 0:
Remaining flits: 2040282 2040283 2040284 2040285 2040286 2040287 2040288 2040289 2040290 2040291 [...] (4543251 flits)
Measured flits: (0 flits)
Class 0:
Remaining flits: 2040282 2040283 2040284 2040285 2040286 2040287 2040288 2040289 2040290 2040291 [...] (4510557 flits)
Measured flits: (0 flits)
Class 0:
Remaining flits: 2040282 2040283 2040284 2040285 2040286 2040287 2040288 2040289 2040290 2040291 [...] (4477720 flits)
Measured flits: (0 flits)
Class 0:
Remaining flits: 2261106 2261107 2261108 2261109 2261110 2261111 2261112 2261113 2261114 2261115 [...] (4444336 flits)
Measured flits: (0 flits)
Class 0:
Remaining flits: 2261106 2261107 2261108 2261109 2261110 2261111 2261112 2261113 2261114 2261115 [...] (4410209 flits)
Measured flits: (0 flits)
Class 0:
Remaining flits: 2280078 2280079 2280080 2280081 2280082 2280083 2280084 2280085 2280086 2280087 [...] (4376829 flits)
Measured flits: (0 flits)
Class 0:
Remaining flits: 2280078 2280079 2280080 2280081 2280082 2280083 2280084 2280085 2280086 2280087 [...] (4343439 flits)
Measured flits: (0 flits)
Class 0:
Remaining flits: 2280078 2280079 2280080 2280081 2280082 2280083 2280084 2280085 2280086 2280087 [...] (4309855 flits)
Measured flits: (0 flits)
Class 0:
Remaining flits: 2280078 2280079 2280080 2280081 2280082 2280083 2280084 2280085 2280086 2280087 [...] (4275890 flits)
Measured flits: (0 flits)
Class 0:
Remaining flits: 2280078 2280079 2280080 2280081 2280082 2280083 2280084 2280085 2280086 2280087 [...] (4243452 flits)
Measured flits: (0 flits)
Class 0:
Remaining flits: 2280078 2280079 2280080 2280081 2280082 2280083 2280084 2280085 2280086 2280087 [...] (4210412 flits)
Measured flits: (0 flits)
Class 0:
Remaining flits: 2280078 2280079 2280080 2280081 2280082 2280083 2280084 2280085 2280086 2280087 [...] (4177775 flits)
Measured flits: (0 flits)
Class 0:
Remaining flits: 2280078 2280079 2280080 2280081 2280082 2280083 2280084 2280085 2280086 2280087 [...] (4144156 flits)
Measured flits: (0 flits)
Class 0:
Remaining flits: 2288106 2288107 2288108 2288109 2288110 2288111 2288112 2288113 2288114 2288115 [...] (4110180 flits)
Measured flits: (0 flits)
Class 0:
Remaining flits: 2288106 2288107 2288108 2288109 2288110 2288111 2288112 2288113 2288114 2288115 [...] (4077466 flits)
Measured flits: (0 flits)
Class 0:
Remaining flits: 2288106 2288107 2288108 2288109 2288110 2288111 2288112 2288113 2288114 2288115 [...] (4044420 flits)
Measured flits: (0 flits)
Class 0:
Remaining flits: 2288106 2288107 2288108 2288109 2288110 2288111 2288112 2288113 2288114 2288115 [...] (4010814 flits)
Measured flits: (0 flits)
Class 0:
Remaining flits: 2288106 2288107 2288108 2288109 2288110 2288111 2288112 2288113 2288114 2288115 [...] (3977699 flits)
Measured flits: (0 flits)
Class 0:
Remaining flits: 2288106 2288107 2288108 2288109 2288110 2288111 2288112 2288113 2288114 2288115 [...] (3944845 flits)
Measured flits: (0 flits)
Class 0:
Remaining flits: 2288106 2288107 2288108 2288109 2288110 2288111 2288112 2288113 2288114 2288115 [...] (3911276 flits)
Measured flits: (0 flits)
Class 0:
Remaining flits: 2461752 2461753 2461754 2461755 2461756 2461757 2461758 2461759 2461760 2461761 [...] (3879048 flits)
Measured flits: (0 flits)
Class 0:
Remaining flits: 2461752 2461753 2461754 2461755 2461756 2461757 2461758 2461759 2461760 2461761 [...] (3847183 flits)
Measured flits: (0 flits)
Class 0:
Remaining flits: 2461752 2461753 2461754 2461755 2461756 2461757 2461758 2461759 2461760 2461761 [...] (3814585 flits)
Measured flits: (0 flits)
Class 0:
Remaining flits: 2461752 2461753 2461754 2461755 2461756 2461757 2461758 2461759 2461760 2461761 [...] (3782439 flits)
Measured flits: (0 flits)
Class 0:
Remaining flits: 2461752 2461753 2461754 2461755 2461756 2461757 2461758 2461759 2461760 2461761 [...] (3749345 flits)
Measured flits: (0 flits)
Class 0:
Remaining flits: 2461752 2461753 2461754 2461755 2461756 2461757 2461758 2461759 2461760 2461761 [...] (3716501 flits)
Measured flits: (0 flits)
Class 0:
Remaining flits: 2461752 2461753 2461754 2461755 2461756 2461757 2461758 2461759 2461760 2461761 [...] (3683870 flits)
Measured flits: (0 flits)
Class 0:
Remaining flits: 2461752 2461753 2461754 2461755 2461756 2461757 2461758 2461759 2461760 2461761 [...] (3650832 flits)
Measured flits: (0 flits)
Class 0:
Remaining flits: 2461752 2461753 2461754 2461755 2461756 2461757 2461758 2461759 2461760 2461761 [...] (3616895 flits)
Measured flits: (0 flits)
Class 0:
Remaining flits: 2461752 2461753 2461754 2461755 2461756 2461757 2461758 2461759 2461760 2461761 [...] (3584725 flits)
Measured flits: (0 flits)
Class 0:
Remaining flits: 2461752 2461753 2461754 2461755 2461756 2461757 2461758 2461759 2461760 2461761 [...] (3552243 flits)
Measured flits: (0 flits)
Class 0:
Remaining flits: 2461752 2461753 2461754 2461755 2461756 2461757 2461758 2461759 2461760 2461761 [...] (3519484 flits)
Measured flits: (0 flits)
Class 0:
Remaining flits: 2461752 2461753 2461754 2461755 2461756 2461757 2461758 2461759 2461760 2461761 [...] (3487008 flits)
Measured flits: (0 flits)
Class 0:
Remaining flits: 2461752 2461753 2461754 2461755 2461756 2461757 2461758 2461759 2461760 2461761 [...] (3453790 flits)
Measured flits: (0 flits)
Class 0:
Remaining flits: 2461752 2461753 2461754 2461755 2461756 2461757 2461758 2461759 2461760 2461761 [...] (3420815 flits)
Measured flits: (0 flits)
Class 0:
Remaining flits: 2461752 2461753 2461754 2461755 2461756 2461757 2461758 2461759 2461760 2461761 [...] (3388682 flits)
Measured flits: (0 flits)
Class 0:
Remaining flits: 2461752 2461753 2461754 2461755 2461756 2461757 2461758 2461759 2461760 2461761 [...] (3356814 flits)
Measured flits: (0 flits)
Class 0:
Remaining flits: 2461752 2461753 2461754 2461755 2461756 2461757 2461758 2461759 2461760 2461761 [...] (3324873 flits)
Measured flits: (0 flits)
Class 0:
Remaining flits: 2634660 2634661 2634662 2634663 2634664 2634665 2634666 2634667 2634668 2634669 [...] (3293388 flits)
Measured flits: (0 flits)
Class 0:
Remaining flits: 2634661 2634662 2634663 2634664 2634665 2634666 2634667 2634668 2634669 2634670 [...] (3260886 flits)
Measured flits: (0 flits)
Class 0:
Remaining flits: 2635650 2635651 2635652 2635653 2635654 2635655 2635656 2635657 2635658 2635659 [...] (3228505 flits)
Measured flits: (0 flits)
Class 0:
Remaining flits: 2635650 2635651 2635652 2635653 2635654 2635655 2635656 2635657 2635658 2635659 [...] (3196208 flits)
Measured flits: (0 flits)
Class 0:
Remaining flits: 2635650 2635651 2635652 2635653 2635654 2635655 2635656 2635657 2635658 2635659 [...] (3164902 flits)
Measured flits: (0 flits)
Class 0:
Remaining flits: 2635650 2635651 2635652 2635653 2635654 2635655 2635656 2635657 2635658 2635659 [...] (3133697 flits)
Measured flits: (0 flits)
Class 0:
Remaining flits: 2635650 2635651 2635652 2635653 2635654 2635655 2635656 2635657 2635658 2635659 [...] (3102203 flits)
Measured flits: (0 flits)
Class 0:
Remaining flits: 2635650 2635651 2635652 2635653 2635654 2635655 2635656 2635657 2635658 2635659 [...] (3070370 flits)
Measured flits: (0 flits)
Class 0:
Remaining flits: 2635650 2635651 2635652 2635653 2635654 2635655 2635656 2635657 2635658 2635659 [...] (3037474 flits)
Measured flits: (0 flits)
Class 0:
Remaining flits: 2635650 2635651 2635652 2635653 2635654 2635655 2635656 2635657 2635658 2635659 [...] (3004323 flits)
Measured flits: (0 flits)
Class 0:
Remaining flits: 2635650 2635651 2635652 2635653 2635654 2635655 2635656 2635657 2635658 2635659 [...] (2972137 flits)
Measured flits: (0 flits)
Class 0:
Remaining flits: 2635650 2635651 2635652 2635653 2635654 2635655 2635656 2635657 2635658 2635659 [...] (2940679 flits)
Measured flits: (0 flits)
Class 0:
Remaining flits: 2690190 2690191 2690192 2690193 2690194 2690195 2690196 2690197 2690198 2690199 [...] (2908923 flits)
Measured flits: (0 flits)
Class 0:
Remaining flits: 2690190 2690191 2690192 2690193 2690194 2690195 2690196 2690197 2690198 2690199 [...] (2878262 flits)
Measured flits: (0 flits)
Class 0:
Remaining flits: 2690190 2690191 2690192 2690193 2690194 2690195 2690196 2690197 2690198 2690199 [...] (2846788 flits)
Measured flits: (0 flits)
Class 0:
Remaining flits: 2690190 2690191 2690192 2690193 2690194 2690195 2690196 2690197 2690198 2690199 [...] (2815459 flits)
Measured flits: (0 flits)
Class 0:
Remaining flits: 2690190 2690191 2690192 2690193 2690194 2690195 2690196 2690197 2690198 2690199 [...] (2784028 flits)
Measured flits: (0 flits)
Class 0:
Remaining flits: 2690190 2690191 2690192 2690193 2690194 2690195 2690196 2690197 2690198 2690199 [...] (2752597 flits)
Measured flits: (0 flits)
Class 0:
Remaining flits: 2690190 2690191 2690192 2690193 2690194 2690195 2690196 2690197 2690198 2690199 [...] (2721794 flits)
Measured flits: (0 flits)
Class 0:
Remaining flits: 2690190 2690191 2690192 2690193 2690194 2690195 2690196 2690197 2690198 2690199 [...] (2691312 flits)
Measured flits: (0 flits)
Class 0:
Remaining flits: 2690190 2690191 2690192 2690193 2690194 2690195 2690196 2690197 2690198 2690199 [...] (2660364 flits)
Measured flits: (0 flits)
Class 0:
Remaining flits: 2690190 2690191 2690192 2690193 2690194 2690195 2690196 2690197 2690198 2690199 [...] (2628945 flits)
Measured flits: (0 flits)
Class 0:
Remaining flits: 2690190 2690191 2690192 2690193 2690194 2690195 2690196 2690197 2690198 2690199 [...] (2597192 flits)
Measured flits: (0 flits)
Class 0:
Remaining flits: 2690190 2690191 2690192 2690193 2690194 2690195 2690196 2690197 2690198 2690199 [...] (2565208 flits)
Measured flits: (0 flits)
Class 0:
Remaining flits: 2690190 2690191 2690192 2690193 2690194 2690195 2690196 2690197 2690198 2690199 [...] (2533292 flits)
Measured flits: (0 flits)
Class 0:
Remaining flits: 2690190 2690191 2690192 2690193 2690194 2690195 2690196 2690197 2690198 2690199 [...] (2501053 flits)
Measured flits: (0 flits)
Class 0:
Remaining flits: 2690190 2690191 2690192 2690193 2690194 2690195 2690196 2690197 2690198 2690199 [...] (2469905 flits)
Measured flits: (0 flits)
Class 0:
Remaining flits: 2690190 2690191 2690192 2690193 2690194 2690195 2690196 2690197 2690198 2690199 [...] (2439447 flits)
Measured flits: (0 flits)
Class 0:
Remaining flits: 2690190 2690191 2690192 2690193 2690194 2690195 2690196 2690197 2690198 2690199 [...] (2407355 flits)
Measured flits: (0 flits)
Class 0:
Remaining flits: 2690190 2690191 2690192 2690193 2690194 2690195 2690196 2690197 2690198 2690199 [...] (2375709 flits)
Measured flits: (0 flits)
Class 0:
Remaining flits: 2690190 2690191 2690192 2690193 2690194 2690195 2690196 2690197 2690198 2690199 [...] (2344403 flits)
Measured flits: (0 flits)
Class 0:
Remaining flits: 2690190 2690191 2690192 2690193 2690194 2690195 2690196 2690197 2690198 2690199 [...] (2313877 flits)
Measured flits: (0 flits)
Class 0:
Remaining flits: 2690190 2690191 2690192 2690193 2690194 2690195 2690196 2690197 2690198 2690199 [...] (2282710 flits)
Measured flits: (0 flits)
Class 0:
Remaining flits: 2690190 2690191 2690192 2690193 2690194 2690195 2690196 2690197 2690198 2690199 [...] (2250830 flits)
Measured flits: (0 flits)
Class 0:
Remaining flits: 2690190 2690191 2690192 2690193 2690194 2690195 2690196 2690197 2690198 2690199 [...] (2219515 flits)
Measured flits: (0 flits)
Class 0:
Remaining flits: 2690190 2690191 2690192 2690193 2690194 2690195 2690196 2690197 2690198 2690199 [...] (2187525 flits)
Measured flits: (0 flits)
Class 0:
Remaining flits: 2940067 2940068 2940069 2940070 2940071 2940072 2940073 2940074 2940075 2940076 [...] (2155506 flits)
Measured flits: (0 flits)
Class 0:
Remaining flits: 2940067 2940068 2940069 2940070 2940071 2940072 2940073 2940074 2940075 2940076 [...] (2123553 flits)
Measured flits: (0 flits)
Class 0:
Remaining flits: 3153150 3153151 3153152 3153153 3153154 3153155 3153156 3153157 3153158 3153159 [...] (2091274 flits)
Measured flits: (0 flits)
Class 0:
Remaining flits: 3155796 3155797 3155798 3155799 3155800 3155801 3155802 3155803 3155804 3155805 [...] (2059494 flits)
Measured flits: (0 flits)
Class 0:
Remaining flits: 3155796 3155797 3155798 3155799 3155800 3155801 3155802 3155803 3155804 3155805 [...] (2026590 flits)
Measured flits: (0 flits)
Class 0:
Remaining flits: 3155796 3155797 3155798 3155799 3155800 3155801 3155802 3155803 3155804 3155805 [...] (1994369 flits)
Measured flits: (0 flits)
Class 0:
Remaining flits: 3155796 3155797 3155798 3155799 3155800 3155801 3155802 3155803 3155804 3155805 [...] (1961460 flits)
Measured flits: (0 flits)
Class 0:
Remaining flits: 3155796 3155797 3155798 3155799 3155800 3155801 3155802 3155803 3155804 3155805 [...] (1928329 flits)
Measured flits: (0 flits)
Class 0:
Remaining flits: 3155796 3155797 3155798 3155799 3155800 3155801 3155802 3155803 3155804 3155805 [...] (1895698 flits)
Measured flits: (0 flits)
Class 0:
Remaining flits: 3155796 3155797 3155798 3155799 3155800 3155801 3155802 3155803 3155804 3155805 [...] (1862798 flits)
Measured flits: (0 flits)
Class 0:
Remaining flits: 3155796 3155797 3155798 3155799 3155800 3155801 3155802 3155803 3155804 3155805 [...] (1831207 flits)
Measured flits: (0 flits)
Class 0:
Remaining flits: 3280824 3280825 3280826 3280827 3280828 3280829 3280830 3280831 3280832 3280833 [...] (1798937 flits)
Measured flits: (0 flits)
Class 0:
Remaining flits: 3280841 3489606 3489607 3489608 3489609 3489610 3489611 3489612 3489613 3489614 [...] (1765591 flits)
Measured flits: (0 flits)
Class 0:
Remaining flits: 3280841 3489606 3489607 3489608 3489609 3489610 3489611 3489612 3489613 3489614 [...] (1732232 flits)
Measured flits: (0 flits)
Class 0:
Remaining flits: 3489606 3489607 3489608 3489609 3489610 3489611 3489612 3489613 3489614 3489615 [...] (1700054 flits)
Measured flits: (0 flits)
Class 0:
Remaining flits: 3584142 3584143 3584144 3584145 3584146 3584147 3584148 3584149 3584150 3584151 [...] (1667810 flits)
Measured flits: (0 flits)
Class 0:
Remaining flits: 3584142 3584143 3584144 3584145 3584146 3584147 3584148 3584149 3584150 3584151 [...] (1635110 flits)
Measured flits: (0 flits)
Class 0:
Remaining flits: 3584142 3584143 3584144 3584145 3584146 3584147 3584148 3584149 3584150 3584151 [...] (1602483 flits)
Measured flits: (0 flits)
Class 0:
Remaining flits: 3584142 3584143 3584144 3584145 3584146 3584147 3584148 3584149 3584150 3584151 [...] (1570212 flits)
Measured flits: (0 flits)
Class 0:
Remaining flits: 3680910 3680911 3680912 3680913 3680914 3680915 3680916 3680917 3680918 3680919 [...] (1538707 flits)
Measured flits: (0 flits)
Class 0:
Remaining flits: 3680910 3680911 3680912 3680913 3680914 3680915 3680916 3680917 3680918 3680919 [...] (1507616 flits)
Measured flits: (0 flits)
Class 0:
Remaining flits: 3680910 3680911 3680912 3680913 3680914 3680915 3680916 3680917 3680918 3680919 [...] (1476791 flits)
Measured flits: (0 flits)
Class 0:
Remaining flits: 3680910 3680911 3680912 3680913 3680914 3680915 3680916 3680917 3680918 3680919 [...] (1445413 flits)
Measured flits: (0 flits)
Class 0:
Remaining flits: 3680910 3680911 3680912 3680913 3680914 3680915 3680916 3680917 3680918 3680919 [...] (1413704 flits)
Measured flits: (0 flits)
Class 0:
Remaining flits: 3680910 3680911 3680912 3680913 3680914 3680915 3680916 3680917 3680918 3680919 [...] (1382304 flits)
Measured flits: (0 flits)
Class 0:
Remaining flits: 3810834 3810835 3810836 3810837 3810838 3810839 3810840 3810841 3810842 3810843 [...] (1350477 flits)
Measured flits: (0 flits)
Class 0:
Remaining flits: 3810834 3810835 3810836 3810837 3810838 3810839 3810840 3810841 3810842 3810843 [...] (1318766 flits)
Measured flits: (0 flits)
Class 0:
Remaining flits: 3810834 3810835 3810836 3810837 3810838 3810839 3810840 3810841 3810842 3810843 [...] (1287089 flits)
Measured flits: (0 flits)
Class 0:
Remaining flits: 3810834 3810835 3810836 3810837 3810838 3810839 3810840 3810841 3810842 3810843 [...] (1254704 flits)
Measured flits: (0 flits)
Class 0:
Remaining flits: 3810834 3810835 3810836 3810837 3810838 3810839 3810840 3810841 3810842 3810843 [...] (1221983 flits)
Measured flits: (0 flits)
Class 0:
Remaining flits: 3855672 3855673 3855674 3855675 3855676 3855677 3855678 3855679 3855680 3855681 [...] (1189663 flits)
Measured flits: (0 flits)
Class 0:
Remaining flits: 3855672 3855673 3855674 3855675 3855676 3855677 3855678 3855679 3855680 3855681 [...] (1156771 flits)
Measured flits: (0 flits)
Class 0:
Remaining flits: 3855672 3855673 3855674 3855675 3855676 3855677 3855678 3855679 3855680 3855681 [...] (1124418 flits)
Measured flits: (0 flits)
Class 0:
Remaining flits: 4076316 4076317 4076318 4076319 4076320 4076321 4076322 4076323 4076324 4076325 [...] (1091790 flits)
Measured flits: (0 flits)
Class 0:
Remaining flits: 4076316 4076317 4076318 4076319 4076320 4076321 4076322 4076323 4076324 4076325 [...] (1059514 flits)
Measured flits: (0 flits)
Class 0:
Remaining flits: 4076316 4076317 4076318 4076319 4076320 4076321 4076322 4076323 4076324 4076325 [...] (1026752 flits)
Measured flits: (0 flits)
Class 0:
Remaining flits: 4076316 4076317 4076318 4076319 4076320 4076321 4076322 4076323 4076324 4076325 [...] (994436 flits)
Measured flits: (0 flits)
Class 0:
Remaining flits: 4076316 4076317 4076318 4076319 4076320 4076321 4076322 4076323 4076324 4076325 [...] (962857 flits)
Measured flits: (0 flits)
Class 0:
Remaining flits: 4076316 4076317 4076318 4076319 4076320 4076321 4076322 4076323 4076324 4076325 [...] (930752 flits)
Measured flits: (0 flits)
Class 0:
Remaining flits: 4076316 4076317 4076318 4076319 4076320 4076321 4076322 4076323 4076324 4076325 [...] (897924 flits)
Measured flits: (0 flits)
Class 0:
Remaining flits: 4157082 4157083 4157084 4157085 4157086 4157087 4157088 4157089 4157090 4157091 [...] (865105 flits)
Measured flits: (0 flits)
Class 0:
Remaining flits: 4157082 4157083 4157084 4157085 4157086 4157087 4157088 4157089 4157090 4157091 [...] (832170 flits)
Measured flits: (0 flits)
Class 0:
Remaining flits: 4157082 4157083 4157084 4157085 4157086 4157087 4157088 4157089 4157090 4157091 [...] (799012 flits)
Measured flits: (0 flits)
Class 0:
Remaining flits: 4157082 4157083 4157084 4157085 4157086 4157087 4157088 4157089 4157090 4157091 [...] (765893 flits)
Measured flits: (0 flits)
Class 0:
Remaining flits: 4157082 4157083 4157084 4157085 4157086 4157087 4157088 4157089 4157090 4157091 [...] (732706 flits)
Measured flits: (0 flits)
Class 0:
Remaining flits: 4157082 4157083 4157084 4157085 4157086 4157087 4157088 4157089 4157090 4157091 [...] (699396 flits)
Measured flits: (0 flits)
Class 0:
Remaining flits: 4157082 4157083 4157084 4157085 4157086 4157087 4157088 4157089 4157090 4157091 [...] (666529 flits)
Measured flits: (0 flits)
Class 0:
Remaining flits: 4157082 4157083 4157084 4157085 4157086 4157087 4157088 4157089 4157090 4157091 [...] (634415 flits)
Measured flits: (0 flits)
Class 0:
Remaining flits: 4157082 4157083 4157084 4157085 4157086 4157087 4157088 4157089 4157090 4157091 [...] (601528 flits)
Measured flits: (0 flits)
Class 0:
Remaining flits: 4157082 4157083 4157084 4157085 4157086 4157087 4157088 4157089 4157090 4157091 [...] (569673 flits)
Measured flits: (0 flits)
Class 0:
Remaining flits: 4157082 4157083 4157084 4157085 4157086 4157087 4157088 4157089 4157090 4157091 [...] (537940 flits)
Measured flits: (0 flits)
Class 0:
Remaining flits: 4157082 4157083 4157084 4157085 4157086 4157087 4157088 4157089 4157090 4157091 [...] (505956 flits)
Measured flits: (0 flits)
Class 0:
Remaining flits: 4157082 4157083 4157084 4157085 4157086 4157087 4157088 4157089 4157090 4157091 [...] (474245 flits)
Measured flits: (0 flits)
Class 0:
Remaining flits: 4157082 4157083 4157084 4157085 4157086 4157087 4157088 4157089 4157090 4157091 [...] (441471 flits)
Measured flits: (0 flits)
Class 0:
Remaining flits: 4157082 4157083 4157084 4157085 4157086 4157087 4157088 4157089 4157090 4157091 [...] (410325 flits)
Measured flits: (0 flits)
Class 0:
Remaining flits: 4157082 4157083 4157084 4157085 4157086 4157087 4157088 4157089 4157090 4157091 [...] (379187 flits)
Measured flits: (0 flits)
Class 0:
Remaining flits: 4157094 4157095 4157096 4157097 4157098 4157099 4232304 4232305 4232306 4232307 [...] (348086 flits)
Measured flits: (0 flits)
Class 0:
Remaining flits: 4353570 4353571 4353572 4353573 4353574 4353575 4353576 4353577 4353578 4353579 [...] (316105 flits)
Measured flits: (0 flits)
Class 0:
Remaining flits: 4353570 4353571 4353572 4353573 4353574 4353575 4353576 4353577 4353578 4353579 [...] (284501 flits)
Measured flits: (0 flits)
Class 0:
Remaining flits: 4353570 4353571 4353572 4353573 4353574 4353575 4353576 4353577 4353578 4353579 [...] (252929 flits)
Measured flits: (0 flits)
Class 0:
Remaining flits: 4353570 4353571 4353572 4353573 4353574 4353575 4353576 4353577 4353578 4353579 [...] (222056 flits)
Measured flits: (0 flits)
Class 0:
Remaining flits: 4353570 4353571 4353572 4353573 4353574 4353575 4353576 4353577 4353578 4353579 [...] (193457 flits)
Measured flits: (0 flits)
Class 0:
Remaining flits: 4396590 4396591 4396592 4396593 4396594 4396595 4396596 4396597 4396598 4396599 [...] (166198 flits)
Measured flits: (0 flits)
Class 0:
Remaining flits: 4396590 4396591 4396592 4396593 4396594 4396595 4396596 4396597 4396598 4396599 [...] (139610 flits)
Measured flits: (0 flits)
Class 0:
Remaining flits: 4396590 4396591 4396592 4396593 4396594 4396595 4396596 4396597 4396598 4396599 [...] (114432 flits)
Measured flits: (0 flits)
Class 0:
Remaining flits: 4396590 4396591 4396592 4396593 4396594 4396595 4396596 4396597 4396598 4396599 [...] (92559 flits)
Measured flits: (0 flits)
Class 0:
Remaining flits: 4789545 4789546 4789547 4895244 4895245 4895246 4895247 4895248 4895249 4895250 [...] (73089 flits)
Measured flits: (0 flits)
Class 0:
Remaining flits: 4903452 4903453 4903454 4903455 4903456 4903457 4903458 4903459 4903460 4903461 [...] (55987 flits)
Measured flits: (0 flits)
Class 0:
Remaining flits: 4903452 4903453 4903454 4903455 4903456 4903457 4903458 4903459 4903460 4903461 [...] (42070 flits)
Measured flits: (0 flits)
Class 0:
Remaining flits: 5025132 5025133 5025134 5025135 5025136 5025137 5025138 5025139 5025140 5025141 [...] (31631 flits)
Measured flits: (0 flits)
Class 0:
Remaining flits: 5138640 5138641 5138642 5138643 5138644 5138645 5138646 5138647 5138648 5138649 [...] (22941 flits)
Measured flits: (0 flits)
Class 0:
Remaining flits: 5138640 5138641 5138642 5138643 5138644 5138645 5138646 5138647 5138648 5138649 [...] (15509 flits)
Measured flits: (0 flits)
Class 0:
Remaining flits: 5138640 5138641 5138642 5138643 5138644 5138645 5138646 5138647 5138648 5138649 [...] (9461 flits)
Measured flits: (0 flits)
Class 0:
Remaining flits: 5138640 5138641 5138642 5138643 5138644 5138645 5138646 5138647 5138648 5138649 [...] (5382 flits)
Measured flits: (0 flits)
Class 0:
Remaining flits: 5138653 5138654 5138655 5138656 5138657 5158406 5158407 5158408 5158409 5158410 [...] (3885 flits)
Measured flits: (0 flits)
Class 0:
Remaining flits: 6331770 6331771 6331772 6331773 6331774 6331775 6331776 6331777 6331778 6331779 [...] (2886 flits)
Measured flits: (0 flits)
Class 0:
Remaining flits: 6920190 6920191 6920192 6920193 6920194 6920195 6920196 6920197 6920198 6920199 [...] (1884 flits)
Measured flits: (0 flits)
Class 0:
Remaining flits: 7412958 7412959 7412960 7412961 7412962 7412963 7412964 7412965 7412966 7412967 [...] (886 flits)
Measured flits: (0 flits)
Time taken is 296854 cycles
====== Overall Traffic Statistics ======
====== Traffic class 0 ======
Packet latency average = 25620.1 (1 samples)
	minimum = 24 (1 samples)
	maximum = 128943 (1 samples)
Network latency average = 25447.3 (1 samples)
	minimum = 23 (1 samples)
	maximum = 128927 (1 samples)
Flit latency average = 89610.8 (1 samples)
	minimum = 6 (1 samples)
	maximum = 260797 (1 samples)
Fragmentation average = 236.423 (1 samples)
	minimum = 0 (1 samples)
	maximum = 10833 (1 samples)
Injected packet rate average = 0.0528207 (1 samples)
	minimum = 0.0464286 (1 samples)
	maximum = 0.0555714 (1 samples)
Accepted packet rate average = 0.0155521 (1 samples)
	minimum = 0.0124286 (1 samples)
	maximum = 0.019 (1 samples)
Injected flit rate average = 0.950682 (1 samples)
	minimum = 0.836571 (1 samples)
	maximum = 1 (1 samples)
Accepted flit rate average = 0.27859 (1 samples)
	minimum = 0.218 (1 samples)
	maximum = 0.342429 (1 samples)
Injected packet size average = 17.9983 (1 samples)
Accepted packet size average = 17.9134 (1 samples)
Hops average = 5.06472 (1 samples)
Total run time 630.902
