BEGIN Configuration File: networks/mezzanine_config
topology = mezzanine;
n = 12;

routing_function = multipath;
internal_speedup = 2.0;
latency_thres = 100000.0;
use_read_write = 0;

sample_period = 1000;
injection_rate = 0.5;
packet_size = 18;

noq = 1;
routing_delay = 0;
vc_alloc_delay = 1;
sw_alloc_delay = 1;
st_final_delay = 1;
vc_allocator = islip; 
sw_allocator = islip;
alloc_iters  = 4;
num_vcs     = 12;
buffer_policy = private; // private or shared
buf_size = -1; // -1 for buffer_policy = private;
vc_buf_size = 4096; // size of each VOQ with buffer_policy = private
output_buffer_size = -1;


traffic = uniform;

//mezW = 0.0;
//mezPredefinedPatternType = shift-inter; //shift-qfdb

END Configuration File: networks/mezzanine_config
OVERRIDE Parameter: injection_rate=0.042267
OVERRIDE Parameter: routing_function=multipath
OVERRIDE Parameter: num_vcs=64
OVERRIDE Parameter: vc_buf_size=144
OVERRIDE Parameter: internal_speedup=1.0
OVERRIDE Parameter: injection_process=bernoulli
OVERRIDE Parameter: sim_type=latency
OVERRIDE Parameter: burst_alpha=0.0038461538
OVERRIDE Parameter: burst_beta=0.1
network: network_0
========================== Routing table  =====================
Number of Subnets: 1
Class 0:
Packet latency average = 324.007
	minimum = 27
	maximum = 920
Network latency average = 307.891
	minimum = 23
	maximum = 871
Slowest packet = 252
Flit latency average = 236.843
	minimum = 6
	maximum = 953
Slowest flit = 4232
Fragmentation average = 185.775
	minimum = 0
	maximum = 737
Injected packet rate average = 0.0409062
	minimum = 0.028 (at node 184)
	maximum = 0.054 (at node 86)
Accepted packet rate average = 0.0112031
	minimum = 0.004 (at node 101)
	maximum = 0.02 (at node 48)
Injected flit rate average = 0.730271
	minimum = 0.503 (at node 184)
	maximum = 0.963 (at node 124)
Accepted flit rate average= 0.240089
	minimum = 0.083 (at node 150)
	maximum = 0.407 (at node 48)
Injected packet length average = 17.8523
Accepted packet length average = 21.4305
Total in-flight flits = 95275 (0 measured)
latency change    = 1
throughput change = 1
Class 0:
Packet latency average = 576.548
	minimum = 26
	maximum = 1878
Network latency average = 556.539
	minimum = 23
	maximum = 1869
Slowest packet = 697
Flit latency average = 469.36
	minimum = 6
	maximum = 1983
Slowest flit = 1372
Fragmentation average = 250.323
	minimum = 0
	maximum = 1462
Injected packet rate average = 0.0410885
	minimum = 0.029 (at node 184)
	maximum = 0.051 (at node 146)
Accepted packet rate average = 0.0125156
	minimum = 0.0075 (at node 12)
	maximum = 0.022 (at node 152)
Injected flit rate average = 0.736323
	minimum = 0.5165 (at node 184)
	maximum = 0.91 (at node 146)
Accepted flit rate average= 0.249424
	minimum = 0.1595 (at node 135)
	maximum = 0.4145 (at node 152)
Injected packet length average = 17.9204
Accepted packet length average = 19.929
Total in-flight flits = 188225 (0 measured)
latency change    = 0.438022
throughput change = 0.0374299
Class 0:
Packet latency average = 1335.27
	minimum = 28
	maximum = 2900
Network latency average = 1304.55
	minimum = 28
	maximum = 2900
Slowest packet = 639
Flit latency average = 1235.71
	minimum = 6
	maximum = 2887
Slowest flit = 12459
Fragmentation average = 358.273
	minimum = 2
	maximum = 2757
Injected packet rate average = 0.0355469
	minimum = 0.005 (at node 136)
	maximum = 0.055 (at node 29)
Accepted packet rate average = 0.0138594
	minimum = 0.006 (at node 81)
	maximum = 0.023 (at node 0)
Injected flit rate average = 0.639062
	minimum = 0.09 (at node 136)
	maximum = 0.997 (at node 29)
Accepted flit rate average= 0.252568
	minimum = 0.107 (at node 162)
	maximum = 0.417 (at node 0)
Injected packet length average = 17.978
Accepted packet length average = 18.2236
Total in-flight flits = 262582 (0 measured)
latency change    = 0.568215
throughput change = 0.0124451
Warmed up ...Time used is 3000 cycles
Class 0:
Packet latency average = 327.041
	minimum = 29
	maximum = 2081
Network latency average = 144.692
	minimum = 29
	maximum = 808
Slowest packet = 22622
Flit latency average = 1928.13
	minimum = 6
	maximum = 3870
Slowest flit = 13558
Fragmentation average = 19.085
	minimum = 2
	maximum = 506
Injected packet rate average = 0.0351771
	minimum = 0.002 (at node 56)
	maximum = 0.056 (at node 81)
Accepted packet rate average = 0.0131667
	minimum = 0.005 (at node 153)
	maximum = 0.023 (at node 129)
Injected flit rate average = 0.633479
	minimum = 0.034 (at node 56)
	maximum = 1 (at node 81)
Accepted flit rate average= 0.239453
	minimum = 0.091 (at node 163)
	maximum = 0.415 (at node 129)
Injected packet length average = 18.0083
Accepted packet length average = 18.1863
Total in-flight flits = 338179 (115372 measured)
latency change    = 3.08287
throughput change = 0.0547689
Class 0:
Packet latency average = 575.124
	minimum = 29
	maximum = 2999
Network latency average = 310.311
	minimum = 29
	maximum = 1897
Slowest packet = 22622
Flit latency average = 2316.78
	minimum = 6
	maximum = 4816
Slowest flit = 13787
Fragmentation average = 26.4003
	minimum = 2
	maximum = 774
Injected packet rate average = 0.0353047
	minimum = 0.006 (at node 56)
	maximum = 0.0515 (at node 81)
Accepted packet rate average = 0.0130495
	minimum = 0.005 (at node 163)
	maximum = 0.0195 (at node 173)
Injected flit rate average = 0.635734
	minimum = 0.1095 (at node 56)
	maximum = 0.9235 (at node 81)
Accepted flit rate average= 0.23607
	minimum = 0.127 (at node 163)
	maximum = 0.339 (at node 159)
Injected packet length average = 18.0071
Accepted packet length average = 18.0904
Total in-flight flits = 415975 (232125 measured)
latency change    = 0.431355
throughput change = 0.0143297
Class 0:
Packet latency average = 917.076
	minimum = 29
	maximum = 4134
Network latency average = 534.814
	minimum = 28
	maximum = 2928
Slowest packet = 22622
Flit latency average = 2663.96
	minimum = 6
	maximum = 5816
Slowest flit = 22256
Fragmentation average = 44.3043
	minimum = 2
	maximum = 988
Injected packet rate average = 0.0344392
	minimum = 0.00933333 (at node 56)
	maximum = 0.0493333 (at node 151)
Accepted packet rate average = 0.0129965
	minimum = 0.007 (at node 64)
	maximum = 0.018 (at node 165)
Injected flit rate average = 0.620184
	minimum = 0.167333 (at node 56)
	maximum = 0.888 (at node 151)
Accepted flit rate average= 0.23467
	minimum = 0.13 (at node 64)
	maximum = 0.343 (at node 165)
Injected packet length average = 18.0081
Accepted packet length average = 18.0564
Total in-flight flits = 484550 (338027 measured)
latency change    = 0.372873
throughput change = 0.00596656
Class 0:
Packet latency average = 1500.48
	minimum = 29
	maximum = 4922
Network latency average = 949.371
	minimum = 28
	maximum = 3917
Slowest packet = 22622
Flit latency average = 2996.48
	minimum = 6
	maximum = 6878
Slowest flit = 10277
Fragmentation average = 83.7515
	minimum = 2
	maximum = 1493
Injected packet rate average = 0.0319036
	minimum = 0.011 (at node 56)
	maximum = 0.04575 (at node 103)
Accepted packet rate average = 0.0129206
	minimum = 0.00875 (at node 64)
	maximum = 0.01775 (at node 68)
Injected flit rate average = 0.574482
	minimum = 0.19675 (at node 56)
	maximum = 0.824 (at node 103)
Accepted flit rate average= 0.23244
	minimum = 0.157 (at node 36)
	maximum = 0.333 (at node 165)
Injected packet length average = 18.0068
Accepted packet length average = 17.9899
Total in-flight flits = 525212 (412844 measured)
latency change    = 0.388813
throughput change = 0.00959402
Class 0:
Packet latency average = 2213.85
	minimum = 29
	maximum = 6124
Network latency average = 1494.96
	minimum = 28
	maximum = 4907
Slowest packet = 22622
Flit latency average = 3306.17
	minimum = 6
	maximum = 7597
Slowest flit = 53967
Fragmentation average = 127.331
	minimum = 2
	maximum = 1493
Injected packet rate average = 0.0291708
	minimum = 0.0108 (at node 64)
	maximum = 0.041 (at node 103)
Accepted packet rate average = 0.0127813
	minimum = 0.009 (at node 36)
	maximum = 0.017 (at node 165)
Injected flit rate average = 0.525292
	minimum = 0.1964 (at node 64)
	maximum = 0.7388 (at node 103)
Accepted flit rate average= 0.22975
	minimum = 0.1554 (at node 36)
	maximum = 0.3164 (at node 165)
Injected packet length average = 18.0074
Accepted packet length average = 17.9756
Total in-flight flits = 546238 (463588 measured)
latency change    = 0.32223
throughput change = 0.0117088
Class 0:
Packet latency average = 3091.26
	minimum = 29
	maximum = 6950
Network latency average = 2239.44
	minimum = 28
	maximum = 5985
Slowest packet = 22622
Flit latency average = 3596.71
	minimum = 6
	maximum = 8580
Slowest flit = 56773
Fragmentation average = 182.542
	minimum = 2
	maximum = 2503
Injected packet rate average = 0.026895
	minimum = 0.0108333 (at node 56)
	maximum = 0.0371667 (at node 103)
Accepted packet rate average = 0.0126719
	minimum = 0.00933333 (at node 110)
	maximum = 0.017 (at node 165)
Injected flit rate average = 0.484375
	minimum = 0.194833 (at node 56)
	maximum = 0.6705 (at node 103)
Accepted flit rate average= 0.227492
	minimum = 0.164333 (at node 36)
	maximum = 0.308333 (at node 165)
Injected packet length average = 18.0099
Accepted packet length average = 17.9525
Total in-flight flits = 558367 (497693 measured)
latency change    = 0.283834
throughput change = 0.00992479
Class 0:
Packet latency average = 3969.37
	minimum = 29
	maximum = 7768
Network latency average = 3061.19
	minimum = 28
	maximum = 6921
Slowest packet = 22622
Flit latency average = 3879.57
	minimum = 6
	maximum = 9709
Slowest flit = 37752
Fragmentation average = 227.745
	minimum = 2
	maximum = 3806
Injected packet rate average = 0.0251682
	minimum = 0.0114286 (at node 56)
	maximum = 0.0335714 (at node 103)
Accepted packet rate average = 0.0125737
	minimum = 0.00928571 (at node 36)
	maximum = 0.0161429 (at node 181)
Injected flit rate average = 0.453121
	minimum = 0.204571 (at node 56)
	maximum = 0.606714 (at node 178)
Accepted flit rate average= 0.225592
	minimum = 0.164143 (at node 36)
	maximum = 0.291 (at node 103)
Injected packet length average = 18.0038
Accepted packet length average = 17.9417
Total in-flight flits = 568398 (522354 measured)
latency change    = 0.221222
throughput change = 0.00842194
Draining all recorded packets ...
Class 0:
Remaining flits: 30774 30775 30776 30777 30778 30779 35082 35083 35084 35085 [...] (579063 flits)
Measured flits: 406890 406891 406892 406893 406894 406895 406896 406897 406898 406899 [...] (543010 flits)
Class 0:
Remaining flits: 30776 30777 30778 30779 35082 35083 35084 35085 35086 35087 [...] (586099 flits)
Measured flits: 406890 406891 406892 406893 406894 406895 406896 406897 406898 406899 [...] (557075 flits)
Class 0:
Remaining flits: 35082 35083 35084 35085 35086 35087 35088 35089 35090 35091 [...] (596284 flits)
Measured flits: 406914 406915 406916 406917 406918 406919 406920 406921 406922 406923 [...] (572452 flits)
Class 0:
Remaining flits: 35082 35083 35084 35085 35086 35087 35088 35089 35090 35091 [...] (611147 flits)
Measured flits: 407034 407035 407036 407037 407038 407039 407040 407041 407042 407043 [...] (591067 flits)
Class 0:
Remaining flits: 35082 35083 35084 35085 35086 35087 35088 35089 35090 35091 [...] (626831 flits)
Measured flits: 407034 407035 407036 407037 407038 407039 407040 407041 407042 407043 [...] (605086 flits)
Class 0:
Remaining flits: 35082 35083 35084 35085 35086 35087 35088 35089 35090 35091 [...] (642485 flits)
Measured flits: 407070 407071 407072 407073 407074 407075 407076 407077 407078 407079 [...] (609884 flits)
Class 0:
Remaining flits: 35082 35083 35084 35085 35086 35087 35088 35089 35090 35091 [...] (660768 flits)
Measured flits: 407070 407071 407072 407073 407074 407075 407076 407077 407078 407079 [...] (603294 flits)
Class 0:
Remaining flits: 35082 35083 35084 35085 35086 35087 35088 35089 35090 35091 [...] (678393 flits)
Measured flits: 407072 407073 407074 407075 407076 407077 407078 407079 407080 407081 [...] (588889 flits)
Class 0:
Remaining flits: 35082 35083 35084 35085 35086 35087 35088 35089 35090 35091 [...] (696087 flits)
Measured flits: 407628 407629 407630 407631 407632 407633 407634 407635 407636 407637 [...] (568492 flits)
Class 0:
Remaining flits: 35082 35083 35084 35085 35086 35087 35088 35089 35090 35091 [...] (711737 flits)
Measured flits: 407628 407629 407630 407631 407632 407633 407634 407635 407636 407637 [...] (543693 flits)
Class 0:
Remaining flits: 35082 35083 35084 35085 35086 35087 35088 35089 35090 35091 [...] (720695 flits)
Measured flits: 407628 407629 407630 407631 407632 407633 407634 407635 407636 407637 [...] (517580 flits)
Class 0:
Remaining flits: 35082 35083 35084 35085 35086 35087 35088 35089 35090 35091 [...] (730023 flits)
Measured flits: 407628 407629 407630 407631 407632 407633 407634 407635 407636 407637 [...] (490318 flits)
Class 0:
Remaining flits: 35082 35083 35084 35085 35086 35087 35088 35089 35090 35091 [...] (734846 flits)
Measured flits: 407628 407629 407630 407631 407632 407633 407634 407635 407636 407637 [...] (466190 flits)
Class 0:
Remaining flits: 92196 92197 92198 92199 92200 92201 92202 92203 92204 92205 [...] (735744 flits)
Measured flits: 407628 407629 407630 407631 407632 407633 407634 407635 407636 407637 [...] (444012 flits)
Class 0:
Remaining flits: 92200 92201 92202 92203 92204 92205 92206 92207 92208 92209 [...] (738857 flits)
Measured flits: 407628 407629 407630 407631 407632 407633 407634 407635 407636 407637 [...] (419576 flits)
Class 0:
Remaining flits: 124452 124453 124454 124455 124456 124457 124458 124459 124460 124461 [...] (738502 flits)
Measured flits: 407628 407629 407630 407631 407632 407633 407634 407635 407636 407637 [...] (394271 flits)
Class 0:
Remaining flits: 124452 124453 124454 124455 124456 124457 124458 124459 124460 124461 [...] (738304 flits)
Measured flits: 407628 407629 407630 407631 407632 407633 407634 407635 407636 407637 [...] (372360 flits)
Class 0:
Remaining flits: 124452 124453 124454 124455 124456 124457 124458 124459 124460 124461 [...] (740500 flits)
Measured flits: 407916 407917 407918 407919 407920 407921 407922 407923 407924 407925 [...] (349763 flits)
Class 0:
Remaining flits: 124469 153414 153415 153416 153417 153418 153419 153420 153421 153422 [...] (734663 flits)
Measured flits: 407916 407917 407918 407919 407920 407921 407922 407923 407924 407925 [...] (325160 flits)
Class 0:
Remaining flits: 124469 153414 153415 153416 153417 153418 153419 153420 153421 153422 [...] (731676 flits)
Measured flits: 407916 407917 407918 407919 407920 407921 407922 407923 407924 407925 [...] (302462 flits)
Class 0:
Remaining flits: 153414 153415 153416 153417 153418 153419 153420 153421 153422 153423 [...] (730240 flits)
Measured flits: 413028 413029 413030 413031 413032 413033 413034 413035 413036 413037 [...] (278196 flits)
Class 0:
Remaining flits: 153414 153415 153416 153417 153418 153419 153420 153421 153422 153423 [...] (725399 flits)
Measured flits: 413028 413029 413030 413031 413032 413033 413034 413035 413036 413037 [...] (254169 flits)
Class 0:
Remaining flits: 153414 153415 153416 153417 153418 153419 153420 153421 153422 153423 [...] (721407 flits)
Measured flits: 413028 413029 413030 413031 413032 413033 413034 413035 413036 413037 [...] (234449 flits)
Class 0:
Remaining flits: 161676 161677 161678 161679 161680 161681 161682 161683 161684 161685 [...] (720822 flits)
Measured flits: 413028 413029 413030 413031 413032 413033 413034 413035 413036 413037 [...] (215328 flits)
Class 0:
Remaining flits: 161676 161677 161678 161679 161680 161681 161682 161683 161684 161685 [...] (718824 flits)
Measured flits: 413028 413029 413030 413031 413032 413033 413034 413035 413036 413037 [...] (196374 flits)
Class 0:
Remaining flits: 161676 161677 161678 161679 161680 161681 161682 161683 161684 161685 [...] (717186 flits)
Measured flits: 413028 413029 413030 413031 413032 413033 413034 413035 413036 413037 [...] (177264 flits)
Class 0:
Remaining flits: 161676 161677 161678 161679 161680 161681 161682 161683 161684 161685 [...] (717240 flits)
Measured flits: 413028 413029 413030 413031 413032 413033 413034 413035 413036 413037 [...] (160442 flits)
Class 0:
Remaining flits: 161676 161677 161678 161679 161680 161681 161682 161683 161684 161685 [...] (720444 flits)
Measured flits: 413946 413947 413948 413949 413950 413951 413952 413953 413954 413955 [...] (144902 flits)
Class 0:
Remaining flits: 161676 161677 161678 161679 161680 161681 161682 161683 161684 161685 [...] (721078 flits)
Measured flits: 413946 413947 413948 413949 413950 413951 413952 413953 413954 413955 [...] (131390 flits)
Class 0:
Remaining flits: 215478 215479 215480 215481 215482 215483 215484 215485 215486 215487 [...] (719954 flits)
Measured flits: 413946 413947 413948 413949 413950 413951 413952 413953 413954 413955 [...] (117624 flits)
Class 0:
Remaining flits: 215478 215479 215480 215481 215482 215483 215484 215485 215486 215487 [...] (716641 flits)
Measured flits: 413946 413947 413948 413949 413950 413951 413952 413953 413954 413955 [...] (104846 flits)
Class 0:
Remaining flits: 215478 215479 215480 215481 215482 215483 215484 215485 215486 215487 [...] (714692 flits)
Measured flits: 413946 413947 413948 413949 413950 413951 413952 413953 413954 413955 [...] (92769 flits)
Class 0:
Remaining flits: 215478 215479 215480 215481 215482 215483 215484 215485 215486 215487 [...] (713667 flits)
Measured flits: 413946 413947 413948 413949 413950 413951 413952 413953 413954 413955 [...] (82695 flits)
Class 0:
Remaining flits: 215478 215479 215480 215481 215482 215483 215484 215485 215486 215487 [...] (710849 flits)
Measured flits: 413946 413947 413948 413949 413950 413951 413952 413953 413954 413955 [...] (73920 flits)
Class 0:
Remaining flits: 215478 215479 215480 215481 215482 215483 215484 215485 215486 215487 [...] (710322 flits)
Measured flits: 413946 413947 413948 413949 413950 413951 413952 413953 413954 413955 [...] (64668 flits)
Class 0:
Remaining flits: 215478 215479 215480 215481 215482 215483 215484 215485 215486 215487 [...] (706980 flits)
Measured flits: 413946 413947 413948 413949 413950 413951 413952 413953 413954 413955 [...] (56111 flits)
Class 0:
Remaining flits: 349362 349363 349364 349365 349366 349367 349368 349369 349370 349371 [...] (708001 flits)
Measured flits: 415422 415423 415424 415425 415426 415427 415428 415429 415430 415431 [...] (49004 flits)
Class 0:
Remaining flits: 415422 415423 415424 415425 415426 415427 415428 415429 415430 415431 [...] (714210 flits)
Measured flits: 415422 415423 415424 415425 415426 415427 415428 415429 415430 415431 [...] (42538 flits)
Class 0:
Remaining flits: 415422 415423 415424 415425 415426 415427 415428 415429 415430 415431 [...] (711863 flits)
Measured flits: 415422 415423 415424 415425 415426 415427 415428 415429 415430 415431 [...] (37393 flits)
Class 0:
Remaining flits: 415423 415424 415425 415426 415427 415428 415429 415430 415431 415432 [...] (707694 flits)
Measured flits: 415423 415424 415425 415426 415427 415428 415429 415430 415431 415432 [...] (32956 flits)
Class 0:
Remaining flits: 537912 537913 537914 537915 537916 537917 537918 537919 537920 537921 [...] (708369 flits)
Measured flits: 537912 537913 537914 537915 537916 537917 537918 537919 537920 537921 [...] (29105 flits)
Class 0:
Remaining flits: 547668 547669 547670 547671 547672 547673 547674 547675 547676 547677 [...] (702996 flits)
Measured flits: 547668 547669 547670 547671 547672 547673 547674 547675 547676 547677 [...] (25637 flits)
Class 0:
Remaining flits: 569592 569593 569594 569595 569596 569597 569598 569599 569600 569601 [...] (703330 flits)
Measured flits: 569592 569593 569594 569595 569596 569597 569598 569599 569600 569601 [...] (21950 flits)
Class 0:
Remaining flits: 569592 569593 569594 569595 569596 569597 569598 569599 569600 569601 [...] (702574 flits)
Measured flits: 569592 569593 569594 569595 569596 569597 569598 569599 569600 569601 [...] (19382 flits)
Class 0:
Remaining flits: 569592 569593 569594 569595 569596 569597 569598 569599 569600 569601 [...] (702072 flits)
Measured flits: 569592 569593 569594 569595 569596 569597 569598 569599 569600 569601 [...] (16966 flits)
Class 0:
Remaining flits: 569592 569593 569594 569595 569596 569597 569598 569599 569600 569601 [...] (700712 flits)
Measured flits: 569592 569593 569594 569595 569596 569597 569598 569599 569600 569601 [...] (15203 flits)
Class 0:
Remaining flits: 569592 569593 569594 569595 569596 569597 569598 569599 569600 569601 [...] (698299 flits)
Measured flits: 569592 569593 569594 569595 569596 569597 569598 569599 569600 569601 [...] (13166 flits)
Class 0:
Remaining flits: 569592 569593 569594 569595 569596 569597 569598 569599 569600 569601 [...] (695531 flits)
Measured flits: 569592 569593 569594 569595 569596 569597 569598 569599 569600 569601 [...] (11323 flits)
Class 0:
Remaining flits: 569592 569593 569594 569595 569596 569597 569598 569599 569600 569601 [...] (696167 flits)
Measured flits: 569592 569593 569594 569595 569596 569597 569598 569599 569600 569601 [...] (9695 flits)
Class 0:
Remaining flits: 608400 608401 608402 608403 608404 608405 608406 608407 608408 608409 [...] (694416 flits)
Measured flits: 608400 608401 608402 608403 608404 608405 608406 608407 608408 608409 [...] (8429 flits)
Class 0:
Remaining flits: 608400 608401 608402 608403 608404 608405 608406 608407 608408 608409 [...] (693457 flits)
Measured flits: 608400 608401 608402 608403 608404 608405 608406 608407 608408 608409 [...] (7445 flits)
Class 0:
Remaining flits: 608400 608401 608402 608403 608404 608405 608406 608407 608408 608409 [...] (697157 flits)
Measured flits: 608400 608401 608402 608403 608404 608405 608406 608407 608408 608409 [...] (6314 flits)
Class 0:
Remaining flits: 666036 666037 666038 666039 666040 666041 666042 666043 666044 666045 [...] (698300 flits)
Measured flits: 666036 666037 666038 666039 666040 666041 666042 666043 666044 666045 [...] (5467 flits)
Class 0:
Remaining flits: 666036 666037 666038 666039 666040 666041 666042 666043 666044 666045 [...] (695763 flits)
Measured flits: 666036 666037 666038 666039 666040 666041 666042 666043 666044 666045 [...] (4851 flits)
Class 0:
Remaining flits: 666036 666037 666038 666039 666040 666041 666042 666043 666044 666045 [...] (691356 flits)
Measured flits: 666036 666037 666038 666039 666040 666041 666042 666043 666044 666045 [...] (4362 flits)
Class 0:
Remaining flits: 666036 666037 666038 666039 666040 666041 666042 666043 666044 666045 [...] (691203 flits)
Measured flits: 666036 666037 666038 666039 666040 666041 666042 666043 666044 666045 [...] (3892 flits)
Class 0:
Remaining flits: 666036 666037 666038 666039 666040 666041 666042 666043 666044 666045 [...] (690866 flits)
Measured flits: 666036 666037 666038 666039 666040 666041 666042 666043 666044 666045 [...] (3492 flits)
Class 0:
Remaining flits: 666036 666037 666038 666039 666040 666041 666042 666043 666044 666045 [...] (694155 flits)
Measured flits: 666036 666037 666038 666039 666040 666041 666042 666043 666044 666045 [...] (3032 flits)
Class 0:
Remaining flits: 750006 750007 750008 750009 750010 750011 750012 750013 750014 750015 [...] (688010 flits)
Measured flits: 750006 750007 750008 750009 750010 750011 750012 750013 750014 750015 [...] (2501 flits)
Class 0:
Remaining flits: 750006 750007 750008 750009 750010 750011 750012 750013 750014 750015 [...] (688774 flits)
Measured flits: 750006 750007 750008 750009 750010 750011 750012 750013 750014 750015 [...] (2041 flits)
Class 0:
Remaining flits: 750006 750007 750008 750009 750010 750011 750012 750013 750014 750015 [...] (686377 flits)
Measured flits: 750006 750007 750008 750009 750010 750011 750012 750013 750014 750015 [...] (1845 flits)
Class 0:
Remaining flits: 750006 750007 750008 750009 750010 750011 750012 750013 750014 750015 [...] (688802 flits)
Measured flits: 750006 750007 750008 750009 750010 750011 750012 750013 750014 750015 [...] (1484 flits)
Class 0:
Remaining flits: 750006 750007 750008 750009 750010 750011 750012 750013 750014 750015 [...] (687186 flits)
Measured flits: 750006 750007 750008 750009 750010 750011 750012 750013 750014 750015 [...] (1325 flits)
Class 0:
Remaining flits: 750006 750007 750008 750009 750010 750011 750012 750013 750014 750015 [...] (683583 flits)
Measured flits: 750006 750007 750008 750009 750010 750011 750012 750013 750014 750015 [...] (1114 flits)
Class 0:
Remaining flits: 750006 750007 750008 750009 750010 750011 750012 750013 750014 750015 [...] (685256 flits)
Measured flits: 750006 750007 750008 750009 750010 750011 750012 750013 750014 750015 [...] (955 flits)
Class 0:
Remaining flits: 750006 750007 750008 750009 750010 750011 750012 750013 750014 750015 [...] (680711 flits)
Measured flits: 750006 750007 750008 750009 750010 750011 750012 750013 750014 750015 [...] (873 flits)
Class 0:
Remaining flits: 750006 750007 750008 750009 750010 750011 750012 750013 750014 750015 [...] (677048 flits)
Measured flits: 750006 750007 750008 750009 750010 750011 750012 750013 750014 750015 [...] (751 flits)
Class 0:
Remaining flits: 750006 750007 750008 750009 750010 750011 750012 750013 750014 750015 [...] (671685 flits)
Measured flits: 750006 750007 750008 750009 750010 750011 750012 750013 750014 750015 [...] (693 flits)
Class 0:
Remaining flits: 750006 750007 750008 750009 750010 750011 750012 750013 750014 750015 [...] (667284 flits)
Measured flits: 750006 750007 750008 750009 750010 750011 750012 750013 750014 750015 [...] (639 flits)
Class 0:
Remaining flits: 750006 750007 750008 750009 750010 750011 750012 750013 750014 750015 [...] (665858 flits)
Measured flits: 750006 750007 750008 750009 750010 750011 750012 750013 750014 750015 [...] (555 flits)
Class 0:
Remaining flits: 750006 750007 750008 750009 750010 750011 750012 750013 750014 750015 [...] (668312 flits)
Measured flits: 750006 750007 750008 750009 750010 750011 750012 750013 750014 750015 [...] (524 flits)
Class 0:
Remaining flits: 750006 750007 750008 750009 750010 750011 750012 750013 750014 750015 [...] (669950 flits)
Measured flits: 750006 750007 750008 750009 750010 750011 750012 750013 750014 750015 [...] (472 flits)
Class 0:
Remaining flits: 750006 750007 750008 750009 750010 750011 750012 750013 750014 750015 [...] (668036 flits)
Measured flits: 750006 750007 750008 750009 750010 750011 750012 750013 750014 750015 [...] (415 flits)
Class 0:
Remaining flits: 750006 750007 750008 750009 750010 750011 750012 750013 750014 750015 [...] (675138 flits)
Measured flits: 750006 750007 750008 750009 750010 750011 750012 750013 750014 750015 [...] (311 flits)
Class 0:
Remaining flits: 750006 750007 750008 750009 750010 750011 750012 750013 750014 750015 [...] (679797 flits)
Measured flits: 750006 750007 750008 750009 750010 750011 750012 750013 750014 750015 [...] (293 flits)
Class 0:
Remaining flits: 750006 750007 750008 750009 750010 750011 750012 750013 750014 750015 [...] (681230 flits)
Measured flits: 750006 750007 750008 750009 750010 750011 750012 750013 750014 750015 [...] (293 flits)
Class 0:
Remaining flits: 750006 750007 750008 750009 750010 750011 750012 750013 750014 750015 [...] (682104 flits)
Measured flits: 750006 750007 750008 750009 750010 750011 750012 750013 750014 750015 [...] (275 flits)
Class 0:
Remaining flits: 750006 750007 750008 750009 750010 750011 750012 750013 750014 750015 [...] (677562 flits)
Measured flits: 750006 750007 750008 750009 750010 750011 750012 750013 750014 750015 [...] (239 flits)
Class 0:
Remaining flits: 750006 750007 750008 750009 750010 750011 750012 750013 750014 750015 [...] (669826 flits)
Measured flits: 750006 750007 750008 750009 750010 750011 750012 750013 750014 750015 [...] (216 flits)
Class 0:
Remaining flits: 750006 750007 750008 750009 750010 750011 750012 750013 750014 750015 [...] (668332 flits)
Measured flits: 750006 750007 750008 750009 750010 750011 750012 750013 750014 750015 [...] (195 flits)
Class 0:
Remaining flits: 750013 750014 750015 750016 750017 750018 750019 750020 750021 750022 [...] (668372 flits)
Measured flits: 750013 750014 750015 750016 750017 750018 750019 750020 750021 750022 [...] (161 flits)
Class 0:
Remaining flits: 1280772 1280773 1280774 1280775 1280776 1280777 1280778 1280779 1280780 1280781 [...] (664983 flits)
Measured flits: 1280772 1280773 1280774 1280775 1280776 1280777 1280778 1280779 1280780 1280781 [...] (71 flits)
Class 0:
Remaining flits: 1280772 1280773 1280774 1280775 1280776 1280777 1280778 1280779 1280780 1280781 [...] (666196 flits)
Measured flits: 1280772 1280773 1280774 1280775 1280776 1280777 1280778 1280779 1280780 1280781 [...] (71 flits)
Class 0:
Remaining flits: 1327194 1327195 1327196 1327197 1327198 1327199 1327200 1327201 1327202 1327203 [...] (663454 flits)
Measured flits: 1327194 1327195 1327196 1327197 1327198 1327199 1327200 1327201 1327202 1327203 [...] (48 flits)
Class 0:
Remaining flits: 1327194 1327195 1327196 1327197 1327198 1327199 1327200 1327201 1327202 1327203 [...] (657630 flits)
Measured flits: 1327194 1327195 1327196 1327197 1327198 1327199 1327200 1327201 1327202 1327203 [...] (36 flits)
Class 0:
Remaining flits: 1327194 1327195 1327196 1327197 1327198 1327199 1327200 1327201 1327202 1327203 [...] (656109 flits)
Measured flits: 1327194 1327195 1327196 1327197 1327198 1327199 1327200 1327201 1327202 1327203 [...] (36 flits)
Class 0:
Remaining flits: 1327194 1327195 1327196 1327197 1327198 1327199 1327200 1327201 1327202 1327203 [...] (654265 flits)
Measured flits: 1327194 1327195 1327196 1327197 1327198 1327199 1327200 1327201 1327202 1327203 [...] (36 flits)
Class 0:
Remaining flits: 1493856 1493857 1493858 1493859 1493860 1493861 1493862 1493863 1493864 1493865 [...] (649007 flits)
Measured flits: 1818108 1818109 1818110 1818111 1818112 1818113 1818114 1818115 1818116 1818117 [...] (18 flits)
Class 0:
Remaining flits: 1493856 1493857 1493858 1493859 1493860 1493861 1493862 1493863 1493864 1493865 [...] (648417 flits)
Measured flits: 1818108 1818109 1818110 1818111 1818112 1818113 1818114 1818115 1818116 1818117 [...] (18 flits)
Class 0:
Remaining flits: 1493870 1493871 1493872 1493873 1504980 1504981 1504982 1504983 1504984 1504985 [...] (644197 flits)
Measured flits: 1818108 1818109 1818110 1818111 1818112 1818113 1818114 1818115 1818116 1818117 [...] (18 flits)
Class 0:
Remaining flits: 1504980 1504981 1504982 1504983 1504984 1504985 1504986 1504987 1504988 1504989 [...] (644390 flits)
Measured flits: 1818108 1818109 1818110 1818111 1818112 1818113 1818114 1818115 1818116 1818117 [...] (18 flits)
Class 0:
Remaining flits: 1623744 1623745 1623746 1623747 1623748 1623749 1623750 1623751 1623752 1623753 [...] (647881 flits)
Measured flits: 1818108 1818109 1818110 1818111 1818112 1818113 1818114 1818115 1818116 1818117 [...] (18 flits)
Class 0:
Remaining flits: 1623744 1623745 1623746 1623747 1623748 1623749 1623750 1623751 1623752 1623753 [...] (650828 flits)
Measured flits: 1818111 1818112 1818113 1818114 1818115 1818116 1818117 1818118 1818119 1818120 [...] (15 flits)
Draining remaining packets ...
Class 0:
Remaining flits: 1623744 1623745 1623746 1623747 1623748 1623749 1623750 1623751 1623752 1623753 [...] (616875 flits)
Measured flits: (0 flits)
Class 0:
Remaining flits: 1623744 1623745 1623746 1623747 1623748 1623749 1623750 1623751 1623752 1623753 [...] (584102 flits)
Measured flits: (0 flits)
Class 0:
Remaining flits: 1623744 1623745 1623746 1623747 1623748 1623749 1623750 1623751 1623752 1623753 [...] (551503 flits)
Measured flits: (0 flits)
Class 0:
Remaining flits: 1623744 1623745 1623746 1623747 1623748 1623749 1623750 1623751 1623752 1623753 [...] (519140 flits)
Measured flits: (0 flits)
Class 0:
Remaining flits: 1623744 1623745 1623746 1623747 1623748 1623749 1623750 1623751 1623752 1623753 [...] (486323 flits)
Measured flits: (0 flits)
Class 0:
Remaining flits: 1623744 1623745 1623746 1623747 1623748 1623749 1623750 1623751 1623752 1623753 [...] (454411 flits)
Measured flits: (0 flits)
Class 0:
Remaining flits: 1623744 1623745 1623746 1623747 1623748 1623749 1623750 1623751 1623752 1623753 [...] (422647 flits)
Measured flits: (0 flits)
Class 0:
Remaining flits: 1623744 1623745 1623746 1623747 1623748 1623749 1623750 1623751 1623752 1623753 [...] (392159 flits)
Measured flits: (0 flits)
Class 0:
Remaining flits: 1710108 1710109 1710110 1710111 1710112 1710113 1710114 1710115 1710116 1710117 [...] (361915 flits)
Measured flits: (0 flits)
Class 0:
Remaining flits: 1710108 1710109 1710110 1710111 1710112 1710113 1710114 1710115 1710116 1710117 [...] (331680 flits)
Measured flits: (0 flits)
Class 0:
Remaining flits: 1710108 1710109 1710110 1710111 1710112 1710113 1710114 1710115 1710116 1710117 [...] (302306 flits)
Measured flits: (0 flits)
Class 0:
Remaining flits: 1710108 1710109 1710110 1710111 1710112 1710113 1710114 1710115 1710116 1710117 [...] (273514 flits)
Measured flits: (0 flits)
Class 0:
Remaining flits: 1917414 1917415 1917416 1917417 1917418 1917419 1917420 1917421 1917422 1917423 [...] (244444 flits)
Measured flits: (0 flits)
Class 0:
Remaining flits: 1917414 1917415 1917416 1917417 1917418 1917419 1917420 1917421 1917422 1917423 [...] (216164 flits)
Measured flits: (0 flits)
Class 0:
Remaining flits: 1917414 1917415 1917416 1917417 1917418 1917419 1917420 1917421 1917422 1917423 [...] (189374 flits)
Measured flits: (0 flits)
Class 0:
Remaining flits: 1993536 1993537 1993538 1993539 1993540 1993541 1993542 1993543 1993544 1993545 [...] (163342 flits)
Measured flits: (0 flits)
Class 0:
Remaining flits: 2190132 2190133 2190134 2190135 2190136 2190137 2190138 2190139 2190140 2190141 [...] (137280 flits)
Measured flits: (0 flits)
Class 0:
Remaining flits: 2190132 2190133 2190134 2190135 2190136 2190137 2190138 2190139 2190140 2190141 [...] (112570 flits)
Measured flits: (0 flits)
Class 0:
Remaining flits: 2190132 2190133 2190134 2190135 2190136 2190137 2190138 2190139 2190140 2190141 [...] (90122 flits)
Measured flits: (0 flits)
Class 0:
Remaining flits: 2190132 2190133 2190134 2190135 2190136 2190137 2190138 2190139 2190140 2190141 [...] (69071 flits)
Measured flits: (0 flits)
Class 0:
Remaining flits: 2190132 2190133 2190134 2190135 2190136 2190137 2190138 2190139 2190140 2190141 [...] (49906 flits)
Measured flits: (0 flits)
Class 0:
Remaining flits: 2331882 2331883 2331884 2331885 2331886 2331887 2331888 2331889 2331890 2331891 [...] (32461 flits)
Measured flits: (0 flits)
Class 0:
Remaining flits: 2331882 2331883 2331884 2331885 2331886 2331887 2331888 2331889 2331890 2331891 [...] (17996 flits)
Measured flits: (0 flits)
Class 0:
Remaining flits: 2331889 2331890 2331891 2331892 2331893 2331894 2331895 2331896 2331897 2331898 [...] (8918 flits)
Measured flits: (0 flits)
Class 0:
Remaining flits: 2494368 2494369 2494370 2494371 2494372 2494373 2494374 2494375 2494376 2494377 [...] (4039 flits)
Measured flits: (0 flits)
Class 0:
Remaining flits: 3138766 3138767 3351258 3351259 3351260 3351261 3351262 3351263 3351264 3351265 [...] (1105 flits)
Measured flits: (0 flits)
Time taken is 129948 cycles
====== Overall Traffic Statistics ======
====== Traffic class 0 ======
Packet latency average = 18486.4 (1 samples)
	minimum = 29 (1 samples)
	maximum = 93666 (1 samples)
Network latency average = 14514.6 (1 samples)
	minimum = 23 (1 samples)
	maximum = 85637 (1 samples)
Flit latency average = 17524 (1 samples)
	minimum = 6 (1 samples)
	maximum = 91749 (1 samples)
Fragmentation average = 237.788 (1 samples)
	minimum = 0 (1 samples)
	maximum = 17828 (1 samples)
Injected packet rate average = 0.0251682 (1 samples)
	minimum = 0.0114286 (1 samples)
	maximum = 0.0335714 (1 samples)
Accepted packet rate average = 0.0125737 (1 samples)
	minimum = 0.00928571 (1 samples)
	maximum = 0.0161429 (1 samples)
Injected flit rate average = 0.453121 (1 samples)
	minimum = 0.204571 (1 samples)
	maximum = 0.606714 (1 samples)
Accepted flit rate average = 0.225592 (1 samples)
	minimum = 0.164143 (1 samples)
	maximum = 0.291 (1 samples)
Injected packet size average = 18.0038 (1 samples)
Accepted packet size average = 17.9417 (1 samples)
Hops average = 5.05287 (1 samples)
Total run time 276.393
