BEGIN Configuration File: networks/mezzanine_config
topology = mezzanine;
n = 12;

routing_function = multipath;
internal_speedup = 2.0;
latency_thres = 100000.0;
use_read_write = 0;

sample_period = 1000;
injection_rate = 0.5;
packet_size = 18;

noq = 1;
routing_delay = 0;
vc_alloc_delay = 1;
sw_alloc_delay = 1;
st_final_delay = 1;
vc_allocator = islip; 
sw_allocator = islip;
alloc_iters  = 4;
num_vcs     = 12;
buffer_policy = private; // private or shared
buf_size = -1; // -1 for buffer_policy = private;
vc_buf_size = 4096; // size of each VOQ with buffer_policy = private
output_buffer_size = -1;


traffic = uniform;

//mezW = 0.0;
//mezPredefinedPatternType = shift-inter; //shift-qfdb

END Configuration File: networks/mezzanine_config
OVERRIDE Parameter: injection_rate=0.009117
OVERRIDE Parameter: routing_function=min
OVERRIDE Parameter: num_vcs=12
OVERRIDE Parameter: vc_buf_size=144
OVERRIDE Parameter: internal_speedup=1.0
OVERRIDE Parameter: injection_process=bernoulli
OVERRIDE Parameter: sim_type=latency
OVERRIDE Parameter: burst_alpha=0.0038461538
OVERRIDE Parameter: burst_beta=0.1
network: network_0
========================== Routing table  =====================
Number of Subnets: 1
Class 0:
Packet latency average = 102.351
	minimum = 23
	maximum = 464
Network latency average = 100.721
	minimum = 23
	maximum = 464
Slowest packet = 758
Flit latency average = 67.5173
	minimum = 6
	maximum = 536
Slowest flit = 13671
Fragmentation average = 32.5763
	minimum = 0
	maximum = 98
Injected packet rate average = 0.00905729
	minimum = 0.002 (at node 135)
	maximum = 0.02 (at node 10)
Accepted packet rate average = 0.00768229
	minimum = 0.001 (at node 41)
	maximum = 0.015 (at node 48)
Injected flit rate average = 0.161458
	minimum = 0.036 (at node 135)
	maximum = 0.343 (at node 10)
Accepted flit rate average= 0.143385
	minimum = 0.018 (at node 41)
	maximum = 0.277 (at node 49)
Injected packet length average = 17.8263
Accepted packet length average = 18.6644
Total in-flight flits = 3772 (0 measured)
latency change    = 1
throughput change = 1
Class 0:
Packet latency average = 134.028
	minimum = 23
	maximum = 1167
Network latency average = 132.453
	minimum = 23
	maximum = 1167
Slowest packet = 1421
Flit latency average = 94.8691
	minimum = 6
	maximum = 1150
Slowest flit = 25595
Fragmentation average = 40.2303
	minimum = 0
	maximum = 122
Injected packet rate average = 0.00891927
	minimum = 0.0035 (at node 122)
	maximum = 0.017 (at node 10)
Accepted packet rate average = 0.00816406
	minimum = 0.004 (at node 174)
	maximum = 0.0125 (at node 44)
Injected flit rate average = 0.159792
	minimum = 0.063 (at node 122)
	maximum = 0.306 (at node 10)
Accepted flit rate average= 0.149719
	minimum = 0.072 (at node 174)
	maximum = 0.23 (at node 44)
Injected packet length average = 17.9153
Accepted packet length average = 18.3388
Total in-flight flits = 4158 (0 measured)
latency change    = 0.236343
throughput change = 0.0423015
Class 0:
Packet latency average = 185.385
	minimum = 23
	maximum = 1338
Network latency average = 183.8
	minimum = 23
	maximum = 1338
Slowest packet = 1735
Flit latency average = 142.397
	minimum = 6
	maximum = 1321
Slowest flit = 31247
Fragmentation average = 48.2271
	minimum = 0
	maximum = 136
Injected packet rate average = 0.00898958
	minimum = 0.002 (at node 94)
	maximum = 0.018 (at node 52)
Accepted packet rate average = 0.00873958
	minimum = 0.001 (at node 153)
	maximum = 0.015 (at node 6)
Injected flit rate average = 0.162042
	minimum = 0.036 (at node 94)
	maximum = 0.308 (at node 52)
Accepted flit rate average= 0.157661
	minimum = 0.018 (at node 153)
	maximum = 0.27 (at node 174)
Injected packet length average = 18.0255
Accepted packet length average = 18.0399
Total in-flight flits = 4955 (0 measured)
latency change    = 0.27703
throughput change = 0.0503782
Warmed up ...Time used is 3000 cycles
Class 0:
Packet latency average = 166.977
	minimum = 23
	maximum = 889
Network latency average = 165.566
	minimum = 23
	maximum = 889
Slowest packet = 5290
Flit latency average = 157.972
	minimum = 6
	maximum = 1854
Slowest flit = 66280
Fragmentation average = 47.6585
	minimum = 0
	maximum = 116
Injected packet rate average = 0.00943229
	minimum = 0.003 (at node 131)
	maximum = 0.018 (at node 0)
Accepted packet rate average = 0.00891146
	minimum = 0.001 (at node 184)
	maximum = 0.018 (at node 16)
Injected flit rate average = 0.169318
	minimum = 0.054 (at node 131)
	maximum = 0.324 (at node 0)
Accepted flit rate average= 0.160484
	minimum = 0.023 (at node 184)
	maximum = 0.324 (at node 16)
Injected packet length average = 17.9509
Accepted packet length average = 18.0088
Total in-flight flits = 6740 (6589 measured)
latency change    = 0.110244
throughput change = 0.01759
Class 0:
Packet latency average = 203.185
	minimum = 23
	maximum = 1655
Network latency average = 201.844
	minimum = 23
	maximum = 1655
Slowest packet = 5695
Flit latency average = 177.062
	minimum = 6
	maximum = 2380
Slowest flit = 80405
Fragmentation average = 48.4905
	minimum = 0
	maximum = 123
Injected packet rate average = 0.00911979
	minimum = 0.0035 (at node 178)
	maximum = 0.015 (at node 149)
Accepted packet rate average = 0.00911458
	minimum = 0.004 (at node 163)
	maximum = 0.0185 (at node 16)
Injected flit rate average = 0.164026
	minimum = 0.063 (at node 178)
	maximum = 0.27 (at node 149)
Accepted flit rate average= 0.163599
	minimum = 0.075 (at node 163)
	maximum = 0.333 (at node 16)
Injected packet length average = 17.9857
Accepted packet length average = 17.9491
Total in-flight flits = 5169 (5169 measured)
latency change    = 0.178204
throughput change = 0.0190379
Class 0:
Packet latency average = 203.489
	minimum = 23
	maximum = 2031
Network latency average = 202.072
	minimum = 23
	maximum = 2031
Slowest packet = 5228
Flit latency average = 171.116
	minimum = 6
	maximum = 2380
Slowest flit = 80405
Fragmentation average = 48.5172
	minimum = 0
	maximum = 145
Injected packet rate average = 0.00910764
	minimum = 0.00466667 (at node 153)
	maximum = 0.0136667 (at node 38)
Accepted packet rate average = 0.00906944
	minimum = 0.00566667 (at node 134)
	maximum = 0.016 (at node 16)
Injected flit rate average = 0.164038
	minimum = 0.084 (at node 153)
	maximum = 0.247333 (at node 106)
Accepted flit rate average= 0.163139
	minimum = 0.102 (at node 134)
	maximum = 0.290333 (at node 16)
Injected packet length average = 18.0111
Accepted packet length average = 17.9877
Total in-flight flits = 5415 (5415 measured)
latency change    = 0.00149309
throughput change = 0.00282011
Class 0:
Packet latency average = 206.342
	minimum = 23
	maximum = 2031
Network latency average = 204.866
	minimum = 23
	maximum = 2031
Slowest packet = 5228
Flit latency average = 170.405
	minimum = 6
	maximum = 2380
Slowest flit = 80405
Fragmentation average = 49.3667
	minimum = 0
	maximum = 149
Injected packet rate average = 0.00910156
	minimum = 0.00525 (at node 178)
	maximum = 0.0145 (at node 58)
Accepted packet rate average = 0.00903906
	minimum = 0.005 (at node 4)
	maximum = 0.01425 (at node 16)
Injected flit rate average = 0.163794
	minimum = 0.0905 (at node 178)
	maximum = 0.261 (at node 58)
Accepted flit rate average= 0.16272
	minimum = 0.09 (at node 4)
	maximum = 0.2595 (at node 16)
Injected packet length average = 17.9963
Accepted packet length average = 18.0019
Total in-flight flits = 5806 (5806 measured)
latency change    = 0.0138261
throughput change = 0.00257397
Class 0:
Packet latency average = 210.907
	minimum = 23
	maximum = 2031
Network latency average = 209.375
	minimum = 23
	maximum = 2031
Slowest packet = 5228
Flit latency average = 172.848
	minimum = 6
	maximum = 2380
Slowest flit = 80405
Fragmentation average = 49.9723
	minimum = 0
	maximum = 149
Injected packet rate average = 0.00906875
	minimum = 0.0058 (at node 153)
	maximum = 0.0132 (at node 58)
Accepted packet rate average = 0.00901563
	minimum = 0.0058 (at node 4)
	maximum = 0.0132 (at node 16)
Injected flit rate average = 0.163312
	minimum = 0.1044 (at node 153)
	maximum = 0.2344 (at node 58)
Accepted flit rate average= 0.162148
	minimum = 0.1044 (at node 4)
	maximum = 0.2382 (at node 16)
Injected packet length average = 18.0083
Accepted packet length average = 17.9852
Total in-flight flits = 6001 (6001 measured)
latency change    = 0.0216423
throughput change = 0.00352848
Draining all recorded packets ...
Class 0:
Remaining flits: 239247 239248 239249 239250 239251 239252 239253 239254 239255 239741 [...] (7343 flits)
Measured flits: 239247 239248 239249 239250 239251 239252 239253 239254 239255 239741 [...] (227 flits)
Draining remaining packets ...
Time taken is 10480 cycles
====== Overall Traffic Statistics ======
====== Traffic class 0 ======
Packet latency average = 224.123 (1 samples)
	minimum = 23 (1 samples)
	maximum = 2031 (1 samples)
Network latency average = 222.565 (1 samples)
	minimum = 23 (1 samples)
	maximum = 2031 (1 samples)
Flit latency average = 191.897 (1 samples)
	minimum = 6 (1 samples)
	maximum = 2380 (1 samples)
Fragmentation average = 50.2098 (1 samples)
	minimum = 0 (1 samples)
	maximum = 149 (1 samples)
Injected packet rate average = 0.00906875 (1 samples)
	minimum = 0.0058 (1 samples)
	maximum = 0.0132 (1 samples)
Accepted packet rate average = 0.00901563 (1 samples)
	minimum = 0.0058 (1 samples)
	maximum = 0.0132 (1 samples)
Injected flit rate average = 0.163312 (1 samples)
	minimum = 0.1044 (1 samples)
	maximum = 0.2344 (1 samples)
Accepted flit rate average = 0.162148 (1 samples)
	minimum = 0.1044 (1 samples)
	maximum = 0.2382 (1 samples)
Injected packet size average = 18.0083 (1 samples)
Accepted packet size average = 17.9852 (1 samples)
Hops average = 5.07223 (1 samples)
Total run time 4.46705
