BEGIN Configuration File: networks/mezzanine_config
topology = mezzanine;
n = 12;

routing_function = multipath;
internal_speedup = 2.0;
latency_thres = 100000.0;
use_read_write = 0;

sample_period = 1000;
injection_rate = 0.5;
packet_size = 18;

noq = 1;
routing_delay = 0;
vc_alloc_delay = 1;
sw_alloc_delay = 1;
st_final_delay = 1;
vc_allocator = islip; 
sw_allocator = islip;
alloc_iters  = 4;
num_vcs     = 12;
buffer_policy = private; // private or shared
buf_size = -1; // -1 for buffer_policy = private;
vc_buf_size = 4096; // size of each VOQ with buffer_policy = private
output_buffer_size = -1;


traffic = uniform;

//mezW = 0.0;
//mezPredefinedPatternType = shift-inter; //shift-qfdb

END Configuration File: networks/mezzanine_config
OVERRIDE Parameter: injection_rate=0.051107
OVERRIDE Parameter: routing_function=min
OVERRIDE Parameter: num_vcs=64
OVERRIDE Parameter: vc_buf_size=144
OVERRIDE Parameter: internal_speedup=1.0
OVERRIDE Parameter: injection_process=bernoulli
OVERRIDE Parameter: sim_type=latency
OVERRIDE Parameter: burst_alpha=0.0038461538
OVERRIDE Parameter: burst_beta=0.1
network: network_0
========================== Routing table  =====================
Number of Subnets: 1
Class 0:
Packet latency average = 331.901
	minimum = 23
	maximum = 940
Network latency average = 306.679
	minimum = 23
	maximum = 916
Slowest packet = 177
Flit latency average = 236.727
	minimum = 6
	maximum = 972
Slowest flit = 1544
Fragmentation average = 187.187
	minimum = 0
	maximum = 799
Injected packet rate average = 0.0474063
	minimum = 0.036 (at node 43)
	maximum = 0.056 (at node 131)
Accepted packet rate average = 0.011625
	minimum = 0.004 (at node 150)
	maximum = 0.02 (at node 133)
Injected flit rate average = 0.84587
	minimum = 0.639 (at node 157)
	maximum = 1 (at node 131)
Accepted flit rate average= 0.248578
	minimum = 0.108 (at node 150)
	maximum = 0.381 (at node 133)
Injected packet length average = 17.843
Accepted packet length average = 21.3831
Total in-flight flits = 116109 (0 measured)
latency change    = 1
throughput change = 1
Class 0:
Packet latency average = 606.443
	minimum = 23
	maximum = 1894
Network latency average = 568.218
	minimum = 23
	maximum = 1880
Slowest packet = 621
Flit latency average = 481.107
	minimum = 6
	maximum = 1948
Slowest flit = 4627
Fragmentation average = 262.078
	minimum = 0
	maximum = 1488
Injected packet rate average = 0.0468359
	minimum = 0.035 (at node 116)
	maximum = 0.0555 (at node 99)
Accepted packet rate average = 0.0129193
	minimum = 0.0075 (at node 81)
	maximum = 0.0195 (at node 76)
Injected flit rate average = 0.839263
	minimum = 0.6245 (at node 116)
	maximum = 0.9965 (at node 165)
Accepted flit rate average= 0.25806
	minimum = 0.154 (at node 150)
	maximum = 0.3845 (at node 76)
Injected packet length average = 17.9192
Accepted packet length average = 19.9748
Total in-flight flits = 224635 (0 measured)
latency change    = 0.452709
throughput change = 0.0367425
Class 0:
Packet latency average = 1478.14
	minimum = 28
	maximum = 2904
Network latency average = 1404.83
	minimum = 28
	maximum = 2876
Slowest packet = 617
Flit latency average = 1355.92
	minimum = 6
	maximum = 2859
Slowest flit = 12257
Fragmentation average = 369.972
	minimum = 3
	maximum = 2125
Injected packet rate average = 0.041724
	minimum = 0.007 (at node 76)
	maximum = 0.056 (at node 1)
Accepted packet rate average = 0.0138854
	minimum = 0.006 (at node 34)
	maximum = 0.022 (at node 37)
Injected flit rate average = 0.750693
	minimum = 0.12 (at node 76)
	maximum = 1 (at node 1)
Accepted flit rate average= 0.252797
	minimum = 0.102 (at node 51)
	maximum = 0.391 (at node 81)
Injected packet length average = 17.9919
Accepted packet length average = 18.2059
Total in-flight flits = 320296 (0 measured)
latency change    = 0.589725
throughput change = 0.0208192
Warmed up ...Time used is 3000 cycles
Class 0:
Packet latency average = 520.734
	minimum = 30
	maximum = 2344
Network latency average = 87.9946
	minimum = 28
	maximum = 915
Slowest packet = 26102
Flit latency average = 2163.32
	minimum = 6
	maximum = 3859
Slowest flit = 16270
Fragmentation average = 17.7283
	minimum = 4
	maximum = 775
Injected packet rate average = 0.0414375
	minimum = 0.006 (at node 40)
	maximum = 0.056 (at node 9)
Accepted packet rate average = 0.0129531
	minimum = 0.005 (at node 132)
	maximum = 0.022 (at node 73)
Injected flit rate average = 0.746089
	minimum = 0.112 (at node 40)
	maximum = 1 (at node 3)
Accepted flit rate average= 0.232786
	minimum = 0.078 (at node 132)
	maximum = 0.391 (at node 173)
Injected packet length average = 18.0052
Accepted packet length average = 17.9715
Total in-flight flits = 418809 (139763 measured)
latency change    = 1.83857
throughput change = 0.0859604
Class 0:
Packet latency average = 1001.85
	minimum = 30
	maximum = 3321
Network latency average = 366.241
	minimum = 28
	maximum = 1931
Slowest packet = 26102
Flit latency average = 2540.73
	minimum = 6
	maximum = 4888
Slowest flit = 13201
Fragmentation average = 40.3576
	minimum = 4
	maximum = 1089
Injected packet rate average = 0.0385781
	minimum = 0.0095 (at node 100)
	maximum = 0.0555 (at node 19)
Accepted packet rate average = 0.012875
	minimum = 0.007 (at node 116)
	maximum = 0.0195 (at node 114)
Injected flit rate average = 0.694898
	minimum = 0.177 (at node 100)
	maximum = 1 (at node 21)
Accepted flit rate average= 0.232297
	minimum = 0.1115 (at node 116)
	maximum = 0.333 (at node 114)
Injected packet length average = 18.0128
Accepted packet length average = 18.0425
Total in-flight flits = 497818 (258625 measured)
latency change    = 0.48023
throughput change = 0.00210758
Class 0:
Packet latency average = 1525.62
	minimum = 30
	maximum = 4326
Network latency average = 768.502
	minimum = 28
	maximum = 2990
Slowest packet = 26102
Flit latency average = 2913.6
	minimum = 6
	maximum = 5799
Slowest flit = 26575
Fragmentation average = 60.7457
	minimum = 3
	maximum = 1089
Injected packet rate average = 0.0325226
	minimum = 0.0103333 (at node 112)
	maximum = 0.0503333 (at node 94)
Accepted packet rate average = 0.0129063
	minimum = 0.00766667 (at node 116)
	maximum = 0.0183333 (at node 123)
Injected flit rate average = 0.585655
	minimum = 0.187667 (at node 112)
	maximum = 0.905667 (at node 94)
Accepted flit rate average= 0.231595
	minimum = 0.139667 (at node 116)
	maximum = 0.335667 (at node 129)
Injected packet length average = 18.0076
Accepted packet length average = 17.9444
Total in-flight flits = 524199 (323109 measured)
latency change    = 0.343315
throughput change = 0.00302851
Class 0:
Packet latency average = 2226.76
	minimum = 30
	maximum = 5302
Network latency average = 1211.84
	minimum = 28
	maximum = 3947
Slowest packet = 26102
Flit latency average = 3252.76
	minimum = 6
	maximum = 6809
Slowest flit = 23518
Fragmentation average = 97.9915
	minimum = 3
	maximum = 1089
Injected packet rate average = 0.0283542
	minimum = 0.01075 (at node 112)
	maximum = 0.04225 (at node 94)
Accepted packet rate average = 0.0127878
	minimum = 0.009 (at node 116)
	maximum = 0.017 (at node 114)
Injected flit rate average = 0.51072
	minimum = 0.1965 (at node 112)
	maximum = 0.76125 (at node 94)
Accepted flit rate average= 0.229924
	minimum = 0.1675 (at node 116)
	maximum = 0.31175 (at node 123)
Injected packet length average = 18.0122
Accepted packet length average = 17.98
Total in-flight flits = 535844 (369863 measured)
latency change    = 0.314868
throughput change = 0.00726763
Class 0:
Packet latency average = 2937.44
	minimum = 30
	maximum = 6356
Network latency average = 1665.96
	minimum = 28
	maximum = 4892
Slowest packet = 26102
Flit latency average = 3568.37
	minimum = 6
	maximum = 7792
Slowest flit = 23525
Fragmentation average = 139.432
	minimum = 1
	maximum = 2283
Injected packet rate average = 0.0257552
	minimum = 0.012 (at node 84)
	maximum = 0.037 (at node 13)
Accepted packet rate average = 0.0127156
	minimum = 0.0096 (at node 149)
	maximum = 0.017 (at node 123)
Injected flit rate average = 0.463809
	minimum = 0.2178 (at node 96)
	maximum = 0.6652 (at node 73)
Accepted flit rate average= 0.22801
	minimum = 0.1718 (at node 92)
	maximum = 0.3136 (at node 123)
Injected packet length average = 18.0084
Accepted packet length average = 17.9315
Total in-flight flits = 546618 (413162 measured)
latency change    = 0.241938
throughput change = 0.00839463
Class 0:
Packet latency average = 3634.8
	minimum = 30
	maximum = 7368
Network latency average = 2145.52
	minimum = 28
	maximum = 5985
Slowest packet = 26102
Flit latency average = 3863.7
	minimum = 6
	maximum = 8780
Slowest flit = 27006
Fragmentation average = 173.476
	minimum = 1
	maximum = 3314
Injected packet rate average = 0.0239097
	minimum = 0.0123333 (at node 64)
	maximum = 0.033 (at node 73)
Accepted packet rate average = 0.0126215
	minimum = 0.00966667 (at node 149)
	maximum = 0.017 (at node 123)
Injected flit rate average = 0.430589
	minimum = 0.221333 (at node 64)
	maximum = 0.594333 (at node 73)
Accepted flit rate average= 0.22642
	minimum = 0.173167 (at node 149)
	maximum = 0.303 (at node 123)
Injected packet length average = 18.0089
Accepted packet length average = 17.9392
Total in-flight flits = 555396 (450809 measured)
latency change    = 0.191857
throughput change = 0.00702357
Class 0:
Packet latency average = 4363.62
	minimum = 30
	maximum = 8303
Network latency average = 2744.28
	minimum = 28
	maximum = 6965
Slowest packet = 26102
Flit latency average = 4156.28
	minimum = 6
	maximum = 9839
Slowest flit = 17963
Fragmentation average = 207.867
	minimum = 1
	maximum = 3631
Injected packet rate average = 0.0226287
	minimum = 0.012 (at node 4)
	maximum = 0.0302857 (at node 13)
Accepted packet rate average = 0.0125409
	minimum = 0.00971429 (at node 139)
	maximum = 0.0165714 (at node 157)
Injected flit rate average = 0.407486
	minimum = 0.216429 (at node 4)
	maximum = 0.544714 (at node 13)
Accepted flit rate average= 0.22491
	minimum = 0.173429 (at node 149)
	maximum = 0.300429 (at node 157)
Injected packet length average = 18.0075
Accepted packet length average = 17.9341
Total in-flight flits = 565559 (484811 measured)
latency change    = 0.167021
throughput change = 0.00671455
Draining all recorded packets ...
Class 0:
Remaining flits: 22601 22602 22603 22604 22605 22606 22607 28220 28221 28222 [...] (576015 flits)
Measured flits: 467928 467929 467930 467931 467932 467933 467934 467935 467936 467937 [...] (512964 flits)
Class 0:
Remaining flits: 22601 22602 22603 22604 22605 22606 22607 28220 28221 28222 [...] (586774 flits)
Measured flits: 467934 467935 467936 467937 467938 467939 467940 467941 467942 467943 [...] (536667 flits)
Class 0:
Remaining flits: 22601 22602 22603 22604 22605 22606 22607 28220 28221 28222 [...] (596486 flits)
Measured flits: 467964 467965 467966 467967 467968 467969 467970 467971 467972 467973 [...] (556119 flits)
Class 0:
Remaining flits: 22601 22602 22603 22604 22605 22606 22607 35910 35911 35912 [...] (609514 flits)
Measured flits: 467964 467965 467966 467967 467968 467969 467970 467971 467972 467973 [...] (576675 flits)
Class 0:
Remaining flits: 35910 35911 35912 35913 35914 35915 35916 35917 35918 35919 [...] (622678 flits)
Measured flits: 467964 467965 467966 467967 467968 467969 467970 467971 467972 467973 [...] (595654 flits)
Class 0:
Remaining flits: 50058 50059 50060 50061 50062 50063 50064 50065 50066 50067 [...] (635652 flits)
Measured flits: 467964 467965 467966 467967 467968 467969 467970 467971 467972 467973 [...] (613482 flits)
Class 0:
Remaining flits: 50058 50059 50060 50061 50062 50063 50064 50065 50066 50067 [...] (652043 flits)
Measured flits: 467964 467965 467966 467967 467968 467969 467970 467971 467972 467973 [...] (633846 flits)
Class 0:
Remaining flits: 50058 50059 50060 50061 50062 50063 50064 50065 50066 50067 [...] (668810 flits)
Measured flits: 467964 467965 467966 467967 467968 467969 467970 467971 467972 467973 [...] (653456 flits)
Class 0:
Remaining flits: 50058 50059 50060 50061 50062 50063 50064 50065 50066 50067 [...] (687234 flits)
Measured flits: 467964 467965 467966 467967 467968 467969 467970 467971 467972 467973 [...] (672625 flits)
Class 0:
Remaining flits: 50062 50063 50064 50065 50066 50067 50068 50069 50070 50071 [...] (704136 flits)
Measured flits: 467964 467965 467966 467967 467968 467969 467970 467971 467972 467973 [...] (684513 flits)
Class 0:
Remaining flits: 50062 50063 50064 50065 50066 50067 50068 50069 50070 50071 [...] (716885 flits)
Measured flits: 467968 467969 467970 467971 467972 467973 467974 467975 467976 467977 [...] (685408 flits)
Class 0:
Remaining flits: 50062 50063 50064 50065 50066 50067 50068 50069 50070 50071 [...] (724235 flits)
Measured flits: 468108 468109 468110 468111 468112 468113 468114 468115 468116 468117 [...] (676167 flits)
Class 0:
Remaining flits: 50068 50069 50070 50071 50072 50073 50074 50075 85032 85033 [...] (729755 flits)
Measured flits: 468108 468109 468110 468111 468112 468113 468114 468115 468116 468117 [...] (662809 flits)
Class 0:
Remaining flits: 85032 85033 85034 85035 85036 85037 85038 85039 85040 85041 [...] (735372 flits)
Measured flits: 468108 468109 468110 468111 468112 468113 468114 468115 468116 468117 [...] (643605 flits)
Class 0:
Remaining flits: 85032 85033 85034 85035 85036 85037 85038 85039 85040 85041 [...] (734913 flits)
Measured flits: 468108 468109 468110 468111 468112 468113 468114 468115 468116 468117 [...] (619810 flits)
Class 0:
Remaining flits: 85032 85033 85034 85035 85036 85037 85038 85039 85040 85041 [...] (731966 flits)
Measured flits: 468108 468109 468110 468111 468112 468113 468114 468115 468116 468117 [...] (593526 flits)
Class 0:
Remaining flits: 85034 85035 85036 85037 85038 85039 85040 85041 85042 85043 [...] (728654 flits)
Measured flits: 468108 468109 468110 468111 468112 468113 468114 468115 468116 468117 [...] (571378 flits)
Class 0:
Remaining flits: 85034 85035 85036 85037 85038 85039 85040 85041 85042 85043 [...] (730285 flits)
Measured flits: 468288 468289 468290 468291 468292 468293 468294 468295 468296 468297 [...] (547513 flits)
Class 0:
Remaining flits: 85034 85035 85036 85037 85038 85039 85040 85041 85042 85043 [...] (732129 flits)
Measured flits: 468288 468289 468290 468291 468292 468293 468294 468295 468296 468297 [...] (522519 flits)
Class 0:
Remaining flits: 85034 85035 85036 85037 85038 85039 85040 85041 85042 85043 [...] (730625 flits)
Measured flits: 468288 468289 468290 468291 468292 468293 468294 468295 468296 468297 [...] (496486 flits)
Class 0:
Remaining flits: 85034 85035 85036 85037 85038 85039 85040 85041 85042 85043 [...] (724115 flits)
Measured flits: 468612 468613 468614 468615 468616 468617 468618 468619 468620 468621 [...] (469711 flits)
Class 0:
Remaining flits: 85034 85035 85036 85037 85038 85039 85040 85041 85042 85043 [...] (726894 flits)
Measured flits: 468612 468613 468614 468615 468616 468617 468618 468619 468620 468621 [...] (445976 flits)
Class 0:
Remaining flits: 149994 149995 149996 149997 149998 149999 150000 150001 150002 150003 [...] (731135 flits)
Measured flits: 468612 468613 468614 468615 468616 468617 468618 468619 468620 468621 [...] (425488 flits)
Class 0:
Remaining flits: 149994 149995 149996 149997 149998 149999 150000 150001 150002 150003 [...] (735187 flits)
Measured flits: 468792 468793 468794 468795 468796 468797 468798 468799 468800 468801 [...] (402405 flits)
Class 0:
Remaining flits: 149994 149995 149996 149997 149998 149999 150000 150001 150002 150003 [...] (733998 flits)
Measured flits: 468792 468793 468794 468795 468796 468797 468798 468799 468800 468801 [...] (378040 flits)
Class 0:
Remaining flits: 149994 149995 149996 149997 149998 149999 150000 150001 150002 150003 [...] (733183 flits)
Measured flits: 468792 468793 468794 468795 468796 468797 468798 468799 468800 468801 [...] (356202 flits)
Class 0:
Remaining flits: 149994 149995 149996 149997 149998 149999 150000 150001 150002 150003 [...] (731002 flits)
Measured flits: 468792 468793 468794 468795 468796 468797 468798 468799 468800 468801 [...] (333108 flits)
Class 0:
Remaining flits: 149994 149995 149996 149997 149998 149999 150000 150001 150002 150003 [...] (730603 flits)
Measured flits: 468792 468793 468794 468795 468796 468797 468798 468799 468800 468801 [...] (313548 flits)
Class 0:
Remaining flits: 149994 149995 149996 149997 149998 149999 150000 150001 150002 150003 [...] (728640 flits)
Measured flits: 468792 468793 468794 468795 468796 468797 468798 468799 468800 468801 [...] (293123 flits)
Class 0:
Remaining flits: 149994 149995 149996 149997 149998 149999 150000 150001 150002 150003 [...] (726239 flits)
Measured flits: 475902 475903 475904 475905 475906 475907 475908 475909 475910 475911 [...] (271483 flits)
Class 0:
Remaining flits: 149994 149995 149996 149997 149998 149999 150000 150001 150002 150003 [...] (717641 flits)
Measured flits: 475902 475903 475904 475905 475906 475907 475908 475909 475910 475911 [...] (251818 flits)
Class 0:
Remaining flits: 149994 149995 149996 149997 149998 149999 150000 150001 150002 150003 [...] (711142 flits)
Measured flits: 475902 475903 475904 475905 475906 475907 475908 475909 475910 475911 [...] (233190 flits)
Class 0:
Remaining flits: 320994 320995 320996 320997 320998 320999 321000 321001 321002 321003 [...] (713920 flits)
Measured flits: 475902 475903 475904 475905 475906 475907 475908 475909 475910 475911 [...] (214832 flits)
Class 0:
Remaining flits: 320994 320995 320996 320997 320998 320999 321000 321001 321002 321003 [...] (713415 flits)
Measured flits: 477360 477361 477362 477363 477364 477365 477366 477367 477368 477369 [...] (197584 flits)
Class 0:
Remaining flits: 320994 320995 320996 320997 320998 320999 321000 321001 321002 321003 [...] (710145 flits)
Measured flits: 477360 477361 477362 477363 477364 477365 477366 477367 477368 477369 [...] (182839 flits)
Class 0:
Remaining flits: 320994 320995 320996 320997 320998 320999 321000 321001 321002 321003 [...] (707782 flits)
Measured flits: 477360 477361 477362 477363 477364 477365 477366 477367 477368 477369 [...] (167707 flits)
Class 0:
Remaining flits: 375488 375489 375490 375491 375492 375493 375494 375495 375496 375497 [...] (708302 flits)
Measured flits: 477360 477361 477362 477363 477364 477365 477366 477367 477368 477369 [...] (153163 flits)
Class 0:
Remaining flits: 477360 477361 477362 477363 477364 477365 477366 477367 477368 477369 [...] (706087 flits)
Measured flits: 477360 477361 477362 477363 477364 477365 477366 477367 477368 477369 [...] (141791 flits)
Class 0:
Remaining flits: 477360 477361 477362 477363 477364 477365 477366 477367 477368 477369 [...] (701819 flits)
Measured flits: 477360 477361 477362 477363 477364 477365 477366 477367 477368 477369 [...] (129539 flits)
Class 0:
Remaining flits: 477360 477361 477362 477363 477364 477365 477366 477367 477368 477369 [...] (700199 flits)
Measured flits: 477360 477361 477362 477363 477364 477365 477366 477367 477368 477369 [...] (117261 flits)
Class 0:
Remaining flits: 477360 477361 477362 477363 477364 477365 477366 477367 477368 477369 [...] (697334 flits)
Measured flits: 477360 477361 477362 477363 477364 477365 477366 477367 477368 477369 [...] (105073 flits)
Class 0:
Remaining flits: 477360 477361 477362 477363 477364 477365 477366 477367 477368 477369 [...] (699806 flits)
Measured flits: 477360 477361 477362 477363 477364 477365 477366 477367 477368 477369 [...] (94989 flits)
Class 0:
Remaining flits: 477360 477361 477362 477363 477364 477365 477366 477367 477368 477369 [...] (697762 flits)
Measured flits: 477360 477361 477362 477363 477364 477365 477366 477367 477368 477369 [...] (86311 flits)
Class 0:
Remaining flits: 477360 477361 477362 477363 477364 477365 477366 477367 477368 477369 [...] (694768 flits)
Measured flits: 477360 477361 477362 477363 477364 477365 477366 477367 477368 477369 [...] (78869 flits)
Class 0:
Remaining flits: 477360 477361 477362 477363 477364 477365 477366 477367 477368 477369 [...] (691223 flits)
Measured flits: 477360 477361 477362 477363 477364 477365 477366 477367 477368 477369 [...] (71886 flits)
Class 0:
Remaining flits: 496062 496063 496064 496065 496066 496067 496068 496069 496070 496071 [...] (690100 flits)
Measured flits: 496062 496063 496064 496065 496066 496067 496068 496069 496070 496071 [...] (65161 flits)
Class 0:
Remaining flits: 496062 496063 496064 496065 496066 496067 496068 496069 496070 496071 [...] (690986 flits)
Measured flits: 496062 496063 496064 496065 496066 496067 496068 496069 496070 496071 [...] (59197 flits)
Class 0:
Remaining flits: 589050 589051 589052 589053 589054 589055 589056 589057 589058 589059 [...] (692796 flits)
Measured flits: 589050 589051 589052 589053 589054 589055 589056 589057 589058 589059 [...] (53217 flits)
Class 0:
Remaining flits: 589050 589051 589052 589053 589054 589055 589056 589057 589058 589059 [...] (691170 flits)
Measured flits: 589050 589051 589052 589053 589054 589055 589056 589057 589058 589059 [...] (47901 flits)
Class 0:
Remaining flits: 589063 589064 589065 589066 589067 603828 603829 603830 603831 603832 [...] (689325 flits)
Measured flits: 589063 589064 589065 589066 589067 603828 603829 603830 603831 603832 [...] (42647 flits)
Class 0:
Remaining flits: 603828 603829 603830 603831 603832 603833 603834 603835 603836 603837 [...] (687351 flits)
Measured flits: 603828 603829 603830 603831 603832 603833 603834 603835 603836 603837 [...] (38233 flits)
Class 0:
Remaining flits: 603828 603829 603830 603831 603832 603833 603834 603835 603836 603837 [...] (682885 flits)
Measured flits: 603828 603829 603830 603831 603832 603833 603834 603835 603836 603837 [...] (33461 flits)
Class 0:
Remaining flits: 603828 603829 603830 603831 603832 603833 603834 603835 603836 603837 [...] (684251 flits)
Measured flits: 603828 603829 603830 603831 603832 603833 603834 603835 603836 603837 [...] (29631 flits)
Class 0:
Remaining flits: 603828 603829 603830 603831 603832 603833 603834 603835 603836 603837 [...] (687518 flits)
Measured flits: 603828 603829 603830 603831 603832 603833 603834 603835 603836 603837 [...] (26405 flits)
Class 0:
Remaining flits: 603828 603829 603830 603831 603832 603833 603834 603835 603836 603837 [...] (691445 flits)
Measured flits: 603828 603829 603830 603831 603832 603833 603834 603835 603836 603837 [...] (23281 flits)
Class 0:
Remaining flits: 603828 603829 603830 603831 603832 603833 603834 603835 603836 603837 [...] (691280 flits)
Measured flits: 603828 603829 603830 603831 603832 603833 603834 603835 603836 603837 [...] (20447 flits)
Class 0:
Remaining flits: 603828 603829 603830 603831 603832 603833 603834 603835 603836 603837 [...] (689201 flits)
Measured flits: 603828 603829 603830 603831 603832 603833 603834 603835 603836 603837 [...] (18142 flits)
Class 0:
Remaining flits: 603828 603829 603830 603831 603832 603833 603834 603835 603836 603837 [...] (689160 flits)
Measured flits: 603828 603829 603830 603831 603832 603833 603834 603835 603836 603837 [...] (16257 flits)
Class 0:
Remaining flits: 603828 603829 603830 603831 603832 603833 603834 603835 603836 603837 [...] (688347 flits)
Measured flits: 603828 603829 603830 603831 603832 603833 603834 603835 603836 603837 [...] (14142 flits)
Class 0:
Remaining flits: 789246 789247 789248 789249 789250 789251 789252 789253 789254 789255 [...] (686243 flits)
Measured flits: 789246 789247 789248 789249 789250 789251 789252 789253 789254 789255 [...] (12463 flits)
Class 0:
Remaining flits: 789246 789247 789248 789249 789250 789251 789252 789253 789254 789255 [...] (687955 flits)
Measured flits: 789246 789247 789248 789249 789250 789251 789252 789253 789254 789255 [...] (11287 flits)
Class 0:
Remaining flits: 789246 789247 789248 789249 789250 789251 789252 789253 789254 789255 [...] (686949 flits)
Measured flits: 789246 789247 789248 789249 789250 789251 789252 789253 789254 789255 [...] (9876 flits)
Class 0:
Remaining flits: 789246 789247 789248 789249 789250 789251 789252 789253 789254 789255 [...] (682998 flits)
Measured flits: 789246 789247 789248 789249 789250 789251 789252 789253 789254 789255 [...] (8571 flits)
Class 0:
Remaining flits: 789246 789247 789248 789249 789250 789251 789252 789253 789254 789255 [...] (679253 flits)
Measured flits: 789246 789247 789248 789249 789250 789251 789252 789253 789254 789255 [...] (7350 flits)
Class 0:
Remaining flits: 789246 789247 789248 789249 789250 789251 789252 789253 789254 789255 [...] (670299 flits)
Measured flits: 789246 789247 789248 789249 789250 789251 789252 789253 789254 789255 [...] (6523 flits)
Class 0:
Remaining flits: 789246 789247 789248 789249 789250 789251 789252 789253 789254 789255 [...] (667023 flits)
Measured flits: 789246 789247 789248 789249 789250 789251 789252 789253 789254 789255 [...] (5613 flits)
Class 0:
Remaining flits: 789246 789247 789248 789249 789250 789251 789252 789253 789254 789255 [...] (663609 flits)
Measured flits: 789246 789247 789248 789249 789250 789251 789252 789253 789254 789255 [...] (5031 flits)
Class 0:
Remaining flits: 789246 789247 789248 789249 789250 789251 789252 789253 789254 789255 [...] (663951 flits)
Measured flits: 789246 789247 789248 789249 789250 789251 789252 789253 789254 789255 [...] (4480 flits)
Class 0:
Remaining flits: 789246 789247 789248 789249 789250 789251 789252 789253 789254 789255 [...] (664263 flits)
Measured flits: 789246 789247 789248 789249 789250 789251 789252 789253 789254 789255 [...] (3811 flits)
Class 0:
Remaining flits: 962982 962983 962984 962985 962986 962987 962988 962989 962990 962991 [...] (663267 flits)
Measured flits: 962982 962983 962984 962985 962986 962987 962988 962989 962990 962991 [...] (3105 flits)
Class 0:
Remaining flits: 962982 962983 962984 962985 962986 962987 962988 962989 962990 962991 [...] (666030 flits)
Measured flits: 962982 962983 962984 962985 962986 962987 962988 962989 962990 962991 [...] (2843 flits)
Class 0:
Remaining flits: 962982 962983 962984 962985 962986 962987 962988 962989 962990 962991 [...] (671394 flits)
Measured flits: 962982 962983 962984 962985 962986 962987 962988 962989 962990 962991 [...] (2433 flits)
Class 0:
Remaining flits: 1146222 1146223 1146224 1146225 1146226 1146227 1146228 1146229 1146230 1146231 [...] (669343 flits)
Measured flits: 1146222 1146223 1146224 1146225 1146226 1146227 1146228 1146229 1146230 1146231 [...] (2203 flits)
Class 0:
Remaining flits: 1146222 1146223 1146224 1146225 1146226 1146227 1146228 1146229 1146230 1146231 [...] (661324 flits)
Measured flits: 1146222 1146223 1146224 1146225 1146226 1146227 1146228 1146229 1146230 1146231 [...] (2078 flits)
Class 0:
Remaining flits: 1146222 1146223 1146224 1146225 1146226 1146227 1146228 1146229 1146230 1146231 [...] (655197 flits)
Measured flits: 1146222 1146223 1146224 1146225 1146226 1146227 1146228 1146229 1146230 1146231 [...] (1829 flits)
Class 0:
Remaining flits: 1146222 1146223 1146224 1146225 1146226 1146227 1146228 1146229 1146230 1146231 [...] (654525 flits)
Measured flits: 1146222 1146223 1146224 1146225 1146226 1146227 1146228 1146229 1146230 1146231 [...] (1637 flits)
Class 0:
Remaining flits: 1146222 1146223 1146224 1146225 1146226 1146227 1146228 1146229 1146230 1146231 [...] (651209 flits)
Measured flits: 1146222 1146223 1146224 1146225 1146226 1146227 1146228 1146229 1146230 1146231 [...] (1393 flits)
Class 0:
Remaining flits: 1146222 1146223 1146224 1146225 1146226 1146227 1146228 1146229 1146230 1146231 [...] (650394 flits)
Measured flits: 1146222 1146223 1146224 1146225 1146226 1146227 1146228 1146229 1146230 1146231 [...] (1167 flits)
Class 0:
Remaining flits: 1146222 1146223 1146224 1146225 1146226 1146227 1146228 1146229 1146230 1146231 [...] (651758 flits)
Measured flits: 1146222 1146223 1146224 1146225 1146226 1146227 1146228 1146229 1146230 1146231 [...] (1041 flits)
Class 0:
Remaining flits: 1146222 1146223 1146224 1146225 1146226 1146227 1146228 1146229 1146230 1146231 [...] (654446 flits)
Measured flits: 1146222 1146223 1146224 1146225 1146226 1146227 1146228 1146229 1146230 1146231 [...] (871 flits)
Class 0:
Remaining flits: 1146222 1146223 1146224 1146225 1146226 1146227 1146228 1146229 1146230 1146231 [...] (654914 flits)
Measured flits: 1146222 1146223 1146224 1146225 1146226 1146227 1146228 1146229 1146230 1146231 [...] (770 flits)
Class 0:
Remaining flits: 1368576 1368577 1368578 1368579 1368580 1368581 1368582 1368583 1368584 1368585 [...] (658006 flits)
Measured flits: 1368576 1368577 1368578 1368579 1368580 1368581 1368582 1368583 1368584 1368585 [...] (698 flits)
Class 0:
Remaining flits: 1368576 1368577 1368578 1368579 1368580 1368581 1368582 1368583 1368584 1368585 [...] (658240 flits)
Measured flits: 1368576 1368577 1368578 1368579 1368580 1368581 1368582 1368583 1368584 1368585 [...] (621 flits)
Class 0:
Remaining flits: 1368576 1368577 1368578 1368579 1368580 1368581 1368582 1368583 1368584 1368585 [...] (656215 flits)
Measured flits: 1368576 1368577 1368578 1368579 1368580 1368581 1368582 1368583 1368584 1368585 [...] (509 flits)
Class 0:
Remaining flits: 1426320 1426321 1426322 1426323 1426324 1426325 1426326 1426327 1426328 1426329 [...] (659292 flits)
Measured flits: 1426320 1426321 1426322 1426323 1426324 1426325 1426326 1426327 1426328 1426329 [...] (370 flits)
Class 0:
Remaining flits: 1426320 1426321 1426322 1426323 1426324 1426325 1426326 1426327 1426328 1426329 [...] (657910 flits)
Measured flits: 1426320 1426321 1426322 1426323 1426324 1426325 1426326 1426327 1426328 1426329 [...] (370 flits)
Class 0:
Remaining flits: 1426320 1426321 1426322 1426323 1426324 1426325 1426326 1426327 1426328 1426329 [...] (657296 flits)
Measured flits: 1426320 1426321 1426322 1426323 1426324 1426325 1426326 1426327 1426328 1426329 [...] (339 flits)
Class 0:
Remaining flits: 1426320 1426321 1426322 1426323 1426324 1426325 1426326 1426327 1426328 1426329 [...] (654334 flits)
Measured flits: 1426320 1426321 1426322 1426323 1426324 1426325 1426326 1426327 1426328 1426329 [...] (288 flits)
Class 0:
Remaining flits: 1844712 1844713 1844714 1844715 1844716 1844717 1844718 1844719 1844720 1844721 [...] (650195 flits)
Measured flits: 2180448 2180449 2180450 2180451 2180452 2180453 2180454 2180455 2180456 2180457 [...] (234 flits)
Class 0:
Remaining flits: 1844712 1844713 1844714 1844715 1844716 1844717 1844718 1844719 1844720 1844721 [...] (646133 flits)
Measured flits: 2180448 2180449 2180450 2180451 2180452 2180453 2180454 2180455 2180456 2180457 [...] (180 flits)
Class 0:
Remaining flits: 1844712 1844713 1844714 1844715 1844716 1844717 1844718 1844719 1844720 1844721 [...] (645389 flits)
Measured flits: 2180448 2180449 2180450 2180451 2180452 2180453 2180454 2180455 2180456 2180457 [...] (180 flits)
Class 0:
Remaining flits: 1844712 1844713 1844714 1844715 1844716 1844717 1844718 1844719 1844720 1844721 [...] (648975 flits)
Measured flits: 2180448 2180449 2180450 2180451 2180452 2180453 2180454 2180455 2180456 2180457 [...] (180 flits)
Class 0:
Remaining flits: 1844712 1844713 1844714 1844715 1844716 1844717 1844718 1844719 1844720 1844721 [...] (646867 flits)
Measured flits: 2180448 2180449 2180450 2180451 2180452 2180453 2180454 2180455 2180456 2180457 [...] (126 flits)
Class 0:
Remaining flits: 1844712 1844713 1844714 1844715 1844716 1844717 1844718 1844719 1844720 1844721 [...] (641864 flits)
Measured flits: 2480886 2480887 2480888 2480889 2480890 2480891 2480892 2480893 2480894 2480895 [...] (72 flits)
Class 0:
Remaining flits: 1844712 1844713 1844714 1844715 1844716 1844717 1844718 1844719 1844720 1844721 [...] (640454 flits)
Measured flits: 2480886 2480887 2480888 2480889 2480890 2480891 2480892 2480893 2480894 2480895 [...] (72 flits)
Class 0:
Remaining flits: 1844712 1844713 1844714 1844715 1844716 1844717 1844718 1844719 1844720 1844721 [...] (640305 flits)
Measured flits: 2480901 2480902 2480903 2487654 2487655 2487656 2487657 2487658 2487659 2487660 [...] (57 flits)
Class 0:
Remaining flits: 1844712 1844713 1844714 1844715 1844716 1844717 1844718 1844719 1844720 1844721 [...] (640350 flits)
Measured flits: 2487654 2487655 2487656 2487657 2487658 2487659 2487660 2487661 2487662 2487663 [...] (54 flits)
Class 0:
Remaining flits: 1844712 1844713 1844714 1844715 1844716 1844717 1844718 1844719 1844720 1844721 [...] (642699 flits)
Measured flits: 2487654 2487655 2487656 2487657 2487658 2487659 2487660 2487661 2487662 2487663 [...] (54 flits)
Class 0:
Remaining flits: 1871100 1871101 1871102 1871103 1871104 1871105 1871106 1871107 1871108 1871109 [...] (648784 flits)
Measured flits: 2487654 2487655 2487656 2487657 2487658 2487659 2487660 2487661 2487662 2487663 [...] (54 flits)
Class 0:
Remaining flits: 1871100 1871101 1871102 1871103 1871104 1871105 1871106 1871107 1871108 1871109 [...] (651516 flits)
Measured flits: 2487654 2487655 2487656 2487657 2487658 2487659 2487660 2487661 2487662 2487663 [...] (54 flits)
Class 0:
Remaining flits: 1871100 1871101 1871102 1871103 1871104 1871105 1871106 1871107 1871108 1871109 [...] (652742 flits)
Measured flits: 2487654 2487655 2487656 2487657 2487658 2487659 2487660 2487661 2487662 2487663 [...] (54 flits)
Class 0:
Remaining flits: 1871100 1871101 1871102 1871103 1871104 1871105 1871106 1871107 1871108 1871109 [...] (652185 flits)
Measured flits: 2487654 2487655 2487656 2487657 2487658 2487659 2487660 2487661 2487662 2487663 [...] (54 flits)
Class 0:
Remaining flits: 1871100 1871101 1871102 1871103 1871104 1871105 1871106 1871107 1871108 1871109 [...] (653961 flits)
Measured flits: 2487654 2487655 2487656 2487657 2487658 2487659 2487660 2487661 2487662 2487663 [...] (54 flits)
Class 0:
Remaining flits: 2146158 2146159 2146160 2146161 2146162 2146163 2146164 2146165 2146166 2146167 [...] (651766 flits)
Measured flits: 2487654 2487655 2487656 2487657 2487658 2487659 2487660 2487661 2487662 2487663 [...] (34 flits)
Class 0:
Remaining flits: 2146158 2146159 2146160 2146161 2146162 2146163 2146164 2146165 2146166 2146167 [...] (646427 flits)
Measured flits: 2487654 2487655 2487656 2487657 2487658 2487659 2487660 2487661 2487662 2487663 [...] (24 flits)
Class 0:
Remaining flits: 2146158 2146159 2146160 2146161 2146162 2146163 2146164 2146165 2146166 2146167 [...] (643326 flits)
Measured flits: 2487654 2487655 2487656 2487657 2487658 2487659 2487660 2487661 2487662 2487663 [...] (18 flits)
Class 0:
Remaining flits: 2146158 2146159 2146160 2146161 2146162 2146163 2146164 2146165 2146166 2146167 [...] (646839 flits)
Measured flits: 2487654 2487655 2487656 2487657 2487658 2487659 2487660 2487661 2487662 2487663 [...] (18 flits)
Class 0:
Remaining flits: 2146158 2146159 2146160 2146161 2146162 2146163 2146164 2146165 2146166 2146167 [...] (650295 flits)
Measured flits: 2487654 2487655 2487656 2487657 2487658 2487659 2487660 2487661 2487662 2487663 [...] (18 flits)
Class 0:
Remaining flits: 2146158 2146159 2146160 2146161 2146162 2146163 2146164 2146165 2146166 2146167 [...] (652761 flits)
Measured flits: 2487654 2487655 2487656 2487657 2487658 2487659 2487660 2487661 2487662 2487663 [...] (18 flits)
Draining remaining packets ...
Class 0:
Remaining flits: 2241198 2241199 2241200 2241201 2241202 2241203 2241204 2241205 2241206 2241207 [...] (619353 flits)
Measured flits: (0 flits)
Class 0:
Remaining flits: 2241198 2241199 2241200 2241201 2241202 2241203 2241204 2241205 2241206 2241207 [...] (586104 flits)
Measured flits: (0 flits)
Class 0:
Remaining flits: 2241198 2241199 2241200 2241201 2241202 2241203 2241204 2241205 2241206 2241207 [...] (552562 flits)
Measured flits: (0 flits)
Class 0:
Remaining flits: 2241198 2241199 2241200 2241201 2241202 2241203 2241204 2241205 2241206 2241207 [...] (519397 flits)
Measured flits: (0 flits)
Class 0:
Remaining flits: 2241198 2241199 2241200 2241201 2241202 2241203 2241204 2241205 2241206 2241207 [...] (488351 flits)
Measured flits: (0 flits)
Class 0:
Remaining flits: 2241198 2241199 2241200 2241201 2241202 2241203 2241204 2241205 2241206 2241207 [...] (458108 flits)
Measured flits: (0 flits)
Class 0:
Remaining flits: 2434104 2434105 2434106 2434107 2434108 2434109 2434110 2434111 2434112 2434113 [...] (428187 flits)
Measured flits: (0 flits)
Class 0:
Remaining flits: 2434104 2434105 2434106 2434107 2434108 2434109 2434110 2434111 2434112 2434113 [...] (398061 flits)
Measured flits: (0 flits)
Class 0:
Remaining flits: 2434104 2434105 2434106 2434107 2434108 2434109 2434110 2434111 2434112 2434113 [...] (367450 flits)
Measured flits: (0 flits)
Class 0:
Remaining flits: 2434104 2434105 2434106 2434107 2434108 2434109 2434110 2434111 2434112 2434113 [...] (337626 flits)
Measured flits: (0 flits)
Class 0:
Remaining flits: 2434104 2434105 2434106 2434107 2434108 2434109 2434110 2434111 2434112 2434113 [...] (308165 flits)
Measured flits: (0 flits)
Class 0:
Remaining flits: 2689231 2689232 2689233 2689234 2689235 2768922 2768923 2768924 2768925 2768926 [...] (278392 flits)
Measured flits: (0 flits)
Class 0:
Remaining flits: 2768928 2768929 2768930 2768931 2768932 2768933 2768934 2768935 2768936 2768937 [...] (249514 flits)
Measured flits: (0 flits)
Class 0:
Remaining flits: 2856744 2856745 2856746 2856747 2856748 2856749 2856750 2856751 2856752 2856753 [...] (223198 flits)
Measured flits: (0 flits)
Class 0:
Remaining flits: 2856744 2856745 2856746 2856747 2856748 2856749 2856750 2856751 2856752 2856753 [...] (196522 flits)
Measured flits: (0 flits)
Class 0:
Remaining flits: 2856744 2856745 2856746 2856747 2856748 2856749 2856750 2856751 2856752 2856753 [...] (168453 flits)
Measured flits: (0 flits)
Class 0:
Remaining flits: 2856744 2856745 2856746 2856747 2856748 2856749 2856750 2856751 2856752 2856753 [...] (141165 flits)
Measured flits: (0 flits)
Class 0:
Remaining flits: 2856744 2856745 2856746 2856747 2856748 2856749 2856750 2856751 2856752 2856753 [...] (115549 flits)
Measured flits: (0 flits)
Class 0:
Remaining flits: 2856744 2856745 2856746 2856747 2856748 2856749 2856750 2856751 2856752 2856753 [...] (91846 flits)
Measured flits: (0 flits)
Class 0:
Remaining flits: 2903670 2903671 2903672 2903673 2903674 2903675 2903676 2903677 2903678 2903679 [...] (68836 flits)
Measured flits: (0 flits)
Class 0:
Remaining flits: 3036132 3036133 3036134 3036135 3036136 3036137 3036138 3036139 3036140 3036141 [...] (48512 flits)
Measured flits: (0 flits)
Class 0:
Remaining flits: 3169584 3169585 3169586 3169587 3169588 3169589 3169590 3169591 3169592 3169593 [...] (30951 flits)
Measured flits: (0 flits)
Class 0:
Remaining flits: 3169584 3169585 3169586 3169587 3169588 3169589 3169590 3169591 3169592 3169593 [...] (17317 flits)
Measured flits: (0 flits)
Class 0:
Remaining flits: 3169584 3169585 3169586 3169587 3169588 3169589 3169590 3169591 3169592 3169593 [...] (8815 flits)
Measured flits: (0 flits)
Class 0:
Remaining flits: 3169584 3169585 3169586 3169587 3169588 3169589 3169590 3169591 3169592 3169593 [...] (5974 flits)
Measured flits: (0 flits)
Class 0:
Remaining flits: 3169584 3169585 3169586 3169587 3169588 3169589 3169590 3169591 3169592 3169593 [...] (4063 flits)
Measured flits: (0 flits)
Class 0:
Remaining flits: 3169584 3169585 3169586 3169587 3169588 3169589 3169590 3169591 3169592 3169593 [...] (2757 flits)
Measured flits: (0 flits)
Class 0:
Remaining flits: 3169584 3169585 3169586 3169587 3169588 3169589 3169590 3169591 3169592 3169593 [...] (1705 flits)
Measured flits: (0 flits)
Class 0:
Remaining flits: 3381462 3381463 3381464 3381465 3381466 3381467 3381468 3381469 3381470 3381471 [...] (705 flits)
Measured flits: (0 flits)
Time taken is 148966 cycles
====== Overall Traffic Statistics ======
====== Traffic class 0 ======
Packet latency average = 23717.9 (1 samples)
	minimum = 30 (1 samples)
	maximum = 110818 (1 samples)
Network latency average = 16245.2 (1 samples)
	minimum = 23 (1 samples)
	maximum = 80965 (1 samples)
Flit latency average = 17736.6 (1 samples)
	minimum = 6 (1 samples)
	maximum = 86666 (1 samples)
Fragmentation average = 225.796 (1 samples)
	minimum = 0 (1 samples)
	maximum = 20487 (1 samples)
Injected packet rate average = 0.0226287 (1 samples)
	minimum = 0.012 (1 samples)
	maximum = 0.0302857 (1 samples)
Accepted packet rate average = 0.0125409 (1 samples)
	minimum = 0.00971429 (1 samples)
	maximum = 0.0165714 (1 samples)
Injected flit rate average = 0.407486 (1 samples)
	minimum = 0.216429 (1 samples)
	maximum = 0.544714 (1 samples)
Accepted flit rate average = 0.22491 (1 samples)
	minimum = 0.173429 (1 samples)
	maximum = 0.300429 (1 samples)
Injected packet size average = 18.0075 (1 samples)
Accepted packet size average = 17.9341 (1 samples)
Hops average = 5.03786 (1 samples)
Total run time 301.713
