BEGIN Configuration File: networks/mezzanine_config
topology = mezzanine;
n = 12;

routing_function = multipath;
internal_speedup = 2.0;
latency_thres = 100000.0;
use_read_write = 0;

sample_period = 1000;
injection_rate = 0.5;
packet_size = 18;

noq = 1;
routing_delay = 0;
vc_alloc_delay = 1;
sw_alloc_delay = 1;
st_final_delay = 1;
vc_allocator = islip; 
sw_allocator = islip;
alloc_iters  = 4;
num_vcs     = 12;
buffer_policy = private; // private or shared
buf_size = -1; // -1 for buffer_policy = private;
vc_buf_size = 4096; // size of each VOQ with buffer_policy = private
output_buffer_size = -1;


traffic = uniform;

//mezW = 0.0;
//mezPredefinedPatternType = shift-inter; //shift-qfdb

END Configuration File: networks/mezzanine_config
OVERRIDE Parameter: injection_rate=0.009117
OVERRIDE Parameter: routing_function=multipath
OVERRIDE Parameter: num_vcs=32
OVERRIDE Parameter: vc_buf_size=18
OVERRIDE Parameter: internal_speedup=2.0
OVERRIDE Parameter: injection_process=on_off
OVERRIDE Parameter: sim_type=latency
OVERRIDE Parameter: burst_alpha=0.0038461538
OVERRIDE Parameter: burst_beta=0.1
network: network_0
========================== Routing table  =====================
Number of Subnets: 1
Class 0:
Packet latency average = 130.183
	minimum = 22
	maximum = 572
Network latency average = 92.1564
	minimum = 22
	maximum = 468
Slowest packet = 45
Flit latency average = 65.527
	minimum = 5
	maximum = 451
Slowest flit = 11804
Fragmentation average = 18.56
	minimum = 0
	maximum = 196
Injected packet rate average = 0.00964583
	minimum = 0 (at node 8)
	maximum = 0.03 (at node 117)
Accepted packet rate average = 0.00872396
	minimum = 0.001 (at node 41)
	maximum = 0.016 (at node 140)
Injected flit rate average = 0.172115
	minimum = 0 (at node 8)
	maximum = 0.54 (at node 173)
Accepted flit rate average= 0.159193
	minimum = 0.018 (at node 41)
	maximum = 0.288 (at node 140)
Injected packet length average = 17.8434
Accepted packet length average = 18.2478
Total in-flight flits = 2771 (0 measured)
latency change    = 1
throughput change = 1
Class 0:
Packet latency average = 137.686
	minimum = 22
	maximum = 781
Network latency average = 99.4376
	minimum = 22
	maximum = 580
Slowest packet = 45
Flit latency average = 72.6886
	minimum = 5
	maximum = 563
Slowest flit = 28367
Fragmentation average = 18.3945
	minimum = 0
	maximum = 196
Injected packet rate average = 0.00927865
	minimum = 0.0005 (at node 102)
	maximum = 0.025 (at node 20)
Accepted packet rate average = 0.00894531
	minimum = 0.005 (at node 30)
	maximum = 0.014 (at node 22)
Injected flit rate average = 0.166448
	minimum = 0.009 (at node 102)
	maximum = 0.45 (at node 20)
Accepted flit rate average= 0.16207
	minimum = 0.09 (at node 30)
	maximum = 0.2625 (at node 22)
Injected packet length average = 17.9388
Accepted packet length average = 18.1179
Total in-flight flits = 1899 (0 measured)
latency change    = 0.054495
throughput change = 0.0177553
Class 0:
Packet latency average = 136.217
	minimum = 25
	maximum = 631
Network latency average = 100.011
	minimum = 22
	maximum = 582
Slowest packet = 2693
Flit latency average = 73.3642
	minimum = 5
	maximum = 565
Slowest flit = 48996
Fragmentation average = 18.5281
	minimum = 0
	maximum = 149
Injected packet rate average = 0.00932812
	minimum = 0 (at node 50)
	maximum = 0.028 (at node 135)
Accepted packet rate average = 0.00888542
	minimum = 0.001 (at node 153)
	maximum = 0.016 (at node 14)
Injected flit rate average = 0.167432
	minimum = 0 (at node 50)
	maximum = 0.504 (at node 135)
Accepted flit rate average= 0.160516
	minimum = 0.018 (at node 153)
	maximum = 0.288 (at node 14)
Injected packet length average = 17.9492
Accepted packet length average = 18.0651
Total in-flight flits = 3318 (0 measured)
latency change    = 0.0107799
throughput change = 0.00968558
Warmed up ...Time used is 3000 cycles
Class 0:
Packet latency average = 143.49
	minimum = 22
	maximum = 641
Network latency average = 106.411
	minimum = 22
	maximum = 619
Slowest packet = 5789
Flit latency average = 89.4863
	minimum = 5
	maximum = 630
Slowest flit = 86471
Fragmentation average = 19.603
	minimum = 0
	maximum = 234
Injected packet rate average = 0.00902604
	minimum = 0 (at node 18)
	maximum = 0.033 (at node 17)
Accepted packet rate average = 0.00942708
	minimum = 0.002 (at node 184)
	maximum = 0.021 (at node 56)
Injected flit rate average = 0.162781
	minimum = 0 (at node 18)
	maximum = 0.596 (at node 17)
Accepted flit rate average= 0.169547
	minimum = 0.036 (at node 184)
	maximum = 0.378 (at node 56)
Injected packet length average = 18.0346
Accepted packet length average = 17.9851
Total in-flight flits = 1959 (1959 measured)
latency change    = 0.0506851
throughput change = 0.053267
Class 0:
Packet latency average = 138.324
	minimum = 22
	maximum = 641
Network latency average = 99.9626
	minimum = 22
	maximum = 619
Slowest packet = 5789
Flit latency average = 78.9868
	minimum = 5
	maximum = 630
Slowest flit = 86471
Fragmentation average = 18.0494
	minimum = 0
	maximum = 234
Injected packet rate average = 0.00908333
	minimum = 0.0005 (at node 9)
	maximum = 0.028 (at node 107)
Accepted packet rate average = 0.00925781
	minimum = 0.0045 (at node 190)
	maximum = 0.0175 (at node 16)
Injected flit rate average = 0.163797
	minimum = 0.009 (at node 9)
	maximum = 0.504 (at node 107)
Accepted flit rate average= 0.166727
	minimum = 0.081 (at node 190)
	maximum = 0.315 (at node 16)
Injected packet length average = 18.0327
Accepted packet length average = 18.0093
Total in-flight flits = 2079 (2079 measured)
latency change    = 0.0373466
throughput change = 0.0169158
Class 0:
Packet latency average = 136.023
	minimum = 22
	maximum = 785
Network latency average = 97.9742
	minimum = 22
	maximum = 663
Slowest packet = 5789
Flit latency average = 75.2659
	minimum = 5
	maximum = 646
Slowest flit = 166715
Fragmentation average = 18.1972
	minimum = 0
	maximum = 234
Injected packet rate average = 0.00880035
	minimum = 0.000333333 (at node 122)
	maximum = 0.024 (at node 107)
Accepted packet rate average = 0.00892882
	minimum = 0.00566667 (at node 1)
	maximum = 0.0156667 (at node 16)
Injected flit rate average = 0.158585
	minimum = 0.006 (at node 122)
	maximum = 0.432 (at node 107)
Accepted flit rate average= 0.160523
	minimum = 0.0986667 (at node 134)
	maximum = 0.282 (at node 16)
Injected packet length average = 18.0203
Accepted packet length average = 17.978
Total in-flight flits = 2099 (2099 measured)
latency change    = 0.0169164
throughput change = 0.0386487
Class 0:
Packet latency average = 137.194
	minimum = 22
	maximum = 868
Network latency average = 98.5824
	minimum = 22
	maximum = 813
Slowest packet = 9812
Flit latency average = 74.9542
	minimum = 5
	maximum = 796
Slowest flit = 176624
Fragmentation average = 18.0626
	minimum = 0
	maximum = 234
Injected packet rate average = 0.00886979
	minimum = 0.0025 (at node 61)
	maximum = 0.0185 (at node 107)
Accepted packet rate average = 0.00892969
	minimum = 0.0045 (at node 4)
	maximum = 0.0135 (at node 16)
Injected flit rate average = 0.159676
	minimum = 0.048 (at node 61)
	maximum = 0.333 (at node 107)
Accepted flit rate average= 0.160721
	minimum = 0.081 (at node 4)
	maximum = 0.2465 (at node 16)
Injected packet length average = 18.0022
Accepted packet length average = 17.9985
Total in-flight flits = 2500 (2500 measured)
latency change    = 0.00852957
throughput change = 0.00123683
Draining all recorded packets ...
Draining remaining packets ...
Time taken is 7800 cycles
====== Overall Traffic Statistics ======
====== Traffic class 0 ======
Packet latency average = 139.877 (1 samples)
	minimum = 22 (1 samples)
	maximum = 868 (1 samples)
Network latency average = 100.507 (1 samples)
	minimum = 22 (1 samples)
	maximum = 813 (1 samples)
Flit latency average = 75.2382 (1 samples)
	minimum = 5 (1 samples)
	maximum = 796 (1 samples)
Fragmentation average = 18.5159 (1 samples)
	minimum = 0 (1 samples)
	maximum = 255 (1 samples)
Injected packet rate average = 0.00886979 (1 samples)
	minimum = 0.0025 (1 samples)
	maximum = 0.0185 (1 samples)
Accepted packet rate average = 0.00892969 (1 samples)
	minimum = 0.0045 (1 samples)
	maximum = 0.0135 (1 samples)
Injected flit rate average = 0.159676 (1 samples)
	minimum = 0.048 (1 samples)
	maximum = 0.333 (1 samples)
Accepted flit rate average = 0.160721 (1 samples)
	minimum = 0.081 (1 samples)
	maximum = 0.2465 (1 samples)
Injected packet size average = 18.0022 (1 samples)
Accepted packet size average = 17.9985 (1 samples)
Hops average = 5.0503 (1 samples)
Total run time 3.80202
