BEGIN Configuration File: networks/mezzanine_config
topology = mezzanine;
n = 12;

routing_function = multipath;
internal_speedup = 2.0;
latency_thres = 100000.0;
use_read_write = 0;

sample_period = 1000;
injection_rate = 0.5;
packet_size = 18;

noq = 1;
routing_delay = 0;
vc_alloc_delay = 1;
sw_alloc_delay = 1;
st_final_delay = 1;
vc_allocator = islip; 
sw_allocator = islip;
alloc_iters  = 4;
num_vcs     = 12;
buffer_policy = private; // private or shared
buf_size = -1; // -1 for buffer_policy = private;
vc_buf_size = 4096; // size of each VOQ with buffer_policy = private
output_buffer_size = -1;


traffic = uniform;

//mezW = 0.0;
//mezPredefinedPatternType = shift-inter; //shift-qfdb

END Configuration File: networks/mezzanine_config
OVERRIDE Parameter: injection_rate=0.037847
OVERRIDE Parameter: routing_function=min
OVERRIDE Parameter: num_vcs=64
OVERRIDE Parameter: vc_buf_size=144
OVERRIDE Parameter: internal_speedup=1.0
OVERRIDE Parameter: injection_process=bernoulli
OVERRIDE Parameter: sim_type=latency
OVERRIDE Parameter: burst_alpha=0.0038461538
OVERRIDE Parameter: burst_beta=0.1
network: network_0
========================== Routing table  =====================
Number of Subnets: 1
Class 0:
Packet latency average = 323.167
	minimum = 23
	maximum = 965
Network latency average = 310.426
	minimum = 23
	maximum = 953
Slowest packet = 251
Flit latency average = 237.278
	minimum = 6
	maximum = 960
Slowest flit = 3312
Fragmentation average = 189.344
	minimum = 0
	maximum = 879
Injected packet rate average = 0.037276
	minimum = 0.025 (at node 81)
	maximum = 0.051 (at node 151)
Accepted packet rate average = 0.0109844
	minimum = 0.004 (at node 93)
	maximum = 0.021 (at node 140)
Injected flit rate average = 0.665292
	minimum = 0.45 (at node 81)
	maximum = 0.909 (at node 151)
Accepted flit rate average= 0.235458
	minimum = 0.113 (at node 135)
	maximum = 0.394 (at node 88)
Injected packet length average = 17.8477
Accepted packet length average = 21.4358
Total in-flight flits = 83618 (0 measured)
latency change    = 1
throughput change = 1
Class 0:
Packet latency average = 566.245
	minimum = 23
	maximum = 1913
Network latency average = 550.962
	minimum = 23
	maximum = 1900
Slowest packet = 617
Flit latency average = 461.497
	minimum = 6
	maximum = 1961
Slowest flit = 2258
Fragmentation average = 247.889
	minimum = 0
	maximum = 1652
Injected packet rate average = 0.0374531
	minimum = 0.0275 (at node 81)
	maximum = 0.0465 (at node 151)
Accepted packet rate average = 0.0123099
	minimum = 0.0065 (at node 25)
	maximum = 0.0185 (at node 166)
Injected flit rate average = 0.67149
	minimum = 0.489 (at node 81)
	maximum = 0.837 (at node 151)
Accepted flit rate average= 0.24694
	minimum = 0.1425 (at node 25)
	maximum = 0.3625 (at node 167)
Injected packet length average = 17.9288
Accepted packet length average = 20.0603
Total in-flight flits = 164051 (0 measured)
latency change    = 0.429281
throughput change = 0.0464962
Class 0:
Packet latency average = 1260.67
	minimum = 24
	maximum = 2853
Network latency average = 1239.94
	minimum = 24
	maximum = 2811
Slowest packet = 675
Flit latency average = 1166.93
	minimum = 6
	maximum = 2847
Slowest flit = 15852
Fragmentation average = 364.55
	minimum = 1
	maximum = 2467
Injected packet rate average = 0.0330573
	minimum = 0.01 (at node 40)
	maximum = 0.051 (at node 73)
Accepted packet rate average = 0.0137865
	minimum = 0.006 (at node 121)
	maximum = 0.025 (at node 103)
Injected flit rate average = 0.594156
	minimum = 0.176 (at node 168)
	maximum = 0.909 (at node 73)
Accepted flit rate average= 0.251844
	minimum = 0.106 (at node 31)
	maximum = 0.418 (at node 39)
Injected packet length average = 17.9735
Accepted packet length average = 18.2675
Total in-flight flits = 229943 (0 measured)
latency change    = 0.550838
throughput change = 0.019471
Warmed up ...Time used is 3000 cycles
Class 0:
Packet latency average = 247.097
	minimum = 26
	maximum = 1638
Network latency average = 90.8534
	minimum = 26
	maximum = 815
Slowest packet = 20754
Flit latency average = 1809.06
	minimum = 6
	maximum = 3884
Slowest flit = 11832
Fragmentation average = 24.8822
	minimum = 2
	maximum = 689
Injected packet rate average = 0.0318646
	minimum = 0.006 (at node 172)
	maximum = 0.053 (at node 83)
Accepted packet rate average = 0.0135052
	minimum = 0.005 (at node 94)
	maximum = 0.024 (at node 21)
Injected flit rate average = 0.573792
	minimum = 0.111 (at node 172)
	maximum = 0.947 (at node 83)
Accepted flit rate average= 0.24387
	minimum = 0.109 (at node 94)
	maximum = 0.372 (at node 73)
Injected packet length average = 18.0072
Accepted packet length average = 18.0575
Total in-flight flits = 293244 (103077 measured)
latency change    = 4.10193
throughput change = 0.0326976
Class 0:
Packet latency average = 461.736
	minimum = 26
	maximum = 2295
Network latency average = 247.344
	minimum = 26
	maximum = 1931
Slowest packet = 20754
Flit latency average = 2156.31
	minimum = 6
	maximum = 4777
Slowest flit = 25421
Fragmentation average = 43.376
	minimum = 0
	maximum = 990
Injected packet rate average = 0.0320651
	minimum = 0.0105 (at node 92)
	maximum = 0.0495 (at node 106)
Accepted packet rate average = 0.0133437
	minimum = 0.007 (at node 153)
	maximum = 0.0195 (at node 50)
Injected flit rate average = 0.577357
	minimum = 0.193 (at node 92)
	maximum = 0.8905 (at node 106)
Accepted flit rate average= 0.240208
	minimum = 0.139 (at node 153)
	maximum = 0.3695 (at node 165)
Injected packet length average = 18.0058
Accepted packet length average = 18.0016
Total in-flight flits = 359337 (207809 measured)
latency change    = 0.464852
throughput change = 0.0152428
Class 0:
Packet latency average = 837.218
	minimum = 26
	maximum = 3695
Network latency average = 552.547
	minimum = 26
	maximum = 2996
Slowest packet = 20754
Flit latency average = 2496.17
	minimum = 6
	maximum = 5805
Slowest flit = 20898
Fragmentation average = 76.6439
	minimum = 0
	maximum = 1257
Injected packet rate average = 0.0318628
	minimum = 0.00966667 (at node 92)
	maximum = 0.047 (at node 105)
Accepted packet rate average = 0.0131771
	minimum = 0.00833333 (at node 36)
	maximum = 0.0196667 (at node 37)
Injected flit rate average = 0.573429
	minimum = 0.176 (at node 92)
	maximum = 0.841 (at node 105)
Accepted flit rate average= 0.236333
	minimum = 0.158 (at node 175)
	maximum = 0.352667 (at node 37)
Injected packet length average = 17.9968
Accepted packet length average = 17.9352
Total in-flight flits = 424205 (308300 measured)
latency change    = 0.448488
throughput change = 0.0163963
Class 0:
Packet latency average = 1444.69
	minimum = 26
	maximum = 4766
Network latency average = 1052.78
	minimum = 26
	maximum = 3969
Slowest packet = 20754
Flit latency average = 2817.03
	minimum = 6
	maximum = 6702
Slowest flit = 29717
Fragmentation average = 124.057
	minimum = 0
	maximum = 1375
Injected packet rate average = 0.0313607
	minimum = 0.0105 (at node 92)
	maximum = 0.04475 (at node 181)
Accepted packet rate average = 0.0130729
	minimum = 0.0085 (at node 82)
	maximum = 0.018 (at node 37)
Injected flit rate average = 0.564531
	minimum = 0.1905 (at node 92)
	maximum = 0.807 (at node 181)
Accepted flit rate average= 0.234491
	minimum = 0.163 (at node 82)
	maximum = 0.3135 (at node 37)
Injected packet length average = 18.0012
Accepted packet length average = 17.9372
Total in-flight flits = 483420 (399274 measured)
latency change    = 0.420487
throughput change = 0.00785723
Class 0:
Packet latency average = 2170.14
	minimum = 26
	maximum = 5742
Network latency average = 1642.32
	minimum = 26
	maximum = 4943
Slowest packet = 20754
Flit latency average = 3113.47
	minimum = 6
	maximum = 7858
Slowest flit = 14933
Fragmentation average = 172.712
	minimum = 0
	maximum = 2137
Injected packet rate average = 0.0300677
	minimum = 0.0122 (at node 16)
	maximum = 0.0424 (at node 33)
Accepted packet rate average = 0.0129229
	minimum = 0.0088 (at node 17)
	maximum = 0.017 (at node 157)
Injected flit rate average = 0.541255
	minimum = 0.2216 (at node 64)
	maximum = 0.7604 (at node 33)
Accepted flit rate average= 0.231843
	minimum = 0.1588 (at node 17)
	maximum = 0.298 (at node 157)
Injected packet length average = 18.0012
Accepted packet length average = 17.9404
Total in-flight flits = 527142 (468853 measured)
latency change    = 0.334286
throughput change = 0.0114223
Class 0:
Packet latency average = 3058.44
	minimum = 26
	maximum = 6658
Network latency average = 2460.92
	minimum = 26
	maximum = 5967
Slowest packet = 20754
Flit latency average = 3390.55
	minimum = 6
	maximum = 8697
Slowest flit = 25430
Fragmentation average = 221.69
	minimum = 0
	maximum = 2137
Injected packet rate average = 0.0282743
	minimum = 0.0126667 (at node 16)
	maximum = 0.0388333 (at node 107)
Accepted packet rate average = 0.0128056
	minimum = 0.009 (at node 17)
	maximum = 0.0163333 (at node 37)
Injected flit rate average = 0.508869
	minimum = 0.226833 (at node 104)
	maximum = 0.697 (at node 107)
Accepted flit rate average= 0.229095
	minimum = 0.163 (at node 17)
	maximum = 0.293333 (at node 37)
Injected packet length average = 17.9976
Accepted packet length average = 17.8903
Total in-flight flits = 552447 (509828 measured)
latency change    = 0.290442
throughput change = 0.0119916
Class 0:
Packet latency average = 3811.66
	minimum = 26
	maximum = 7785
Network latency average = 3170.21
	minimum = 26
	maximum = 6983
Slowest packet = 20754
Flit latency average = 3660.42
	minimum = 6
	maximum = 9710
Slowest flit = 32795
Fragmentation average = 252.181
	minimum = 0
	maximum = 3629
Injected packet rate average = 0.0264836
	minimum = 0.0124286 (at node 104)
	maximum = 0.035 (at node 33)
Accepted packet rate average = 0.0126882
	minimum = 0.00928571 (at node 17)
	maximum = 0.0162857 (at node 37)
Injected flit rate average = 0.47665
	minimum = 0.223429 (at node 104)
	maximum = 0.628286 (at node 33)
Accepted flit rate average= 0.226913
	minimum = 0.167857 (at node 17)
	maximum = 0.292143 (at node 147)
Injected packet length average = 17.9979
Accepted packet length average = 17.8837
Total in-flight flits = 565808 (533240 measured)
latency change    = 0.197611
throughput change = 0.0096184
Draining all recorded packets ...
Class 0:
Remaining flits: 41385 41386 41387 41388 41389 41390 41391 41392 41393 41394 [...] (575447 flits)
Measured flits: 373122 373123 373124 373125 373126 373127 373128 373129 373130 373131 [...] (548737 flits)
Class 0:
Remaining flits: 41385 41386 41387 41388 41389 41390 41391 41392 41393 41394 [...] (582788 flits)
Measured flits: 373122 373123 373124 373125 373126 373127 373128 373129 373130 373131 [...] (559167 flits)
Class 0:
Remaining flits: 47196 47197 47198 47199 47200 47201 47202 47203 47204 47205 [...] (597502 flits)
Measured flits: 373122 373123 373124 373125 373126 373127 373128 373129 373130 373131 [...] (567463 flits)
Class 0:
Remaining flits: 47196 47197 47198 47199 47200 47201 47202 47203 47204 47205 [...] (612048 flits)
Measured flits: 373482 373483 373484 373485 373486 373487 373488 373489 373490 373491 [...] (561550 flits)
Class 0:
Remaining flits: 67356 67357 67358 67359 67360 67361 67362 67363 67364 67365 [...] (625452 flits)
Measured flits: 373482 373483 373484 373485 373486 373487 373488 373489 373490 373491 [...] (546257 flits)
Class 0:
Remaining flits: 67356 67357 67358 67359 67360 67361 67362 67363 67364 67365 [...] (639043 flits)
Measured flits: 373482 373483 373484 373485 373486 373487 373488 373489 373490 373491 [...] (524850 flits)
Class 0:
Remaining flits: 67356 67357 67358 67359 67360 67361 67362 67363 67364 67365 [...] (653700 flits)
Measured flits: 373482 373483 373484 373485 373486 373487 373488 373489 373490 373491 [...] (501968 flits)
Class 0:
Remaining flits: 67356 67357 67358 67359 67360 67361 67362 67363 67364 67365 [...] (669682 flits)
Measured flits: 374130 374131 374132 374133 374134 374135 374136 374137 374138 374139 [...] (479237 flits)
Class 0:
Remaining flits: 67356 67357 67358 67359 67360 67361 67362 67363 67364 67365 [...] (690391 flits)
Measured flits: 374130 374131 374132 374133 374134 374135 374136 374137 374138 374139 [...] (457959 flits)
Class 0:
Remaining flits: 67356 67357 67358 67359 67360 67361 67362 67363 67364 67365 [...] (708389 flits)
Measured flits: 374130 374131 374132 374133 374134 374135 374136 374137 374138 374139 [...] (434021 flits)
Class 0:
Remaining flits: 67356 67357 67358 67359 67360 67361 67362 67363 67364 67365 [...] (719569 flits)
Measured flits: 374130 374131 374132 374133 374134 374135 374136 374137 374138 374139 [...] (409052 flits)
Class 0:
Remaining flits: 67356 67357 67358 67359 67360 67361 67362 67363 67364 67365 [...] (728205 flits)
Measured flits: 374130 374131 374132 374133 374134 374135 374136 374137 374138 374139 [...] (385454 flits)
Class 0:
Remaining flits: 67356 67357 67358 67359 67360 67361 67362 67363 67364 67365 [...] (739350 flits)
Measured flits: 374130 374131 374132 374133 374134 374135 374136 374137 374138 374139 [...] (363384 flits)
Class 0:
Remaining flits: 67356 67357 67358 67359 67360 67361 67362 67363 67364 67365 [...] (746163 flits)
Measured flits: 374130 374131 374132 374133 374134 374135 374136 374137 374138 374139 [...] (339809 flits)
Class 0:
Remaining flits: 67356 67357 67358 67359 67360 67361 67362 67363 67364 67365 [...] (752158 flits)
Measured flits: 374130 374131 374132 374133 374134 374135 374136 374137 374138 374139 [...] (313570 flits)
Class 0:
Remaining flits: 67356 67357 67358 67359 67360 67361 67362 67363 67364 67365 [...] (750420 flits)
Measured flits: 374130 374131 374132 374133 374134 374135 374136 374137 374138 374139 [...] (288335 flits)
Class 0:
Remaining flits: 67356 67357 67358 67359 67360 67361 67362 67363 67364 67365 [...] (750890 flits)
Measured flits: 374130 374131 374132 374133 374134 374135 374136 374137 374138 374139 [...] (263697 flits)
Class 0:
Remaining flits: 90126 90127 90128 90129 90130 90131 90132 90133 90134 90135 [...] (751751 flits)
Measured flits: 374130 374131 374132 374133 374134 374135 374136 374137 374138 374139 [...] (240161 flits)
Class 0:
Remaining flits: 90126 90127 90128 90129 90130 90131 90132 90133 90134 90135 [...] (750211 flits)
Measured flits: 374130 374131 374132 374133 374134 374135 374136 374137 374138 374139 [...] (217479 flits)
Class 0:
Remaining flits: 90126 90127 90128 90129 90130 90131 90132 90133 90134 90135 [...] (751536 flits)
Measured flits: 374130 374131 374132 374133 374134 374135 374136 374137 374138 374139 [...] (195755 flits)
Class 0:
Remaining flits: 141192 141193 141194 141195 141196 141197 141198 141199 141200 141201 [...] (751954 flits)
Measured flits: 374130 374131 374132 374133 374134 374135 374136 374137 374138 374139 [...] (177728 flits)
Class 0:
Remaining flits: 160794 160795 160796 160797 160798 160799 160800 160801 160802 160803 [...] (751409 flits)
Measured flits: 374130 374131 374132 374133 374134 374135 374136 374137 374138 374139 [...] (160670 flits)
Class 0:
Remaining flits: 160794 160795 160796 160797 160798 160799 160800 160801 160802 160803 [...] (744690 flits)
Measured flits: 374130 374131 374132 374133 374134 374135 374136 374137 374138 374139 [...] (143945 flits)
Class 0:
Remaining flits: 160794 160795 160796 160797 160798 160799 160800 160801 160802 160803 [...] (739364 flits)
Measured flits: 374130 374131 374132 374133 374134 374135 374136 374137 374138 374139 [...] (128222 flits)
Class 0:
Remaining flits: 203904 203905 203906 203907 203908 203909 203910 203911 203912 203913 [...] (734963 flits)
Measured flits: 374130 374131 374132 374133 374134 374135 374136 374137 374138 374139 [...] (114516 flits)
Class 0:
Remaining flits: 203904 203905 203906 203907 203908 203909 203910 203911 203912 203913 [...] (734003 flits)
Measured flits: 374130 374131 374132 374133 374134 374135 374136 374137 374138 374139 [...] (103274 flits)
Class 0:
Remaining flits: 308340 308341 308342 308343 308344 308345 308346 308347 308348 308349 [...] (733966 flits)
Measured flits: 381204 381205 381206 381207 381208 381209 381210 381211 381212 381213 [...] (91690 flits)
Class 0:
Remaining flits: 308340 308341 308342 308343 308344 308345 308346 308347 308348 308349 [...] (734228 flits)
Measured flits: 381204 381205 381206 381207 381208 381209 381210 381211 381212 381213 [...] (82185 flits)
Class 0:
Remaining flits: 308340 308341 308342 308343 308344 308345 308346 308347 308348 308349 [...] (731550 flits)
Measured flits: 382500 382501 382502 382503 382504 382505 382506 382507 382508 382509 [...] (72582 flits)
Class 0:
Remaining flits: 308340 308341 308342 308343 308344 308345 308346 308347 308348 308349 [...] (730187 flits)
Measured flits: 382500 382501 382502 382503 382504 382505 382506 382507 382508 382509 [...] (63217 flits)
Class 0:
Remaining flits: 308340 308341 308342 308343 308344 308345 308346 308347 308348 308349 [...] (728551 flits)
Measured flits: 382500 382501 382502 382503 382504 382505 382506 382507 382508 382509 [...] (55400 flits)
Class 0:
Remaining flits: 308340 308341 308342 308343 308344 308345 308346 308347 308348 308349 [...] (723243 flits)
Measured flits: 382500 382501 382502 382503 382504 382505 382506 382507 382508 382509 [...] (48579 flits)
Class 0:
Remaining flits: 308340 308341 308342 308343 308344 308345 308346 308347 308348 308349 [...] (719594 flits)
Measured flits: 382500 382501 382502 382503 382504 382505 382506 382507 382508 382509 [...] (41988 flits)
Class 0:
Remaining flits: 308340 308341 308342 308343 308344 308345 308346 308347 308348 308349 [...] (718662 flits)
Measured flits: 382500 382501 382502 382503 382504 382505 382506 382507 382508 382509 [...] (37241 flits)
Class 0:
Remaining flits: 308340 308341 308342 308343 308344 308345 308346 308347 308348 308349 [...] (719634 flits)
Measured flits: 407862 407863 407864 407865 407866 407867 407868 407869 407870 407871 [...] (32350 flits)
Class 0:
Remaining flits: 407862 407863 407864 407865 407866 407867 407868 407869 407870 407871 [...] (722273 flits)
Measured flits: 407862 407863 407864 407865 407866 407867 407868 407869 407870 407871 [...] (28434 flits)
Class 0:
Remaining flits: 407862 407863 407864 407865 407866 407867 407868 407869 407870 407871 [...] (726870 flits)
Measured flits: 407862 407863 407864 407865 407866 407867 407868 407869 407870 407871 [...] (24474 flits)
Class 0:
Remaining flits: 407862 407863 407864 407865 407866 407867 407868 407869 407870 407871 [...] (726535 flits)
Measured flits: 407862 407863 407864 407865 407866 407867 407868 407869 407870 407871 [...] (21723 flits)
Class 0:
Remaining flits: 407862 407863 407864 407865 407866 407867 407868 407869 407870 407871 [...] (727264 flits)
Measured flits: 407862 407863 407864 407865 407866 407867 407868 407869 407870 407871 [...] (18625 flits)
Class 0:
Remaining flits: 407862 407863 407864 407865 407866 407867 407868 407869 407870 407871 [...] (729426 flits)
Measured flits: 407862 407863 407864 407865 407866 407867 407868 407869 407870 407871 [...] (15786 flits)
Class 0:
Remaining flits: 411768 411769 411770 411771 411772 411773 411774 411775 411776 411777 [...] (724731 flits)
Measured flits: 411768 411769 411770 411771 411772 411773 411774 411775 411776 411777 [...] (13945 flits)
Class 0:
Remaining flits: 411768 411769 411770 411771 411772 411773 411774 411775 411776 411777 [...] (719772 flits)
Measured flits: 411768 411769 411770 411771 411772 411773 411774 411775 411776 411777 [...] (12439 flits)
Class 0:
Remaining flits: 411768 411769 411770 411771 411772 411773 411774 411775 411776 411777 [...] (716989 flits)
Measured flits: 411768 411769 411770 411771 411772 411773 411774 411775 411776 411777 [...] (10935 flits)
Class 0:
Remaining flits: 411768 411769 411770 411771 411772 411773 411774 411775 411776 411777 [...] (713513 flits)
Measured flits: 411768 411769 411770 411771 411772 411773 411774 411775 411776 411777 [...] (9468 flits)
Class 0:
Remaining flits: 411768 411769 411770 411771 411772 411773 411774 411775 411776 411777 [...] (711266 flits)
Measured flits: 411768 411769 411770 411771 411772 411773 411774 411775 411776 411777 [...] (8102 flits)
Class 0:
Remaining flits: 411768 411769 411770 411771 411772 411773 411774 411775 411776 411777 [...] (709506 flits)
Measured flits: 411768 411769 411770 411771 411772 411773 411774 411775 411776 411777 [...] (7140 flits)
Class 0:
Remaining flits: 411768 411769 411770 411771 411772 411773 411774 411775 411776 411777 [...] (713611 flits)
Measured flits: 411768 411769 411770 411771 411772 411773 411774 411775 411776 411777 [...] (6197 flits)
Class 0:
Remaining flits: 411768 411769 411770 411771 411772 411773 411774 411775 411776 411777 [...] (712268 flits)
Measured flits: 411768 411769 411770 411771 411772 411773 411774 411775 411776 411777 [...] (5392 flits)
Class 0:
Remaining flits: 411768 411769 411770 411771 411772 411773 411774 411775 411776 411777 [...] (715453 flits)
Measured flits: 411768 411769 411770 411771 411772 411773 411774 411775 411776 411777 [...] (4490 flits)
Class 0:
Remaining flits: 538974 538975 538976 538977 538978 538979 538980 538981 538982 538983 [...] (716736 flits)
Measured flits: 538974 538975 538976 538977 538978 538979 538980 538981 538982 538983 [...] (3955 flits)
Class 0:
Remaining flits: 538974 538975 538976 538977 538978 538979 538980 538981 538982 538983 [...] (716472 flits)
Measured flits: 538974 538975 538976 538977 538978 538979 538980 538981 538982 538983 [...] (3528 flits)
Class 0:
Remaining flits: 538974 538975 538976 538977 538978 538979 538980 538981 538982 538983 [...] (713409 flits)
Measured flits: 538974 538975 538976 538977 538978 538979 538980 538981 538982 538983 [...] (3103 flits)
Class 0:
Remaining flits: 538974 538975 538976 538977 538978 538979 538980 538981 538982 538983 [...] (712376 flits)
Measured flits: 538974 538975 538976 538977 538978 538979 538980 538981 538982 538983 [...] (2717 flits)
Class 0:
Remaining flits: 538974 538975 538976 538977 538978 538979 538980 538981 538982 538983 [...] (713821 flits)
Measured flits: 538974 538975 538976 538977 538978 538979 538980 538981 538982 538983 [...] (2293 flits)
Class 0:
Remaining flits: 538974 538975 538976 538977 538978 538979 538980 538981 538982 538983 [...] (711274 flits)
Measured flits: 538974 538975 538976 538977 538978 538979 538980 538981 538982 538983 [...] (2100 flits)
Class 0:
Remaining flits: 538983 538984 538985 538986 538987 538988 538989 538990 538991 583956 [...] (710346 flits)
Measured flits: 538983 538984 538985 538986 538987 538988 538989 538990 538991 583956 [...] (1815 flits)
Class 0:
Remaining flits: 593532 593533 593534 593535 593536 593537 593538 593539 593540 593541 [...] (708637 flits)
Measured flits: 593532 593533 593534 593535 593536 593537 593538 593539 593540 593541 [...] (1494 flits)
Class 0:
Remaining flits: 593532 593533 593534 593535 593536 593537 593538 593539 593540 593541 [...] (708609 flits)
Measured flits: 593532 593533 593534 593535 593536 593537 593538 593539 593540 593541 [...] (1221 flits)
Class 0:
Remaining flits: 593532 593533 593534 593535 593536 593537 593538 593539 593540 593541 [...] (708109 flits)
Measured flits: 593532 593533 593534 593535 593536 593537 593538 593539 593540 593541 [...] (1080 flits)
Class 0:
Remaining flits: 593532 593533 593534 593535 593536 593537 593538 593539 593540 593541 [...] (705798 flits)
Measured flits: 593532 593533 593534 593535 593536 593537 593538 593539 593540 593541 [...] (996 flits)
Class 0:
Remaining flits: 593532 593533 593534 593535 593536 593537 593538 593539 593540 593541 [...] (701655 flits)
Measured flits: 593532 593533 593534 593535 593536 593537 593538 593539 593540 593541 [...] (794 flits)
Class 0:
Remaining flits: 593532 593533 593534 593535 593536 593537 593538 593539 593540 593541 [...] (697291 flits)
Measured flits: 593532 593533 593534 593535 593536 593537 593538 593539 593540 593541 [...] (757 flits)
Class 0:
Remaining flits: 593532 593533 593534 593535 593536 593537 593538 593539 593540 593541 [...] (692065 flits)
Measured flits: 593532 593533 593534 593535 593536 593537 593538 593539 593540 593541 [...] (596 flits)
Class 0:
Remaining flits: 820476 820477 820478 820479 820480 820481 820482 820483 820484 820485 [...] (687220 flits)
Measured flits: 820476 820477 820478 820479 820480 820481 820482 820483 820484 820485 [...] (558 flits)
Class 0:
Remaining flits: 820476 820477 820478 820479 820480 820481 820482 820483 820484 820485 [...] (688922 flits)
Measured flits: 820476 820477 820478 820479 820480 820481 820482 820483 820484 820485 [...] (421 flits)
Class 0:
Remaining flits: 820476 820477 820478 820479 820480 820481 820482 820483 820484 820485 [...] (690615 flits)
Measured flits: 820476 820477 820478 820479 820480 820481 820482 820483 820484 820485 [...] (360 flits)
Class 0:
Remaining flits: 820476 820477 820478 820479 820480 820481 820482 820483 820484 820485 [...] (690471 flits)
Measured flits: 820476 820477 820478 820479 820480 820481 820482 820483 820484 820485 [...] (303 flits)
Class 0:
Remaining flits: 820476 820477 820478 820479 820480 820481 820482 820483 820484 820485 [...] (686587 flits)
Measured flits: 820476 820477 820478 820479 820480 820481 820482 820483 820484 820485 [...] (270 flits)
Class 0:
Remaining flits: 820476 820477 820478 820479 820480 820481 820482 820483 820484 820485 [...] (683816 flits)
Measured flits: 820476 820477 820478 820479 820480 820481 820482 820483 820484 820485 [...] (270 flits)
Class 0:
Remaining flits: 820476 820477 820478 820479 820480 820481 820482 820483 820484 820485 [...] (681743 flits)
Measured flits: 820476 820477 820478 820479 820480 820481 820482 820483 820484 820485 [...] (270 flits)
Class 0:
Remaining flits: 820476 820477 820478 820479 820480 820481 820482 820483 820484 820485 [...] (678536 flits)
Measured flits: 820476 820477 820478 820479 820480 820481 820482 820483 820484 820485 [...] (269 flits)
Class 0:
Remaining flits: 820476 820477 820478 820479 820480 820481 820482 820483 820484 820485 [...] (679702 flits)
Measured flits: 820476 820477 820478 820479 820480 820481 820482 820483 820484 820485 [...] (269 flits)
Class 0:
Remaining flits: 820476 820477 820478 820479 820480 820481 820482 820483 820484 820485 [...] (679714 flits)
Measured flits: 820476 820477 820478 820479 820480 820481 820482 820483 820484 820485 [...] (235 flits)
Class 0:
Remaining flits: 820476 820477 820478 820479 820480 820481 820482 820483 820484 820485 [...] (681707 flits)
Measured flits: 820476 820477 820478 820479 820480 820481 820482 820483 820484 820485 [...] (180 flits)
Class 0:
Remaining flits: 820476 820477 820478 820479 820480 820481 820482 820483 820484 820485 [...] (679216 flits)
Measured flits: 820476 820477 820478 820479 820480 820481 820482 820483 820484 820485 [...] (173 flits)
Class 0:
Remaining flits: 820476 820477 820478 820479 820480 820481 820482 820483 820484 820485 [...] (678783 flits)
Measured flits: 820476 820477 820478 820479 820480 820481 820482 820483 820484 820485 [...] (154 flits)
Class 0:
Remaining flits: 820476 820477 820478 820479 820480 820481 820482 820483 820484 820485 [...] (681881 flits)
Measured flits: 820476 820477 820478 820479 820480 820481 820482 820483 820484 820485 [...] (154 flits)
Class 0:
Remaining flits: 820476 820477 820478 820479 820480 820481 820482 820483 820484 820485 [...] (683991 flits)
Measured flits: 820476 820477 820478 820479 820480 820481 820482 820483 820484 820485 [...] (142 flits)
Class 0:
Remaining flits: 820476 820477 820478 820479 820480 820481 820482 820483 820484 820485 [...] (682130 flits)
Measured flits: 820476 820477 820478 820479 820480 820481 820482 820483 820484 820485 [...] (126 flits)
Class 0:
Remaining flits: 820476 820477 820478 820479 820480 820481 820482 820483 820484 820485 [...] (679576 flits)
Measured flits: 820476 820477 820478 820479 820480 820481 820482 820483 820484 820485 [...] (83 flits)
Class 0:
Remaining flits: 820476 820477 820478 820479 820480 820481 820482 820483 820484 820485 [...] (677873 flits)
Measured flits: 820476 820477 820478 820479 820480 820481 820482 820483 820484 820485 [...] (54 flits)
Class 0:
Remaining flits: 820476 820477 820478 820479 820480 820481 820482 820483 820484 820485 [...] (677076 flits)
Measured flits: 820476 820477 820478 820479 820480 820481 820482 820483 820484 820485 [...] (54 flits)
Class 0:
Remaining flits: 820476 820477 820478 820479 820480 820481 820482 820483 820484 820485 [...] (674600 flits)
Measured flits: 820476 820477 820478 820479 820480 820481 820482 820483 820484 820485 [...] (54 flits)
Class 0:
Remaining flits: 820476 820477 820478 820479 820480 820481 820482 820483 820484 820485 [...] (674487 flits)
Measured flits: 820476 820477 820478 820479 820480 820481 820482 820483 820484 820485 [...] (54 flits)
Class 0:
Remaining flits: 820476 820477 820478 820479 820480 820481 820482 820483 820484 820485 [...] (674036 flits)
Measured flits: 820476 820477 820478 820479 820480 820481 820482 820483 820484 820485 [...] (54 flits)
Class 0:
Remaining flits: 820476 820477 820478 820479 820480 820481 820482 820483 820484 820485 [...] (674432 flits)
Measured flits: 820476 820477 820478 820479 820480 820481 820482 820483 820484 820485 [...] (54 flits)
Class 0:
Remaining flits: 820476 820477 820478 820479 820480 820481 820482 820483 820484 820485 [...] (670223 flits)
Measured flits: 820476 820477 820478 820479 820480 820481 820482 820483 820484 820485 [...] (54 flits)
Class 0:
Remaining flits: 820476 820477 820478 820479 820480 820481 820482 820483 820484 820485 [...] (666020 flits)
Measured flits: 820476 820477 820478 820479 820480 820481 820482 820483 820484 820485 [...] (54 flits)
Class 0:
Remaining flits: 820476 820477 820478 820479 820480 820481 820482 820483 820484 820485 [...] (666089 flits)
Measured flits: 820476 820477 820478 820479 820480 820481 820482 820483 820484 820485 [...] (54 flits)
Class 0:
Remaining flits: 820476 820477 820478 820479 820480 820481 820482 820483 820484 820485 [...] (667133 flits)
Measured flits: 820476 820477 820478 820479 820480 820481 820482 820483 820484 820485 [...] (54 flits)
Class 0:
Remaining flits: 968670 968671 968672 968673 968674 968675 968676 968677 968678 968679 [...] (661741 flits)
Measured flits: 968670 968671 968672 968673 968674 968675 968676 968677 968678 968679 [...] (36 flits)
Class 0:
Remaining flits: 968670 968671 968672 968673 968674 968675 968676 968677 968678 968679 [...] (657514 flits)
Measured flits: 968670 968671 968672 968673 968674 968675 968676 968677 968678 968679 [...] (36 flits)
Class 0:
Remaining flits: 968670 968671 968672 968673 968674 968675 968676 968677 968678 968679 [...] (655104 flits)
Measured flits: 968670 968671 968672 968673 968674 968675 968676 968677 968678 968679 [...] (36 flits)
Class 0:
Remaining flits: 968670 968671 968672 968673 968674 968675 968676 968677 968678 968679 [...] (656932 flits)
Measured flits: 968670 968671 968672 968673 968674 968675 968676 968677 968678 968679 [...] (36 flits)
Class 0:
Remaining flits: 968670 968671 968672 968673 968674 968675 968676 968677 968678 968679 [...] (655389 flits)
Measured flits: 968670 968671 968672 968673 968674 968675 968676 968677 968678 968679 [...] (36 flits)
Draining remaining packets ...
Class 0:
Remaining flits: 1215684 1215685 1215686 1215687 1215688 1215689 1215690 1215691 1215692 1215693 [...] (621819 flits)
Measured flits: (0 flits)
Class 0:
Remaining flits: 1215684 1215685 1215686 1215687 1215688 1215689 1215690 1215691 1215692 1215693 [...] (589945 flits)
Measured flits: (0 flits)
Class 0:
Remaining flits: 1215684 1215685 1215686 1215687 1215688 1215689 1215690 1215691 1215692 1215693 [...] (556987 flits)
Measured flits: (0 flits)
Class 0:
Remaining flits: 1215684 1215685 1215686 1215687 1215688 1215689 1215690 1215691 1215692 1215693 [...] (524909 flits)
Measured flits: (0 flits)
Class 0:
Remaining flits: 1459980 1459981 1459982 1459983 1459984 1459985 1459986 1459987 1459988 1459989 [...] (493552 flits)
Measured flits: (0 flits)
Class 0:
Remaining flits: 1459980 1459981 1459982 1459983 1459984 1459985 1459986 1459987 1459988 1459989 [...] (462094 flits)
Measured flits: (0 flits)
Class 0:
Remaining flits: 1606626 1606627 1606628 1606629 1606630 1606631 1606632 1606633 1606634 1606635 [...] (430223 flits)
Measured flits: (0 flits)
Class 0:
Remaining flits: 1606626 1606627 1606628 1606629 1606630 1606631 1606632 1606633 1606634 1606635 [...] (398563 flits)
Measured flits: (0 flits)
Class 0:
Remaining flits: 1606634 1606635 1606636 1606637 1606638 1606639 1606640 1606641 1606642 1606643 [...] (366982 flits)
Measured flits: (0 flits)
Class 0:
Remaining flits: 1887408 1887409 1887410 1887411 1887412 1887413 1887414 1887415 1887416 1887417 [...] (336542 flits)
Measured flits: (0 flits)
Class 0:
Remaining flits: 1887408 1887409 1887410 1887411 1887412 1887413 1887414 1887415 1887416 1887417 [...] (307188 flits)
Measured flits: (0 flits)
Class 0:
Remaining flits: 1887408 1887409 1887410 1887411 1887412 1887413 1887414 1887415 1887416 1887417 [...] (277485 flits)
Measured flits: (0 flits)
Class 0:
Remaining flits: 1887408 1887409 1887410 1887411 1887412 1887413 1887414 1887415 1887416 1887417 [...] (248106 flits)
Measured flits: (0 flits)
Class 0:
Remaining flits: 1887408 1887409 1887410 1887411 1887412 1887413 1887414 1887415 1887416 1887417 [...] (219289 flits)
Measured flits: (0 flits)
Class 0:
Remaining flits: 1887408 1887409 1887410 1887411 1887412 1887413 1887414 1887415 1887416 1887417 [...] (191059 flits)
Measured flits: (0 flits)
Class 0:
Remaining flits: 1887408 1887409 1887410 1887411 1887412 1887413 1887414 1887415 1887416 1887417 [...] (164755 flits)
Measured flits: (0 flits)
Class 0:
Remaining flits: 1887408 1887409 1887410 1887411 1887412 1887413 1887414 1887415 1887416 1887417 [...] (139827 flits)
Measured flits: (0 flits)
Class 0:
Remaining flits: 1887408 1887409 1887410 1887411 1887412 1887413 1887414 1887415 1887416 1887417 [...] (116313 flits)
Measured flits: (0 flits)
Class 0:
Remaining flits: 1887416 1887417 1887418 1887419 1887420 1887421 1887422 1887423 1887424 1887425 [...] (94074 flits)
Measured flits: (0 flits)
Class 0:
Remaining flits: 2101554 2101555 2101556 2101557 2101558 2101559 2101560 2101561 2101562 2101563 [...] (73732 flits)
Measured flits: (0 flits)
Class 0:
Remaining flits: 2101554 2101555 2101556 2101557 2101558 2101559 2101560 2101561 2101562 2101563 [...] (54088 flits)
Measured flits: (0 flits)
Class 0:
Remaining flits: 2101554 2101555 2101556 2101557 2101558 2101559 2101560 2101561 2101562 2101563 [...] (37326 flits)
Measured flits: (0 flits)
Class 0:
Remaining flits: 2506158 2506159 2506160 2506161 2506162 2506163 2506164 2506165 2506166 2506167 [...] (23269 flits)
Measured flits: (0 flits)
Class 0:
Remaining flits: 2506158 2506159 2506160 2506161 2506162 2506163 2506164 2506165 2506166 2506167 [...] (11661 flits)
Measured flits: (0 flits)
Class 0:
Remaining flits: 3009636 3009637 3009638 3009639 3009640 3009641 3009642 3009643 3009644 3009645 [...] (4728 flits)
Measured flits: (0 flits)
Class 0:
Remaining flits: 3009636 3009637 3009638 3009639 3009640 3009641 3009642 3009643 3009644 3009645 [...] (1038 flits)
Measured flits: (0 flits)
Time taken is 132213 cycles
====== Overall Traffic Statistics ======
====== Traffic class 0 ======
Packet latency average = 15798.5 (1 samples)
	minimum = 26 (1 samples)
	maximum = 96980 (1 samples)
Network latency average = 13276.1 (1 samples)
	minimum = 25 (1 samples)
	maximum = 96271 (1 samples)
Flit latency average = 17836.4 (1 samples)
	minimum = 6 (1 samples)
	maximum = 96745 (1 samples)
Fragmentation average = 254.185 (1 samples)
	minimum = 0 (1 samples)
	maximum = 17853 (1 samples)
Injected packet rate average = 0.0264836 (1 samples)
	minimum = 0.0124286 (1 samples)
	maximum = 0.035 (1 samples)
Accepted packet rate average = 0.0126882 (1 samples)
	minimum = 0.00928571 (1 samples)
	maximum = 0.0162857 (1 samples)
Injected flit rate average = 0.47665 (1 samples)
	minimum = 0.223429 (1 samples)
	maximum = 0.628286 (1 samples)
Accepted flit rate average = 0.226913 (1 samples)
	minimum = 0.167857 (1 samples)
	maximum = 0.292143 (1 samples)
Injected packet size average = 17.9979 (1 samples)
Accepted packet size average = 17.8837 (1 samples)
Hops average = 5.0623 (1 samples)
Total run time 273.747
