BEGIN Configuration File: networks/mezzanine_config
topology = mezzanine;
n = 12;

routing_function = multipath;
internal_speedup = 2.0;
latency_thres = 100000.0;
use_read_write = 0;

sample_period = 1000;
injection_rate = 0.5;
packet_size = 18;

noq = 1;
routing_delay = 0;
vc_alloc_delay = 1;
sw_alloc_delay = 1;
st_final_delay = 1;
vc_allocator = islip; 
sw_allocator = islip;
alloc_iters  = 4;
num_vcs     = 12;
buffer_policy = private; // private or shared
buf_size = -1; // -1 for buffer_policy = private;
vc_buf_size = 4096; // size of each VOQ with buffer_policy = private
output_buffer_size = -1;


traffic = uniform;

//mezW = 0.0;
//mezPredefinedPatternType = shift-inter; //shift-qfdb

END Configuration File: networks/mezzanine_config
OVERRIDE Parameter: injection_rate=0.055527
OVERRIDE Parameter: routing_function=min
OVERRIDE Parameter: num_vcs=64
OVERRIDE Parameter: vc_buf_size=1024
OVERRIDE Parameter: internal_speedup=1.0
OVERRIDE Parameter: injection_process=on_off
OVERRIDE Parameter: sim_type=latency
OVERRIDE Parameter: burst_alpha=0.0038461538
OVERRIDE Parameter: burst_beta=0.1
network: network_0
========================== Routing table  =====================
Number of Subnets: 1
Class 0:
Packet latency average = 379.58
	minimum = 23
	maximum = 990
Network latency average = 275.714
	minimum = 23
	maximum = 924
Slowest packet = 46
Flit latency average = 204.827
	minimum = 6
	maximum = 960
Slowest flit = 3220
Fragmentation average = 159.377
	minimum = 0
	maximum = 809
Injected packet rate average = 0.0297552
	minimum = 0 (at node 10)
	maximum = 0.056 (at node 29)
Accepted packet rate average = 0.0103229
	minimum = 0.004 (at node 25)
	maximum = 0.018 (at node 22)
Injected flit rate average = 0.53049
	minimum = 0 (at node 10)
	maximum = 1 (at node 29)
Accepted flit rate average= 0.218099
	minimum = 0.101 (at node 25)
	maximum = 0.378 (at node 22)
Injected packet length average = 17.8285
Accepted packet length average = 21.1276
Total in-flight flits = 60959 (0 measured)
latency change    = 1
throughput change = 1
Class 0:
Packet latency average = 633.995
	minimum = 23
	maximum = 1976
Network latency average = 480.376
	minimum = 23
	maximum = 1908
Slowest packet = 46
Flit latency average = 391.179
	minimum = 6
	maximum = 1891
Slowest flit = 6569
Fragmentation average = 223.635
	minimum = 0
	maximum = 1582
Injected packet rate average = 0.031362
	minimum = 0.0015 (at node 10)
	maximum = 0.056 (at node 38)
Accepted packet rate average = 0.0117891
	minimum = 0.007 (at node 170)
	maximum = 0.018 (at node 34)
Injected flit rate average = 0.561771
	minimum = 0.022 (at node 10)
	maximum = 1 (at node 38)
Accepted flit rate average= 0.233935
	minimum = 0.1495 (at node 153)
	maximum = 0.351 (at node 34)
Injected packet length average = 17.9125
Accepted packet length average = 19.8434
Total in-flight flits = 126943 (0 measured)
latency change    = 0.401288
throughput change = 0.0676938
Class 0:
Packet latency average = 1263.87
	minimum = 31
	maximum = 2975
Network latency average = 1006.55
	minimum = 23
	maximum = 2784
Slowest packet = 160
Flit latency average = 918.952
	minimum = 6
	maximum = 2862
Slowest flit = 7435
Fragmentation average = 318.635
	minimum = 0
	maximum = 2642
Injected packet rate average = 0.035349
	minimum = 0 (at node 32)
	maximum = 0.056 (at node 4)
Accepted packet rate average = 0.0141823
	minimum = 0.006 (at node 125)
	maximum = 0.029 (at node 68)
Injected flit rate average = 0.636193
	minimum = 0 (at node 32)
	maximum = 1 (at node 1)
Accepted flit rate average= 0.261193
	minimum = 0.121 (at node 125)
	maximum = 0.512 (at node 68)
Injected packet length average = 17.9975
Accepted packet length average = 18.4168
Total in-flight flits = 198960 (0 measured)
latency change    = 0.49837
throughput change = 0.104359
Warmed up ...Time used is 3000 cycles
Class 0:
Packet latency average = 490.089
	minimum = 27
	maximum = 2085
Network latency average = 107.764
	minimum = 25
	maximum = 923
Slowest packet = 18852
Flit latency average = 1351.3
	minimum = 6
	maximum = 3892
Slowest flit = 8853
Fragmentation average = 51.1973
	minimum = 0
	maximum = 615
Injected packet rate average = 0.0374375
	minimum = 0 (at node 14)
	maximum = 0.056 (at node 2)
Accepted packet rate average = 0.0144479
	minimum = 0.007 (at node 48)
	maximum = 0.028 (at node 19)
Injected flit rate average = 0.674375
	minimum = 0 (at node 14)
	maximum = 1 (at node 2)
Accepted flit rate average= 0.263844
	minimum = 0.117 (at node 48)
	maximum = 0.447 (at node 103)
Injected packet length average = 18.0134
Accepted packet length average = 18.2617
Total in-flight flits = 277686 (116234 measured)
latency change    = 1.57886
throughput change = 0.0100478
Class 0:
Packet latency average = 692.233
	minimum = 27
	maximum = 3196
Network latency average = 336.666
	minimum = 25
	maximum = 1917
Slowest packet = 18852
Flit latency average = 1596.96
	minimum = 6
	maximum = 4780
Slowest flit = 18214
Fragmentation average = 117.401
	minimum = 0
	maximum = 1542
Injected packet rate average = 0.036862
	minimum = 0.0075 (at node 20)
	maximum = 0.0555 (at node 2)
Accepted packet rate average = 0.0144896
	minimum = 0.0075 (at node 10)
	maximum = 0.023 (at node 103)
Injected flit rate average = 0.663685
	minimum = 0.135 (at node 20)
	maximum = 1 (at node 2)
Accepted flit rate average= 0.263128
	minimum = 0.1355 (at node 48)
	maximum = 0.414 (at node 103)
Injected packet length average = 18.0046
Accepted packet length average = 18.1598
Total in-flight flits = 352709 (222634 measured)
latency change    = 0.292017
throughput change = 0.00272167
Class 0:
Packet latency average = 967.59
	minimum = 27
	maximum = 4172
Network latency average = 622.947
	minimum = 25
	maximum = 2953
Slowest packet = 18852
Flit latency average = 1843.77
	minimum = 6
	maximum = 5721
Slowest flit = 24843
Fragmentation average = 156.965
	minimum = 0
	maximum = 1741
Injected packet rate average = 0.0367569
	minimum = 0.009 (at node 14)
	maximum = 0.0556667 (at node 2)
Accepted packet rate average = 0.0145122
	minimum = 0.00933333 (at node 79)
	maximum = 0.0213333 (at node 103)
Injected flit rate average = 0.661641
	minimum = 0.162 (at node 14)
	maximum = 1 (at node 2)
Accepted flit rate average= 0.262165
	minimum = 0.184 (at node 79)
	maximum = 0.380667 (at node 103)
Injected packet length average = 18.0004
Accepted packet length average = 18.0652
Total in-flight flits = 429049 (325016 measured)
latency change    = 0.28458
throughput change = 0.00367202
Class 0:
Packet latency average = 1303.56
	minimum = 25
	maximum = 4995
Network latency average = 967.439
	minimum = 25
	maximum = 3966
Slowest packet = 18852
Flit latency average = 2101.12
	minimum = 6
	maximum = 6691
Slowest flit = 27175
Fragmentation average = 190.043
	minimum = 0
	maximum = 2387
Injected packet rate average = 0.036543
	minimum = 0.01325 (at node 36)
	maximum = 0.0555 (at node 33)
Accepted packet rate average = 0.0144583
	minimum = 0.0105 (at node 112)
	maximum = 0.02 (at node 103)
Injected flit rate average = 0.65787
	minimum = 0.2385 (at node 36)
	maximum = 1 (at node 33)
Accepted flit rate average= 0.261129
	minimum = 0.186 (at node 48)
	maximum = 0.35325 (at node 103)
Injected packet length average = 18.0026
Accepted packet length average = 18.0608
Total in-flight flits = 503583 (421432 measured)
latency change    = 0.257733
throughput change = 0.00396748
Class 0:
Packet latency average = 1677.95
	minimum = 25
	maximum = 6034
Network latency average = 1340
	minimum = 23
	maximum = 4941
Slowest packet = 18852
Flit latency average = 2358.76
	minimum = 6
	maximum = 7731
Slowest flit = 20951
Fragmentation average = 210.813
	minimum = 0
	maximum = 3012
Injected packet rate average = 0.0363698
	minimum = 0.0128 (at node 36)
	maximum = 0.0556 (at node 33)
Accepted packet rate average = 0.0144177
	minimum = 0.0106 (at node 112)
	maximum = 0.019 (at node 81)
Injected flit rate average = 0.65476
	minimum = 0.2304 (at node 36)
	maximum = 1 (at node 33)
Accepted flit rate average= 0.259937
	minimum = 0.1922 (at node 36)
	maximum = 0.3428 (at node 81)
Injected packet length average = 18.0029
Accepted packet length average = 18.029
Total in-flight flits = 577890 (513362 measured)
latency change    = 0.223122
throughput change = 0.00458343
Class 0:
Packet latency average = 2039.55
	minimum = 25
	maximum = 7083
Network latency average = 1696.4
	minimum = 23
	maximum = 5892
Slowest packet = 18852
Flit latency average = 2620.33
	minimum = 6
	maximum = 8578
Slowest flit = 29699
Fragmentation average = 230.466
	minimum = 0
	maximum = 5705
Injected packet rate average = 0.0365964
	minimum = 0.0131667 (at node 36)
	maximum = 0.0555 (at node 162)
Accepted packet rate average = 0.0143698
	minimum = 0.0113333 (at node 48)
	maximum = 0.018 (at node 130)
Injected flit rate average = 0.658522
	minimum = 0.234167 (at node 36)
	maximum = 1 (at node 162)
Accepted flit rate average= 0.258573
	minimum = 0.199833 (at node 184)
	maximum = 0.322833 (at node 81)
Injected packet length average = 17.9942
Accepted packet length average = 17.9942
Total in-flight flits = 659946 (610897 measured)
latency change    = 0.177296
throughput change = 0.00527736
Class 0:
Packet latency average = 2383.7
	minimum = 25
	maximum = 8095
Network latency average = 2036.39
	minimum = 23
	maximum = 6956
Slowest packet = 18852
Flit latency average = 2867.7
	minimum = 6
	maximum = 9617
Slowest flit = 33927
Fragmentation average = 240.75
	minimum = 0
	maximum = 5705
Injected packet rate average = 0.0365521
	minimum = 0.0151429 (at node 153)
	maximum = 0.0555714 (at node 162)
Accepted packet rate average = 0.0142984
	minimum = 0.011 (at node 48)
	maximum = 0.0177143 (at node 81)
Injected flit rate average = 0.657914
	minimum = 0.273286 (at node 153)
	maximum = 1 (at node 162)
Accepted flit rate average= 0.25735
	minimum = 0.196286 (at node 48)
	maximum = 0.319286 (at node 81)
Injected packet length average = 17.9994
Accepted packet length average = 17.9985
Total in-flight flits = 737350 (700572 measured)
latency change    = 0.144375
throughput change = 0.00475312
Draining all recorded packets ...
Class 0:
Remaining flits: 21474 21475 21476 21477 21478 21479 21480 21481 21482 21483 [...] (813484 flits)
Measured flits: 338958 338959 338960 338961 338962 338963 338964 338965 338966 338967 [...] (717140 flits)
Class 0:
Remaining flits: 21474 21475 21476 21477 21478 21479 21480 21481 21482 21483 [...] (895805 flits)
Measured flits: 338958 338959 338960 338961 338962 338963 338964 338965 338966 338967 [...] (693377 flits)
Class 0:
Remaining flits: 43704 43705 43706 43707 43708 43709 43710 43711 43712 43713 [...] (976751 flits)
Measured flits: 338958 338959 338960 338961 338962 338963 338964 338965 338966 338967 [...] (663308 flits)
Class 0:
Remaining flits: 43704 43705 43706 43707 43708 43709 43710 43711 43712 43713 [...] (1057274 flits)
Measured flits: 338958 338959 338960 338961 338962 338963 338964 338965 338966 338967 [...] (631702 flits)
Class 0:
Remaining flits: 43704 43705 43706 43707 43708 43709 43710 43711 43712 43713 [...] (1135687 flits)
Measured flits: 338958 338959 338960 338961 338962 338963 338964 338965 338966 338967 [...] (600442 flits)
Class 0:
Remaining flits: 43704 43705 43706 43707 43708 43709 43710 43711 43712 43713 [...] (1209803 flits)
Measured flits: 338958 338959 338960 338961 338962 338963 338964 338965 338966 338967 [...] (569422 flits)
Class 0:
Remaining flits: 43704 43705 43706 43707 43708 43709 43710 43711 43712 43713 [...] (1283331 flits)
Measured flits: 338958 338959 338960 338961 338962 338963 338964 338965 338966 338967 [...] (539341 flits)
Class 0:
Remaining flits: 43704 43705 43706 43707 43708 43709 43710 43711 43712 43713 [...] (1358937 flits)
Measured flits: 338958 338959 338960 338961 338962 338963 338964 338965 338966 338967 [...] (509123 flits)
Class 0:
Remaining flits: 43704 43705 43706 43707 43708 43709 43710 43711 43712 43713 [...] (1432189 flits)
Measured flits: 338958 338959 338960 338961 338962 338963 338964 338965 338966 338967 [...] (480386 flits)
Class 0:
Remaining flits: 43704 43705 43706 43707 43708 43709 43710 43711 43712 43713 [...] (1502350 flits)
Measured flits: 338958 338959 338960 338961 338962 338963 338964 338965 338966 338967 [...] (451430 flits)
Class 0:
Remaining flits: 43704 43705 43706 43707 43708 43709 43710 43711 43712 43713 [...] (1573969 flits)
Measured flits: 339498 339499 339500 339501 339502 339503 339504 339505 339506 339507 [...] (423335 flits)
Class 0:
Remaining flits: 43704 43705 43706 43707 43708 43709 43710 43711 43712 43713 [...] (1643286 flits)
Measured flits: 339498 339499 339500 339501 339502 339503 339504 339505 339506 339507 [...] (396237 flits)
Class 0:
Remaining flits: 43704 43705 43706 43707 43708 43709 43710 43711 43712 43713 [...] (1716026 flits)
Measured flits: 339498 339499 339500 339501 339502 339503 339504 339505 339506 339507 [...] (370242 flits)
Class 0:
Remaining flits: 76500 76501 76502 76503 76504 76505 76506 76507 76508 76509 [...] (1786549 flits)
Measured flits: 339498 339499 339500 339501 339502 339503 339504 339505 339506 339507 [...] (344878 flits)
Class 0:
Remaining flits: 86868 86869 86870 86871 86872 86873 86874 86875 86876 86877 [...] (1857197 flits)
Measured flits: 339498 339499 339500 339501 339502 339503 339504 339505 339506 339507 [...] (321882 flits)
Class 0:
Remaining flits: 86869 86870 86871 86872 86873 86874 86875 86876 86877 86878 [...] (1929835 flits)
Measured flits: 339732 339733 339734 339735 339736 339737 339738 339739 339740 339741 [...] (298776 flits)
Class 0:
Remaining flits: 86869 86870 86871 86872 86873 86874 86875 86876 86877 86878 [...] (1998650 flits)
Measured flits: 339732 339733 339734 339735 339736 339737 339738 339739 339740 339741 [...] (277149 flits)
Class 0:
Remaining flits: 92538 92539 92540 92541 92542 92543 92544 92545 92546 92547 [...] (2068893 flits)
Measured flits: 339732 339733 339734 339735 339736 339737 339738 339739 339740 339741 [...] (257442 flits)
Class 0:
Remaining flits: 92538 92539 92540 92541 92542 92543 92544 92545 92546 92547 [...] (2139712 flits)
Measured flits: 343782 343783 343784 343785 343786 343787 343788 343789 343790 343791 [...] (238643 flits)
Class 0:
Remaining flits: 106992 106993 106994 106995 106996 106997 106998 106999 107000 107001 [...] (2209992 flits)
Measured flits: 344682 344683 344684 344685 344686 344687 344688 344689 344690 344691 [...] (221024 flits)
Class 0:
Remaining flits: 107001 107002 107003 107004 107005 107006 107007 107008 107009 109998 [...] (2277101 flits)
Measured flits: 344682 344683 344684 344685 344686 344687 344688 344689 344690 344691 [...] (204355 flits)
Class 0:
Remaining flits: 111465 111466 111467 111468 111469 111470 111471 111472 111473 164484 [...] (2349617 flits)
Measured flits: 344682 344683 344684 344685 344686 344687 344688 344689 344690 344691 [...] (190207 flits)
Class 0:
Remaining flits: 111466 111467 111468 111469 111470 111471 111472 111473 164484 164485 [...] (2425614 flits)
Measured flits: 344682 344683 344684 344685 344686 344687 344688 344689 344690 344691 [...] (176683 flits)
Class 0:
Remaining flits: 164484 164485 164486 164487 164488 164489 164490 164491 164492 164493 [...] (2498689 flits)
Measured flits: 344682 344683 344684 344685 344686 344687 344688 344689 344690 344691 [...] (163583 flits)
Class 0:
Remaining flits: 171792 171793 171794 171795 171796 171797 171798 171799 171800 171801 [...] (2569506 flits)
Measured flits: 355032 355033 355034 355035 355036 355037 355038 355039 355040 355041 [...] (151035 flits)
Class 0:
Remaining flits: 171792 171793 171794 171795 171796 171797 171798 171799 171800 171801 [...] (2648869 flits)
Measured flits: 355032 355033 355034 355035 355036 355037 355038 355039 355040 355041 [...] (139822 flits)
Class 0:
Remaining flits: 171792 171793 171794 171795 171796 171797 171798 171799 171800 171801 [...] (2719933 flits)
Measured flits: 355032 355033 355034 355035 355036 355037 355038 355039 355040 355041 [...] (128844 flits)
Class 0:
Remaining flits: 171792 171793 171794 171795 171796 171797 171798 171799 171800 171801 [...] (2793207 flits)
Measured flits: 355032 355033 355034 355035 355036 355037 355038 355039 355040 355041 [...] (118300 flits)
Class 0:
Remaining flits: 171792 171793 171794 171795 171796 171797 171798 171799 171800 171801 [...] (2864899 flits)
Measured flits: 355032 355033 355034 355035 355036 355037 355038 355039 355040 355041 [...] (108578 flits)
Class 0:
Remaining flits: 171792 171793 171794 171795 171796 171797 171798 171799 171800 171801 [...] (2935766 flits)
Measured flits: 355032 355033 355034 355035 355036 355037 355038 355039 355040 355041 [...] (99609 flits)
Class 0:
Remaining flits: 171792 171793 171794 171795 171796 171797 171798 171799 171800 171801 [...] (3004762 flits)
Measured flits: 355032 355033 355034 355035 355036 355037 355038 355039 355040 355041 [...] (91628 flits)
Class 0:
Remaining flits: 171792 171793 171794 171795 171796 171797 171798 171799 171800 171801 [...] (3078138 flits)
Measured flits: 374832 374833 374834 374835 374836 374837 374838 374839 374840 374841 [...] (84373 flits)
Class 0:
Remaining flits: 171795 171796 171797 171798 171799 171800 171801 171802 171803 171804 [...] (3147957 flits)
Measured flits: 374832 374833 374834 374835 374836 374837 374838 374839 374840 374841 [...] (77814 flits)
Class 0:
Remaining flits: 283176 283177 283178 283179 283180 283181 283182 283183 283184 283185 [...] (3221254 flits)
Measured flits: 386802 386803 386804 386805 386806 386807 386808 386809 386810 386811 [...] (71324 flits)
Class 0:
Remaining flits: 320094 320095 320096 320097 320098 320099 320100 320101 320102 320103 [...] (3295651 flits)
Measured flits: 389142 389143 389144 389145 389146 389147 389148 389149 389150 389151 [...] (65180 flits)
Class 0:
Remaining flits: 320094 320095 320096 320097 320098 320099 320100 320101 320102 320103 [...] (3360724 flits)
Measured flits: 389142 389143 389144 389145 389146 389147 389148 389149 389150 389151 [...] (59610 flits)
Class 0:
Remaining flits: 320094 320095 320096 320097 320098 320099 320100 320101 320102 320103 [...] (3429569 flits)
Measured flits: 403938 403939 403940 403941 403942 403943 403944 403945 403946 403947 [...] (54809 flits)
Class 0:
Remaining flits: 320094 320095 320096 320097 320098 320099 320100 320101 320102 320103 [...] (3502938 flits)
Measured flits: 403938 403939 403940 403941 403942 403943 403944 403945 403946 403947 [...] (50115 flits)
Class 0:
Remaining flits: 320094 320095 320096 320097 320098 320099 320100 320101 320102 320103 [...] (3568458 flits)
Measured flits: 403938 403939 403940 403941 403942 403943 403944 403945 403946 403947 [...] (46092 flits)
Class 0:
Remaining flits: 320094 320095 320096 320097 320098 320099 320100 320101 320102 320103 [...] (3630141 flits)
Measured flits: 436428 436429 436430 436431 436432 436433 436434 436435 436436 436437 [...] (42145 flits)
Class 0:
Remaining flits: 320094 320095 320096 320097 320098 320099 320100 320101 320102 320103 [...] (3689924 flits)
Measured flits: 436428 436429 436430 436431 436432 436433 436434 436435 436436 436437 [...] (38829 flits)
Class 0:
Remaining flits: 320094 320095 320096 320097 320098 320099 320100 320101 320102 320103 [...] (3747623 flits)
Measured flits: 436428 436429 436430 436431 436432 436433 436434 436435 436436 436437 [...] (36077 flits)
Class 0:
Remaining flits: 436428 436429 436430 436431 436432 436433 436434 436435 436436 436437 [...] (3799118 flits)
Measured flits: 436428 436429 436430 436431 436432 436433 436434 436435 436436 436437 [...] (33207 flits)
Class 0:
Remaining flits: 436428 436429 436430 436431 436432 436433 436434 436435 436436 436437 [...] (3851080 flits)
Measured flits: 436428 436429 436430 436431 436432 436433 436434 436435 436436 436437 [...] (30338 flits)
Class 0:
Remaining flits: 436428 436429 436430 436431 436432 436433 436434 436435 436436 436437 [...] (3893441 flits)
Measured flits: 436428 436429 436430 436431 436432 436433 436434 436435 436436 436437 [...] (27805 flits)
Class 0:
Remaining flits: 436428 436429 436430 436431 436432 436433 436434 436435 436436 436437 [...] (3935439 flits)
Measured flits: 436428 436429 436430 436431 436432 436433 436434 436435 436436 436437 [...] (25882 flits)
Class 0:
Remaining flits: 500166 500167 500168 500169 500170 500171 500172 500173 500174 500175 [...] (3974693 flits)
Measured flits: 500166 500167 500168 500169 500170 500171 500172 500173 500174 500175 [...] (23897 flits)
Class 0:
Remaining flits: 500166 500167 500168 500169 500170 500171 500172 500173 500174 500175 [...] (4007001 flits)
Measured flits: 500166 500167 500168 500169 500170 500171 500172 500173 500174 500175 [...] (21863 flits)
Class 0:
Remaining flits: 500166 500167 500168 500169 500170 500171 500172 500173 500174 500175 [...] (4032061 flits)
Measured flits: 500166 500167 500168 500169 500170 500171 500172 500173 500174 500175 [...] (20164 flits)
Class 0:
Remaining flits: 517122 517123 517124 517125 517126 517127 517128 517129 517130 517131 [...] (4059600 flits)
Measured flits: 517122 517123 517124 517125 517126 517127 517128 517129 517130 517131 [...] (18617 flits)
Class 0:
Remaining flits: 529920 529921 529922 529923 529924 529925 529926 529927 529928 529929 [...] (4084338 flits)
Measured flits: 529920 529921 529922 529923 529924 529925 529926 529927 529928 529929 [...] (17043 flits)
Class 0:
Remaining flits: 529920 529921 529922 529923 529924 529925 529926 529927 529928 529929 [...] (4107360 flits)
Measured flits: 529920 529921 529922 529923 529924 529925 529926 529927 529928 529929 [...] (15522 flits)
Class 0:
Remaining flits: 529920 529921 529922 529923 529924 529925 529926 529927 529928 529929 [...] (4130018 flits)
Measured flits: 529920 529921 529922 529923 529924 529925 529926 529927 529928 529929 [...] (14320 flits)
Class 0:
Remaining flits: 529920 529921 529922 529923 529924 529925 529926 529927 529928 529929 [...] (4151926 flits)
Measured flits: 529920 529921 529922 529923 529924 529925 529926 529927 529928 529929 [...] (13250 flits)
Class 0:
Remaining flits: 529920 529921 529922 529923 529924 529925 529926 529927 529928 529929 [...] (4177534 flits)
Measured flits: 529920 529921 529922 529923 529924 529925 529926 529927 529928 529929 [...] (12157 flits)
Class 0:
Remaining flits: 529920 529921 529922 529923 529924 529925 529926 529927 529928 529929 [...] (4195640 flits)
Measured flits: 529920 529921 529922 529923 529924 529925 529926 529927 529928 529929 [...] (11252 flits)
Class 0:
Remaining flits: 529920 529921 529922 529923 529924 529925 529926 529927 529928 529929 [...] (4210344 flits)
Measured flits: 529920 529921 529922 529923 529924 529925 529926 529927 529928 529929 [...] (10338 flits)
Class 0:
Remaining flits: 529920 529921 529922 529923 529924 529925 529926 529927 529928 529929 [...] (4227036 flits)
Measured flits: 529920 529921 529922 529923 529924 529925 529926 529927 529928 529929 [...] (9259 flits)
Class 0:
Remaining flits: 529920 529921 529922 529923 529924 529925 529926 529927 529928 529929 [...] (4242792 flits)
Measured flits: 529920 529921 529922 529923 529924 529925 529926 529927 529928 529929 [...] (8464 flits)
Class 0:
Remaining flits: 529920 529921 529922 529923 529924 529925 529926 529927 529928 529929 [...] (4255734 flits)
Measured flits: 529920 529921 529922 529923 529924 529925 529926 529927 529928 529929 [...] (7677 flits)
Class 0:
Remaining flits: 529920 529921 529922 529923 529924 529925 529926 529927 529928 529929 [...] (4268640 flits)
Measured flits: 529920 529921 529922 529923 529924 529925 529926 529927 529928 529929 [...] (7062 flits)
Class 0:
Remaining flits: 529920 529921 529922 529923 529924 529925 529926 529927 529928 529929 [...] (4281674 flits)
Measured flits: 529920 529921 529922 529923 529924 529925 529926 529927 529928 529929 [...] (6432 flits)
Class 0:
Remaining flits: 529920 529921 529922 529923 529924 529925 529926 529927 529928 529929 [...] (4294257 flits)
Measured flits: 529920 529921 529922 529923 529924 529925 529926 529927 529928 529929 [...] (5790 flits)
Class 0:
Remaining flits: 639921 639922 639923 639924 639925 639926 639927 639928 639929 639930 [...] (4308347 flits)
Measured flits: 639921 639922 639923 639924 639925 639926 639927 639928 639929 639930 [...] (5047 flits)
Class 0:
Remaining flits: 732276 732277 732278 732279 732280 732281 732282 732283 732284 732285 [...] (4320554 flits)
Measured flits: 732276 732277 732278 732279 732280 732281 732282 732283 732284 732285 [...] (4551 flits)
Class 0:
Remaining flits: 777942 777943 777944 777945 777946 777947 777948 777949 777950 777951 [...] (4332855 flits)
Measured flits: 777942 777943 777944 777945 777946 777947 777948 777949 777950 777951 [...] (4228 flits)
Class 0:
Remaining flits: 777942 777943 777944 777945 777946 777947 777948 777949 777950 777951 [...] (4345540 flits)
Measured flits: 777942 777943 777944 777945 777946 777947 777948 777949 777950 777951 [...] (3886 flits)
Class 0:
Remaining flits: 777942 777943 777944 777945 777946 777947 777948 777949 777950 777951 [...] (4358644 flits)
Measured flits: 777942 777943 777944 777945 777946 777947 777948 777949 777950 777951 [...] (3684 flits)
Class 0:
Remaining flits: 777942 777943 777944 777945 777946 777947 777948 777949 777950 777951 [...] (4373546 flits)
Measured flits: 777942 777943 777944 777945 777946 777947 777948 777949 777950 777951 [...] (3558 flits)
Class 0:
Remaining flits: 777942 777943 777944 777945 777946 777947 777948 777949 777950 777951 [...] (4387942 flits)
Measured flits: 777942 777943 777944 777945 777946 777947 777948 777949 777950 777951 [...] (3231 flits)
Class 0:
Remaining flits: 777942 777943 777944 777945 777946 777947 777948 777949 777950 777951 [...] (4402114 flits)
Measured flits: 777942 777943 777944 777945 777946 777947 777948 777949 777950 777951 [...] (2951 flits)
Class 0:
Remaining flits: 777942 777943 777944 777945 777946 777947 777948 777949 777950 777951 [...] (4415036 flits)
Measured flits: 777942 777943 777944 777945 777946 777947 777948 777949 777950 777951 [...] (2821 flits)
Class 0:
Remaining flits: 777942 777943 777944 777945 777946 777947 777948 777949 777950 777951 [...] (4427470 flits)
Measured flits: 777942 777943 777944 777945 777946 777947 777948 777949 777950 777951 [...] (2449 flits)
Class 0:
Remaining flits: 777942 777943 777944 777945 777946 777947 777948 777949 777950 777951 [...] (4439448 flits)
Measured flits: 777942 777943 777944 777945 777946 777947 777948 777949 777950 777951 [...] (2220 flits)
Class 0:
Remaining flits: 777942 777943 777944 777945 777946 777947 777948 777949 777950 777951 [...] (4450131 flits)
Measured flits: 777942 777943 777944 777945 777946 777947 777948 777949 777950 777951 [...] (2126 flits)
Class 0:
Remaining flits: 836874 836875 836876 836877 836878 836879 836880 836881 836882 836883 [...] (4459284 flits)
Measured flits: 836874 836875 836876 836877 836878 836879 836880 836881 836882 836883 [...] (1936 flits)
Class 0:
Remaining flits: 836874 836875 836876 836877 836878 836879 836880 836881 836882 836883 [...] (4470522 flits)
Measured flits: 836874 836875 836876 836877 836878 836879 836880 836881 836882 836883 [...] (1866 flits)
Class 0:
Remaining flits: 836874 836875 836876 836877 836878 836879 836880 836881 836882 836883 [...] (4480795 flits)
Measured flits: 836874 836875 836876 836877 836878 836879 836880 836881 836882 836883 [...] (1603 flits)
Class 0:
Remaining flits: 836874 836875 836876 836877 836878 836879 836880 836881 836882 836883 [...] (4495232 flits)
Measured flits: 836874 836875 836876 836877 836878 836879 836880 836881 836882 836883 [...] (1365 flits)
Class 0:
Remaining flits: 836874 836875 836876 836877 836878 836879 836880 836881 836882 836883 [...] (4506643 flits)
Measured flits: 836874 836875 836876 836877 836878 836879 836880 836881 836882 836883 [...] (1182 flits)
Class 0:
Remaining flits: 836874 836875 836876 836877 836878 836879 836880 836881 836882 836883 [...] (4519866 flits)
Measured flits: 836874 836875 836876 836877 836878 836879 836880 836881 836882 836883 [...] (1082 flits)
Class 0:
Remaining flits: 836874 836875 836876 836877 836878 836879 836880 836881 836882 836883 [...] (4531668 flits)
Measured flits: 836874 836875 836876 836877 836878 836879 836880 836881 836882 836883 [...] (1058 flits)
Class 0:
Remaining flits: 836874 836875 836876 836877 836878 836879 836880 836881 836882 836883 [...] (4539178 flits)
Measured flits: 836874 836875 836876 836877 836878 836879 836880 836881 836882 836883 [...] (954 flits)
Class 0:
Remaining flits: 836874 836875 836876 836877 836878 836879 836880 836881 836882 836883 [...] (4549849 flits)
Measured flits: 836874 836875 836876 836877 836878 836879 836880 836881 836882 836883 [...] (819 flits)
Class 0:
Remaining flits: 836876 836877 836878 836879 836880 836881 836882 836883 836884 836885 [...] (4557289 flits)
Measured flits: 836876 836877 836878 836879 836880 836881 836882 836883 836884 836885 [...] (700 flits)
Class 0:
Remaining flits: 836876 836877 836878 836879 836880 836881 836882 836883 836884 836885 [...] (4571938 flits)
Measured flits: 836876 836877 836878 836879 836880 836881 836882 836883 836884 836885 [...] (643 flits)
Class 0:
Remaining flits: 836876 836877 836878 836879 836880 836881 836882 836883 836884 836885 [...] (4584917 flits)
Measured flits: 836876 836877 836878 836879 836880 836881 836882 836883 836884 836885 [...] (560 flits)
Class 0:
Remaining flits: 867438 867439 867440 867441 867442 867443 867444 867445 867446 867447 [...] (4595290 flits)
Measured flits: 867438 867439 867440 867441 867442 867443 867444 867445 867446 867447 [...] (509 flits)
Class 0:
Remaining flits: 867438 867439 867440 867441 867442 867443 867444 867445 867446 867447 [...] (4606721 flits)
Measured flits: 867438 867439 867440 867441 867442 867443 867444 867445 867446 867447 [...] (486 flits)
Class 0:
Remaining flits: 1002402 1002403 1002404 1002405 1002406 1002407 1002408 1002409 1002410 1002411 [...] (4617317 flits)
Measured flits: 1002402 1002403 1002404 1002405 1002406 1002407 1002408 1002409 1002410 1002411 [...] (421 flits)
Class 0:
Remaining flits: 1002402 1002403 1002404 1002405 1002406 1002407 1002408 1002409 1002410 1002411 [...] (4629867 flits)
Measured flits: 1002402 1002403 1002404 1002405 1002406 1002407 1002408 1002409 1002410 1002411 [...] (396 flits)
Class 0:
Remaining flits: 1002402 1002403 1002404 1002405 1002406 1002407 1002408 1002409 1002410 1002411 [...] (4636942 flits)
Measured flits: 1002402 1002403 1002404 1002405 1002406 1002407 1002408 1002409 1002410 1002411 [...] (360 flits)
Class 0:
Remaining flits: 1002402 1002403 1002404 1002405 1002406 1002407 1002408 1002409 1002410 1002411 [...] (4645509 flits)
Measured flits: 1002402 1002403 1002404 1002405 1002406 1002407 1002408 1002409 1002410 1002411 [...] (324 flits)
Class 0:
Remaining flits: 1002402 1002403 1002404 1002405 1002406 1002407 1002408 1002409 1002410 1002411 [...] (4655027 flits)
Measured flits: 1002402 1002403 1002404 1002405 1002406 1002407 1002408 1002409 1002410 1002411 [...] (306 flits)
Class 0:
Remaining flits: 1002402 1002403 1002404 1002405 1002406 1002407 1002408 1002409 1002410 1002411 [...] (4665096 flits)
Measured flits: 1002402 1002403 1002404 1002405 1002406 1002407 1002408 1002409 1002410 1002411 [...] (288 flits)
Class 0:
Remaining flits: 1002402 1002403 1002404 1002405 1002406 1002407 1002408 1002409 1002410 1002411 [...] (4674032 flits)
Measured flits: 1002402 1002403 1002404 1002405 1002406 1002407 1002408 1002409 1002410 1002411 [...] (235 flits)
Class 0:
Remaining flits: 1002402 1002403 1002404 1002405 1002406 1002407 1002408 1002409 1002410 1002411 [...] (4685227 flits)
Measured flits: 1002402 1002403 1002404 1002405 1002406 1002407 1002408 1002409 1002410 1002411 [...] (234 flits)
Class 0:
Remaining flits: 1002402 1002403 1002404 1002405 1002406 1002407 1002408 1002409 1002410 1002411 [...] (4695448 flits)
Measured flits: 1002402 1002403 1002404 1002405 1002406 1002407 1002408 1002409 1002410 1002411 [...] (234 flits)
Class 0:
Remaining flits: 1002419 1112058 1112059 1112060 1112061 1112062 1112063 1112064 1112065 1112066 [...] (4707167 flits)
Measured flits: 1002419 1112058 1112059 1112060 1112061 1112062 1112063 1112064 1112065 1112066 [...] (205 flits)
Class 0:
Remaining flits: 1002419 1112058 1112059 1112060 1112061 1112062 1112063 1112064 1112065 1112066 [...] (4721163 flits)
Measured flits: 1002419 1112058 1112059 1112060 1112061 1112062 1112063 1112064 1112065 1112066 [...] (181 flits)
Class 0:
Remaining flits: 1112058 1112059 1112060 1112061 1112062 1112063 1112064 1112065 1112066 1112067 [...] (4732482 flits)
Measured flits: 1112058 1112059 1112060 1112061 1112062 1112063 1112064 1112065 1112066 1112067 [...] (180 flits)
Class 0:
Remaining flits: 1112058 1112059 1112060 1112061 1112062 1112063 1112064 1112065 1112066 1112067 [...] (4743148 flits)
Measured flits: 1112058 1112059 1112060 1112061 1112062 1112063 1112064 1112065 1112066 1112067 [...] (90 flits)
Class 0:
Remaining flits: 1112058 1112059 1112060 1112061 1112062 1112063 1112064 1112065 1112066 1112067 [...] (4750738 flits)
Measured flits: 1112058 1112059 1112060 1112061 1112062 1112063 1112064 1112065 1112066 1112067 [...] (90 flits)
Class 0:
Remaining flits: 1154016 1154017 1154018 1154019 1154020 1154021 1154022 1154023 1154024 1154025 [...] (4762963 flits)
Measured flits: 1154016 1154017 1154018 1154019 1154020 1154021 1154022 1154023 1154024 1154025 [...] (72 flits)
Class 0:
Remaining flits: 1154016 1154017 1154018 1154019 1154020 1154021 1154022 1154023 1154024 1154025 [...] (4770545 flits)
Measured flits: 1154016 1154017 1154018 1154019 1154020 1154021 1154022 1154023 1154024 1154025 [...] (72 flits)
Class 0:
Remaining flits: 1154016 1154017 1154018 1154019 1154020 1154021 1154022 1154023 1154024 1154025 [...] (4782824 flits)
Measured flits: 1154016 1154017 1154018 1154019 1154020 1154021 1154022 1154023 1154024 1154025 [...] (66 flits)
Class 0:
Remaining flits: 1170576 1170577 1170578 1170579 1170580 1170581 1170582 1170583 1170584 1170585 [...] (4789319 flits)
Measured flits: 1170576 1170577 1170578 1170579 1170580 1170581 1170582 1170583 1170584 1170585 [...] (28 flits)
Class 0:
Remaining flits: 1170576 1170577 1170578 1170579 1170580 1170581 1170582 1170583 1170584 1170585 [...] (4796613 flits)
Measured flits: 1170576 1170577 1170578 1170579 1170580 1170581 1170582 1170583 1170584 1170585 [...] (28 flits)
Class 0:
Remaining flits: 1303848 1303849 1303850 1303851 1303852 1303853 1303854 1303855 1303856 1303857 [...] (4806812 flits)
Measured flits: 1458476 1458477 1458478 1458479 1458480 1458481 1458482 1458483 1458484 1458485 (10 flits)
Class 0:
Remaining flits: 1303848 1303849 1303850 1303851 1303852 1303853 1303854 1303855 1303856 1303857 [...] (4810663 flits)
Measured flits: 1458476 1458477 1458478 1458479 1458480 1458481 1458482 1458483 1458484 1458485 (10 flits)
Draining remaining packets ...
Class 0:
Remaining flits: 1303848 1303849 1303850 1303851 1303852 1303853 1303854 1303855 1303856 1303857 [...] (4777719 flits)
Measured flits: (0 flits)
Class 0:
Remaining flits: 1303848 1303849 1303850 1303851 1303852 1303853 1303854 1303855 1303856 1303857 [...] (4744336 flits)
Measured flits: (0 flits)
Class 0:
Remaining flits: 1303848 1303849 1303850 1303851 1303852 1303853 1303854 1303855 1303856 1303857 [...] (4711309 flits)
Measured flits: (0 flits)
Class 0:
Remaining flits: 1303848 1303849 1303850 1303851 1303852 1303853 1303854 1303855 1303856 1303857 [...] (4678198 flits)
Measured flits: (0 flits)
Class 0:
Remaining flits: 1303848 1303849 1303850 1303851 1303852 1303853 1303854 1303855 1303856 1303857 [...] (4645392 flits)
Measured flits: (0 flits)
Class 0:
Remaining flits: 1303848 1303849 1303850 1303851 1303852 1303853 1303854 1303855 1303856 1303857 [...] (4611574 flits)
Measured flits: (0 flits)
Class 0:
Remaining flits: 1303848 1303849 1303850 1303851 1303852 1303853 1303854 1303855 1303856 1303857 [...] (4578955 flits)
Measured flits: (0 flits)
Class 0:
Remaining flits: 1344060 1344061 1344062 1344063 1344064 1344065 1344066 1344067 1344068 1344069 [...] (4545746 flits)
Measured flits: (0 flits)
Class 0:
Remaining flits: 1422936 1422937 1422938 1422939 1422940 1422941 1422942 1422943 1422944 1422945 [...] (4513723 flits)
Measured flits: (0 flits)
Class 0:
Remaining flits: 1422936 1422937 1422938 1422939 1422940 1422941 1422942 1422943 1422944 1422945 [...] (4481591 flits)
Measured flits: (0 flits)
Class 0:
Remaining flits: 1422936 1422937 1422938 1422939 1422940 1422941 1422942 1422943 1422944 1422945 [...] (4449666 flits)
Measured flits: (0 flits)
Class 0:
Remaining flits: 1422936 1422937 1422938 1422939 1422940 1422941 1422942 1422943 1422944 1422945 [...] (4417602 flits)
Measured flits: (0 flits)
Class 0:
Remaining flits: 1422936 1422937 1422938 1422939 1422940 1422941 1422942 1422943 1422944 1422945 [...] (4384638 flits)
Measured flits: (0 flits)
Class 0:
Remaining flits: 1422936 1422937 1422938 1422939 1422940 1422941 1422942 1422943 1422944 1422945 [...] (4352133 flits)
Measured flits: (0 flits)
Class 0:
Remaining flits: 1422936 1422937 1422938 1422939 1422940 1422941 1422942 1422943 1422944 1422945 [...] (4320021 flits)
Measured flits: (0 flits)
Class 0:
Remaining flits: 1422936 1422937 1422938 1422939 1422940 1422941 1422942 1422943 1422944 1422945 [...] (4288684 flits)
Measured flits: (0 flits)
Class 0:
Remaining flits: 1772136 1772137 1772138 1772139 1772140 1772141 1772142 1772143 1772144 1772145 [...] (4257317 flits)
Measured flits: (0 flits)
Class 0:
Remaining flits: 1772136 1772137 1772138 1772139 1772140 1772141 1772142 1772143 1772144 1772145 [...] (4225168 flits)
Measured flits: (0 flits)
Class 0:
Remaining flits: 1772136 1772137 1772138 1772139 1772140 1772141 1772142 1772143 1772144 1772145 [...] (4191978 flits)
Measured flits: (0 flits)
Class 0:
Remaining flits: 1772136 1772137 1772138 1772139 1772140 1772141 1772142 1772143 1772144 1772145 [...] (4158357 flits)
Measured flits: (0 flits)
Class 0:
Remaining flits: 1772136 1772137 1772138 1772139 1772140 1772141 1772142 1772143 1772144 1772145 [...] (4125697 flits)
Measured flits: (0 flits)
Class 0:
Remaining flits: 1772136 1772137 1772138 1772139 1772140 1772141 1772142 1772143 1772144 1772145 [...] (4092563 flits)
Measured flits: (0 flits)
Class 0:
Remaining flits: 1946124 1946125 1946126 1946127 1946128 1946129 1946130 1946131 1946132 1946133 [...] (4059393 flits)
Measured flits: (0 flits)
Class 0:
Remaining flits: 1946124 1946125 1946126 1946127 1946128 1946129 1946130 1946131 1946132 1946133 [...] (4029025 flits)
Measured flits: (0 flits)
Class 0:
Remaining flits: 1946124 1946125 1946126 1946127 1946128 1946129 1946130 1946131 1946132 1946133 [...] (3997542 flits)
Measured flits: (0 flits)
Class 0:
Remaining flits: 1946124 1946125 1946126 1946127 1946128 1946129 1946130 1946131 1946132 1946133 [...] (3964879 flits)
Measured flits: (0 flits)
Class 0:
Remaining flits: 1946124 1946125 1946126 1946127 1946128 1946129 1946130 1946131 1946132 1946133 [...] (3932735 flits)
Measured flits: (0 flits)
Class 0:
Remaining flits: 1946124 1946125 1946126 1946127 1946128 1946129 1946130 1946131 1946132 1946133 [...] (3899401 flits)
Measured flits: (0 flits)
Class 0:
Remaining flits: 1985400 1985401 1985402 1985403 1985404 1985405 1985406 1985407 1985408 1985409 [...] (3866462 flits)
Measured flits: (0 flits)
Class 0:
Remaining flits: 1985400 1985401 1985402 1985403 1985404 1985405 1985406 1985407 1985408 1985409 [...] (3833879 flits)
Measured flits: (0 flits)
Class 0:
Remaining flits: 2033784 2033785 2033786 2033787 2033788 2033789 2033790 2033791 2033792 2033793 [...] (3800666 flits)
Measured flits: (0 flits)
Class 0:
Remaining flits: 2033784 2033785 2033786 2033787 2033788 2033789 2033790 2033791 2033792 2033793 [...] (3768064 flits)
Measured flits: (0 flits)
Class 0:
Remaining flits: 2033784 2033785 2033786 2033787 2033788 2033789 2033790 2033791 2033792 2033793 [...] (3734857 flits)
Measured flits: (0 flits)
Class 0:
Remaining flits: 2033784 2033785 2033786 2033787 2033788 2033789 2033790 2033791 2033792 2033793 [...] (3702834 flits)
Measured flits: (0 flits)
Class 0:
Remaining flits: 2068308 2068309 2068310 2068311 2068312 2068313 2068314 2068315 2068316 2068317 [...] (3670116 flits)
Measured flits: (0 flits)
Class 0:
Remaining flits: 2068308 2068309 2068310 2068311 2068312 2068313 2068314 2068315 2068316 2068317 [...] (3639358 flits)
Measured flits: (0 flits)
Class 0:
Remaining flits: 2068308 2068309 2068310 2068311 2068312 2068313 2068314 2068315 2068316 2068317 [...] (3607955 flits)
Measured flits: (0 flits)
Class 0:
Remaining flits: 2068308 2068309 2068310 2068311 2068312 2068313 2068314 2068315 2068316 2068317 [...] (3574982 flits)
Measured flits: (0 flits)
Class 0:
Remaining flits: 2068308 2068309 2068310 2068311 2068312 2068313 2068314 2068315 2068316 2068317 [...] (3540935 flits)
Measured flits: (0 flits)
Class 0:
Remaining flits: 2068308 2068309 2068310 2068311 2068312 2068313 2068314 2068315 2068316 2068317 [...] (3508821 flits)
Measured flits: (0 flits)
Class 0:
Remaining flits: 2068308 2068309 2068310 2068311 2068312 2068313 2068314 2068315 2068316 2068317 [...] (3478009 flits)
Measured flits: (0 flits)
Class 0:
Remaining flits: 2136420 2136421 2136422 2136423 2136424 2136425 2136426 2136427 2136428 2136429 [...] (3445281 flits)
Measured flits: (0 flits)
Class 0:
Remaining flits: 2256984 2256985 2256986 2256987 2256988 2256989 2256990 2256991 2256992 2256993 [...] (3413546 flits)
Measured flits: (0 flits)
Class 0:
Remaining flits: 2256999 2257000 2257001 2275398 2275399 2275400 2275401 2275402 2275403 2275404 [...] (3381162 flits)
Measured flits: (0 flits)
Class 0:
Remaining flits: 2275398 2275399 2275400 2275401 2275402 2275403 2275404 2275405 2275406 2275407 [...] (3348316 flits)
Measured flits: (0 flits)
Class 0:
Remaining flits: 2275398 2275399 2275400 2275401 2275402 2275403 2275404 2275405 2275406 2275407 [...] (3315815 flits)
Measured flits: (0 flits)
Class 0:
Remaining flits: 2275398 2275399 2275400 2275401 2275402 2275403 2275404 2275405 2275406 2275407 [...] (3283351 flits)
Measured flits: (0 flits)
Class 0:
Remaining flits: 2275398 2275399 2275400 2275401 2275402 2275403 2275404 2275405 2275406 2275407 [...] (3251466 flits)
Measured flits: (0 flits)
Class 0:
Remaining flits: 2307654 2307655 2307656 2307657 2307658 2307659 2307660 2307661 2307662 2307663 [...] (3218750 flits)
Measured flits: (0 flits)
Class 0:
Remaining flits: 2307654 2307655 2307656 2307657 2307658 2307659 2307660 2307661 2307662 2307663 [...] (3186991 flits)
Measured flits: (0 flits)
Class 0:
Remaining flits: 2307654 2307655 2307656 2307657 2307658 2307659 2307660 2307661 2307662 2307663 [...] (3156542 flits)
Measured flits: (0 flits)
Class 0:
Remaining flits: 2307654 2307655 2307656 2307657 2307658 2307659 2307660 2307661 2307662 2307663 [...] (3125255 flits)
Measured flits: (0 flits)
Class 0:
Remaining flits: 2307654 2307655 2307656 2307657 2307658 2307659 2307660 2307661 2307662 2307663 [...] (3094147 flits)
Measured flits: (0 flits)
Class 0:
Remaining flits: 2307654 2307655 2307656 2307657 2307658 2307659 2307660 2307661 2307662 2307663 [...] (3062209 flits)
Measured flits: (0 flits)
Class 0:
Remaining flits: 2307654 2307655 2307656 2307657 2307658 2307659 2307660 2307661 2307662 2307663 [...] (3030049 flits)
Measured flits: (0 flits)
Class 0:
Remaining flits: 2307669 2307670 2307671 2408508 2408509 2408510 2408511 2408512 2408513 2408514 [...] (2998984 flits)
Measured flits: (0 flits)
Class 0:
Remaining flits: 2408508 2408509 2408510 2408511 2408512 2408513 2408514 2408515 2408516 2408517 [...] (2967535 flits)
Measured flits: (0 flits)
Class 0:
Remaining flits: 2408508 2408509 2408510 2408511 2408512 2408513 2408514 2408515 2408516 2408517 [...] (2936393 flits)
Measured flits: (0 flits)
Class 0:
Remaining flits: 2408508 2408509 2408510 2408511 2408512 2408513 2408514 2408515 2408516 2408517 [...] (2904794 flits)
Measured flits: (0 flits)
Class 0:
Remaining flits: 2408508 2408509 2408510 2408511 2408512 2408513 2408514 2408515 2408516 2408517 [...] (2873702 flits)
Measured flits: (0 flits)
Class 0:
Remaining flits: 2408508 2408509 2408510 2408511 2408512 2408513 2408514 2408515 2408516 2408517 [...] (2842162 flits)
Measured flits: (0 flits)
Class 0:
Remaining flits: 2408508 2408509 2408510 2408511 2408512 2408513 2408514 2408515 2408516 2408517 [...] (2811000 flits)
Measured flits: (0 flits)
Class 0:
Remaining flits: 2688804 2688805 2688806 2688807 2688808 2688809 2688810 2688811 2688812 2688813 [...] (2778781 flits)
Measured flits: (0 flits)
Class 0:
Remaining flits: 2688804 2688805 2688806 2688807 2688808 2688809 2688810 2688811 2688812 2688813 [...] (2746815 flits)
Measured flits: (0 flits)
Class 0:
Remaining flits: 2688804 2688805 2688806 2688807 2688808 2688809 2688810 2688811 2688812 2688813 [...] (2714531 flits)
Measured flits: (0 flits)
Class 0:
Remaining flits: 2688804 2688805 2688806 2688807 2688808 2688809 2688810 2688811 2688812 2688813 [...] (2682923 flits)
Measured flits: (0 flits)
Class 0:
Remaining flits: 2688804 2688805 2688806 2688807 2688808 2688809 2688810 2688811 2688812 2688813 [...] (2650534 flits)
Measured flits: (0 flits)
Class 0:
Remaining flits: 2688804 2688805 2688806 2688807 2688808 2688809 2688810 2688811 2688812 2688813 [...] (2618551 flits)
Measured flits: (0 flits)
Class 0:
Remaining flits: 2688804 2688805 2688806 2688807 2688808 2688809 2688810 2688811 2688812 2688813 [...] (2586658 flits)
Measured flits: (0 flits)
Class 0:
Remaining flits: 2688804 2688805 2688806 2688807 2688808 2688809 2688810 2688811 2688812 2688813 [...] (2555196 flits)
Measured flits: (0 flits)
Class 0:
Remaining flits: 2688804 2688805 2688806 2688807 2688808 2688809 2688810 2688811 2688812 2688813 [...] (2524223 flits)
Measured flits: (0 flits)
Class 0:
Remaining flits: 2688804 2688805 2688806 2688807 2688808 2688809 2688810 2688811 2688812 2688813 [...] (2492490 flits)
Measured flits: (0 flits)
Class 0:
Remaining flits: 2688804 2688805 2688806 2688807 2688808 2688809 2688810 2688811 2688812 2688813 [...] (2460779 flits)
Measured flits: (0 flits)
Class 0:
Remaining flits: 2688804 2688805 2688806 2688807 2688808 2688809 2688810 2688811 2688812 2688813 [...] (2429368 flits)
Measured flits: (0 flits)
Class 0:
Remaining flits: 2688804 2688805 2688806 2688807 2688808 2688809 2688810 2688811 2688812 2688813 [...] (2397710 flits)
Measured flits: (0 flits)
Class 0:
Remaining flits: 2688804 2688805 2688806 2688807 2688808 2688809 2688810 2688811 2688812 2688813 [...] (2366577 flits)
Measured flits: (0 flits)
Class 0:
Remaining flits: 2688804 2688805 2688806 2688807 2688808 2688809 2688810 2688811 2688812 2688813 [...] (2335990 flits)
Measured flits: (0 flits)
Class 0:
Remaining flits: 2688804 2688805 2688806 2688807 2688808 2688809 2688810 2688811 2688812 2688813 [...] (2304312 flits)
Measured flits: (0 flits)
Class 0:
Remaining flits: 2688804 2688805 2688806 2688807 2688808 2688809 2688810 2688811 2688812 2688813 [...] (2273183 flits)
Measured flits: (0 flits)
Class 0:
Remaining flits: 2688804 2688805 2688806 2688807 2688808 2688809 2688810 2688811 2688812 2688813 [...] (2241946 flits)
Measured flits: (0 flits)
Class 0:
Remaining flits: 2688804 2688805 2688806 2688807 2688808 2688809 2688810 2688811 2688812 2688813 [...] (2212794 flits)
Measured flits: (0 flits)
Class 0:
Remaining flits: 2688804 2688805 2688806 2688807 2688808 2688809 2688810 2688811 2688812 2688813 [...] (2182364 flits)
Measured flits: (0 flits)
Class 0:
Remaining flits: 2688804 2688805 2688806 2688807 2688808 2688809 2688810 2688811 2688812 2688813 [...] (2152111 flits)
Measured flits: (0 flits)
Class 0:
Remaining flits: 2737422 2737423 2737424 2737425 2737426 2737427 2737428 2737429 2737430 2737431 [...] (2121748 flits)
Measured flits: (0 flits)
Class 0:
Remaining flits: 2737422 2737423 2737424 2737425 2737426 2737427 2737428 2737429 2737430 2737431 [...] (2091002 flits)
Measured flits: (0 flits)
Class 0:
Remaining flits: 2737422 2737423 2737424 2737425 2737426 2737427 2737428 2737429 2737430 2737431 [...] (2060447 flits)
Measured flits: (0 flits)
Class 0:
Remaining flits: 2737422 2737423 2737424 2737425 2737426 2737427 2737428 2737429 2737430 2737431 [...] (2030585 flits)
Measured flits: (0 flits)
Class 0:
Remaining flits: 3000006 3000007 3000008 3000009 3000010 3000011 3000012 3000013 3000014 3000015 [...] (1999912 flits)
Measured flits: (0 flits)
Class 0:
Remaining flits: 3000006 3000007 3000008 3000009 3000010 3000011 3000012 3000013 3000014 3000015 [...] (1970256 flits)
Measured flits: (0 flits)
Class 0:
Remaining flits: 3000006 3000007 3000008 3000009 3000010 3000011 3000012 3000013 3000014 3000015 [...] (1942233 flits)
Measured flits: (0 flits)
Class 0:
Remaining flits: 3000006 3000007 3000008 3000009 3000010 3000011 3000012 3000013 3000014 3000015 [...] (1912465 flits)
Measured flits: (0 flits)
Class 0:
Remaining flits: 3000006 3000007 3000008 3000009 3000010 3000011 3000012 3000013 3000014 3000015 [...] (1882475 flits)
Measured flits: (0 flits)
Class 0:
Remaining flits: 3000006 3000007 3000008 3000009 3000010 3000011 3000012 3000013 3000014 3000015 [...] (1853181 flits)
Measured flits: (0 flits)
Class 0:
Remaining flits: 3000006 3000007 3000008 3000009 3000010 3000011 3000012 3000013 3000014 3000015 [...] (1822553 flits)
Measured flits: (0 flits)
Class 0:
Remaining flits: 3000006 3000007 3000008 3000009 3000010 3000011 3000012 3000013 3000014 3000015 [...] (1792157 flits)
Measured flits: (0 flits)
Class 0:
Remaining flits: 3000006 3000007 3000008 3000009 3000010 3000011 3000012 3000013 3000014 3000015 [...] (1761140 flits)
Measured flits: (0 flits)
Class 0:
Remaining flits: 3000006 3000007 3000008 3000009 3000010 3000011 3000012 3000013 3000014 3000015 [...] (1730134 flits)
Measured flits: (0 flits)
Class 0:
Remaining flits: 3000006 3000007 3000008 3000009 3000010 3000011 3000012 3000013 3000014 3000015 [...] (1698112 flits)
Measured flits: (0 flits)
Class 0:
Remaining flits: 3000006 3000007 3000008 3000009 3000010 3000011 3000012 3000013 3000014 3000015 [...] (1666926 flits)
Measured flits: (0 flits)
Class 0:
Remaining flits: 3000006 3000007 3000008 3000009 3000010 3000011 3000012 3000013 3000014 3000015 [...] (1634975 flits)
Measured flits: (0 flits)
Class 0:
Remaining flits: 3000006 3000007 3000008 3000009 3000010 3000011 3000012 3000013 3000014 3000015 [...] (1602265 flits)
Measured flits: (0 flits)
Class 0:
Remaining flits: 3109356 3109357 3109358 3109359 3109360 3109361 3109362 3109363 3109364 3109365 [...] (1569613 flits)
Measured flits: (0 flits)
Class 0:
Remaining flits: 3109356 3109357 3109358 3109359 3109360 3109361 3109362 3109363 3109364 3109365 [...] (1536765 flits)
Measured flits: (0 flits)
Class 0:
Remaining flits: 3187494 3187495 3187496 3187497 3187498 3187499 3187500 3187501 3187502 3187503 [...] (1504326 flits)
Measured flits: (0 flits)
Class 0:
Remaining flits: 3187494 3187495 3187496 3187497 3187498 3187499 3187500 3187501 3187502 3187503 [...] (1473002 flits)
Measured flits: (0 flits)
Class 0:
Remaining flits: 3187494 3187495 3187496 3187497 3187498 3187499 3187500 3187501 3187502 3187503 [...] (1440151 flits)
Measured flits: (0 flits)
Class 0:
Remaining flits: 3187494 3187495 3187496 3187497 3187498 3187499 3187500 3187501 3187502 3187503 [...] (1409123 flits)
Measured flits: (0 flits)
Class 0:
Remaining flits: 3187494 3187495 3187496 3187497 3187498 3187499 3187500 3187501 3187502 3187503 [...] (1378288 flits)
Measured flits: (0 flits)
Class 0:
Remaining flits: 3187494 3187495 3187496 3187497 3187498 3187499 3187500 3187501 3187502 3187503 [...] (1345735 flits)
Measured flits: (0 flits)
Class 0:
Remaining flits: 3187494 3187495 3187496 3187497 3187498 3187499 3187500 3187501 3187502 3187503 [...] (1313587 flits)
Measured flits: (0 flits)
Class 0:
Remaining flits: 3187494 3187495 3187496 3187497 3187498 3187499 3187500 3187501 3187502 3187503 [...] (1280886 flits)
Measured flits: (0 flits)
Class 0:
Remaining flits: 3187494 3187495 3187496 3187497 3187498 3187499 3187500 3187501 3187502 3187503 [...] (1247890 flits)
Measured flits: (0 flits)
Class 0:
Remaining flits: 3187494 3187495 3187496 3187497 3187498 3187499 3187500 3187501 3187502 3187503 [...] (1214604 flits)
Measured flits: (0 flits)
Class 0:
Remaining flits: 3187494 3187495 3187496 3187497 3187498 3187499 3187500 3187501 3187502 3187503 [...] (1181532 flits)
Measured flits: (0 flits)
Class 0:
Remaining flits: 3187494 3187495 3187496 3187497 3187498 3187499 3187500 3187501 3187502 3187503 [...] (1148441 flits)
Measured flits: (0 flits)
Class 0:
Remaining flits: 3187494 3187495 3187496 3187497 3187498 3187499 3187500 3187501 3187502 3187503 [...] (1115926 flits)
Measured flits: (0 flits)
Class 0:
Remaining flits: 3187494 3187495 3187496 3187497 3187498 3187499 3187500 3187501 3187502 3187503 [...] (1083256 flits)
Measured flits: (0 flits)
Class 0:
Remaining flits: 3187494 3187495 3187496 3187497 3187498 3187499 3187500 3187501 3187502 3187503 [...] (1050355 flits)
Measured flits: (0 flits)
Class 0:
Remaining flits: 3187494 3187495 3187496 3187497 3187498 3187499 3187500 3187501 3187502 3187503 [...] (1017029 flits)
Measured flits: (0 flits)
Class 0:
Remaining flits: 3187494 3187495 3187496 3187497 3187498 3187499 3187500 3187501 3187502 3187503 [...] (984601 flits)
Measured flits: (0 flits)
Class 0:
Remaining flits: 3187494 3187495 3187496 3187497 3187498 3187499 3187500 3187501 3187502 3187503 [...] (952575 flits)
Measured flits: (0 flits)
Class 0:
Remaining flits: 3187494 3187495 3187496 3187497 3187498 3187499 3187500 3187501 3187502 3187503 [...] (921524 flits)
Measured flits: (0 flits)
Class 0:
Remaining flits: 3187494 3187495 3187496 3187497 3187498 3187499 3187500 3187501 3187502 3187503 [...] (888961 flits)
Measured flits: (0 flits)
Class 0:
Remaining flits: 3367350 3367351 3367352 3367353 3367354 3367355 3367356 3367357 3367358 3367359 [...] (857307 flits)
Measured flits: (0 flits)
Class 0:
Remaining flits: 3367350 3367351 3367352 3367353 3367354 3367355 3367356 3367357 3367358 3367359 [...] (825254 flits)
Measured flits: (0 flits)
Class 0:
Remaining flits: 3549937 3549938 3549939 3549940 3549941 3801114 3801115 3801116 3801117 3801118 [...] (792179 flits)
Measured flits: (0 flits)
Class 0:
Remaining flits: 3801114 3801115 3801116 3801117 3801118 3801119 3801120 3801121 3801122 3801123 [...] (759808 flits)
Measured flits: (0 flits)
Class 0:
Remaining flits: 3801114 3801115 3801116 3801117 3801118 3801119 3801120 3801121 3801122 3801123 [...] (727363 flits)
Measured flits: (0 flits)
Class 0:
Remaining flits: 3801114 3801115 3801116 3801117 3801118 3801119 3801120 3801121 3801122 3801123 [...] (695302 flits)
Measured flits: (0 flits)
Class 0:
Remaining flits: 3801114 3801115 3801116 3801117 3801118 3801119 3801120 3801121 3801122 3801123 [...] (662086 flits)
Measured flits: (0 flits)
Class 0:
Remaining flits: 3801114 3801115 3801116 3801117 3801118 3801119 3801120 3801121 3801122 3801123 [...] (628935 flits)
Measured flits: (0 flits)
Class 0:
Remaining flits: 3801114 3801115 3801116 3801117 3801118 3801119 3801120 3801121 3801122 3801123 [...] (596110 flits)
Measured flits: (0 flits)
Class 0:
Remaining flits: 3801114 3801115 3801116 3801117 3801118 3801119 3801120 3801121 3801122 3801123 [...] (563437 flits)
Measured flits: (0 flits)
Class 0:
Remaining flits: 3801114 3801115 3801116 3801117 3801118 3801119 3801120 3801121 3801122 3801123 [...] (530490 flits)
Measured flits: (0 flits)
Class 0:
Remaining flits: 3801114 3801115 3801116 3801117 3801118 3801119 3801120 3801121 3801122 3801123 [...] (497977 flits)
Measured flits: (0 flits)
Class 0:
Remaining flits: 3898188 3898189 3898190 3898191 3898192 3898193 3898194 3898195 3898196 3898197 [...] (466289 flits)
Measured flits: (0 flits)
Class 0:
Remaining flits: 3898188 3898189 3898190 3898191 3898192 3898193 3898194 3898195 3898196 3898197 [...] (434137 flits)
Measured flits: (0 flits)
Class 0:
Remaining flits: 3898202 3898203 3898204 3898205 4066560 4066561 4066562 4066563 4066564 4066565 [...] (402007 flits)
Measured flits: (0 flits)
Class 0:
Remaining flits: 3898202 3898203 3898204 3898205 4066560 4066561 4066562 4066563 4066564 4066565 [...] (369019 flits)
Measured flits: (0 flits)
Class 0:
Remaining flits: 3898202 3898203 3898204 3898205 4066560 4066561 4066562 4066563 4066564 4066565 [...] (336128 flits)
Measured flits: (0 flits)
Class 0:
Remaining flits: 4066560 4066561 4066562 4066563 4066564 4066565 4066566 4066567 4066568 4066569 [...] (303857 flits)
Measured flits: (0 flits)
Class 0:
Remaining flits: 4066560 4066561 4066562 4066563 4066564 4066565 4066566 4066567 4066568 4066569 [...] (272916 flits)
Measured flits: (0 flits)
Class 0:
Remaining flits: 4066560 4066561 4066562 4066563 4066564 4066565 4066566 4066567 4066568 4066569 [...] (242161 flits)
Measured flits: (0 flits)
Class 0:
Remaining flits: 4066560 4066561 4066562 4066563 4066564 4066565 4066566 4066567 4066568 4066569 [...] (211837 flits)
Measured flits: (0 flits)
Class 0:
Remaining flits: 4066560 4066561 4066562 4066563 4066564 4066565 4066566 4066567 4066568 4066569 [...] (182375 flits)
Measured flits: (0 flits)
Class 0:
Remaining flits: 4066560 4066561 4066562 4066563 4066564 4066565 4066566 4066567 4066568 4066569 [...] (154212 flits)
Measured flits: (0 flits)
Class 0:
Remaining flits: 4066560 4066561 4066562 4066563 4066564 4066565 4066566 4066567 4066568 4066569 [...] (127361 flits)
Measured flits: (0 flits)
Class 0:
Remaining flits: 4665384 4665385 4665386 4665387 4665388 4665389 4665390 4665391 4665392 4665393 [...] (104806 flits)
Measured flits: (0 flits)
Class 0:
Remaining flits: 4665384 4665385 4665386 4665387 4665388 4665389 4665390 4665391 4665392 4665393 [...] (84900 flits)
Measured flits: (0 flits)
Class 0:
Remaining flits: 4665384 4665385 4665386 4665387 4665388 4665389 4665390 4665391 4665392 4665393 [...] (67685 flits)
Measured flits: (0 flits)
Class 0:
Remaining flits: 4665384 4665385 4665386 4665387 4665388 4665389 4665390 4665391 4665392 4665393 [...] (52046 flits)
Measured flits: (0 flits)
Class 0:
Remaining flits: 4723506 4723507 4723508 4723509 4723510 4723511 4723512 4723513 4723514 4723515 [...] (38622 flits)
Measured flits: (0 flits)
Class 0:
Remaining flits: 4773474 4773475 4773476 4773477 4773478 4773479 4773480 4773481 4773482 4773483 [...] (27815 flits)
Measured flits: (0 flits)
Class 0:
Remaining flits: 4773475 4773476 4773477 4773478 4773479 4773480 4773481 4773482 4773483 4773484 [...] (18931 flits)
Measured flits: (0 flits)
Class 0:
Remaining flits: 5059602 5059603 5059604 5059605 5059606 5059607 5059608 5059609 5059610 5059611 [...] (12897 flits)
Measured flits: (0 flits)
Class 0:
Remaining flits: 5059602 5059603 5059604 5059605 5059606 5059607 5059608 5059609 5059610 5059611 [...] (9083 flits)
Measured flits: (0 flits)
Class 0:
Remaining flits: 5059602 5059603 5059604 5059605 5059606 5059607 5059608 5059609 5059610 5059611 [...] (6994 flits)
Measured flits: (0 flits)
Class 0:
Remaining flits: 5059615 5059616 5059617 5059618 5059619 5227758 5227759 5227760 5227761 5227762 [...] (5993 flits)
Measured flits: (0 flits)
Class 0:
Remaining flits: 5227758 5227759 5227760 5227761 5227762 5227763 5227764 5227765 5227766 5227767 [...] (4993 flits)
Measured flits: (0 flits)
Class 0:
Remaining flits: 5438988 5438989 5438990 5438991 5438992 5438993 5438994 5438995 5438996 5438997 [...] (3993 flits)
Measured flits: (0 flits)
Class 0:
Remaining flits: 5438988 5438989 5438990 5438991 5438992 5438993 5438994 5438995 5438996 5438997 [...] (2994 flits)
Measured flits: (0 flits)
Class 0:
Remaining flits: 5741406 5741407 5741408 5741409 5741410 5741411 5741412 5741413 5741414 5741415 [...] (1992 flits)
Measured flits: (0 flits)
Class 0:
Remaining flits: 6000120 6000121 6000122 6000123 6000124 6000125 6000126 6000127 6000128 6000129 [...] (991 flits)
Measured flits: (0 flits)
Time taken is 284120 cycles
====== Overall Traffic Statistics ======
====== Traffic class 0 ======
Packet latency average = 16017.4 (1 samples)
	minimum = 25 (1 samples)
	maximum = 110325 (1 samples)
Network latency average = 15552.8 (1 samples)
	minimum = 23 (1 samples)
	maximum = 108856 (1 samples)
Flit latency average = 82597.5 (1 samples)
	minimum = 6 (1 samples)
	maximum = 234404 (1 samples)
Fragmentation average = 292.316 (1 samples)
	minimum = 0 (1 samples)
	maximum = 11801 (1 samples)
Injected packet rate average = 0.0365521 (1 samples)
	minimum = 0.0151429 (1 samples)
	maximum = 0.0555714 (1 samples)
Accepted packet rate average = 0.0142984 (1 samples)
	minimum = 0.011 (1 samples)
	maximum = 0.0177143 (1 samples)
Injected flit rate average = 0.657914 (1 samples)
	minimum = 0.273286 (1 samples)
	maximum = 1 (1 samples)
Accepted flit rate average = 0.25735 (1 samples)
	minimum = 0.196286 (1 samples)
	maximum = 0.319286 (1 samples)
Injected packet size average = 17.9994 (1 samples)
Accepted packet size average = 17.9985 (1 samples)
Hops average = 5.07228 (1 samples)
Total run time 575.788
