BEGIN Configuration File: networks/mezzanine_config
topology = mezzanine;
n = 12;

routing_function = multipath;
internal_speedup = 2.0;
latency_thres = 100000.0;
use_read_write = 0;

sample_period = 1000;
injection_rate = 0.5;
packet_size = 18;

noq = 1;
routing_delay = 0;
vc_alloc_delay = 1;
sw_alloc_delay = 1;
st_final_delay = 1;
vc_allocator = islip; 
sw_allocator = islip;
alloc_iters  = 4;
num_vcs     = 12;
buffer_policy = private; // private or shared
buf_size = -1; // -1 for buffer_policy = private;
vc_buf_size = 4096; // size of each VOQ with buffer_policy = private
output_buffer_size = -1;


traffic = uniform;

//mezW = 0.0;
//mezPredefinedPatternType = shift-inter; //shift-qfdb

END Configuration File: networks/mezzanine_config
OVERRIDE Parameter: injection_rate=0.000277
OVERRIDE Parameter: routing_function=min
OVERRIDE Parameter: num_vcs=32
OVERRIDE Parameter: vc_buf_size=1024
OVERRIDE Parameter: internal_speedup=2.0
OVERRIDE Parameter: injection_process=bernoulli
OVERRIDE Parameter: sim_type=latency
OVERRIDE Parameter: burst_alpha=0.0038461538
OVERRIDE Parameter: burst_beta=0.1
network: network_0
========================== Routing table  =====================
Number of Subnets: 1
Class 0:
Packet latency average = 34.54
	minimum = 28
	maximum = 45
Network latency average = 34.54
	minimum = 28
	maximum = 45
Slowest packet = 12
Flit latency average = 17.34
	minimum = 11
	maximum = 28
Slowest flit = 233
Fragmentation average = 0.34
	minimum = 0
	maximum = 9
Injected packet rate average = 0.000260417
	minimum = 0 (at node 1)
	maximum = 0.002 (at node 48)
Accepted packet rate average = 0.000260417
	minimum = 0 (at node 0)
	maximum = 0.002 (at node 15)
Injected flit rate average = 0.0046875
	minimum = 0 (at node 1)
	maximum = 0.036 (at node 48)
Accepted flit rate average= 0.0046875
	minimum = 0 (at node 0)
	maximum = 0.036 (at node 15)
Injected packet length average = 18
Accepted packet length average = 18
Total in-flight flits = 0 (0 measured)
latency change    = 1
throughput change = 1
Class 0:
Packet latency average = 34.8542
	minimum = 22
	maximum = 51
Network latency average = 34.8125
	minimum = 22
	maximum = 51
Slowest packet = 57
Flit latency average = 17.5388
	minimum = 5
	maximum = 34
Slowest flit = 1043
Fragmentation average = 0.447917
	minimum = 0
	maximum = 13
Injected packet rate average = 0.000257813
	minimum = 0 (at node 1)
	maximum = 0.0015 (at node 25)
Accepted packet rate average = 0.00025
	minimum = 0 (at node 1)
	maximum = 0.0015 (at node 122)
Injected flit rate average = 0.00461198
	minimum = 0 (at node 1)
	maximum = 0.027 (at node 25)
Accepted flit rate average= 0.00453385
	minimum = 0 (at node 1)
	maximum = 0.027 (at node 122)
Injected packet length average = 17.8889
Accepted packet length average = 18.1354
Total in-flight flits = 41 (0 measured)
latency change    = 0.00901375
throughput change = 0.0338886
Class 0:
Packet latency average = 35.1724
	minimum = 25
	maximum = 50
Network latency average = 35.1724
	minimum = 25
	maximum = 50
Slowest packet = 100
Flit latency average = 17.5696
	minimum = 8
	maximum = 33
Slowest flit = 1809
Fragmentation average = 1.15517
	minimum = 0
	maximum = 14
Injected packet rate average = 0.000291667
	minimum = 0 (at node 0)
	maximum = 0.002 (at node 78)
Accepted packet rate average = 0.000302083
	minimum = 0 (at node 0)
	maximum = 0.003 (at node 85)
Injected flit rate average = 0.00530729
	minimum = 0 (at node 0)
	maximum = 0.036 (at node 78)
Accepted flit rate average= 0.00538542
	minimum = 0 (at node 0)
	maximum = 0.054 (at node 85)
Injected packet length average = 18.1964
Accepted packet length average = 17.8276
Total in-flight flits = 15 (0 measured)
latency change    = 0.0090482
throughput change = 0.158124
Warmed up ...Time used is 3000 cycles
Class 0:
Packet latency average = 34.52
	minimum = 25
	maximum = 45
Network latency average = 34.52
	minimum = 25
	maximum = 45
Slowest packet = 203
Flit latency average = 17.1836
	minimum = 8
	maximum = 28
Slowest flit = 3667
Fragmentation average = 0.6
	minimum = 0
	maximum = 10
Injected packet rate average = 0.000260417
	minimum = 0 (at node 0)
	maximum = 0.002 (at node 79)
Accepted packet rate average = 0.000265625
	minimum = 0 (at node 0)
	maximum = 0.003 (at node 74)
Injected flit rate average = 0.0046875
	minimum = 0 (at node 0)
	maximum = 0.036 (at node 79)
Accepted flit rate average= 0.00476562
	minimum = 0 (at node 0)
	maximum = 0.054 (at node 74)
Injected packet length average = 18
Accepted packet length average = 17.9412
Total in-flight flits = 0 (0 measured)
latency change    = 0.0188996
throughput change = 0.130055
Class 0:
Packet latency average = 35.1782
	minimum = 25
	maximum = 53
Network latency average = 35.0198
	minimum = 25
	maximum = 51
Slowest packet = 207
Flit latency average = 17.5879
	minimum = 8
	maximum = 34
Slowest flit = 3741
Fragmentation average = 0.782178
	minimum = 0
	maximum = 14
Injected packet rate average = 0.000270833
	minimum = 0 (at node 0)
	maximum = 0.002 (at node 189)
Accepted packet rate average = 0.000265625
	minimum = 0 (at node 0)
	maximum = 0.002 (at node 74)
Injected flit rate average = 0.00485156
	minimum = 0 (at node 0)
	maximum = 0.036 (at node 189)
Accepted flit rate average= 0.00478385
	minimum = 0 (at node 0)
	maximum = 0.036 (at node 74)
Injected packet length average = 17.9135
Accepted packet length average = 18.0098
Total in-flight flits = 50 (50 measured)
latency change    = 0.0187109
throughput change = 0.00381056
Class 0:
Packet latency average = 34.725
	minimum = 25
	maximum = 53
Network latency average = 34.625
	minimum = 25
	maximum = 51
Slowest packet = 207
Flit latency average = 17.3521
	minimum = 8
	maximum = 34
Slowest flit = 3741
Fragmentation average = 0.49375
	minimum = 0
	maximum = 14
Injected packet rate average = 0.00028125
	minimum = 0 (at node 0)
	maximum = 0.00133333 (at node 148)
Accepted packet rate average = 0.000279514
	minimum = 0 (at node 0)
	maximum = 0.00133333 (at node 56)
Injected flit rate average = 0.0050625
	minimum = 0 (at node 0)
	maximum = 0.024 (at node 148)
Accepted flit rate average= 0.00505903
	minimum = 0 (at node 0)
	maximum = 0.024 (at node 56)
Injected packet length average = 18
Accepted packet length average = 18.0994
Total in-flight flits = 17 (17 measured)
latency change    = 0.0130516
throughput change = 0.0543926
Class 0:
Packet latency average = 34.6866
	minimum = 25
	maximum = 53
Network latency average = 34.6129
	minimum = 25
	maximum = 51
Slowest packet = 207
Flit latency average = 17.3107
	minimum = 8
	maximum = 34
Slowest flit = 3741
Fragmentation average = 0.534562
	minimum = 0
	maximum = 14
Injected packet rate average = 0.000283854
	minimum = 0 (at node 1)
	maximum = 0.001 (at node 23)
Accepted packet rate average = 0.000283854
	minimum = 0 (at node 1)
	maximum = 0.00125 (at node 140)
Injected flit rate average = 0.00510677
	minimum = 0 (at node 1)
	maximum = 0.018 (at node 23)
Accepted flit rate average= 0.00510807
	minimum = 0 (at node 1)
	maximum = 0.0225 (at node 140)
Injected packet length average = 17.9908
Accepted packet length average = 17.9954
Total in-flight flits = 16 (16 measured)
latency change    = 0.00110602
throughput change = 0.0096015
Class 0:
Packet latency average = 34.5442
	minimum = 25
	maximum = 53
Network latency average = 34.4841
	minimum = 25
	maximum = 51
Slowest packet = 207
Flit latency average = 17.2302
	minimum = 8
	maximum = 34
Slowest flit = 3741
Fragmentation average = 0.459364
	minimum = 0
	maximum = 14
Injected packet rate average = 0.000296875
	minimum = 0 (at node 11)
	maximum = 0.001 (at node 123)
Accepted packet rate average = 0.000295833
	minimum = 0 (at node 1)
	maximum = 0.0014 (at node 140)
Injected flit rate average = 0.00532708
	minimum = 0 (at node 11)
	maximum = 0.018 (at node 123)
Accepted flit rate average= 0.00533437
	minimum = 0 (at node 1)
	maximum = 0.0252 (at node 140)
Injected packet length average = 17.9439
Accepted packet length average = 18.0317
Total in-flight flits = 24 (24 measured)
latency change    = 0.00412418
throughput change = 0.0424234
Class 0:
Packet latency average = 34.6427
	minimum = 25
	maximum = 53
Network latency average = 34.5937
	minimum = 25
	maximum = 51
Slowest packet = 207
Flit latency average = 17.2935
	minimum = 8
	maximum = 34
Slowest flit = 3741
Fragmentation average = 0.524496
	minimum = 0
	maximum = 14
Injected packet rate average = 0.000302951
	minimum = 0 (at node 11)
	maximum = 0.001 (at node 123)
Accepted packet rate average = 0.000302083
	minimum = 0 (at node 1)
	maximum = 0.00116667 (at node 140)
Injected flit rate average = 0.00544792
	minimum = 0 (at node 11)
	maximum = 0.018 (at node 123)
Accepted flit rate average= 0.00544531
	minimum = 0 (at node 1)
	maximum = 0.021 (at node 140)
Injected packet length average = 17.9828
Accepted packet length average = 18.0259
Total in-flight flits = 24 (24 measured)
latency change    = 0.00284279
throughput change = 0.020373
Draining all recorded packets ...
Draining remaining packets ...
Time taken is 9028 cycles
====== Overall Traffic Statistics ======
====== Traffic class 0 ======
Packet latency average = 34.6476 (1 samples)
	minimum = 25 (1 samples)
	maximum = 53 (1 samples)
Network latency average = 34.5989 (1 samples)
	minimum = 25 (1 samples)
	maximum = 51 (1 samples)
Flit latency average = 17.3009 (1 samples)
	minimum = 8 (1 samples)
	maximum = 34 (1 samples)
Fragmentation average = 0.52149 (1 samples)
	minimum = 0 (1 samples)
	maximum = 14 (1 samples)
Injected packet rate average = 0.000302951 (1 samples)
	minimum = 0 (1 samples)
	maximum = 0.001 (1 samples)
Accepted packet rate average = 0.000302083 (1 samples)
	minimum = 0 (1 samples)
	maximum = 0.00116667 (1 samples)
Injected flit rate average = 0.00544792 (1 samples)
	minimum = 0 (1 samples)
	maximum = 0.018 (1 samples)
Accepted flit rate average = 0.00544531 (1 samples)
	minimum = 0 (1 samples)
	maximum = 0.021 (1 samples)
Injected packet size average = 17.9828 (1 samples)
Accepted packet size average = 18.0259 (1 samples)
Hops average = 5.01433 (1 samples)
Total run time 0.907391
