BEGIN Configuration File: networks/mezzanine_config
topology = mezzanine;
n = 12;

routing_function = multipath;
internal_speedup = 2.0;
latency_thres = 100000.0;
use_read_write = 0;

sample_period = 1000;
injection_rate = 0.5;
packet_size = 18;

noq = 1;
routing_delay = 0;
vc_alloc_delay = 1;
sw_alloc_delay = 1;
st_final_delay = 1;
vc_allocator = islip; 
sw_allocator = islip;
alloc_iters  = 4;
num_vcs     = 12;
buffer_policy = private; // private or shared
buf_size = -1; // -1 for buffer_policy = private;
vc_buf_size = 4096; // size of each VOQ with buffer_policy = private
output_buffer_size = -1;


traffic = uniform;

//mezW = 0.0;
//mezPredefinedPatternType = shift-inter; //shift-qfdb

END Configuration File: networks/mezzanine_config
OVERRIDE Parameter: injection_rate=0.015747
OVERRIDE Parameter: routing_function=min
OVERRIDE Parameter: num_vcs=12
OVERRIDE Parameter: vc_buf_size=1024
OVERRIDE Parameter: internal_speedup=2.0
OVERRIDE Parameter: injection_process=on_off
OVERRIDE Parameter: sim_type=latency
OVERRIDE Parameter: burst_alpha=0.0038461538
OVERRIDE Parameter: burst_beta=0.1
network: network_0
========================== Routing table  =====================
Number of Subnets: 1
Class 0:
Packet latency average = 213.08
	minimum = 22
	maximum = 873
Network latency average = 150.635
	minimum = 22
	maximum = 680
Slowest packet = 70
Flit latency average = 127.143
	minimum = 5
	maximum = 663
Slowest flit = 16937
Fragmentation average = 14.6005
	minimum = 0
	maximum = 76
Injected packet rate average = 0.0157969
	minimum = 0 (at node 55)
	maximum = 0.053 (at node 118)
Accepted packet rate average = 0.0117865
	minimum = 0.004 (at node 64)
	maximum = 0.02 (at node 48)
Injected flit rate average = 0.282229
	minimum = 0 (at node 55)
	maximum = 0.954 (at node 118)
Accepted flit rate average= 0.216839
	minimum = 0.072 (at node 64)
	maximum = 0.36 (at node 48)
Injected packet length average = 17.8661
Accepted packet length average = 18.3973
Total in-flight flits = 12961 (0 measured)
latency change    = 1
throughput change = 1
Class 0:
Packet latency average = 301.839
	minimum = 22
	maximum = 1568
Network latency average = 230.915
	minimum = 22
	maximum = 978
Slowest packet = 70
Flit latency average = 207.373
	minimum = 5
	maximum = 961
Slowest flit = 50885
Fragmentation average = 15.7645
	minimum = 0
	maximum = 94
Injected packet rate average = 0.0155729
	minimum = 0.0005 (at node 23)
	maximum = 0.042 (at node 43)
Accepted packet rate average = 0.0125964
	minimum = 0.0075 (at node 116)
	maximum = 0.018 (at node 71)
Injected flit rate average = 0.278969
	minimum = 0.009 (at node 23)
	maximum = 0.7485 (at node 43)
Accepted flit rate average= 0.22881
	minimum = 0.135 (at node 153)
	maximum = 0.324 (at node 71)
Injected packet length average = 17.9137
Accepted packet length average = 18.1648
Total in-flight flits = 19777 (0 measured)
latency change    = 0.294063
throughput change = 0.0523201
Class 0:
Packet latency average = 498.49
	minimum = 22
	maximum = 1645
Network latency average = 423.111
	minimum = 22
	maximum = 1342
Slowest packet = 3189
Flit latency average = 398.029
	minimum = 5
	maximum = 1325
Slowest flit = 86705
Fragmentation average = 17.3863
	minimum = 0
	maximum = 93
Injected packet rate average = 0.0161979
	minimum = 0 (at node 38)
	maximum = 0.05 (at node 2)
Accepted packet rate average = 0.0140365
	minimum = 0.006 (at node 4)
	maximum = 0.023 (at node 56)
Injected flit rate average = 0.291833
	minimum = 0 (at node 38)
	maximum = 0.894 (at node 2)
Accepted flit rate average= 0.252953
	minimum = 0.119 (at node 4)
	maximum = 0.414 (at node 152)
Injected packet length average = 18.0167
Accepted packet length average = 18.0212
Total in-flight flits = 27190 (0 measured)
latency change    = 0.394493
throughput change = 0.0954455
Warmed up ...Time used is 3000 cycles
Class 0:
Packet latency average = 389.487
	minimum = 22
	maximum = 1192
Network latency average = 316.367
	minimum = 22
	maximum = 965
Slowest packet = 9091
Flit latency average = 511.805
	minimum = 5
	maximum = 1664
Slowest flit = 105937
Fragmentation average = 13.9381
	minimum = 0
	maximum = 76
Injected packet rate average = 0.0150208
	minimum = 0 (at node 168)
	maximum = 0.054 (at node 116)
Accepted packet rate average = 0.0141406
	minimum = 0.005 (at node 36)
	maximum = 0.028 (at node 16)
Injected flit rate average = 0.270219
	minimum = 0 (at node 168)
	maximum = 0.973 (at node 116)
Accepted flit rate average= 0.254401
	minimum = 0.074 (at node 48)
	maximum = 0.517 (at node 16)
Injected packet length average = 17.9896
Accepted packet length average = 17.9908
Total in-flight flits = 30257 (28229 measured)
latency change    = 0.279864
throughput change = 0.00569147
Class 0:
Packet latency average = 579.183
	minimum = 22
	maximum = 2047
Network latency average = 500.177
	minimum = 22
	maximum = 1751
Slowest packet = 9091
Flit latency average = 555.584
	minimum = 5
	maximum = 2121
Slowest flit = 156474
Fragmentation average = 16.7741
	minimum = 0
	maximum = 85
Injected packet rate average = 0.0150651
	minimum = 0 (at node 170)
	maximum = 0.039 (at node 158)
Accepted packet rate average = 0.0142188
	minimum = 0.0085 (at node 36)
	maximum = 0.021 (at node 129)
Injected flit rate average = 0.271365
	minimum = 0 (at node 170)
	maximum = 0.702 (at node 158)
Accepted flit rate average= 0.256141
	minimum = 0.153 (at node 36)
	maximum = 0.378 (at node 129)
Injected packet length average = 18.0128
Accepted packet length average = 18.0143
Total in-flight flits = 32962 (32933 measured)
latency change    = 0.327524
throughput change = 0.00679152
Class 0:
Packet latency average = 649.248
	minimum = 22
	maximum = 2337
Network latency average = 570.592
	minimum = 22
	maximum = 2027
Slowest packet = 9091
Flit latency average = 585.899
	minimum = 5
	maximum = 2232
Slowest flit = 158256
Fragmentation average = 16.4978
	minimum = 0
	maximum = 85
Injected packet rate average = 0.0150295
	minimum = 0.00433333 (at node 35)
	maximum = 0.0323333 (at node 7)
Accepted packet rate average = 0.0143333
	minimum = 0.00833333 (at node 36)
	maximum = 0.0203333 (at node 128)
Injected flit rate average = 0.270549
	minimum = 0.078 (at node 35)
	maximum = 0.581667 (at node 7)
Accepted flit rate average= 0.257977
	minimum = 0.153 (at node 36)
	maximum = 0.362 (at node 129)
Injected packet length average = 18.0012
Accepted packet length average = 17.9984
Total in-flight flits = 34421 (34421 measured)
latency change    = 0.107917
throughput change = 0.00712002
Class 0:
Packet latency average = 687.444
	minimum = 22
	maximum = 2377
Network latency average = 606.885
	minimum = 22
	maximum = 2148
Slowest packet = 9091
Flit latency average = 606.767
	minimum = 5
	maximum = 2232
Slowest flit = 158256
Fragmentation average = 16.7243
	minimum = 0
	maximum = 99
Injected packet rate average = 0.0150117
	minimum = 0.0055 (at node 35)
	maximum = 0.03025 (at node 158)
Accepted packet rate average = 0.0143477
	minimum = 0.0095 (at node 36)
	maximum = 0.0195 (at node 128)
Injected flit rate average = 0.27023
	minimum = 0.099 (at node 35)
	maximum = 0.54075 (at node 158)
Accepted flit rate average= 0.258236
	minimum = 0.17275 (at node 36)
	maximum = 0.34775 (at node 128)
Injected packet length average = 18.0013
Accepted packet length average = 17.9985
Total in-flight flits = 36387 (36387 measured)
latency change    = 0.0555633
throughput change = 0.00100004
Class 0:
Packet latency average = 713.75
	minimum = 22
	maximum = 2413
Network latency average = 633.96
	minimum = 22
	maximum = 2334
Slowest packet = 9091
Flit latency average = 625.971
	minimum = 5
	maximum = 2317
Slowest flit = 271367
Fragmentation average = 16.7386
	minimum = 0
	maximum = 99
Injected packet rate average = 0.0151635
	minimum = 0.005 (at node 68)
	maximum = 0.0292 (at node 96)
Accepted packet rate average = 0.0143604
	minimum = 0.0106 (at node 86)
	maximum = 0.0186 (at node 128)
Injected flit rate average = 0.272958
	minimum = 0.09 (at node 68)
	maximum = 0.5256 (at node 96)
Accepted flit rate average= 0.258574
	minimum = 0.188 (at node 86)
	maximum = 0.3342 (at node 128)
Injected packet length average = 18.001
Accepted packet length average = 18.006
Total in-flight flits = 40985 (40985 measured)
latency change    = 0.0368554
throughput change = 0.00130826
Class 0:
Packet latency average = 741.982
	minimum = 22
	maximum = 2413
Network latency average = 662.837
	minimum = 22
	maximum = 2334
Slowest packet = 9091
Flit latency average = 649.052
	minimum = 5
	maximum = 2317
Slowest flit = 271367
Fragmentation average = 16.8991
	minimum = 0
	maximum = 99
Injected packet rate average = 0.0151467
	minimum = 0.0055 (at node 68)
	maximum = 0.0271667 (at node 96)
Accepted packet rate average = 0.0143941
	minimum = 0.0115 (at node 86)
	maximum = 0.0181667 (at node 128)
Injected flit rate average = 0.272705
	minimum = 0.099 (at node 68)
	maximum = 0.489 (at node 96)
Accepted flit rate average= 0.25903
	minimum = 0.2065 (at node 86)
	maximum = 0.324333 (at node 128)
Injected packet length average = 18.0042
Accepted packet length average = 17.9956
Total in-flight flits = 42869 (42869 measured)
latency change    = 0.0380498
throughput change = 0.00176205
Class 0:
Packet latency average = 768.275
	minimum = 22
	maximum = 2657
Network latency average = 689.037
	minimum = 22
	maximum = 2614
Slowest packet = 20164
Flit latency average = 671.306
	minimum = 5
	maximum = 2597
Slowest flit = 375571
Fragmentation average = 17.0417
	minimum = 0
	maximum = 102
Injected packet rate average = 0.0152582
	minimum = 0.007 (at node 167)
	maximum = 0.0258571 (at node 2)
Accepted packet rate average = 0.0144263
	minimum = 0.0114286 (at node 79)
	maximum = 0.0182857 (at node 138)
Injected flit rate average = 0.274633
	minimum = 0.126 (at node 167)
	maximum = 0.466286 (at node 2)
Accepted flit rate average= 0.259713
	minimum = 0.205714 (at node 79)
	maximum = 0.325143 (at node 138)
Injected packet length average = 17.9991
Accepted packet length average = 18.0027
Total in-flight flits = 47262 (47262 measured)
latency change    = 0.0342229
throughput change = 0.00262758
Draining all recorded packets ...
Class 0:
Remaining flits: 425493 425494 425495 425496 425497 425498 425499 425500 425501 427500 [...] (50085 flits)
Measured flits: 425493 425494 425495 425496 425497 425498 425499 425500 425501 427500 [...] (12648 flits)
Class 0:
Remaining flits: 505566 505567 505568 505569 505570 505571 505572 505573 505574 505575 [...] (51849 flits)
Measured flits: 505566 505567 505568 505569 505570 505571 505572 505573 505574 505575 [...] (1551 flits)
Class 0:
Remaining flits: 524250 524251 524252 524253 524254 524255 524256 524257 524258 524259 [...] (52819 flits)
Measured flits: 524250 524251 524252 524253 524254 524255 524256 524257 524258 524259 [...] (317 flits)
Draining remaining packets ...
Class 0:
Remaining flits: 571066 571067 571608 571609 571610 571611 571612 571613 571614 571615 [...] (15397 flits)
Measured flits: (0 flits)
Class 0:
Remaining flits: 657624 657625 657626 657627 657628 657629 657730 657731 657732 657733 [...] (2344 flits)
Measured flits: (0 flits)
Class 0:
Remaining flits: 695177 695882 695883 695884 695885 695886 695887 695888 695889 695890 [...] (431 flits)
Measured flits: (0 flits)
Time taken is 16976 cycles
====== Overall Traffic Statistics ======
====== Traffic class 0 ======
Packet latency average = 850.671 (1 samples)
	minimum = 22 (1 samples)
	maximum = 3725 (1 samples)
Network latency average = 770.251 (1 samples)
	minimum = 22 (1 samples)
	maximum = 3421 (1 samples)
Flit latency average = 828.724 (1 samples)
	minimum = 5 (1 samples)
	maximum = 3841 (1 samples)
Fragmentation average = 17.2328 (1 samples)
	minimum = 0 (1 samples)
	maximum = 102 (1 samples)
Injected packet rate average = 0.0152582 (1 samples)
	minimum = 0.007 (1 samples)
	maximum = 0.0258571 (1 samples)
Accepted packet rate average = 0.0144263 (1 samples)
	minimum = 0.0114286 (1 samples)
	maximum = 0.0182857 (1 samples)
Injected flit rate average = 0.274633 (1 samples)
	minimum = 0.126 (1 samples)
	maximum = 0.466286 (1 samples)
Accepted flit rate average = 0.259713 (1 samples)
	minimum = 0.205714 (1 samples)
	maximum = 0.325143 (1 samples)
Injected packet size average = 17.9991 (1 samples)
Accepted packet size average = 18.0027 (1 samples)
Hops average = 5.06962 (1 samples)
Total run time 8.88132
