BEGIN Configuration File: networks/mezzanine_config
topology = mezzanine;
n = 12;

routing_function = multipath;
internal_speedup = 2.0;
latency_thres = 100000.0;
use_read_write = 0;

sample_period = 1000;
injection_rate = 0.5;
packet_size = 18;

noq = 1;
routing_delay = 0;
vc_alloc_delay = 1;
sw_alloc_delay = 1;
st_final_delay = 1;
vc_allocator = islip; 
sw_allocator = islip;
alloc_iters  = 4;
num_vcs     = 12;
buffer_policy = private; // private or shared
buf_size = -1; // -1 for buffer_policy = private;
vc_buf_size = 4096; // size of each VOQ with buffer_policy = private
output_buffer_size = -1;


traffic = uniform;

//mezW = 0.0;
//mezPredefinedPatternType = shift-inter; //shift-qfdb

END Configuration File: networks/mezzanine_config
OVERRIDE Parameter: injection_rate=0.006907
OVERRIDE Parameter: routing_function=min
OVERRIDE Parameter: num_vcs=12
OVERRIDE Parameter: vc_buf_size=1024
OVERRIDE Parameter: internal_speedup=1.0
OVERRIDE Parameter: injection_process=bernoulli
OVERRIDE Parameter: sim_type=latency
OVERRIDE Parameter: burst_alpha=0.0038461538
OVERRIDE Parameter: burst_beta=0.1
network: network_0
========================== Routing table  =====================
Number of Subnets: 1
Class 0:
Packet latency average = 70.7554
	minimum = 23
	maximum = 414
Network latency average = 69.5117
	minimum = 23
	maximum = 414
Slowest packet = 649
Flit latency average = 42.9835
	minimum = 6
	maximum = 397
Slowest flit = 11699
Fragmentation average = 18.6625
	minimum = 0
	maximum = 91
Injected packet rate average = 0.00677083
	minimum = 0.001 (at node 176)
	maximum = 0.014 (at node 173)
Accepted packet rate average = 0.00621875
	minimum = 0.001 (at node 41)
	maximum = 0.013 (at node 48)
Injected flit rate average = 0.120698
	minimum = 0.018 (at node 176)
	maximum = 0.252 (at node 173)
Accepted flit rate average= 0.114391
	minimum = 0.018 (at node 41)
	maximum = 0.234 (at node 48)
Injected packet length average = 17.8262
Accepted packet length average = 18.3945
Total in-flight flits = 1437 (0 measured)
latency change    = 1
throughput change = 1
Class 0:
Packet latency average = 72.2985
	minimum = 23
	maximum = 414
Network latency average = 71.0664
	minimum = 23
	maximum = 414
Slowest packet = 649
Flit latency average = 43.8788
	minimum = 6
	maximum = 397
Slowest flit = 11699
Fragmentation average = 19.1891
	minimum = 0
	maximum = 91
Injected packet rate average = 0.0066224
	minimum = 0.002 (at node 37)
	maximum = 0.0125 (at node 172)
Accepted packet rate average = 0.00642969
	minimum = 0.0025 (at node 115)
	maximum = 0.0105 (at node 44)
Injected flit rate average = 0.118724
	minimum = 0.036 (at node 37)
	maximum = 0.225 (at node 172)
Accepted flit rate average= 0.116633
	minimum = 0.045 (at node 115)
	maximum = 0.189 (at node 44)
Injected packet length average = 17.9276
Accepted packet length average = 18.1397
Total in-flight flits = 987 (0 measured)
latency change    = 0.0213429
throughput change = 0.0192243
Class 0:
Packet latency average = 73.9292
	minimum = 23
	maximum = 312
Network latency average = 72.6802
	minimum = 23
	maximum = 307
Slowest packet = 3287
Flit latency average = 44.9609
	minimum = 6
	maximum = 290
Slowest flit = 59183
Fragmentation average = 20.0109
	minimum = 0
	maximum = 67
Injected packet rate average = 0.00679167
	minimum = 0.001 (at node 125)
	maximum = 0.016 (at node 34)
Accepted packet rate average = 0.00669271
	minimum = 0.001 (at node 18)
	maximum = 0.018 (at node 22)
Injected flit rate average = 0.122089
	minimum = 0.018 (at node 125)
	maximum = 0.288 (at node 34)
Accepted flit rate average= 0.120813
	minimum = 0.018 (at node 18)
	maximum = 0.324 (at node 22)
Injected packet length average = 17.9762
Accepted packet length average = 18.0514
Total in-flight flits = 1263 (0 measured)
latency change    = 0.0220573
throughput change = 0.0345965
Warmed up ...Time used is 3000 cycles
Class 0:
Packet latency average = 76.6091
	minimum = 23
	maximum = 396
Network latency average = 75.459
	minimum = 23
	maximum = 380
Slowest packet = 4050
Flit latency average = 47.4066
	minimum = 6
	maximum = 363
Slowest flit = 72917
Fragmentation average = 21.4441
	minimum = 0
	maximum = 90
Injected packet rate average = 0.00718229
	minimum = 0.002 (at node 28)
	maximum = 0.018 (at node 115)
Accepted packet rate average = 0.00714583
	minimum = 0.001 (at node 121)
	maximum = 0.014 (at node 6)
Injected flit rate average = 0.129193
	minimum = 0.036 (at node 28)
	maximum = 0.324 (at node 115)
Accepted flit rate average= 0.128891
	minimum = 0.014 (at node 153)
	maximum = 0.269 (at node 6)
Injected packet length average = 17.9877
Accepted packet length average = 18.0372
Total in-flight flits = 1338 (1338 measured)
latency change    = 0.0349813
throughput change = 0.0626743
Class 0:
Packet latency average = 75.8316
	minimum = 23
	maximum = 396
Network latency average = 74.7884
	minimum = 23
	maximum = 388
Slowest packet = 4050
Flit latency average = 46.9099
	minimum = 6
	maximum = 371
Slowest flit = 105155
Fragmentation average = 20.8139
	minimum = 0
	maximum = 90
Injected packet rate average = 0.00692969
	minimum = 0.0025 (at node 2)
	maximum = 0.0115 (at node 5)
Accepted packet rate average = 0.007
	minimum = 0.003 (at node 184)
	maximum = 0.0115 (at node 63)
Injected flit rate average = 0.124703
	minimum = 0.045 (at node 2)
	maximum = 0.207 (at node 5)
Accepted flit rate average= 0.125576
	minimum = 0.054 (at node 184)
	maximum = 0.2035 (at node 63)
Injected packet length average = 17.9955
Accepted packet length average = 17.9394
Total in-flight flits = 940 (940 measured)
latency change    = 0.0102526
throughput change = 0.0263993
Class 0:
Packet latency average = 74.6272
	minimum = 23
	maximum = 396
Network latency average = 73.5395
	minimum = 23
	maximum = 388
Slowest packet = 4050
Flit latency average = 45.8112
	minimum = 6
	maximum = 371
Slowest flit = 105155
Fragmentation average = 20.5539
	minimum = 0
	maximum = 90
Injected packet rate average = 0.0068941
	minimum = 0.003 (at node 112)
	maximum = 0.0106667 (at node 191)
Accepted packet rate average = 0.00687153
	minimum = 0.00366667 (at node 91)
	maximum = 0.0106667 (at node 34)
Injected flit rate average = 0.124269
	minimum = 0.054 (at node 112)
	maximum = 0.195 (at node 191)
Accepted flit rate average= 0.123793
	minimum = 0.0603333 (at node 153)
	maximum = 0.194667 (at node 34)
Injected packet length average = 18.0254
Accepted packet length average = 18.0154
Total in-flight flits = 1436 (1436 measured)
latency change    = 0.0161393
throughput change = 0.0143959
Class 0:
Packet latency average = 76.2952
	minimum = 23
	maximum = 407
Network latency average = 75.2029
	minimum = 23
	maximum = 407
Slowest packet = 7437
Flit latency average = 47.1994
	minimum = 6
	maximum = 390
Slowest flit = 133883
Fragmentation average = 21.093
	minimum = 0
	maximum = 90
Injected packet rate average = 0.006875
	minimum = 0.0035 (at node 112)
	maximum = 0.01025 (at node 69)
Accepted packet rate average = 0.00685286
	minimum = 0.00425 (at node 91)
	maximum = 0.0115 (at node 16)
Injected flit rate average = 0.123779
	minimum = 0.063 (at node 112)
	maximum = 0.186 (at node 191)
Accepted flit rate average= 0.123596
	minimum = 0.0765 (at node 91)
	maximum = 0.20825 (at node 16)
Injected packet length average = 18.0042
Accepted packet length average = 18.0357
Total in-flight flits = 1381 (1381 measured)
latency change    = 0.0218624
throughput change = 0.00159429
Draining all recorded packets ...
Draining remaining packets ...
Time taken is 7444 cycles
====== Overall Traffic Statistics ======
====== Traffic class 0 ======
Packet latency average = 77.1562 (1 samples)
	minimum = 23 (1 samples)
	maximum = 415 (1 samples)
Network latency average = 76.0659 (1 samples)
	minimum = 23 (1 samples)
	maximum = 414 (1 samples)
Flit latency average = 48.1946 (1 samples)
	minimum = 6 (1 samples)
	maximum = 397 (1 samples)
Fragmentation average = 21.2772 (1 samples)
	minimum = 0 (1 samples)
	maximum = 90 (1 samples)
Injected packet rate average = 0.006875 (1 samples)
	minimum = 0.0035 (1 samples)
	maximum = 0.01025 (1 samples)
Accepted packet rate average = 0.00685286 (1 samples)
	minimum = 0.00425 (1 samples)
	maximum = 0.0115 (1 samples)
Injected flit rate average = 0.123779 (1 samples)
	minimum = 0.063 (1 samples)
	maximum = 0.186 (1 samples)
Accepted flit rate average = 0.123596 (1 samples)
	minimum = 0.0765 (1 samples)
	maximum = 0.20825 (1 samples)
Injected packet size average = 18.0042 (1 samples)
Accepted packet size average = 18.0357 (1 samples)
Hops average = 5.07574 (1 samples)
Total run time 2.48754
