BEGIN Configuration File: networks/mezzanine_config
topology = mezzanine;
n = 12;

routing_function = multipath;
internal_speedup = 2.0;
latency_thres = 100000.0;
use_read_write = 0;

sample_period = 1000;
injection_rate = 0.5;
packet_size = 18;

noq = 1;
routing_delay = 0;
vc_alloc_delay = 1;
sw_alloc_delay = 1;
st_final_delay = 1;
vc_allocator = islip; 
sw_allocator = islip;
alloc_iters  = 4;
num_vcs     = 12;
buffer_policy = private; // private or shared
buf_size = -1; // -1 for buffer_policy = private;
vc_buf_size = 4096; // size of each VOQ with buffer_policy = private
output_buffer_size = -1;


traffic = uniform;

//mezW = 0.0;
//mezPredefinedPatternType = shift-inter; //shift-qfdb

END Configuration File: networks/mezzanine_config
OVERRIDE Parameter: injection_rate=0.000277
OVERRIDE Parameter: routing_function=min
OVERRIDE Parameter: num_vcs=64
OVERRIDE Parameter: vc_buf_size=144
OVERRIDE Parameter: internal_speedup=2.0
OVERRIDE Parameter: injection_process=on_off
OVERRIDE Parameter: sim_type=latency
OVERRIDE Parameter: burst_alpha=0.0038461538
OVERRIDE Parameter: burst_beta=0.1
network: network_0
========================== Routing table  =====================
Number of Subnets: 1
Class 0:
Packet latency average = 33.9464
	minimum = 22
	maximum = 49
Network latency average = 33.7321
	minimum = 22
	maximum = 43
Slowest packet = 8
Flit latency average = 16.642
	minimum = 5
	maximum = 26
Slowest flit = 153
Fragmentation average = 0.232143
	minimum = 0
	maximum = 5
Injected packet rate average = 0.000328125
	minimum = 0 (at node 0)
	maximum = 0.003 (at node 110)
Accepted packet rate average = 0.000291667
	minimum = 0 (at node 0)
	maximum = 0.002 (at node 15)
Injected flit rate average = 0.00555208
	minimum = 0 (at node 0)
	maximum = 0.054 (at node 110)
Accepted flit rate average= 0.00533854
	minimum = 0 (at node 0)
	maximum = 0.036 (at node 15)
Injected packet length average = 16.9206
Accepted packet length average = 18.3036
Total in-flight flits = 109 (0 measured)
latency change    = 1
throughput change = 1
Class 0:
Packet latency average = 34.7273
	minimum = 22
	maximum = 50
Network latency average = 34.5455
	minimum = 22
	maximum = 50
Slowest packet = 85
Flit latency average = 17.3372
	minimum = 5
	maximum = 33
Slowest flit = 1545
Fragmentation average = 0.354545
	minimum = 0
	maximum = 14
Injected packet rate average = 0.000289062
	minimum = 0 (at node 0)
	maximum = 0.0015 (at node 27)
Accepted packet rate average = 0.000286458
	minimum = 0 (at node 4)
	maximum = 0.0015 (at node 15)
Injected flit rate average = 0.00520313
	minimum = 0 (at node 0)
	maximum = 0.027 (at node 27)
Accepted flit rate average= 0.00518229
	minimum = 0 (at node 4)
	maximum = 0.027 (at node 15)
Injected packet length average = 18
Accepted packet length average = 18.0909
Total in-flight flits = 8 (0 measured)
latency change    = 0.022485
throughput change = 0.0301508
Class 0:
Packet latency average = 34.9149
	minimum = 22
	maximum = 37
Network latency average = 34.8298
	minimum = 22
	maximum = 37
Slowest packet = 112
Flit latency average = 17.8397
	minimum = 5
	maximum = 20
Slowest flit = 2016
Fragmentation average = 0
	minimum = 0
	maximum = 0
Injected packet rate average = 0.000239583
	minimum = 0 (at node 0)
	maximum = 0.003 (at node 18)
Accepted packet rate average = 0.000244792
	minimum = 0 (at node 0)
	maximum = 0.003 (at node 85)
Injected flit rate average = 0.0043125
	minimum = 0 (at node 0)
	maximum = 0.054 (at node 18)
Accepted flit rate average= 0.00435417
	minimum = 0 (at node 0)
	maximum = 0.054 (at node 85)
Injected packet length average = 18
Accepted packet length average = 17.7872
Total in-flight flits = 0 (0 measured)
latency change    = 0.00537366
throughput change = 0.190191
Warmed up ...Time used is 3000 cycles
Class 0:
Packet latency average = 35.7925
	minimum = 25
	maximum = 54
Network latency average = 34.8868
	minimum = 25
	maximum = 54
Slowest packet = 166
Flit latency average = 17.2044
	minimum = 8
	maximum = 37
Slowest flit = 3473
Fragmentation average = 1.13208
	minimum = 0
	maximum = 23
Injected packet rate average = 0.000286458
	minimum = 0 (at node 0)
	maximum = 0.003 (at node 48)
Accepted packet rate average = 0.000276042
	minimum = 0 (at node 0)
	maximum = 0.003 (at node 74)
Injected flit rate average = 0.00508854
	minimum = 0 (at node 0)
	maximum = 0.054 (at node 48)
Accepted flit rate average= 0.00496875
	minimum = 0 (at node 0)
	maximum = 0.054 (at node 74)
Injected packet length average = 17.7636
Accepted packet length average = 18
Total in-flight flits = 36 (36 measured)
latency change    = 0.024518
throughput change = 0.12369
Class 0:
Packet latency average = 35.011
	minimum = 22
	maximum = 54
Network latency average = 34.4835
	minimum = 22
	maximum = 54
Slowest packet = 166
Flit latency average = 17.0861
	minimum = 5
	maximum = 37
Slowest flit = 3473
Fragmentation average = 0.659341
	minimum = 0
	maximum = 23
Injected packet rate average = 0.000239583
	minimum = 0 (at node 0)
	maximum = 0.0015 (at node 48)
Accepted packet rate average = 0.000236979
	minimum = 0 (at node 0)
	maximum = 0.002 (at node 74)
Injected flit rate average = 0.00428646
	minimum = 0 (at node 0)
	maximum = 0.027 (at node 48)
Accepted flit rate average= 0.00426562
	minimum = 0 (at node 0)
	maximum = 0.036 (at node 74)
Injected packet length average = 17.8913
Accepted packet length average = 18
Total in-flight flits = 18 (18 measured)
latency change    = 0.0223205
throughput change = 0.164835
Class 0:
Packet latency average = 35.1295
	minimum = 22
	maximum = 54
Network latency average = 34.4892
	minimum = 22
	maximum = 54
Slowest packet = 166
Flit latency average = 17.229
	minimum = 5
	maximum = 37
Slowest flit = 3473
Fragmentation average = 0.431655
	minimum = 0
	maximum = 23
Injected packet rate average = 0.000243056
	minimum = 0 (at node 0)
	maximum = 0.00133333 (at node 104)
Accepted packet rate average = 0.000241319
	minimum = 0 (at node 0)
	maximum = 0.00133333 (at node 56)
Injected flit rate average = 0.00436285
	minimum = 0 (at node 0)
	maximum = 0.024 (at node 104)
Accepted flit rate average= 0.00434375
	minimum = 0 (at node 0)
	maximum = 0.024 (at node 56)
Injected packet length average = 17.95
Accepted packet length average = 18
Total in-flight flits = 18 (18 measured)
latency change    = 0.00337344
throughput change = 0.0179856
Class 0:
Packet latency average = 35.4
	minimum = 22
	maximum = 66
Network latency average = 34.5892
	minimum = 22
	maximum = 54
Slowest packet = 166
Flit latency average = 17.2505
	minimum = 5
	maximum = 37
Slowest flit = 3473
Fragmentation average = 0.567568
	minimum = 0
	maximum = 23
Injected packet rate average = 0.000240885
	minimum = 0 (at node 0)
	maximum = 0.0015 (at node 40)
Accepted packet rate average = 0.000240885
	minimum = 0 (at node 0)
	maximum = 0.00125 (at node 140)
Injected flit rate average = 0.00433594
	minimum = 0 (at node 0)
	maximum = 0.027 (at node 40)
Accepted flit rate average= 0.00433594
	minimum = 0 (at node 0)
	maximum = 0.0225 (at node 140)
Injected packet length average = 18
Accepted packet length average = 18
Total in-flight flits = 0 (0 measured)
latency change    = 0.00764134
throughput change = 0.0018018
Class 0:
Packet latency average = 35.3147
	minimum = 22
	maximum = 66
Network latency average = 34.6164
	minimum = 22
	maximum = 54
Slowest packet = 166
Flit latency average = 17.313
	minimum = 5
	maximum = 37
Slowest flit = 3473
Fragmentation average = 0.512931
	minimum = 0
	maximum = 23
Injected packet rate average = 0.000244792
	minimum = 0 (at node 0)
	maximum = 0.0012 (at node 40)
Accepted packet rate average = 0.000241667
	minimum = 0 (at node 1)
	maximum = 0.0012 (at node 140)
Injected flit rate average = 0.00439583
	minimum = 0 (at node 0)
	maximum = 0.0216 (at node 40)
Accepted flit rate average= 0.0043625
	minimum = 0 (at node 1)
	maximum = 0.0216 (at node 140)
Injected packet length average = 17.9574
Accepted packet length average = 18.0517
Total in-flight flits = 42 (42 measured)
latency change    = 0.0024167
throughput change = 0.00608883
Draining all recorded packets ...
Draining remaining packets ...
Time taken is 8051 cycles
====== Overall Traffic Statistics ======
====== Traffic class 0 ======
Packet latency average = 35.2851 (1 samples)
	minimum = 22 (1 samples)
	maximum = 66 (1 samples)
Network latency average = 34.5957 (1 samples)
	minimum = 22 (1 samples)
	maximum = 54 (1 samples)
Flit latency average = 17.2952 (1 samples)
	minimum = 5 (1 samples)
	maximum = 37 (1 samples)
Fragmentation average = 0.506383 (1 samples)
	minimum = 0 (1 samples)
	maximum = 23 (1 samples)
Injected packet rate average = 0.000244792 (1 samples)
	minimum = 0 (1 samples)
	maximum = 0.0012 (1 samples)
Accepted packet rate average = 0.000241667 (1 samples)
	minimum = 0 (1 samples)
	maximum = 0.0012 (1 samples)
Injected flit rate average = 0.00439583 (1 samples)
	minimum = 0 (1 samples)
	maximum = 0.0216 (1 samples)
Accepted flit rate average = 0.0043625 (1 samples)
	minimum = 0 (1 samples)
	maximum = 0.0216 (1 samples)
Injected packet size average = 17.9574 (1 samples)
Accepted packet size average = 18.0517 (1 samples)
Hops average = 5.02128 (1 samples)
Total run time 0.853668
