BEGIN Configuration File: networks/mezzanine_config
topology = mezzanine;
n = 12;

routing_function = multipath;
internal_speedup = 2.0;
latency_thres = 100000.0;
use_read_write = 0;

sample_period = 1000;
injection_rate = 0.5;
packet_size = 18;

noq = 1;
routing_delay = 0;
vc_alloc_delay = 1;
sw_alloc_delay = 1;
st_final_delay = 1;
vc_allocator = islip; 
sw_allocator = islip;
alloc_iters  = 4;
num_vcs     = 12;
buffer_policy = private; // private or shared
buf_size = -1; // -1 for buffer_policy = private;
vc_buf_size = 4096; // size of each VOQ with buffer_policy = private
output_buffer_size = -1;


traffic = uniform;

//mezW = 0.0;
//mezPredefinedPatternType = shift-inter; //shift-qfdb

END Configuration File: networks/mezzanine_config
OVERRIDE Parameter: injection_rate=0.015747
OVERRIDE Parameter: routing_function=min
OVERRIDE Parameter: num_vcs=64
OVERRIDE Parameter: vc_buf_size=144
OVERRIDE Parameter: internal_speedup=2.0
OVERRIDE Parameter: injection_process=bernoulli
OVERRIDE Parameter: sim_type=latency
OVERRIDE Parameter: burst_alpha=0.0038461538
OVERRIDE Parameter: burst_beta=0.1
network: network_0
========================== Routing table  =====================
Number of Subnets: 1
Class 0:
Packet latency average = 138.386
	minimum = 22
	maximum = 463
Network latency average = 135.292
	minimum = 22
	maximum = 463
Slowest packet = 941
Flit latency average = 106.092
	minimum = 5
	maximum = 446
Slowest flit = 16955
Fragmentation average = 26.9236
	minimum = 0
	maximum = 194
Injected packet rate average = 0.0158542
	minimum = 0.008 (at node 65)
	maximum = 0.027 (at node 14)
Accepted packet rate average = 0.0126198
	minimum = 0.003 (at node 174)
	maximum = 0.022 (at node 44)
Injected flit rate average = 0.282297
	minimum = 0.144 (at node 65)
	maximum = 0.486 (at node 14)
Accepted flit rate average= 0.233391
	minimum = 0.058 (at node 174)
	maximum = 0.41 (at node 132)
Injected packet length average = 17.8058
Accepted packet length average = 18.494
Total in-flight flits = 9981 (0 measured)
latency change    = 1
throughput change = 1
Class 0:
Packet latency average = 192.595
	minimum = 22
	maximum = 678
Network latency average = 189.359
	minimum = 22
	maximum = 678
Slowest packet = 2722
Flit latency average = 158.771
	minimum = 5
	maximum = 661
Slowest flit = 49013
Fragmentation average = 28.39
	minimum = 0
	maximum = 194
Injected packet rate average = 0.0156458
	minimum = 0.009 (at node 164)
	maximum = 0.0235 (at node 44)
Accepted packet rate average = 0.0135547
	minimum = 0.0075 (at node 153)
	maximum = 0.0195 (at node 22)
Injected flit rate average = 0.280391
	minimum = 0.162 (at node 164)
	maximum = 0.423 (at node 44)
Accepted flit rate average= 0.247055
	minimum = 0.135 (at node 153)
	maximum = 0.351 (at node 22)
Injected packet length average = 17.9211
Accepted packet length average = 18.2265
Total in-flight flits = 13275 (0 measured)
latency change    = 0.281465
throughput change = 0.0553078
Class 0:
Packet latency average = 300.184
	minimum = 22
	maximum = 880
Network latency average = 297.035
	minimum = 22
	maximum = 867
Slowest packet = 5186
Flit latency average = 265.94
	minimum = 5
	maximum = 850
Slowest flit = 95003
Fragmentation average = 29.1596
	minimum = 0
	maximum = 206
Injected packet rate average = 0.0156458
	minimum = 0.005 (at node 67)
	maximum = 0.028 (at node 35)
Accepted packet rate average = 0.0146563
	minimum = 0.005 (at node 91)
	maximum = 0.028 (at node 34)
Injected flit rate average = 0.281401
	minimum = 0.101 (at node 67)
	maximum = 0.504 (at node 35)
Accepted flit rate average= 0.263656
	minimum = 0.094 (at node 91)
	maximum = 0.503 (at node 34)
Injected packet length average = 17.9857
Accepted packet length average = 17.9893
Total in-flight flits = 16725 (0 measured)
latency change    = 0.35841
throughput change = 0.0629667
Warmed up ...Time used is 3000 cycles
Class 0:
Packet latency average = 325.041
	minimum = 22
	maximum = 902
Network latency average = 321.412
	minimum = 22
	maximum = 885
Slowest packet = 9042
Flit latency average = 332.899
	minimum = 5
	maximum = 887
Slowest flit = 160107
Fragmentation average = 27.8053
	minimum = 0
	maximum = 276
Injected packet rate average = 0.016276
	minimum = 0.008 (at node 154)
	maximum = 0.027 (at node 155)
Accepted packet rate average = 0.0148021
	minimum = 0.005 (at node 48)
	maximum = 0.026 (at node 123)
Injected flit rate average = 0.292349
	minimum = 0.144 (at node 154)
	maximum = 0.486 (at node 155)
Accepted flit rate average= 0.266557
	minimum = 0.092 (at node 48)
	maximum = 0.468 (at node 123)
Injected packet length average = 17.9619
Accepted packet length average = 18.0081
Total in-flight flits = 21796 (21796 measured)
latency change    = 0.0764724
throughput change = 0.0108834
Class 0:
Packet latency average = 393.816
	minimum = 22
	maximum = 1293
Network latency average = 390.274
	minimum = 22
	maximum = 1280
Slowest packet = 11218
Flit latency average = 368.871
	minimum = 5
	maximum = 1263
Slowest flit = 201941
Fragmentation average = 29.2145
	minimum = 0
	maximum = 276
Injected packet rate average = 0.0159089
	minimum = 0.008 (at node 154)
	maximum = 0.023 (at node 150)
Accepted packet rate average = 0.0148021
	minimum = 0.009 (at node 86)
	maximum = 0.023 (at node 129)
Injected flit rate average = 0.286482
	minimum = 0.144 (at node 154)
	maximum = 0.414 (at node 150)
Accepted flit rate average= 0.266516
	minimum = 0.1665 (at node 88)
	maximum = 0.422 (at node 129)
Injected packet length average = 18.0077
Accepted packet length average = 18.0053
Total in-flight flits = 24345 (24345 measured)
latency change    = 0.174637
throughput change = 0.000156339
Class 0:
Packet latency average = 433.651
	minimum = 22
	maximum = 1426
Network latency average = 430.193
	minimum = 22
	maximum = 1410
Slowest packet = 13930
Flit latency average = 400.603
	minimum = 5
	maximum = 1393
Slowest flit = 250750
Fragmentation average = 29.2481
	minimum = 0
	maximum = 276
Injected packet rate average = 0.0158767
	minimum = 0.00966667 (at node 118)
	maximum = 0.0243333 (at node 3)
Accepted packet rate average = 0.0148108
	minimum = 0.00866667 (at node 36)
	maximum = 0.0206667 (at node 128)
Injected flit rate average = 0.285889
	minimum = 0.172667 (at node 118)
	maximum = 0.438 (at node 3)
Accepted flit rate average= 0.26666
	minimum = 0.156 (at node 36)
	maximum = 0.377667 (at node 128)
Injected packet length average = 18.0068
Accepted packet length average = 18.0045
Total in-flight flits = 27739 (27739 measured)
latency change    = 0.0918606
throughput change = 0.000540379
Class 0:
Packet latency average = 466.263
	minimum = 22
	maximum = 1437
Network latency average = 462.875
	minimum = 22
	maximum = 1423
Slowest packet = 13930
Flit latency average = 430.531
	minimum = 5
	maximum = 1406
Slowest flit = 251711
Fragmentation average = 29.3397
	minimum = 0
	maximum = 309
Injected packet rate average = 0.015875
	minimum = 0.00975 (at node 154)
	maximum = 0.022 (at node 3)
Accepted packet rate average = 0.0147552
	minimum = 0.011 (at node 71)
	maximum = 0.0205 (at node 128)
Injected flit rate average = 0.285848
	minimum = 0.1755 (at node 154)
	maximum = 0.3945 (at node 3)
Accepted flit rate average= 0.265977
	minimum = 0.198 (at node 86)
	maximum = 0.3715 (at node 128)
Injected packet length average = 18.0062
Accepted packet length average = 18.0259
Total in-flight flits = 31911 (31911 measured)
latency change    = 0.0699428
throughput change = 0.0025685
Class 0:
Packet latency average = 501.641
	minimum = 22
	maximum = 1614
Network latency average = 498.263
	minimum = 22
	maximum = 1614
Slowest packet = 18859
Flit latency average = 463.575
	minimum = 5
	maximum = 1597
Slowest flit = 339479
Fragmentation average = 29.7912
	minimum = 0
	maximum = 309
Injected packet rate average = 0.0158021
	minimum = 0.0116 (at node 138)
	maximum = 0.02 (at node 3)
Accepted packet rate average = 0.0148135
	minimum = 0.0116 (at node 42)
	maximum = 0.0194 (at node 128)
Injected flit rate average = 0.284525
	minimum = 0.2084 (at node 138)
	maximum = 0.36 (at node 3)
Accepted flit rate average= 0.26673
	minimum = 0.2062 (at node 42)
	maximum = 0.354 (at node 128)
Injected packet length average = 18.0055
Accepted packet length average = 18.0058
Total in-flight flits = 33724 (33724 measured)
latency change    = 0.0705245
throughput change = 0.0028255
Class 0:
Packet latency average = 531.994
	minimum = 22
	maximum = 1629
Network latency average = 528.63
	minimum = 22
	maximum = 1615
Slowest packet = 22115
Flit latency average = 492.583
	minimum = 5
	maximum = 1598
Slowest flit = 398087
Fragmentation average = 29.6806
	minimum = 0
	maximum = 309
Injected packet rate average = 0.015822
	minimum = 0.0118333 (at node 154)
	maximum = 0.0195 (at node 185)
Accepted packet rate average = 0.0148438
	minimum = 0.0116667 (at node 67)
	maximum = 0.0198333 (at node 138)
Injected flit rate average = 0.284834
	minimum = 0.210667 (at node 154)
	maximum = 0.352833 (at node 185)
Accepted flit rate average= 0.26724
	minimum = 0.209333 (at node 67)
	maximum = 0.357 (at node 138)
Injected packet length average = 18.0024
Accepted packet length average = 18.0035
Total in-flight flits = 36951 (36951 measured)
latency change    = 0.0570545
throughput change = 0.00190606
Class 0:
Packet latency average = 558.024
	minimum = 22
	maximum = 1781
Network latency average = 554.681
	minimum = 22
	maximum = 1769
Slowest packet = 23902
Flit latency average = 518.083
	minimum = 5
	maximum = 1752
Slowest flit = 430252
Fragmentation average = 29.8867
	minimum = 0
	maximum = 309
Injected packet rate average = 0.0158222
	minimum = 0.0117143 (at node 154)
	maximum = 0.0197143 (at node 140)
Accepted packet rate average = 0.0148735
	minimum = 0.0117143 (at node 79)
	maximum = 0.019 (at node 181)
Injected flit rate average = 0.284795
	minimum = 0.210857 (at node 154)
	maximum = 0.355714 (at node 140)
Accepted flit rate average= 0.267719
	minimum = 0.213286 (at node 79)
	maximum = 0.342 (at node 181)
Injected packet length average = 17.9998
Accepted packet length average = 17.9997
Total in-flight flits = 39680 (39680 measured)
latency change    = 0.046647
throughput change = 0.00179259
Draining all recorded packets ...
Class 0:
Remaining flits: 506466 506467 506468 506469 506470 506471 506472 506473 506474 506475 [...] (43553 flits)
Measured flits: 506466 506467 506468 506469 506470 506471 506472 506473 506474 506475 [...] (4084 flits)
Class 0:
Remaining flits: 541145 541146 541147 541148 541149 541150 541151 541796 541797 541798 [...] (44125 flits)
Measured flits: 541145 541146 541147 541148 541149 541150 541151 541796 541797 541798 [...] (47 flits)
Draining remaining packets ...
Class 0:
Remaining flits: 587268 587269 587270 587271 587272 587273 587274 587275 587276 587277 [...] (4922 flits)
Measured flits: (0 flits)
Time taken is 13675 cycles
====== Overall Traffic Statistics ======
====== Traffic class 0 ======
Packet latency average = 604.363 (1 samples)
	minimum = 22 (1 samples)
	maximum = 2156 (1 samples)
Network latency average = 600.992 (1 samples)
	minimum = 22 (1 samples)
	maximum = 2156 (1 samples)
Flit latency average = 618.569 (1 samples)
	minimum = 5 (1 samples)
	maximum = 2464 (1 samples)
Fragmentation average = 30.3303 (1 samples)
	minimum = 0 (1 samples)
	maximum = 309 (1 samples)
Injected packet rate average = 0.0158222 (1 samples)
	minimum = 0.0117143 (1 samples)
	maximum = 0.0197143 (1 samples)
Accepted packet rate average = 0.0148735 (1 samples)
	minimum = 0.0117143 (1 samples)
	maximum = 0.019 (1 samples)
Injected flit rate average = 0.284795 (1 samples)
	minimum = 0.210857 (1 samples)
	maximum = 0.355714 (1 samples)
Accepted flit rate average = 0.267719 (1 samples)
	minimum = 0.213286 (1 samples)
	maximum = 0.342 (1 samples)
Injected packet size average = 17.9998 (1 samples)
Accepted packet size average = 17.9997 (1 samples)
Hops average = 5.07096 (1 samples)
Total run time 11.7828
