BEGIN Configuration File: networks/mezzanine_config
topology = mezzanine;
n = 12;

routing_function = multipath;
internal_speedup = 2.0;
latency_thres = 100000.0;
use_read_write = 0;

sample_period = 1000;
injection_rate = 0.5;
packet_size = 18;

noq = 1;
routing_delay = 0;
vc_alloc_delay = 1;
sw_alloc_delay = 1;
st_final_delay = 1;
vc_allocator = islip; 
sw_allocator = islip;
alloc_iters  = 4;
num_vcs     = 12;
buffer_policy = private; // private or shared
buf_size = -1; // -1 for buffer_policy = private;
vc_buf_size = 4096; // size of each VOQ with buffer_policy = private
output_buffer_size = -1;


traffic = uniform;

//mezW = 0.0;
//mezPredefinedPatternType = shift-inter; //shift-qfdb

END Configuration File: networks/mezzanine_config
OVERRIDE Parameter: injection_rate=0.006907
OVERRIDE Parameter: routing_function=min
OVERRIDE Parameter: num_vcs=32
OVERRIDE Parameter: vc_buf_size=1024
OVERRIDE Parameter: internal_speedup=1.0
OVERRIDE Parameter: injection_process=on_off
OVERRIDE Parameter: sim_type=latency
OVERRIDE Parameter: burst_alpha=0.0038461538
OVERRIDE Parameter: burst_beta=0.1
network: network_0
========================== Routing table  =====================
Number of Subnets: 1
Class 0:
Packet latency average = 124.682
	minimum = 23
	maximum = 856
Network latency average = 99.3189
	minimum = 23
	maximum = 710
Slowest packet = 325
Flit latency average = 57.4106
	minimum = 6
	maximum = 693
Slowest flit = 5867
Fragmentation average = 49.6261
	minimum = 0
	maximum = 389
Injected packet rate average = 0.00764583
	minimum = 0 (at node 3)
	maximum = 0.029 (at node 97)
Accepted packet rate average = 0.00671354
	minimum = 0.001 (at node 41)
	maximum = 0.013 (at node 48)
Injected flit rate average = 0.136563
	minimum = 0 (at node 3)
	maximum = 0.522 (at node 97)
Accepted flit rate average= 0.126125
	minimum = 0.018 (at node 41)
	maximum = 0.247 (at node 70)
Injected packet length average = 17.861
Accepted packet length average = 18.7867
Total in-flight flits = 2208 (0 measured)
latency change    = 1
throughput change = 1
Class 0:
Packet latency average = 140.289
	minimum = 23
	maximum = 993
Network latency average = 113.396
	minimum = 23
	maximum = 912
Slowest packet = 1204
Flit latency average = 67.042
	minimum = 6
	maximum = 895
Slowest flit = 21689
Fragmentation average = 57.269
	minimum = 0
	maximum = 686
Injected packet rate average = 0.0072474
	minimum = 0.0005 (at node 9)
	maximum = 0.019 (at node 161)
Accepted packet rate average = 0.00684375
	minimum = 0.0025 (at node 174)
	maximum = 0.0125 (at node 44)
Injected flit rate average = 0.129961
	minimum = 0.009 (at node 9)
	maximum = 0.342 (at node 161)
Accepted flit rate average= 0.125776
	minimum = 0.0545 (at node 174)
	maximum = 0.2275 (at node 44)
Injected packet length average = 17.9321
Accepted packet length average = 18.3782
Total in-flight flits = 1796 (0 measured)
latency change    = 0.111251
throughput change = 0.00277444
Class 0:
Packet latency average = 151.481
	minimum = 23
	maximum = 838
Network latency average = 124.847
	minimum = 23
	maximum = 791
Slowest packet = 2364
Flit latency average = 75.1358
	minimum = 6
	maximum = 774
Slowest flit = 42569
Fragmentation average = 66.0106
	minimum = 0
	maximum = 745
Injected packet rate average = 0.00692188
	minimum = 0 (at node 9)
	maximum = 0.033 (at node 20)
Accepted packet rate average = 0.00689063
	minimum = 0.001 (at node 23)
	maximum = 0.017 (at node 22)
Injected flit rate average = 0.124344
	minimum = 0 (at node 9)
	maximum = 0.586 (at node 20)
Accepted flit rate average= 0.123536
	minimum = 0.018 (at node 23)
	maximum = 0.293 (at node 22)
Injected packet length average = 17.9639
Accepted packet length average = 17.9282
Total in-flight flits = 1999 (0 measured)
latency change    = 0.0738809
throughput change = 0.0181289
Warmed up ...Time used is 3000 cycles
Class 0:
Packet latency average = 164.272
	minimum = 23
	maximum = 722
Network latency average = 134.025
	minimum = 23
	maximum = 696
Slowest packet = 4216
Flit latency average = 86.2034
	minimum = 6
	maximum = 679
Slowest flit = 75617
Fragmentation average = 70.3027
	minimum = 0
	maximum = 569
Injected packet rate average = 0.00702083
	minimum = 0 (at node 47)
	maximum = 0.031 (at node 79)
Accepted packet rate average = 0.00711979
	minimum = 0.001 (at node 121)
	maximum = 0.015 (at node 63)
Injected flit rate average = 0.126255
	minimum = 0 (at node 47)
	maximum = 0.57 (at node 79)
Accepted flit rate average= 0.127802
	minimum = 0.018 (at node 121)
	maximum = 0.25 (at node 6)
Injected packet length average = 17.9829
Accepted packet length average = 17.9503
Total in-flight flits = 1725 (1725 measured)
latency change    = 0.0778663
throughput change = 0.0333768
Class 0:
Packet latency average = 162.217
	minimum = 23
	maximum = 1011
Network latency average = 134.223
	minimum = 23
	maximum = 843
Slowest packet = 4216
Flit latency average = 83.7949
	minimum = 6
	maximum = 826
Slowest flit = 101681
Fragmentation average = 71.2039
	minimum = 0
	maximum = 569
Injected packet rate average = 0.00723177
	minimum = 0.0005 (at node 143)
	maximum = 0.0265 (at node 79)
Accepted packet rate average = 0.00703646
	minimum = 0.003 (at node 10)
	maximum = 0.012 (at node 56)
Injected flit rate average = 0.130234
	minimum = 0.009 (at node 143)
	maximum = 0.4765 (at node 79)
Accepted flit rate average= 0.127888
	minimum = 0.045 (at node 184)
	maximum = 0.224 (at node 56)
Injected packet length average = 18.0086
Accepted packet length average = 18.1751
Total in-flight flits = 2876 (2876 measured)
latency change    = 0.0126666
throughput change = 0.000671975
Class 0:
Packet latency average = 161.545
	minimum = 23
	maximum = 1011
Network latency average = 133.954
	minimum = 23
	maximum = 843
Slowest packet = 4216
Flit latency average = 82.8006
	minimum = 6
	maximum = 826
Slowest flit = 101681
Fragmentation average = 70.9757
	minimum = 0
	maximum = 649
Injected packet rate average = 0.00697917
	minimum = 0.000666667 (at node 143)
	maximum = 0.0213333 (at node 79)
Accepted packet rate average = 0.00706944
	minimum = 0.00366667 (at node 117)
	maximum = 0.0123333 (at node 34)
Injected flit rate average = 0.125767
	minimum = 0.012 (at node 143)
	maximum = 0.388 (at node 79)
Accepted flit rate average= 0.126839
	minimum = 0.0663333 (at node 153)
	maximum = 0.222 (at node 34)
Injected packet length average = 18.0204
Accepted packet length average = 17.9418
Total in-flight flits = 1300 (1300 measured)
latency change    = 0.00416209
throughput change = 0.00827413
Class 0:
Packet latency average = 157.559
	minimum = 23
	maximum = 1011
Network latency average = 130.444
	minimum = 23
	maximum = 843
Slowest packet = 4216
Flit latency average = 80.071
	minimum = 6
	maximum = 826
Slowest flit = 101681
Fragmentation average = 68.7859
	minimum = 0
	maximum = 649
Injected packet rate average = 0.00689844
	minimum = 0.0015 (at node 0)
	maximum = 0.02 (at node 79)
Accepted packet rate average = 0.00692839
	minimum = 0.00425 (at node 117)
	maximum = 0.01125 (at node 16)
Injected flit rate average = 0.124286
	minimum = 0.027 (at node 0)
	maximum = 0.363 (at node 79)
Accepted flit rate average= 0.124691
	minimum = 0.0755 (at node 190)
	maximum = 0.2025 (at node 16)
Injected packet length average = 18.0166
Accepted packet length average = 17.9972
Total in-flight flits = 1600 (1600 measured)
latency change    = 0.0252957
throughput change = 0.0172196
Draining all recorded packets ...
Draining remaining packets ...
Time taken is 7569 cycles
====== Overall Traffic Statistics ======
====== Traffic class 0 ======
Packet latency average = 158.06 (1 samples)
	minimum = 23 (1 samples)
	maximum = 1011 (1 samples)
Network latency average = 130.569 (1 samples)
	minimum = 23 (1 samples)
	maximum = 843 (1 samples)
Flit latency average = 78.6299 (1 samples)
	minimum = 6 (1 samples)
	maximum = 826 (1 samples)
Fragmentation average = 68.6868 (1 samples)
	minimum = 0 (1 samples)
	maximum = 649 (1 samples)
Injected packet rate average = 0.00689844 (1 samples)
	minimum = 0.0015 (1 samples)
	maximum = 0.02 (1 samples)
Accepted packet rate average = 0.00692839 (1 samples)
	minimum = 0.00425 (1 samples)
	maximum = 0.01125 (1 samples)
Injected flit rate average = 0.124286 (1 samples)
	minimum = 0.027 (1 samples)
	maximum = 0.363 (1 samples)
Accepted flit rate average = 0.124691 (1 samples)
	minimum = 0.0755 (1 samples)
	maximum = 0.2025 (1 samples)
Injected packet size average = 18.0166 (1 samples)
Accepted packet size average = 17.9972 (1 samples)
Hops average = 5.06373 (1 samples)
Total run time 3.23187
