BEGIN Configuration File: networks/mezzanine_config
topology = mezzanine;
n = 12;

routing_function = multipath;
internal_speedup = 2.0;
latency_thres = 100000.0;
use_read_write = 0;

sample_period = 1000;
injection_rate = 0.5;
packet_size = 18;

noq = 1;
routing_delay = 0;
vc_alloc_delay = 1;
sw_alloc_delay = 1;
st_final_delay = 1;
vc_allocator = islip; 
sw_allocator = islip;
alloc_iters  = 4;
num_vcs     = 12;
buffer_policy = private; // private or shared
buf_size = -1; // -1 for buffer_policy = private;
vc_buf_size = 4096; // size of each VOQ with buffer_policy = private
output_buffer_size = -1;


traffic = uniform;

//mezW = 0.0;
//mezPredefinedPatternType = shift-inter; //shift-qfdb

END Configuration File: networks/mezzanine_config
OVERRIDE Parameter: injection_rate=0.009117
OVERRIDE Parameter: routing_function=multipath
OVERRIDE Parameter: num_vcs=32
OVERRIDE Parameter: vc_buf_size=18
OVERRIDE Parameter: internal_speedup=1.0
OVERRIDE Parameter: injection_process=bernoulli
OVERRIDE Parameter: sim_type=latency
OVERRIDE Parameter: burst_alpha=0.0038461538
OVERRIDE Parameter: burst_beta=0.1
network: network_0
========================== Routing table  =====================
Number of Subnets: 1
Class 0:
Packet latency average = 106.663
	minimum = 23
	maximum = 620
Network latency average = 105.042
	minimum = 23
	maximum = 620
Slowest packet = 575
Flit latency average = 60.169
	minimum = 6
	maximum = 603
Slowest flit = 10367
Fragmentation average = 56.4725
	minimum = 0
	maximum = 449
Injected packet rate average = 0.00905729
	minimum = 0.002 (at node 135)
	maximum = 0.02 (at node 10)
Accepted packet rate average = 0.00776042
	minimum = 0.001 (at node 41)
	maximum = 0.015 (at node 48)
Injected flit rate average = 0.161448
	minimum = 0.036 (at node 135)
	maximum = 0.343 (at node 10)
Accepted flit rate average= 0.147203
	minimum = 0.018 (at node 41)
	maximum = 0.287 (at node 48)
Injected packet length average = 17.8252
Accepted packet length average = 18.9685
Total in-flight flits = 3039 (0 measured)
latency change    = 1
throughput change = 1
Class 0:
Packet latency average = 128.722
	minimum = 23
	maximum = 1180
Network latency average = 127.053
	minimum = 23
	maximum = 1180
Slowest packet = 1227
Flit latency average = 75.8167
	minimum = 6
	maximum = 1170
Slowest flit = 25579
Fragmentation average = 69.9123
	minimum = 0
	maximum = 916
Injected packet rate average = 0.00891927
	minimum = 0.004 (at node 97)
	maximum = 0.0155 (at node 26)
Accepted packet rate average = 0.0083125
	minimum = 0.004 (at node 115)
	maximum = 0.0135 (at node 44)
Injected flit rate average = 0.159786
	minimum = 0.072 (at node 97)
	maximum = 0.279 (at node 26)
Accepted flit rate average= 0.153331
	minimum = 0.0815 (at node 174)
	maximum = 0.243 (at node 44)
Injected packet length average = 17.9147
Accepted packet length average = 18.4458
Total in-flight flits = 2771 (0 measured)
latency change    = 0.171367
throughput change = 0.0399633
Class 0:
Packet latency average = 154.951
	minimum = 23
	maximum = 1870
Network latency average = 153.075
	minimum = 23
	maximum = 1870
Slowest packet = 1694
Flit latency average = 94.7589
	minimum = 6
	maximum = 1886
Slowest flit = 34377
Fragmentation average = 84.2387
	minimum = 0
	maximum = 1510
Injected packet rate average = 0.00898958
	minimum = 0.002 (at node 138)
	maximum = 0.017 (at node 1)
Accepted packet rate average = 0.00898958
	minimum = 0.001 (at node 153)
	maximum = 0.017 (at node 174)
Injected flit rate average = 0.162057
	minimum = 0.053 (at node 138)
	maximum = 0.306 (at node 1)
Accepted flit rate average= 0.161609
	minimum = 0.018 (at node 153)
	maximum = 0.311 (at node 179)
Injected packet length average = 18.0272
Accepted packet length average = 17.9774
Total in-flight flits = 2810 (0 measured)
latency change    = 0.169276
throughput change = 0.0512263
Warmed up ...Time used is 3000 cycles
Class 0:
Packet latency average = 134.356
	minimum = 23
	maximum = 566
Network latency average = 132.409
	minimum = 23
	maximum = 566
Slowest packet = 5464
Flit latency average = 88.073
	minimum = 6
	maximum = 1906
Slowest flit = 34379
Fragmentation average = 76.2184
	minimum = 0
	maximum = 468
Injected packet rate average = 0.00943229
	minimum = 0.002 (at node 128)
	maximum = 0.016 (at node 41)
Accepted packet rate average = 0.00896354
	minimum = 0.001 (at node 184)
	maximum = 0.018 (at node 16)
Injected flit rate average = 0.169276
	minimum = 0.036 (at node 128)
	maximum = 0.304 (at node 41)
Accepted flit rate average= 0.163641
	minimum = 0.018 (at node 184)
	maximum = 0.328 (at node 16)
Injected packet length average = 17.9464
Accepted packet length average = 18.2562
Total in-flight flits = 3989 (3989 measured)
latency change    = 0.153288
throughput change = 0.0124129
Class 0:
Packet latency average = 160.219
	minimum = 23
	maximum = 1377
Network latency average = 158.339
	minimum = 23
	maximum = 1377
Slowest packet = 6015
Flit latency average = 100.108
	minimum = 6
	maximum = 1906
Slowest flit = 34379
Fragmentation average = 90.9111
	minimum = 0
	maximum = 793
Injected packet rate average = 0.00911979
	minimum = 0.004 (at node 66)
	maximum = 0.015 (at node 30)
Accepted packet rate average = 0.00904167
	minimum = 0.004 (at node 184)
	maximum = 0.0175 (at node 16)
Injected flit rate average = 0.164018
	minimum = 0.077 (at node 66)
	maximum = 0.27 (at node 30)
Accepted flit rate average= 0.163307
	minimum = 0.0765 (at node 190)
	maximum = 0.3235 (at node 16)
Injected packet length average = 17.9849
Accepted packet length average = 18.0616
Total in-flight flits = 3136 (3136 measured)
latency change    = 0.161419
throughput change = 0.00204114
Class 0:
Packet latency average = 158.728
	minimum = 23
	maximum = 1485
Network latency average = 156.85
	minimum = 23
	maximum = 1485
Slowest packet = 6427
Flit latency average = 98.0086
	minimum = 6
	maximum = 1906
Slowest flit = 34379
Fragmentation average = 89.0653
	minimum = 0
	maximum = 793
Injected packet rate average = 0.00910243
	minimum = 0.005 (at node 53)
	maximum = 0.014 (at node 141)
Accepted packet rate average = 0.00896528
	minimum = 0.00533333 (at node 154)
	maximum = 0.0163333 (at node 16)
Injected flit rate average = 0.163825
	minimum = 0.0933333 (at node 66)
	maximum = 0.251 (at node 141)
Accepted flit rate average= 0.162259
	minimum = 0.0963333 (at node 154)
	maximum = 0.294 (at node 16)
Injected packet length average = 17.9979
Accepted packet length average = 18.0986
Total in-flight flits = 3723 (3723 measured)
latency change    = 0.0093931
throughput change = 0.00646259
Class 0:
Packet latency average = 163.825
	minimum = 23
	maximum = 1788
Network latency average = 161.501
	minimum = 23
	maximum = 1788
Slowest packet = 7427
Flit latency average = 100.629
	minimum = 6
	maximum = 1906
Slowest flit = 34379
Fragmentation average = 92.2118
	minimum = 0
	maximum = 1338
Injected packet rate average = 0.00909766
	minimum = 0.00525 (at node 66)
	maximum = 0.013 (at node 30)
Accepted packet rate average = 0.00901563
	minimum = 0.00475 (at node 4)
	maximum = 0.0145 (at node 16)
Injected flit rate average = 0.163661
	minimum = 0.097 (at node 66)
	maximum = 0.234 (at node 30)
Accepted flit rate average= 0.162581
	minimum = 0.0855 (at node 4)
	maximum = 0.261 (at node 16)
Injected packet length average = 17.9894
Accepted packet length average = 18.0332
Total in-flight flits = 3714 (3714 measured)
latency change    = 0.0311137
throughput change = 0.00198085
Class 0:
Packet latency average = 166.119
	minimum = 23
	maximum = 1958
Network latency average = 163.133
	minimum = 23
	maximum = 1958
Slowest packet = 9933
Flit latency average = 101.256
	minimum = 6
	maximum = 1941
Slowest flit = 178811
Fragmentation average = 92.6146
	minimum = 0
	maximum = 1338
Injected packet rate average = 0.00906875
	minimum = 0.0054 (at node 137)
	maximum = 0.013 (at node 30)
Accepted packet rate average = 0.00904583
	minimum = 0.006 (at node 36)
	maximum = 0.0136 (at node 16)
Injected flit rate average = 0.163312
	minimum = 0.0972 (at node 137)
	maximum = 0.234 (at node 30)
Accepted flit rate average= 0.163109
	minimum = 0.1108 (at node 36)
	maximum = 0.2448 (at node 16)
Injected packet length average = 18.0083
Accepted packet length average = 18.0314
Total in-flight flits = 2933 (2933 measured)
latency change    = 0.0138127
throughput change = 0.00324105
Draining all recorded packets ...
Draining remaining packets ...
Time taken is 9154 cycles
====== Overall Traffic Statistics ======
====== Traffic class 0 ======
Packet latency average = 168.315 (1 samples)
	minimum = 23 (1 samples)
	maximum = 1958 (1 samples)
Network latency average = 165.117 (1 samples)
	minimum = 23 (1 samples)
	maximum = 1958 (1 samples)
Flit latency average = 101.142 (1 samples)
	minimum = 6 (1 samples)
	maximum = 1941 (1 samples)
Fragmentation average = 93.4091 (1 samples)
	minimum = 0 (1 samples)
	maximum = 1338 (1 samples)
Injected packet rate average = 0.00906875 (1 samples)
	minimum = 0.0054 (1 samples)
	maximum = 0.013 (1 samples)
Accepted packet rate average = 0.00904583 (1 samples)
	minimum = 0.006 (1 samples)
	maximum = 0.0136 (1 samples)
Injected flit rate average = 0.163312 (1 samples)
	minimum = 0.0972 (1 samples)
	maximum = 0.234 (1 samples)
Accepted flit rate average = 0.163109 (1 samples)
	minimum = 0.1108 (1 samples)
	maximum = 0.2448 (1 samples)
Injected packet size average = 18.0083 (1 samples)
Accepted packet size average = 18.0314 (1 samples)
Hops average = 5.07386 (1 samples)
Total run time 5.11102
