BEGIN Configuration File: networks/mezzanine_config
topology = mezzanine;
n = 12;

routing_function = multipath;
internal_speedup = 2.0;
latency_thres = 100000.0;
use_read_write = 0;

sample_period = 1000;
injection_rate = 0.5;
packet_size = 18;

noq = 1;
routing_delay = 0;
vc_alloc_delay = 1;
sw_alloc_delay = 1;
st_final_delay = 1;
vc_allocator = islip; 
sw_allocator = islip;
alloc_iters  = 4;
num_vcs     = 12;
buffer_policy = private; // private or shared
buf_size = -1; // -1 for buffer_policy = private;
vc_buf_size = 4096; // size of each VOQ with buffer_policy = private
output_buffer_size = -1;


traffic = uniform;

//mezW = 0.0;
//mezPredefinedPatternType = shift-inter; //shift-qfdb

END Configuration File: networks/mezzanine_config
OVERRIDE Parameter: injection_rate=0.004697
OVERRIDE Parameter: routing_function=min
OVERRIDE Parameter: num_vcs=12
OVERRIDE Parameter: vc_buf_size=1024
OVERRIDE Parameter: internal_speedup=1.0
OVERRIDE Parameter: injection_process=bernoulli
OVERRIDE Parameter: sim_type=latency
OVERRIDE Parameter: burst_alpha=0.0038461538
OVERRIDE Parameter: burst_beta=0.1
network: network_0
========================== Routing table  =====================
Number of Subnets: 1
Class 0:
Packet latency average = 53.0216
	minimum = 23
	maximum = 138
Network latency average = 52.1163
	minimum = 23
	maximum = 138
Slowest packet = 135
Flit latency average = 30.0493
	minimum = 6
	maximum = 121
Slowest flit = 2447
Fragmentation average = 9.58393
	minimum = 0
	maximum = 46
Injected packet rate average = 0.00458333
	minimum = 0 (at node 33)
	maximum = 0.01 (at node 39)
Accepted packet rate average = 0.00434375
	minimum = 0.001 (at node 4)
	maximum = 0.011 (at node 140)
Injected flit rate average = 0.0817552
	minimum = 0 (at node 33)
	maximum = 0.18 (at node 39)
Accepted flit rate average= 0.0792812
	minimum = 0.018 (at node 4)
	maximum = 0.198 (at node 140)
Injected packet length average = 17.8375
Accepted packet length average = 18.2518
Total in-flight flits = 618 (0 measured)
latency change    = 1
throughput change = 1
Class 0:
Packet latency average = 54.0257
	minimum = 23
	maximum = 315
Network latency average = 53.2757
	minimum = 23
	maximum = 300
Slowest packet = 923
Flit latency average = 30.8809
	minimum = 6
	maximum = 283
Slowest flit = 16631
Fragmentation average = 10.108
	minimum = 0
	maximum = 55
Injected packet rate average = 0.00447656
	minimum = 0.0005 (at node 82)
	maximum = 0.0085 (at node 132)
Accepted packet rate average = 0.00436458
	minimum = 0.0005 (at node 41)
	maximum = 0.008 (at node 48)
Injected flit rate average = 0.080276
	minimum = 0.009 (at node 82)
	maximum = 0.153 (at node 132)
Accepted flit rate average= 0.0791224
	minimum = 0.009 (at node 41)
	maximum = 0.144 (at node 48)
Injected packet length average = 17.9325
Accepted packet length average = 18.1283
Total in-flight flits = 559 (0 measured)
latency change    = 0.0185851
throughput change = 0.0020077
Class 0:
Packet latency average = 52.6491
	minimum = 23
	maximum = 186
Network latency average = 51.7939
	minimum = 23
	maximum = 186
Slowest packet = 2233
Flit latency average = 29.6342
	minimum = 6
	maximum = 169
Slowest flit = 40211
Fragmentation average = 9.52961
	minimum = 0
	maximum = 49
Injected packet rate average = 0.00477604
	minimum = 0 (at node 40)
	maximum = 0.013 (at node 121)
Accepted packet rate average = 0.00475
	minimum = 0 (at node 17)
	maximum = 0.011 (at node 168)
Injected flit rate average = 0.0858698
	minimum = 0 (at node 40)
	maximum = 0.234 (at node 121)
Accepted flit rate average= 0.0856094
	minimum = 0 (at node 17)
	maximum = 0.198 (at node 168)
Injected packet length average = 17.9793
Accepted packet length average = 18.023
Total in-flight flits = 628 (0 measured)
latency change    = 0.0261454
throughput change = 0.0757742
Warmed up ...Time used is 3000 cycles
Class 0:
Packet latency average = 56.1857
	minimum = 23
	maximum = 178
Network latency average = 55.4462
	minimum = 23
	maximum = 161
Slowest packet = 3369
Flit latency average = 32.3809
	minimum = 6
	maximum = 144
Slowest flit = 60659
Fragmentation average = 11.5108
	minimum = 0
	maximum = 46
Injected packet rate average = 0.00483854
	minimum = 0.001 (at node 0)
	maximum = 0.011 (at node 128)
Accepted packet rate average = 0.00484896
	minimum = 0 (at node 18)
	maximum = 0.013 (at node 22)
Injected flit rate average = 0.087026
	minimum = 0.018 (at node 0)
	maximum = 0.198 (at node 128)
Accepted flit rate average= 0.087
	minimum = 0 (at node 18)
	maximum = 0.234 (at node 22)
Injected packet length average = 17.986
Accepted packet length average = 17.942
Total in-flight flits = 646 (646 measured)
latency change    = 0.0629449
throughput change = 0.0159842
Class 0:
Packet latency average = 54.6741
	minimum = 23
	maximum = 191
Network latency average = 53.9222
	minimum = 23
	maximum = 161
Slowest packet = 3369
Flit latency average = 31.4369
	minimum = 6
	maximum = 144
Slowest flit = 60659
Fragmentation average = 10.4328
	minimum = 0
	maximum = 51
Injected packet rate average = 0.00467187
	minimum = 0.001 (at node 0)
	maximum = 0.01 (at node 128)
Accepted packet rate average = 0.00467969
	minimum = 0.001 (at node 24)
	maximum = 0.0085 (at node 22)
Injected flit rate average = 0.0840313
	minimum = 0.0095 (at node 0)
	maximum = 0.18 (at node 128)
Accepted flit rate average= 0.0841563
	minimum = 0.018 (at node 24)
	maximum = 0.153 (at node 22)
Injected packet length average = 17.9866
Accepted packet length average = 17.9833
Total in-flight flits = 604 (604 measured)
latency change    = 0.027648
throughput change = 0.0337913
Class 0:
Packet latency average = 54.1548
	minimum = 23
	maximum = 191
Network latency average = 53.4779
	minimum = 23
	maximum = 161
Slowest packet = 3369
Flit latency average = 31.0551
	minimum = 6
	maximum = 144
Slowest flit = 60659
Fragmentation average = 10.2996
	minimum = 0
	maximum = 51
Injected packet rate average = 0.00464583
	minimum = 0.000666667 (at node 0)
	maximum = 0.008 (at node 128)
Accepted packet rate average = 0.00464931
	minimum = 0.00133333 (at node 153)
	maximum = 0.00733333 (at node 97)
Injected flit rate average = 0.0837483
	minimum = 0.012 (at node 0)
	maximum = 0.144 (at node 128)
Accepted flit rate average= 0.0836962
	minimum = 0.024 (at node 153)
	maximum = 0.132 (at node 97)
Injected packet length average = 18.0265
Accepted packet length average = 18.0019
Total in-flight flits = 587 (587 measured)
latency change    = 0.00959005
throughput change = 0.0054969
Class 0:
Packet latency average = 54.2575
	minimum = 23
	maximum = 191
Network latency average = 53.5783
	minimum = 23
	maximum = 190
Slowest packet = 3369
Flit latency average = 31.1363
	minimum = 6
	maximum = 173
Slowest flit = 94949
Fragmentation average = 10.2671
	minimum = 0
	maximum = 54
Injected packet rate average = 0.00463281
	minimum = 0.00125 (at node 0)
	maximum = 0.00825 (at node 93)
Accepted packet rate average = 0.00464453
	minimum = 0.002 (at node 153)
	maximum = 0.00725 (at node 56)
Injected flit rate average = 0.0834219
	minimum = 0.0225 (at node 0)
	maximum = 0.1485 (at node 93)
Accepted flit rate average= 0.0835378
	minimum = 0.036 (at node 153)
	maximum = 0.1305 (at node 56)
Injected packet length average = 18.0067
Accepted packet length average = 17.9863
Total in-flight flits = 515 (515 measured)
latency change    = 0.00189295
throughput change = 0.00189639
Draining all recorded packets ...
Draining remaining packets ...
Time taken is 7151 cycles
====== Overall Traffic Statistics ======
====== Traffic class 0 ======
Packet latency average = 54.2892 (1 samples)
	minimum = 23 (1 samples)
	maximum = 191 (1 samples)
Network latency average = 53.615 (1 samples)
	minimum = 23 (1 samples)
	maximum = 190 (1 samples)
Flit latency average = 31.2072 (1 samples)
	minimum = 6 (1 samples)
	maximum = 173 (1 samples)
Fragmentation average = 10.2948 (1 samples)
	minimum = 0 (1 samples)
	maximum = 54 (1 samples)
Injected packet rate average = 0.00463281 (1 samples)
	minimum = 0.00125 (1 samples)
	maximum = 0.00825 (1 samples)
Accepted packet rate average = 0.00464453 (1 samples)
	minimum = 0.002 (1 samples)
	maximum = 0.00725 (1 samples)
Injected flit rate average = 0.0834219 (1 samples)
	minimum = 0.0225 (1 samples)
	maximum = 0.1485 (1 samples)
Accepted flit rate average = 0.0835378 (1 samples)
	minimum = 0.036 (1 samples)
	maximum = 0.1305 (1 samples)
Injected packet size average = 18.0067 (1 samples)
Accepted packet size average = 17.9863 (1 samples)
Hops average = 5.08319 (1 samples)
Total run time 1.66877
