BEGIN Configuration File: networks/mezzanine_config
topology = mezzanine;
n = 12;

routing_function = multipath;
internal_speedup = 2.0;
latency_thres = 100000.0;
use_read_write = 0;

sample_period = 1000;
injection_rate = 0.5;
packet_size = 18;

noq = 1;
routing_delay = 0;
vc_alloc_delay = 1;
sw_alloc_delay = 1;
st_final_delay = 1;
vc_allocator = islip; 
sw_allocator = islip;
alloc_iters  = 4;
num_vcs     = 12;
buffer_policy = private; // private or shared
buf_size = -1; // -1 for buffer_policy = private;
vc_buf_size = 4096; // size of each VOQ with buffer_policy = private
output_buffer_size = -1;


traffic = uniform;

//mezW = 0.0;
//mezPredefinedPatternType = shift-inter; //shift-qfdb

END Configuration File: networks/mezzanine_config
OVERRIDE Parameter: injection_rate=0.055527
OVERRIDE Parameter: routing_function=min
OVERRIDE Parameter: num_vcs=64
OVERRIDE Parameter: vc_buf_size=1024
OVERRIDE Parameter: internal_speedup=1.0
OVERRIDE Parameter: injection_process=bernoulli
OVERRIDE Parameter: sim_type=latency
OVERRIDE Parameter: burst_alpha=0.0038461538
OVERRIDE Parameter: burst_beta=0.1
network: network_0
========================== Routing table  =====================
Number of Subnets: 1
Class 0:
Packet latency average = 347.644
	minimum = 23
	maximum = 947
Network latency average = 315.642
	minimum = 23
	maximum = 925
Slowest packet = 463
Flit latency average = 246.003
	minimum = 6
	maximum = 963
Slowest flit = 3229
Fragmentation average = 189.592
	minimum = 0
	maximum = 803
Injected packet rate average = 0.0500885
	minimum = 0.037 (at node 2)
	maximum = 0.056 (at node 13)
Accepted packet rate average = 0.0114792
	minimum = 0.003 (at node 174)
	maximum = 0.021 (at node 70)
Injected flit rate average = 0.892781
	minimum = 0.655 (at node 2)
	maximum = 0.998 (at node 147)
Accepted flit rate average= 0.248203
	minimum = 0.115 (at node 52)
	maximum = 0.416 (at node 34)
Injected packet length average = 17.8241
Accepted packet length average = 21.6221
Total in-flight flits = 125451 (0 measured)
latency change    = 1
throughput change = 1
Class 0:
Packet latency average = 609.319
	minimum = 23
	maximum = 1938
Network latency average = 556.132
	minimum = 23
	maximum = 1882
Slowest packet = 389
Flit latency average = 475.905
	minimum = 6
	maximum = 1922
Slowest flit = 7502
Fragmentation average = 244.792
	minimum = 0
	maximum = 1712
Injected packet rate average = 0.051625
	minimum = 0.04 (at node 188)
	maximum = 0.0555 (at node 13)
Accepted packet rate average = 0.0132917
	minimum = 0.0075 (at node 30)
	maximum = 0.0195 (at node 156)
Injected flit rate average = 0.925266
	minimum = 0.713 (at node 188)
	maximum = 0.9985 (at node 50)
Accepted flit rate average= 0.265706
	minimum = 0.155 (at node 79)
	maximum = 0.3885 (at node 156)
Injected packet length average = 17.9228
Accepted packet length average = 19.9904
Total in-flight flits = 254801 (0 measured)
latency change    = 0.429455
throughput change = 0.0658721
Class 0:
Packet latency average = 1320.85
	minimum = 28
	maximum = 2915
Network latency average = 1228.27
	minimum = 25
	maximum = 2915
Slowest packet = 447
Flit latency average = 1173.44
	minimum = 6
	maximum = 2945
Slowest flit = 7165
Fragmentation average = 329.506
	minimum = 0
	maximum = 2159
Injected packet rate average = 0.0538177
	minimum = 0.043 (at node 63)
	maximum = 0.056 (at node 1)
Accepted packet rate average = 0.0156563
	minimum = 0.005 (at node 173)
	maximum = 0.025 (at node 56)
Injected flit rate average = 0.968359
	minimum = 0.78 (at node 63)
	maximum = 1 (at node 1)
Accepted flit rate average= 0.283214
	minimum = 0.125 (at node 161)
	maximum = 0.451 (at node 59)
Injected packet length average = 17.9933
Accepted packet length average = 18.0895
Total in-flight flits = 386418 (0 measured)
latency change    = 0.538692
throughput change = 0.0618184
Warmed up ...Time used is 3000 cycles
Class 0:
Packet latency average = 236.569
	minimum = 29
	maximum = 768
Network latency average = 53.1165
	minimum = 25
	maximum = 389
Slowest packet = 30185
Flit latency average = 1711.38
	minimum = 6
	maximum = 3860
Slowest flit = 16936
Fragmentation average = 18.0074
	minimum = 0
	maximum = 76
Injected packet rate average = 0.0543333
	minimum = 0.045 (at node 18)
	maximum = 0.056 (at node 0)
Accepted packet rate average = 0.0157917
	minimum = 0.006 (at node 84)
	maximum = 0.03 (at node 102)
Injected flit rate average = 0.978068
	minimum = 0.808 (at node 18)
	maximum = 1 (at node 0)
Accepted flit rate average= 0.283927
	minimum = 0.131 (at node 86)
	maximum = 0.505 (at node 181)
Injected packet length average = 18.0012
Accepted packet length average = 17.9796
Total in-flight flits = 519680 (173044 measured)
latency change    = 4.58336
throughput change = 0.00251312
Class 0:
Packet latency average = 252.957
	minimum = 25
	maximum = 870
Network latency average = 57.6303
	minimum = 23
	maximum = 640
Slowest packet = 30185
Flit latency average = 1999.99
	minimum = 6
	maximum = 4852
Slowest flit = 21817
Fragmentation average = 18.5048
	minimum = 0
	maximum = 125
Injected packet rate average = 0.054349
	minimum = 0.0465 (at node 18)
	maximum = 0.056 (at node 10)
Accepted packet rate average = 0.0157891
	minimum = 0.0085 (at node 105)
	maximum = 0.0245 (at node 119)
Injected flit rate average = 0.978453
	minimum = 0.8385 (at node 18)
	maximum = 1 (at node 1)
Accepted flit rate average= 0.284589
	minimum = 0.1535 (at node 139)
	maximum = 0.456 (at node 119)
Injected packet length average = 18.0032
Accepted packet length average = 18.0244
Total in-flight flits = 652796 (345456 measured)
latency change    = 0.0647858
throughput change = 0.00232426
Class 0:
Packet latency average = 269.017
	minimum = 25
	maximum = 3148
Network latency average = 64.3516
	minimum = 23
	maximum = 2813
Slowest packet = 30329
Flit latency average = 2276.05
	minimum = 6
	maximum = 5803
Slowest flit = 29096
Fragmentation average = 19.5748
	minimum = 0
	maximum = 386
Injected packet rate average = 0.0542639
	minimum = 0.047 (at node 162)
	maximum = 0.0556667 (at node 3)
Accepted packet rate average = 0.0158767
	minimum = 0.00966667 (at node 105)
	maximum = 0.0236667 (at node 119)
Injected flit rate average = 0.976606
	minimum = 0.846333 (at node 162)
	maximum = 1 (at node 3)
Accepted flit rate average= 0.285969
	minimum = 0.183667 (at node 105)
	maximum = 0.412667 (at node 119)
Injected packet length average = 17.9973
Accepted packet length average = 18.0118
Total in-flight flits = 784308 (515861 measured)
latency change    = 0.0596985
throughput change = 0.00482643
Class 0:
Packet latency average = 330.641
	minimum = 25
	maximum = 4061
Network latency average = 112.038
	minimum = 23
	maximum = 3956
Slowest packet = 30486
Flit latency average = 2574.21
	minimum = 6
	maximum = 6789
Slowest flit = 29927
Fragmentation average = 23.3939
	minimum = 0
	maximum = 832
Injected packet rate average = 0.0542526
	minimum = 0.048 (at node 155)
	maximum = 0.05575 (at node 10)
Accepted packet rate average = 0.0158438
	minimum = 0.0105 (at node 162)
	maximum = 0.0215 (at node 119)
Injected flit rate average = 0.976676
	minimum = 0.86175 (at node 155)
	maximum = 1 (at node 3)
Accepted flit rate average= 0.284586
	minimum = 0.1925 (at node 162)
	maximum = 0.369 (at node 119)
Injected packet length average = 18.0024
Accepted packet length average = 17.962
Total in-flight flits = 917844 (687157 measured)
latency change    = 0.186379
throughput change = 0.00485903
Class 0:
Packet latency average = 486.978
	minimum = 25
	maximum = 5127
Network latency average = 257.96
	minimum = 23
	maximum = 4955
Slowest packet = 30486
Flit latency average = 2855.89
	minimum = 6
	maximum = 7807
Slowest flit = 27840
Fragmentation average = 32.8851
	minimum = 0
	maximum = 1162
Injected packet rate average = 0.0543583
	minimum = 0.049 (at node 82)
	maximum = 0.0556 (at node 3)
Accepted packet rate average = 0.0158333
	minimum = 0.0114 (at node 162)
	maximum = 0.0204 (at node 25)
Injected flit rate average = 0.978342
	minimum = 0.8836 (at node 82)
	maximum = 1 (at node 3)
Accepted flit rate average= 0.283959
	minimum = 0.202 (at node 162)
	maximum = 0.3632 (at node 25)
Injected packet length average = 17.998
Accepted packet length average = 17.9343
Total in-flight flits = 1053129 (857297 measured)
latency change    = 0.321034
throughput change = 0.00220652
Class 0:
Packet latency average = 746.522
	minimum = 25
	maximum = 6171
Network latency average = 510.033
	minimum = 23
	maximum = 5951
Slowest packet = 30486
Flit latency average = 3127.64
	minimum = 6
	maximum = 8861
Slowest flit = 14705
Fragmentation average = 47.6808
	minimum = 0
	maximum = 1547
Injected packet rate average = 0.0543776
	minimum = 0.0476667 (at node 40)
	maximum = 0.0556667 (at node 4)
Accepted packet rate average = 0.015783
	minimum = 0.0125 (at node 162)
	maximum = 0.0196667 (at node 25)
Injected flit rate average = 0.978917
	minimum = 0.858833 (at node 40)
	maximum = 1 (at node 3)
Accepted flit rate average= 0.28334
	minimum = 0.226667 (at node 162)
	maximum = 0.355167 (at node 25)
Injected packet length average = 18.0022
Accepted packet length average = 17.9523
Total in-flight flits = 1187584 (1023114 measured)
latency change    = 0.347672
throughput change = 0.002185
Class 0:
Packet latency average = 1059.53
	minimum = 25
	maximum = 7335
Network latency average = 813.798
	minimum = 23
	maximum = 6988
Slowest packet = 30486
Flit latency average = 3395.67
	minimum = 6
	maximum = 9624
Slowest flit = 57147
Fragmentation average = 64.1578
	minimum = 0
	maximum = 1783
Injected packet rate average = 0.0540365
	minimum = 0.0478571 (at node 65)
	maximum = 0.0555714 (at node 3)
Accepted packet rate average = 0.0156719
	minimum = 0.0127143 (at node 162)
	maximum = 0.0191429 (at node 25)
Injected flit rate average = 0.972602
	minimum = 0.862429 (at node 65)
	maximum = 1 (at node 3)
Accepted flit rate average= 0.281577
	minimum = 0.227429 (at node 171)
	maximum = 0.347 (at node 22)
Injected packet length average = 17.999
Accepted packet length average = 17.967
Total in-flight flits = 1315229 (1178730 measured)
latency change    = 0.295418
throughput change = 0.00626345
Draining all recorded packets ...
Class 0:
Remaining flits: 28836 28837 28838 28839 28840 28841 28842 28843 28844 28845 [...] (1423663 flits)
Measured flits: 542826 542827 542828 542829 542830 542831 542832 542833 542834 542835 [...] (1219714 flits)
Class 0:
Remaining flits: 28836 28837 28838 28839 28840 28841 28842 28843 28844 28845 [...] (1528409 flits)
Measured flits: 542826 542827 542828 542829 542830 542831 542832 542833 542834 542835 [...] (1209087 flits)
Class 0:
Remaining flits: 28836 28837 28838 28839 28840 28841 28842 28843 28844 28845 [...] (1632904 flits)
Measured flits: 542826 542827 542828 542829 542830 542831 542832 542833 542834 542835 [...] (1192807 flits)
Class 0:
Remaining flits: 28836 28837 28838 28839 28840 28841 28842 28843 28844 28845 [...] (1744331 flits)
Measured flits: 542826 542827 542828 542829 542830 542831 542832 542833 542834 542835 [...] (1172834 flits)
Class 0:
Remaining flits: 28836 28837 28838 28839 28840 28841 28842 28843 28844 28845 [...] (1857334 flits)
Measured flits: 542826 542827 542828 542829 542830 542831 542832 542833 542834 542835 [...] (1149200 flits)
Class 0:
Remaining flits: 28836 28837 28838 28839 28840 28841 28842 28843 28844 28845 [...] (1970702 flits)
Measured flits: 542988 542989 542990 542991 542992 542993 542994 542995 542996 542997 [...] (1123565 flits)
Class 0:
Remaining flits: 56574 56575 56576 56577 56578 56579 56580 56581 56582 56583 [...] (2083212 flits)
Measured flits: 542988 542989 542990 542991 542992 542993 542994 542995 542996 542997 [...] (1095755 flits)
Class 0:
Remaining flits: 56579 56580 56581 56582 56583 56584 56585 56586 56587 56588 [...] (2196697 flits)
Measured flits: 542988 542989 542990 542991 542992 542993 542994 542995 542996 542997 [...] (1067484 flits)
Class 0:
Remaining flits: 56579 56580 56581 56582 56583 56584 56585 56586 56587 56588 [...] (2309656 flits)
Measured flits: 542988 542989 542990 542991 542992 542993 542994 542995 542996 542997 [...] (1037917 flits)
Class 0:
Remaining flits: 56579 56580 56581 56582 56583 56584 56585 56586 56587 56588 [...] (2422377 flits)
Measured flits: 542988 542989 542990 542991 542992 542993 542994 542995 542996 542997 [...] (1007731 flits)
Class 0:
Remaining flits: 71033 71034 71035 71036 71037 71038 71039 71040 71041 71042 [...] (2535441 flits)
Measured flits: 542988 542989 542990 542991 542992 542993 542994 542995 542996 542997 [...] (977731 flits)
Class 0:
Remaining flits: 77040 77041 77042 77043 77044 77045 77046 77047 77048 77049 [...] (2651891 flits)
Measured flits: 542988 542989 542990 542991 542992 542993 542994 542995 542996 542997 [...] (947825 flits)
Class 0:
Remaining flits: 77040 77041 77042 77043 77044 77045 77046 77047 77048 77049 [...] (2766972 flits)
Measured flits: 542988 542989 542990 542991 542992 542993 542994 542995 542996 542997 [...] (916941 flits)
Class 0:
Remaining flits: 77040 77041 77042 77043 77044 77045 77046 77047 77048 77049 [...] (2882852 flits)
Measured flits: 542988 542989 542990 542991 542992 542993 542994 542995 542996 542997 [...] (886666 flits)
Class 0:
Remaining flits: 77040 77041 77042 77043 77044 77045 77046 77047 77048 77049 [...] (2999022 flits)
Measured flits: 542988 542989 542990 542991 542992 542993 542994 542995 542996 542997 [...] (855710 flits)
Class 0:
Remaining flits: 86146 86147 86418 86419 86420 86421 86422 86423 86424 86425 [...] (3114161 flits)
Measured flits: 542988 542989 542990 542991 542992 542993 542994 542995 542996 542997 [...] (824711 flits)
Class 0:
Remaining flits: 86418 86419 86420 86421 86422 86423 86424 86425 86426 86427 [...] (3229167 flits)
Measured flits: 542988 542989 542990 542991 542992 542993 542994 542995 542996 542997 [...] (792987 flits)
Class 0:
Remaining flits: 112806 112807 112808 112809 112810 112811 112812 112813 112814 112815 [...] (3345747 flits)
Measured flits: 542988 542989 542990 542991 542992 542993 542994 542995 542996 542997 [...] (762252 flits)
Class 0:
Remaining flits: 112806 112807 112808 112809 112810 112811 112812 112813 112814 112815 [...] (3460671 flits)
Measured flits: 542988 542989 542990 542991 542992 542993 542994 542995 542996 542997 [...] (730718 flits)
Class 0:
Remaining flits: 112806 112807 112808 112809 112810 112811 112812 112813 112814 112815 [...] (3576181 flits)
Measured flits: 542988 542989 542990 542991 542992 542993 542994 542995 542996 542997 [...] (699134 flits)
Class 0:
Remaining flits: 112806 112807 112808 112809 112810 112811 112812 112813 112814 112815 [...] (3688948 flits)
Measured flits: 542988 542989 542990 542991 542992 542993 542994 542995 542996 542997 [...] (668462 flits)
Class 0:
Remaining flits: 134964 134965 134966 134967 134968 134969 134970 134971 134972 134973 [...] (3778927 flits)
Measured flits: 542988 542989 542990 542991 542992 542993 542994 542995 542996 542997 [...] (638469 flits)
Class 0:
Remaining flits: 134964 134965 134966 134967 134968 134969 134970 134971 134972 134973 [...] (3830316 flits)
Measured flits: 542988 542989 542990 542991 542992 542993 542994 542995 542996 542997 [...] (608329 flits)
Class 0:
Remaining flits: 134964 134965 134966 134967 134968 134969 134970 134971 134972 134973 [...] (3852317 flits)
Measured flits: 542988 542989 542990 542991 542992 542993 542994 542995 542996 542997 [...] (577908 flits)
Class 0:
Remaining flits: 134964 134965 134966 134967 134968 134969 134970 134971 134972 134973 [...] (3865336 flits)
Measured flits: 542988 542989 542990 542991 542992 542993 542994 542995 542996 542997 [...] (548401 flits)
Class 0:
Remaining flits: 134964 134965 134966 134967 134968 134969 134970 134971 134972 134973 [...] (3874511 flits)
Measured flits: 542988 542989 542990 542991 542992 542993 542994 542995 542996 542997 [...] (520223 flits)
Class 0:
Remaining flits: 134964 134965 134966 134967 134968 134969 134970 134971 134972 134973 [...] (3882696 flits)
Measured flits: 542988 542989 542990 542991 542992 542993 542994 542995 542996 542997 [...] (492224 flits)
Class 0:
Remaining flits: 134964 134965 134966 134967 134968 134969 134970 134971 134972 134973 [...] (3894439 flits)
Measured flits: 542988 542989 542990 542991 542992 542993 542994 542995 542996 542997 [...] (465167 flits)
Class 0:
Remaining flits: 134964 134965 134966 134967 134968 134969 134970 134971 134972 134973 [...] (3901029 flits)
Measured flits: 543528 543529 543530 543531 543532 543533 543534 543535 543536 543537 [...] (439160 flits)
Class 0:
Remaining flits: 142866 142867 142868 142869 142870 142871 142872 142873 142874 142875 [...] (3909457 flits)
Measured flits: 543528 543529 543530 543531 543532 543533 543534 543535 543536 543537 [...] (413842 flits)
Class 0:
Remaining flits: 142866 142867 142868 142869 142870 142871 142872 142873 142874 142875 [...] (3917617 flits)
Measured flits: 545634 545635 545636 545637 545638 545639 545640 545641 545642 545643 [...] (389028 flits)
Class 0:
Remaining flits: 142872 142873 142874 142875 142876 142877 142878 142879 142880 142881 [...] (3926658 flits)
Measured flits: 545635 545636 545637 545638 545639 545640 545641 545642 545643 545644 [...] (365614 flits)
Class 0:
Remaining flits: 142872 142873 142874 142875 142876 142877 142878 142879 142880 142881 [...] (3933331 flits)
Measured flits: 547236 547237 547238 547239 547240 547241 547242 547243 547244 547245 [...] (342165 flits)
Class 0:
Remaining flits: 142874 142875 142876 142877 142878 142879 142880 142881 142882 142883 [...] (3941733 flits)
Measured flits: 547236 547237 547238 547239 547240 547241 547242 547243 547244 547245 [...] (320765 flits)
Class 0:
Remaining flits: 142874 142875 142876 142877 142878 142879 142880 142881 142882 142883 [...] (3950639 flits)
Measured flits: 550512 550513 550514 550515 550516 550517 550518 550519 550520 550521 [...] (300150 flits)
Class 0:
Remaining flits: 229806 229807 229808 229809 229810 229811 229812 229813 229814 229815 [...] (3957598 flits)
Measured flits: 550512 550513 550514 550515 550516 550517 550518 550519 550520 550521 [...] (281545 flits)
Class 0:
Remaining flits: 272394 272395 272396 272397 272398 272399 272400 272401 272402 272403 [...] (3968130 flits)
Measured flits: 550512 550513 550514 550515 550516 550517 550518 550519 550520 550521 [...] (263790 flits)
Class 0:
Remaining flits: 272394 272395 272396 272397 272398 272399 272400 272401 272402 272403 [...] (3979037 flits)
Measured flits: 550512 550513 550514 550515 550516 550517 550518 550519 550520 550521 [...] (247585 flits)
Class 0:
Remaining flits: 272394 272395 272396 272397 272398 272399 272400 272401 272402 272403 [...] (3990547 flits)
Measured flits: 550512 550513 550514 550515 550516 550517 550518 550519 550520 550521 [...] (232256 flits)
Class 0:
Remaining flits: 272410 272411 382590 382591 382592 382593 382594 382595 382596 382597 [...] (4000995 flits)
Measured flits: 550512 550513 550514 550515 550516 550517 550518 550519 550520 550521 [...] (216973 flits)
Class 0:
Remaining flits: 272410 272411 382590 382591 382592 382593 382594 382595 382596 382597 [...] (4011027 flits)
Measured flits: 550512 550513 550514 550515 550516 550517 550518 550519 550520 550521 [...] (202004 flits)
Class 0:
Remaining flits: 272410 272411 382590 382591 382592 382593 382594 382595 382596 382597 [...] (4022677 flits)
Measured flits: 550512 550513 550514 550515 550516 550517 550518 550519 550520 550521 [...] (188331 flits)
Class 0:
Remaining flits: 272410 272411 382590 382591 382592 382593 382594 382595 382596 382597 [...] (4033562 flits)
Measured flits: 550512 550513 550514 550515 550516 550517 550518 550519 550520 550521 [...] (175856 flits)
Class 0:
Remaining flits: 382590 382591 382592 382593 382594 382595 382596 382597 382598 382599 [...] (4042275 flits)
Measured flits: 550512 550513 550514 550515 550516 550517 550518 550519 550520 550521 [...] (163329 flits)
Class 0:
Remaining flits: 382590 382591 382592 382593 382594 382595 382596 382597 382598 382599 [...] (4053111 flits)
Measured flits: 550512 550513 550514 550515 550516 550517 550518 550519 550520 550521 [...] (152079 flits)
Class 0:
Remaining flits: 382590 382591 382592 382593 382594 382595 382596 382597 382598 382599 [...] (4069068 flits)
Measured flits: 550512 550513 550514 550515 550516 550517 550518 550519 550520 550521 [...] (140908 flits)
Class 0:
Remaining flits: 382590 382591 382592 382593 382594 382595 382596 382597 382598 382599 [...] (4078983 flits)
Measured flits: 550512 550513 550514 550515 550516 550517 550518 550519 550520 550521 [...] (131637 flits)
Class 0:
Remaining flits: 382590 382591 382592 382593 382594 382595 382596 382597 382598 382599 [...] (4088022 flits)
Measured flits: 558252 558253 558254 558255 558256 558257 558258 558259 558260 558261 [...] (121608 flits)
Class 0:
Remaining flits: 382590 382591 382592 382593 382594 382595 382596 382597 382598 382599 [...] (4095665 flits)
Measured flits: 558252 558253 558254 558255 558256 558257 558258 558259 558260 558261 [...] (111939 flits)
Class 0:
Remaining flits: 382590 382591 382592 382593 382594 382595 382596 382597 382598 382599 [...] (4105997 flits)
Measured flits: 558252 558253 558254 558255 558256 558257 558258 558259 558260 558261 [...] (103090 flits)
Class 0:
Remaining flits: 382590 382591 382592 382593 382594 382595 382596 382597 382598 382599 [...] (4114150 flits)
Measured flits: 558252 558253 558254 558255 558256 558257 558258 558259 558260 558261 [...] (95926 flits)
Class 0:
Remaining flits: 382590 382591 382592 382593 382594 382595 382596 382597 382598 382599 [...] (4122369 flits)
Measured flits: 558252 558253 558254 558255 558256 558257 558258 558259 558260 558261 [...] (88621 flits)
Class 0:
Remaining flits: 382590 382591 382592 382593 382594 382595 382596 382597 382598 382599 [...] (4133255 flits)
Measured flits: 558252 558253 558254 558255 558256 558257 558258 558259 558260 558261 [...] (82750 flits)
Class 0:
Remaining flits: 382590 382591 382592 382593 382594 382595 382596 382597 382598 382599 [...] (4143641 flits)
Measured flits: 558252 558253 558254 558255 558256 558257 558258 558259 558260 558261 [...] (76806 flits)
Class 0:
Remaining flits: 441612 441613 441614 441615 441616 441617 441618 441619 441620 441621 [...] (4156012 flits)
Measured flits: 558252 558253 558254 558255 558256 558257 558258 558259 558260 558261 [...] (70912 flits)
Class 0:
Remaining flits: 441612 441613 441614 441615 441616 441617 441618 441619 441620 441621 [...] (4166000 flits)
Measured flits: 558252 558253 558254 558255 558256 558257 558258 558259 558260 558261 [...] (64653 flits)
Class 0:
Remaining flits: 441612 441613 441614 441615 441616 441617 441618 441619 441620 441621 [...] (4176161 flits)
Measured flits: 558252 558253 558254 558255 558256 558257 558258 558259 558260 558261 [...] (59098 flits)
Class 0:
Remaining flits: 483588 483589 483590 483591 483592 483593 483594 483595 483596 483597 [...] (4183641 flits)
Measured flits: 558252 558253 558254 558255 558256 558257 558258 558259 558260 558261 [...] (54638 flits)
Class 0:
Remaining flits: 483588 483589 483590 483591 483592 483593 483594 483595 483596 483597 [...] (4195704 flits)
Measured flits: 558252 558253 558254 558255 558256 558257 558258 558259 558260 558261 [...] (50910 flits)
Class 0:
Remaining flits: 483588 483589 483590 483591 483592 483593 483594 483595 483596 483597 [...] (4206066 flits)
Measured flits: 558252 558253 558254 558255 558256 558257 558258 558259 558260 558261 [...] (46564 flits)
Class 0:
Remaining flits: 483588 483589 483590 483591 483592 483593 483594 483595 483596 483597 [...] (4216705 flits)
Measured flits: 558252 558253 558254 558255 558256 558257 558258 558259 558260 558261 [...] (42550 flits)
Class 0:
Remaining flits: 502254 502255 502256 502257 502258 502259 502260 502261 502262 502263 [...] (4225156 flits)
Measured flits: 558252 558253 558254 558255 558256 558257 558258 558259 558260 558261 [...] (39495 flits)
Class 0:
Remaining flits: 502254 502255 502256 502257 502258 502259 502260 502261 502262 502263 [...] (4235981 flits)
Measured flits: 558252 558253 558254 558255 558256 558257 558258 558259 558260 558261 [...] (36008 flits)
Class 0:
Remaining flits: 502254 502255 502256 502257 502258 502259 502260 502261 502262 502263 [...] (4248223 flits)
Measured flits: 612198 612199 612200 612201 612202 612203 612204 612205 612206 612207 [...] (32405 flits)
Class 0:
Remaining flits: 502254 502255 502256 502257 502258 502259 502260 502261 502262 502263 [...] (4257333 flits)
Measured flits: 612198 612199 612200 612201 612202 612203 612204 612205 612206 612207 [...] (29310 flits)
Class 0:
Remaining flits: 502254 502255 502256 502257 502258 502259 502260 502261 502262 502263 [...] (4266436 flits)
Measured flits: 684522 684523 684524 684525 684526 684527 684528 684529 684530 684531 [...] (26057 flits)
Class 0:
Remaining flits: 502254 502255 502256 502257 502258 502259 502260 502261 502262 502263 [...] (4279854 flits)
Measured flits: 684522 684523 684524 684525 684526 684527 684528 684529 684530 684531 [...] (23622 flits)
Class 0:
Remaining flits: 502254 502255 502256 502257 502258 502259 502260 502261 502262 502263 [...] (4290331 flits)
Measured flits: 684522 684523 684524 684525 684526 684527 684528 684529 684530 684531 [...] (21480 flits)
Class 0:
Remaining flits: 502254 502255 502256 502257 502258 502259 502260 502261 502262 502263 [...] (4296487 flits)
Measured flits: 684522 684523 684524 684525 684526 684527 684528 684529 684530 684531 [...] (19498 flits)
Class 0:
Remaining flits: 502254 502255 502256 502257 502258 502259 502260 502261 502262 502263 [...] (4307118 flits)
Measured flits: 684522 684523 684524 684525 684526 684527 684528 684529 684530 684531 [...] (18194 flits)
Class 0:
Remaining flits: 502254 502255 502256 502257 502258 502259 502260 502261 502262 502263 [...] (4316847 flits)
Measured flits: 684522 684523 684524 684525 684526 684527 684528 684529 684530 684531 [...] (16593 flits)
Class 0:
Remaining flits: 502254 502255 502256 502257 502258 502259 502260 502261 502262 502263 [...] (4325737 flits)
Measured flits: 684522 684523 684524 684525 684526 684527 684528 684529 684530 684531 [...] (14933 flits)
Class 0:
Remaining flits: 502254 502255 502256 502257 502258 502259 502260 502261 502262 502263 [...] (4334517 flits)
Measured flits: 684522 684523 684524 684525 684526 684527 684528 684529 684530 684531 [...] (13596 flits)
Class 0:
Remaining flits: 502254 502255 502256 502257 502258 502259 502260 502261 502262 502263 [...] (4342946 flits)
Measured flits: 684522 684523 684524 684525 684526 684527 684528 684529 684530 684531 [...] (12437 flits)
Class 0:
Remaining flits: 502254 502255 502256 502257 502258 502259 502260 502261 502262 502263 [...] (4351770 flits)
Measured flits: 684522 684523 684524 684525 684526 684527 684528 684529 684530 684531 [...] (11373 flits)
Class 0:
Remaining flits: 684522 684523 684524 684525 684526 684527 684528 684529 684530 684531 [...] (4363169 flits)
Measured flits: 684522 684523 684524 684525 684526 684527 684528 684529 684530 684531 [...] (10437 flits)
Class 0:
Remaining flits: 684522 684523 684524 684525 684526 684527 684528 684529 684530 684531 [...] (4371727 flits)
Measured flits: 684522 684523 684524 684525 684526 684527 684528 684529 684530 684531 [...] (9218 flits)
Class 0:
Remaining flits: 684522 684523 684524 684525 684526 684527 684528 684529 684530 684531 [...] (4384052 flits)
Measured flits: 684522 684523 684524 684525 684526 684527 684528 684529 684530 684531 [...] (8234 flits)
Class 0:
Remaining flits: 684522 684523 684524 684525 684526 684527 684528 684529 684530 684531 [...] (4395213 flits)
Measured flits: 684522 684523 684524 684525 684526 684527 684528 684529 684530 684531 [...] (7389 flits)
Class 0:
Remaining flits: 684522 684523 684524 684525 684526 684527 684528 684529 684530 684531 [...] (4405697 flits)
Measured flits: 684522 684523 684524 684525 684526 684527 684528 684529 684530 684531 [...] (6804 flits)
Class 0:
Remaining flits: 684522 684523 684524 684525 684526 684527 684528 684529 684530 684531 [...] (4419003 flits)
Measured flits: 684522 684523 684524 684525 684526 684527 684528 684529 684530 684531 [...] (6315 flits)
Class 0:
Remaining flits: 684522 684523 684524 684525 684526 684527 684528 684529 684530 684531 [...] (4429346 flits)
Measured flits: 684522 684523 684524 684525 684526 684527 684528 684529 684530 684531 [...] (5967 flits)
Class 0:
Remaining flits: 976140 976141 976142 976143 976144 976145 976146 976147 976148 976149 [...] (4440209 flits)
Measured flits: 976140 976141 976142 976143 976144 976145 976146 976147 976148 976149 [...] (5399 flits)
Class 0:
Remaining flits: 976140 976141 976142 976143 976144 976145 976146 976147 976148 976149 [...] (4451790 flits)
Measured flits: 976140 976141 976142 976143 976144 976145 976146 976147 976148 976149 [...] (4676 flits)
Class 0:
Remaining flits: 1031040 1031041 1031042 1031043 1031044 1031045 1031046 1031047 1031048 1031049 [...] (4464272 flits)
Measured flits: 1031040 1031041 1031042 1031043 1031044 1031045 1031046 1031047 1031048 1031049 [...] (4197 flits)
Class 0:
Remaining flits: 1031040 1031041 1031042 1031043 1031044 1031045 1031046 1031047 1031048 1031049 [...] (4476881 flits)
Measured flits: 1031040 1031041 1031042 1031043 1031044 1031045 1031046 1031047 1031048 1031049 [...] (3656 flits)
Class 0:
Remaining flits: 1031040 1031041 1031042 1031043 1031044 1031045 1031046 1031047 1031048 1031049 [...] (4487601 flits)
Measured flits: 1031040 1031041 1031042 1031043 1031044 1031045 1031046 1031047 1031048 1031049 [...] (3429 flits)
Class 0:
Remaining flits: 1031040 1031041 1031042 1031043 1031044 1031045 1031046 1031047 1031048 1031049 [...] (4499663 flits)
Measured flits: 1031040 1031041 1031042 1031043 1031044 1031045 1031046 1031047 1031048 1031049 [...] (3054 flits)
Class 0:
Remaining flits: 1031040 1031041 1031042 1031043 1031044 1031045 1031046 1031047 1031048 1031049 [...] (4508998 flits)
Measured flits: 1031040 1031041 1031042 1031043 1031044 1031045 1031046 1031047 1031048 1031049 [...] (2793 flits)
Class 0:
Remaining flits: 1031040 1031041 1031042 1031043 1031044 1031045 1031046 1031047 1031048 1031049 [...] (4519422 flits)
Measured flits: 1031040 1031041 1031042 1031043 1031044 1031045 1031046 1031047 1031048 1031049 [...] (2507 flits)
Class 0:
Remaining flits: 1031040 1031041 1031042 1031043 1031044 1031045 1031046 1031047 1031048 1031049 [...] (4532669 flits)
Measured flits: 1031040 1031041 1031042 1031043 1031044 1031045 1031046 1031047 1031048 1031049 [...] (2195 flits)
Class 0:
Remaining flits: 1031040 1031041 1031042 1031043 1031044 1031045 1031046 1031047 1031048 1031049 [...] (4544134 flits)
Measured flits: 1031040 1031041 1031042 1031043 1031044 1031045 1031046 1031047 1031048 1031049 [...] (1935 flits)
Class 0:
Remaining flits: 1031040 1031041 1031042 1031043 1031044 1031045 1031046 1031047 1031048 1031049 [...] (4553008 flits)
Measured flits: 1031040 1031041 1031042 1031043 1031044 1031045 1031046 1031047 1031048 1031049 [...] (1691 flits)
Class 0:
Remaining flits: 1031040 1031041 1031042 1031043 1031044 1031045 1031046 1031047 1031048 1031049 [...] (4563752 flits)
Measured flits: 1031040 1031041 1031042 1031043 1031044 1031045 1031046 1031047 1031048 1031049 [...] (1566 flits)
Class 0:
Remaining flits: 1031040 1031041 1031042 1031043 1031044 1031045 1031046 1031047 1031048 1031049 [...] (4574580 flits)
Measured flits: 1031040 1031041 1031042 1031043 1031044 1031045 1031046 1031047 1031048 1031049 [...] (1416 flits)
Class 0:
Remaining flits: 1031040 1031041 1031042 1031043 1031044 1031045 1031046 1031047 1031048 1031049 [...] (4585007 flits)
Measured flits: 1031040 1031041 1031042 1031043 1031044 1031045 1031046 1031047 1031048 1031049 [...] (1278 flits)
Class 0:
Remaining flits: 1031040 1031041 1031042 1031043 1031044 1031045 1031046 1031047 1031048 1031049 [...] (4594732 flits)
Measured flits: 1031040 1031041 1031042 1031043 1031044 1031045 1031046 1031047 1031048 1031049 [...] (1260 flits)
Class 0:
Remaining flits: 1031040 1031041 1031042 1031043 1031044 1031045 1031046 1031047 1031048 1031049 [...] (4603852 flits)
Measured flits: 1031040 1031041 1031042 1031043 1031044 1031045 1031046 1031047 1031048 1031049 [...] (1082 flits)
Class 0:
Remaining flits: 1031040 1031041 1031042 1031043 1031044 1031045 1031046 1031047 1031048 1031049 [...] (4612614 flits)
Measured flits: 1031040 1031041 1031042 1031043 1031044 1031045 1031046 1031047 1031048 1031049 [...] (918 flits)
Class 0:
Remaining flits: 1031040 1031041 1031042 1031043 1031044 1031045 1031046 1031047 1031048 1031049 [...] (4619112 flits)
Measured flits: 1031040 1031041 1031042 1031043 1031044 1031045 1031046 1031047 1031048 1031049 [...] (873 flits)
Class 0:
Remaining flits: 1031040 1031041 1031042 1031043 1031044 1031045 1031046 1031047 1031048 1031049 [...] (4628657 flits)
Measured flits: 1031040 1031041 1031042 1031043 1031044 1031045 1031046 1031047 1031048 1031049 [...] (828 flits)
Class 0:
Remaining flits: 1031040 1031041 1031042 1031043 1031044 1031045 1031046 1031047 1031048 1031049 [...] (4638000 flits)
Measured flits: 1031040 1031041 1031042 1031043 1031044 1031045 1031046 1031047 1031048 1031049 [...] (792 flits)
Class 0:
Remaining flits: 1031051 1031052 1031053 1031054 1031055 1031056 1031057 1143324 1143325 1143326 [...] (4646721 flits)
Measured flits: 1031051 1031052 1031053 1031054 1031055 1031056 1031057 1143324 1143325 1143326 [...] (673 flits)
Class 0:
Remaining flits: 1143333 1143334 1143335 1143336 1143337 1143338 1143339 1143340 1143341 1394892 [...] (4655397 flits)
Measured flits: 1143333 1143334 1143335 1143336 1143337 1143338 1143339 1143340 1143341 1394892 [...] (550 flits)
Class 0:
Remaining flits: 1143333 1143334 1143335 1143336 1143337 1143338 1143339 1143340 1143341 1394892 [...] (4665789 flits)
Measured flits: 1143333 1143334 1143335 1143336 1143337 1143338 1143339 1143340 1143341 1394892 [...] (477 flits)
Class 0:
Remaining flits: 1394892 1394893 1394894 1394895 1394896 1394897 1394898 1394899 1394900 1394901 [...] (4672674 flits)
Measured flits: 1394892 1394893 1394894 1394895 1394896 1394897 1394898 1394899 1394900 1394901 [...] (456 flits)
Class 0:
Remaining flits: 1453824 1453825 1453826 1453827 1453828 1453829 1453830 1453831 1453832 1453833 [...] (4681463 flits)
Measured flits: 1453824 1453825 1453826 1453827 1453828 1453829 1453830 1453831 1453832 1453833 [...] (360 flits)
Class 0:
Remaining flits: 1453824 1453825 1453826 1453827 1453828 1453829 1453830 1453831 1453832 1453833 [...] (4688613 flits)
Measured flits: 1453824 1453825 1453826 1453827 1453828 1453829 1453830 1453831 1453832 1453833 [...] (342 flits)
Class 0:
Remaining flits: 1453824 1453825 1453826 1453827 1453828 1453829 1453830 1453831 1453832 1453833 [...] (4698476 flits)
Measured flits: 1453824 1453825 1453826 1453827 1453828 1453829 1453830 1453831 1453832 1453833 [...] (324 flits)
Class 0:
Remaining flits: 1594548 1594549 1594550 1594551 1594552 1594553 1594554 1594555 1594556 1594557 [...] (4707129 flits)
Measured flits: 1594548 1594549 1594550 1594551 1594552 1594553 1594554 1594555 1594556 1594557 [...] (253 flits)
Class 0:
Remaining flits: 1594548 1594549 1594550 1594551 1594552 1594553 1594554 1594555 1594556 1594557 [...] (4712931 flits)
Measured flits: 1594548 1594549 1594550 1594551 1594552 1594553 1594554 1594555 1594556 1594557 [...] (233 flits)
Class 0:
Remaining flits: 1594548 1594549 1594550 1594551 1594552 1594553 1594554 1594555 1594556 1594557 [...] (4719997 flits)
Measured flits: 1594548 1594549 1594550 1594551 1594552 1594553 1594554 1594555 1594556 1594557 [...] (233 flits)
Class 0:
Remaining flits: 1594548 1594549 1594550 1594551 1594552 1594553 1594554 1594555 1594556 1594557 [...] (4724711 flits)
Measured flits: 1594548 1594549 1594550 1594551 1594552 1594553 1594554 1594555 1594556 1594557 [...] (233 flits)
Class 0:
Remaining flits: 1594548 1594549 1594550 1594551 1594552 1594553 1594554 1594555 1594556 1594557 [...] (4732102 flits)
Measured flits: 1594548 1594549 1594550 1594551 1594552 1594553 1594554 1594555 1594556 1594557 [...] (207 flits)
Class 0:
Remaining flits: 1594548 1594549 1594550 1594551 1594552 1594553 1594554 1594555 1594556 1594557 [...] (4741085 flits)
Measured flits: 1594548 1594549 1594550 1594551 1594552 1594553 1594554 1594555 1594556 1594557 [...] (189 flits)
Class 0:
Remaining flits: 1594548 1594549 1594550 1594551 1594552 1594553 1594554 1594555 1594556 1594557 [...] (4744824 flits)
Measured flits: 1594548 1594549 1594550 1594551 1594552 1594553 1594554 1594555 1594556 1594557 [...] (162 flits)
Class 0:
Remaining flits: 1594548 1594549 1594550 1594551 1594552 1594553 1594554 1594555 1594556 1594557 [...] (4748329 flits)
Measured flits: 1594548 1594549 1594550 1594551 1594552 1594553 1594554 1594555 1594556 1594557 [...] (127 flits)
Class 0:
Remaining flits: 1594548 1594549 1594550 1594551 1594552 1594553 1594554 1594555 1594556 1594557 [...] (4751876 flits)
Measured flits: 1594548 1594549 1594550 1594551 1594552 1594553 1594554 1594555 1594556 1594557 [...] (108 flits)
Class 0:
Remaining flits: 1594548 1594549 1594550 1594551 1594552 1594553 1594554 1594555 1594556 1594557 [...] (4749240 flits)
Measured flits: 1594548 1594549 1594550 1594551 1594552 1594553 1594554 1594555 1594556 1594557 [...] (108 flits)
Class 0:
Remaining flits: 1594548 1594549 1594550 1594551 1594552 1594553 1594554 1594555 1594556 1594557 [...] (4753419 flits)
Measured flits: 1594548 1594549 1594550 1594551 1594552 1594553 1594554 1594555 1594556 1594557 [...] (108 flits)
Class 0:
Remaining flits: 1594548 1594549 1594550 1594551 1594552 1594553 1594554 1594555 1594556 1594557 [...] (4759129 flits)
Measured flits: 1594548 1594549 1594550 1594551 1594552 1594553 1594554 1594555 1594556 1594557 [...] (108 flits)
Class 0:
Remaining flits: 1594548 1594549 1594550 1594551 1594552 1594553 1594554 1594555 1594556 1594557 [...] (4761760 flits)
Measured flits: 1594548 1594549 1594550 1594551 1594552 1594553 1594554 1594555 1594556 1594557 [...] (90 flits)
Class 0:
Remaining flits: 1594548 1594549 1594550 1594551 1594552 1594553 1594554 1594555 1594556 1594557 [...] (4767323 flits)
Measured flits: 1594548 1594549 1594550 1594551 1594552 1594553 1594554 1594555 1594556 1594557 [...] (90 flits)
Class 0:
Remaining flits: 1594548 1594549 1594550 1594551 1594552 1594553 1594554 1594555 1594556 1594557 [...] (4773823 flits)
Measured flits: 1594548 1594549 1594550 1594551 1594552 1594553 1594554 1594555 1594556 1594557 [...] (72 flits)
Class 0:
Remaining flits: 1594548 1594549 1594550 1594551 1594552 1594553 1594554 1594555 1594556 1594557 [...] (4771391 flits)
Measured flits: 1594548 1594549 1594550 1594551 1594552 1594553 1594554 1594555 1594556 1594557 [...] (72 flits)
Class 0:
Remaining flits: 1594548 1594549 1594550 1594551 1594552 1594553 1594554 1594555 1594556 1594557 [...] (4771968 flits)
Measured flits: 1594548 1594549 1594550 1594551 1594552 1594553 1594554 1594555 1594556 1594557 [...] (54 flits)
Class 0:
Remaining flits: 1886130 1886131 1886132 1886133 1886134 1886135 1886136 1886137 1886138 1886139 [...] (4777304 flits)
Measured flits: 1886130 1886131 1886132 1886133 1886134 1886135 1886136 1886137 1886138 1886139 [...] (18 flits)
Class 0:
Remaining flits: 1886130 1886131 1886132 1886133 1886134 1886135 1886136 1886137 1886138 1886139 [...] (4779054 flits)
Measured flits: 1886130 1886131 1886132 1886133 1886134 1886135 1886136 1886137 1886138 1886139 [...] (18 flits)
Class 0:
Remaining flits: 1886130 1886131 1886132 1886133 1886134 1886135 1886136 1886137 1886138 1886139 [...] (4784698 flits)
Measured flits: 1886130 1886131 1886132 1886133 1886134 1886135 1886136 1886137 1886138 1886139 [...] (18 flits)
Class 0:
Remaining flits: 1886130 1886131 1886132 1886133 1886134 1886135 1886136 1886137 1886138 1886139 [...] (4787142 flits)
Measured flits: 1886130 1886131 1886132 1886133 1886134 1886135 1886136 1886137 1886138 1886139 [...] (18 flits)
Class 0:
Remaining flits: 1886130 1886131 1886132 1886133 1886134 1886135 1886136 1886137 1886138 1886139 [...] (4791119 flits)
Measured flits: 1886130 1886131 1886132 1886133 1886134 1886135 1886136 1886137 1886138 1886139 [...] (18 flits)
Average latency for class 0 exceeded 100000 cycles. Aborting simulation.
Simulation unstable, ending ...
Total run time 415.621
