BEGIN Configuration File: networks/mezzanine_config
topology = mezzanine;
n = 12;

routing_function = multipath;
internal_speedup = 2.0;
latency_thres = 100000.0;
use_read_write = 0;

sample_period = 1000;
injection_rate = 0.5;
packet_size = 18;

noq = 1;
routing_delay = 0;
vc_alloc_delay = 1;
sw_alloc_delay = 1;
st_final_delay = 1;
vc_allocator = islip; 
sw_allocator = islip;
alloc_iters  = 4;
num_vcs     = 12;
buffer_policy = private; // private or shared
buf_size = -1; // -1 for buffer_policy = private;
vc_buf_size = 4096; // size of each VOQ with buffer_policy = private
output_buffer_size = -1;


traffic = uniform;

//mezW = 0.0;
//mezPredefinedPatternType = shift-inter; //shift-qfdb

END Configuration File: networks/mezzanine_config
OVERRIDE Parameter: injection_rate=0.035637
OVERRIDE Parameter: routing_function=multipath
OVERRIDE Parameter: num_vcs=64
OVERRIDE Parameter: vc_buf_size=1024
OVERRIDE Parameter: internal_speedup=1.0
OVERRIDE Parameter: injection_process=bernoulli
OVERRIDE Parameter: sim_type=latency
OVERRIDE Parameter: burst_alpha=0.0038461538
OVERRIDE Parameter: burst_beta=0.1
network: network_0
========================== Routing table  =====================
Number of Subnets: 1
Class 0:
Packet latency average = 315.892
	minimum = 23
	maximum = 948
Network latency average = 304.433
	minimum = 23
	maximum = 940
Slowest packet = 233
Flit latency average = 233.885
	minimum = 6
	maximum = 968
Slowest flit = 2163
Fragmentation average = 180.428
	minimum = 0
	maximum = 872
Injected packet rate average = 0.0352344
	minimum = 0.018 (at node 99)
	maximum = 0.052 (at node 160)
Accepted packet rate average = 0.010625
	minimum = 0.004 (at node 93)
	maximum = 0.02 (at node 152)
Injected flit rate average = 0.628312
	minimum = 0.324 (at node 99)
	maximum = 0.936 (at node 160)
Accepted flit rate average= 0.227505
	minimum = 0.075 (at node 93)
	maximum = 0.381 (at node 152)
Injected packet length average = 17.8324
Accepted packet length average = 21.4123
Total in-flight flits = 78089 (0 measured)
latency change    = 1
throughput change = 1
Class 0:
Packet latency average = 564.617
	minimum = 23
	maximum = 1858
Network latency average = 551.204
	minimum = 23
	maximum = 1858
Slowest packet = 674
Flit latency average = 460.486
	minimum = 6
	maximum = 1934
Slowest flit = 5368
Fragmentation average = 245.807
	minimum = 0
	maximum = 1520
Injected packet rate average = 0.0354844
	minimum = 0.0215 (at node 120)
	maximum = 0.0485 (at node 160)
Accepted packet rate average = 0.0122188
	minimum = 0.0065 (at node 153)
	maximum = 0.0175 (at node 67)
Injected flit rate average = 0.636125
	minimum = 0.387 (at node 120)
	maximum = 0.8695 (at node 160)
Accepted flit rate average= 0.242055
	minimum = 0.145 (at node 62)
	maximum = 0.353 (at node 136)
Injected packet length average = 17.9269
Accepted packet length average = 19.8101
Total in-flight flits = 152319 (0 measured)
latency change    = 0.44052
throughput change = 0.0601082
Class 0:
Packet latency average = 1223.03
	minimum = 25
	maximum = 2866
Network latency average = 1207.57
	minimum = 23
	maximum = 2855
Slowest packet = 491
Flit latency average = 1112.53
	minimum = 6
	maximum = 2924
Slowest flit = 6153
Fragmentation average = 344.359
	minimum = 0
	maximum = 2145
Injected packet rate average = 0.0353229
	minimum = 0.02 (at node 116)
	maximum = 0.051 (at node 86)
Accepted packet rate average = 0.0137344
	minimum = 0.004 (at node 186)
	maximum = 0.024 (at node 63)
Injected flit rate average = 0.635583
	minimum = 0.36 (at node 190)
	maximum = 0.927 (at node 86)
Accepted flit rate average= 0.255521
	minimum = 0.108 (at node 42)
	maximum = 0.426 (at node 63)
Injected packet length average = 17.9935
Accepted packet length average = 18.6045
Total in-flight flits = 225335 (0 measured)
latency change    = 0.538347
throughput change = 0.0527008
Warmed up ...Time used is 3000 cycles
Class 0:
Packet latency average = 87.7071
	minimum = 24
	maximum = 854
Network latency average = 73.1026
	minimum = 24
	maximum = 845
Slowest packet = 20477
Flit latency average = 1589.3
	minimum = 6
	maximum = 3828
Slowest flit = 16934
Fragmentation average = 28.4086
	minimum = 0
	maximum = 528
Injected packet rate average = 0.0362344
	minimum = 0.019 (at node 168)
	maximum = 0.052 (at node 30)
Accepted packet rate average = 0.0142656
	minimum = 0.005 (at node 153)
	maximum = 0.026 (at node 48)
Injected flit rate average = 0.652
	minimum = 0.342 (at node 168)
	maximum = 0.936 (at node 30)
Accepted flit rate average= 0.258214
	minimum = 0.095 (at node 153)
	maximum = 0.477 (at node 103)
Injected packet length average = 17.994
Accepted packet length average = 18.1004
Total in-flight flits = 300984 (115039 measured)
latency change    = 12.9445
throughput change = 0.0104282
Class 0:
Packet latency average = 229.277
	minimum = 24
	maximum = 1996
Network latency average = 215.184
	minimum = 24
	maximum = 1990
Slowest packet = 20453
Flit latency average = 1831.33
	minimum = 6
	maximum = 4825
Slowest flit = 18477
Fragmentation average = 63.2125
	minimum = 0
	maximum = 1061
Injected packet rate average = 0.0358438
	minimum = 0.0265 (at node 168)
	maximum = 0.0495 (at node 187)
Accepted packet rate average = 0.0144193
	minimum = 0.0085 (at node 153)
	maximum = 0.0235 (at node 129)
Injected flit rate average = 0.645065
	minimum = 0.477 (at node 168)
	maximum = 0.8905 (at node 187)
Accepted flit rate average= 0.260318
	minimum = 0.1625 (at node 31)
	maximum = 0.4045 (at node 129)
Injected packet length average = 17.9966
Accepted packet length average = 18.0535
Total in-flight flits = 373125 (222888 measured)
latency change    = 0.617462
throughput change = 0.00808307
Class 0:
Packet latency average = 476.7
	minimum = 24
	maximum = 2951
Network latency average = 462.546
	minimum = 24
	maximum = 2945
Slowest packet = 20413
Flit latency average = 2106.1
	minimum = 6
	maximum = 5824
Slowest flit = 17366
Fragmentation average = 98.9342
	minimum = 0
	maximum = 1500
Injected packet rate average = 0.0357135
	minimum = 0.0283333 (at node 28)
	maximum = 0.0463333 (at node 187)
Accepted packet rate average = 0.0143351
	minimum = 0.00966667 (at node 148)
	maximum = 0.0206667 (at node 103)
Injected flit rate average = 0.642979
	minimum = 0.510667 (at node 28)
	maximum = 0.833 (at node 187)
Accepted flit rate average= 0.258333
	minimum = 0.178 (at node 148)
	maximum = 0.362667 (at node 103)
Injected packet length average = 18.0038
Accepted packet length average = 18.0211
Total in-flight flits = 446813 (328547 measured)
latency change    = 0.519033
throughput change = 0.00768145
Class 0:
Packet latency average = 809.429
	minimum = 24
	maximum = 3963
Network latency average = 794.916
	minimum = 24
	maximum = 3919
Slowest packet = 20602
Flit latency average = 2378.75
	minimum = 6
	maximum = 6643
Slowest flit = 37362
Fragmentation average = 129.334
	minimum = 0
	maximum = 1799
Injected packet rate average = 0.03575
	minimum = 0.02825 (at node 44)
	maximum = 0.045 (at node 187)
Accepted packet rate average = 0.0142826
	minimum = 0.00975 (at node 63)
	maximum = 0.01925 (at node 0)
Injected flit rate average = 0.643565
	minimum = 0.5105 (at node 44)
	maximum = 0.81 (at node 187)
Accepted flit rate average= 0.257632
	minimum = 0.18025 (at node 63)
	maximum = 0.34375 (at node 16)
Injected packet length average = 18.0018
Accepted packet length average = 18.0382
Total in-flight flits = 521682 (431367 measured)
latency change    = 0.411066
throughput change = 0.00272413
Class 0:
Packet latency average = 1228.19
	minimum = 23
	maximum = 4967
Network latency average = 1213.57
	minimum = 23
	maximum = 4931
Slowest packet = 20451
Flit latency average = 2649.42
	minimum = 6
	maximum = 7782
Slowest flit = 10619
Fragmentation average = 160.534
	minimum = 0
	maximum = 3090
Injected packet rate average = 0.035826
	minimum = 0.0292 (at node 44)
	maximum = 0.0452 (at node 187)
Accepted packet rate average = 0.0142542
	minimum = 0.0106 (at node 109)
	maximum = 0.0188 (at node 128)
Injected flit rate average = 0.64493
	minimum = 0.5256 (at node 44)
	maximum = 0.8128 (at node 187)
Accepted flit rate average= 0.256361
	minimum = 0.1916 (at node 60)
	maximum = 0.3394 (at node 128)
Injected packet length average = 18.0017
Accepted packet length average = 17.985
Total in-flight flits = 598302 (531011 measured)
latency change    = 0.340956
throughput change = 0.00495415
Class 0:
Packet latency average = 1672.56
	minimum = 23
	maximum = 5976
Network latency average = 1657.77
	minimum = 23
	maximum = 5960
Slowest packet = 20471
Flit latency average = 2898.94
	minimum = 6
	maximum = 8364
Slowest flit = 58337
Fragmentation average = 184.216
	minimum = 0
	maximum = 3319
Injected packet rate average = 0.0358264
	minimum = 0.03 (at node 109)
	maximum = 0.0431667 (at node 187)
Accepted packet rate average = 0.0142031
	minimum = 0.00966667 (at node 190)
	maximum = 0.018 (at node 128)
Injected flit rate average = 0.644852
	minimum = 0.538833 (at node 109)
	maximum = 0.775 (at node 187)
Accepted flit rate average= 0.255418
	minimum = 0.179 (at node 190)
	maximum = 0.326167 (at node 128)
Injected packet length average = 17.9993
Accepted packet length average = 17.9833
Total in-flight flits = 673989 (624482 measured)
latency change    = 0.265685
throughput change = 0.0036922
Class 0:
Packet latency average = 2189.33
	minimum = 23
	maximum = 6993
Network latency average = 2174.72
	minimum = 23
	maximum = 6988
Slowest packet = 20416
Flit latency average = 3154.9
	minimum = 6
	maximum = 9619
Slowest flit = 42902
Fragmentation average = 208.235
	minimum = 0
	maximum = 3319
Injected packet rate average = 0.0357225
	minimum = 0.0301429 (at node 109)
	maximum = 0.0408571 (at node 157)
Accepted packet rate average = 0.0141116
	minimum = 0.01 (at node 190)
	maximum = 0.0174286 (at node 128)
Injected flit rate average = 0.642952
	minimum = 0.542714 (at node 109)
	maximum = 0.735286 (at node 157)
Accepted flit rate average= 0.253156
	minimum = 0.180714 (at node 190)
	maximum = 0.314143 (at node 72)
Injected packet length average = 17.9985
Accepted packet length average = 17.9395
Total in-flight flits = 749292 (711806 measured)
latency change    = 0.236038
throughput change = 0.00893876
Draining all recorded packets ...
Class 0:
Remaining flits: 16854 16855 16856 16857 16858 16859 16860 16861 16862 16863 [...] (827069 flits)
Measured flits: 367380 367381 367382 367383 367384 367385 367386 367387 367388 367389 [...] (686559 flits)
Class 0:
Remaining flits: 16854 16855 16856 16857 16858 16859 16860 16861 16862 16863 [...] (900873 flits)
Measured flits: 367380 367381 367382 367383 367384 367385 367386 367387 367388 367389 [...] (656693 flits)
Class 0:
Remaining flits: 45810 45811 45812 45813 45814 45815 45816 45817 45818 45819 [...] (978790 flits)
Measured flits: 367380 367381 367382 367383 367384 367385 367386 367387 367388 367389 [...] (625223 flits)
Class 0:
Remaining flits: 45810 45811 45812 45813 45814 45815 45816 45817 45818 45819 [...] (1059911 flits)
Measured flits: 367380 367381 367382 367383 367384 367385 367386 367387 367388 367389 [...] (594076 flits)
Class 0:
Remaining flits: 45810 45811 45812 45813 45814 45815 45816 45817 45818 45819 [...] (1138968 flits)
Measured flits: 367416 367417 367418 367419 367420 367421 367422 367423 367424 367425 [...] (562487 flits)
Class 0:
Remaining flits: 45810 45811 45812 45813 45814 45815 45816 45817 45818 45819 [...] (1219115 flits)
Measured flits: 367416 367417 367418 367419 367420 367421 367422 367423 367424 367425 [...] (530961 flits)
Class 0:
Remaining flits: 45810 45811 45812 45813 45814 45815 45816 45817 45818 45819 [...] (1290125 flits)
Measured flits: 367416 367417 367418 367419 367420 367421 367422 367423 367424 367425 [...] (499512 flits)
Class 0:
Remaining flits: 45810 45811 45812 45813 45814 45815 45816 45817 45818 45819 [...] (1360432 flits)
Measured flits: 367416 367417 367418 367419 367420 367421 367422 367423 367424 367425 [...] (468003 flits)
Class 0:
Remaining flits: 52812 52813 52814 52815 52816 52817 52818 52819 52820 52821 [...] (1426964 flits)
Measured flits: 367416 367417 367418 367419 367420 367421 367422 367423 367424 367425 [...] (437781 flits)
Class 0:
Remaining flits: 52812 52813 52814 52815 52816 52817 52818 52819 52820 52821 [...] (1492593 flits)
Measured flits: 367416 367417 367418 367419 367420 367421 367422 367423 367424 367425 [...] (408530 flits)
Class 0:
Remaining flits: 52812 52813 52814 52815 52816 52817 52818 52819 52820 52821 [...] (1554184 flits)
Measured flits: 367416 367417 367418 367419 367420 367421 367422 367423 367424 367425 [...] (380202 flits)
Class 0:
Remaining flits: 52812 52813 52814 52815 52816 52817 52818 52819 52820 52821 [...] (1617329 flits)
Measured flits: 367416 367417 367418 367419 367420 367421 367422 367423 367424 367425 [...] (353198 flits)
Class 0:
Remaining flits: 52828 52829 73044 73045 73046 73047 73048 73049 73050 73051 [...] (1681155 flits)
Measured flits: 367416 367417 367418 367419 367420 367421 367422 367423 367424 367425 [...] (327865 flits)
Class 0:
Remaining flits: 73044 73045 73046 73047 73048 73049 73050 73051 73052 73053 [...] (1746913 flits)
Measured flits: 367416 367417 367418 367419 367420 367421 367422 367423 367424 367425 [...] (304141 flits)
Class 0:
Remaining flits: 73044 73045 73046 73047 73048 73049 73050 73051 73052 73053 [...] (1812258 flits)
Measured flits: 367686 367687 367688 367689 367690 367691 367692 367693 367694 367695 [...] (280893 flits)
Class 0:
Remaining flits: 121464 121465 121466 121467 121468 121469 121470 121471 121472 121473 [...] (1879182 flits)
Measured flits: 367686 367687 367688 367689 367690 367691 367692 367693 367694 367695 [...] (258815 flits)
Class 0:
Remaining flits: 121464 121465 121466 121467 121468 121469 121470 121471 121472 121473 [...] (1947722 flits)
Measured flits: 367702 367703 372744 372745 372746 372747 372748 372749 372750 372751 [...] (238644 flits)
Class 0:
Remaining flits: 121472 121473 121474 121475 121476 121477 121478 121479 121480 121481 [...] (2015608 flits)
Measured flits: 377730 377731 377732 377733 377734 377735 377736 377737 377738 377739 [...] (219583 flits)
Class 0:
Remaining flits: 142668 142669 142670 142671 142672 142673 142674 142675 142676 142677 [...] (2085326 flits)
Measured flits: 377730 377731 377732 377733 377734 377735 377736 377737 377738 377739 [...] (202504 flits)
Class 0:
Remaining flits: 142668 142669 142670 142671 142672 142673 142674 142675 142676 142677 [...] (2154422 flits)
Measured flits: 377766 377767 377768 377769 377770 377771 377772 377773 377774 377775 [...] (185951 flits)
Class 0:
Remaining flits: 142668 142669 142670 142671 142672 142673 142674 142675 142676 142677 [...] (2220352 flits)
Measured flits: 377766 377767 377768 377769 377770 377771 377772 377773 377774 377775 [...] (171128 flits)
Class 0:
Remaining flits: 142668 142669 142670 142671 142672 142673 142674 142675 142676 142677 [...] (2289918 flits)
Measured flits: 377766 377767 377768 377769 377770 377771 377772 377773 377774 377775 [...] (157334 flits)
Class 0:
Remaining flits: 142668 142669 142670 142671 142672 142673 142674 142675 142676 142677 [...] (2358025 flits)
Measured flits: 377783 379602 379603 379604 379605 379606 379607 379608 379609 379610 [...] (144023 flits)
Class 0:
Remaining flits: 142668 142669 142670 142671 142672 142673 142674 142675 142676 142677 [...] (2426659 flits)
Measured flits: 388782 388783 388784 388785 388786 388787 388788 388789 388790 388791 [...] (132038 flits)
Class 0:
Remaining flits: 142672 142673 142674 142675 142676 142677 142678 142679 142680 142681 [...] (2493938 flits)
Measured flits: 392238 392239 392240 392241 392242 392243 392244 392245 392246 392247 [...] (120737 flits)
Class 0:
Remaining flits: 177228 177229 177230 177231 177232 177233 177234 177235 177236 177237 [...] (2563403 flits)
Measured flits: 392238 392239 392240 392241 392242 392243 392244 392245 392246 392247 [...] (110078 flits)
Class 0:
Remaining flits: 177228 177229 177230 177231 177232 177233 177234 177235 177236 177237 [...] (2631916 flits)
Measured flits: 392238 392239 392240 392241 392242 392243 392244 392245 392246 392247 [...] (100781 flits)
Class 0:
Remaining flits: 177228 177229 177230 177231 177232 177233 177234 177235 177236 177237 [...] (2699178 flits)
Measured flits: 395802 395803 395804 395805 395806 395807 395808 395809 395810 395811 [...] (91418 flits)
Class 0:
Remaining flits: 194022 194023 194024 194025 194026 194027 194028 194029 194030 194031 [...] (2766677 flits)
Measured flits: 395802 395803 395804 395805 395806 395807 395808 395809 395810 395811 [...] (82481 flits)
Class 0:
Remaining flits: 194022 194023 194024 194025 194026 194027 194028 194029 194030 194031 [...] (2833510 flits)
Measured flits: 395802 395803 395804 395805 395806 395807 395808 395809 395810 395811 [...] (74994 flits)
Class 0:
Remaining flits: 194022 194023 194024 194025 194026 194027 194028 194029 194030 194031 [...] (2903301 flits)
Measured flits: 395802 395803 395804 395805 395806 395807 395808 395809 395810 395811 [...] (68041 flits)
Class 0:
Remaining flits: 233082 233083 233084 233085 233086 233087 233088 233089 233090 233091 [...] (2973209 flits)
Measured flits: 395802 395803 395804 395805 395806 395807 395808 395809 395810 395811 [...] (61947 flits)
Class 0:
Remaining flits: 233082 233083 233084 233085 233086 233087 233088 233089 233090 233091 [...] (3043080 flits)
Measured flits: 395802 395803 395804 395805 395806 395807 395808 395809 395810 395811 [...] (55690 flits)
Class 0:
Remaining flits: 233082 233083 233084 233085 233086 233087 233088 233089 233090 233091 [...] (3111370 flits)
Measured flits: 395802 395803 395804 395805 395806 395807 395808 395809 395810 395811 [...] (51213 flits)
Class 0:
Remaining flits: 340398 340399 340400 340401 340402 340403 340404 340405 340406 340407 [...] (3178543 flits)
Measured flits: 395802 395803 395804 395805 395806 395807 395808 395809 395810 395811 [...] (46400 flits)
Class 0:
Remaining flits: 354654 354655 354656 354657 354658 354659 354660 354661 354662 354663 [...] (3244385 flits)
Measured flits: 395802 395803 395804 395805 395806 395807 395808 395809 395810 395811 [...] (42689 flits)
Class 0:
Remaining flits: 355536 355537 355538 355539 355540 355541 355542 355543 355544 355545 [...] (3311977 flits)
Measured flits: 395802 395803 395804 395805 395806 395807 395808 395809 395810 395811 [...] (38656 flits)
Class 0:
Remaining flits: 355536 355537 355538 355539 355540 355541 355542 355543 355544 355545 [...] (3379013 flits)
Measured flits: 395802 395803 395804 395805 395806 395807 395808 395809 395810 395811 [...] (35022 flits)
Class 0:
Remaining flits: 355536 355537 355538 355539 355540 355541 355542 355543 355544 355545 [...] (3446167 flits)
Measured flits: 395802 395803 395804 395805 395806 395807 395808 395809 395810 395811 [...] (31567 flits)
Class 0:
Remaining flits: 355536 355537 355538 355539 355540 355541 355542 355543 355544 355545 [...] (3515360 flits)
Measured flits: 395802 395803 395804 395805 395806 395807 395808 395809 395810 395811 [...] (28257 flits)
Class 0:
Remaining flits: 355536 355537 355538 355539 355540 355541 355542 355543 355544 355545 [...] (3584654 flits)
Measured flits: 395802 395803 395804 395805 395806 395807 395808 395809 395810 395811 [...] (25675 flits)
Class 0:
Remaining flits: 355536 355537 355538 355539 355540 355541 355542 355543 355544 355545 [...] (3651679 flits)
Measured flits: 395802 395803 395804 395805 395806 395807 395808 395809 395810 395811 [...] (23504 flits)
Class 0:
Remaining flits: 395809 395810 395811 395812 395813 395814 395815 395816 395817 395818 [...] (3719740 flits)
Measured flits: 395809 395810 395811 395812 395813 395814 395815 395816 395817 395818 [...] (21074 flits)
Class 0:
Remaining flits: 397764 397765 397766 397767 397768 397769 397770 397771 397772 397773 [...] (3787295 flits)
Measured flits: 397764 397765 397766 397767 397768 397769 397770 397771 397772 397773 [...] (18656 flits)
Class 0:
Remaining flits: 397764 397765 397766 397767 397768 397769 397770 397771 397772 397773 [...] (3855094 flits)
Measured flits: 397764 397765 397766 397767 397768 397769 397770 397771 397772 397773 [...] (16666 flits)
Class 0:
Remaining flits: 397764 397765 397766 397767 397768 397769 397770 397771 397772 397773 [...] (3921916 flits)
Measured flits: 397764 397765 397766 397767 397768 397769 397770 397771 397772 397773 [...] (15264 flits)
Class 0:
Remaining flits: 397764 397765 397766 397767 397768 397769 397770 397771 397772 397773 [...] (3984696 flits)
Measured flits: 397764 397765 397766 397767 397768 397769 397770 397771 397772 397773 [...] (14048 flits)
Class 0:
Remaining flits: 427410 427411 427412 427413 427414 427415 427416 427417 427418 427419 [...] (4047076 flits)
Measured flits: 427410 427411 427412 427413 427414 427415 427416 427417 427418 427419 [...] (12697 flits)
Class 0:
Remaining flits: 427410 427411 427412 427413 427414 427415 427416 427417 427418 427419 [...] (4104604 flits)
Measured flits: 427410 427411 427412 427413 427414 427415 427416 427417 427418 427419 [...] (11566 flits)
Class 0:
Remaining flits: 427410 427411 427412 427413 427414 427415 427416 427417 427418 427419 [...] (4149589 flits)
Measured flits: 427410 427411 427412 427413 427414 427415 427416 427417 427418 427419 [...] (10854 flits)
Class 0:
Remaining flits: 427410 427411 427412 427413 427414 427415 427416 427417 427418 427419 [...] (4189627 flits)
Measured flits: 427410 427411 427412 427413 427414 427415 427416 427417 427418 427419 [...] (9849 flits)
Class 0:
Remaining flits: 427410 427411 427412 427413 427414 427415 427416 427417 427418 427419 [...] (4220755 flits)
Measured flits: 427410 427411 427412 427413 427414 427415 427416 427417 427418 427419 [...] (8698 flits)
Class 0:
Remaining flits: 427410 427411 427412 427413 427414 427415 427416 427417 427418 427419 [...] (4244190 flits)
Measured flits: 427410 427411 427412 427413 427414 427415 427416 427417 427418 427419 [...] (7716 flits)
Class 0:
Remaining flits: 427410 427411 427412 427413 427414 427415 427416 427417 427418 427419 [...] (4267393 flits)
Measured flits: 427410 427411 427412 427413 427414 427415 427416 427417 427418 427419 [...] (7184 flits)
Class 0:
Remaining flits: 427410 427411 427412 427413 427414 427415 427416 427417 427418 427419 [...] (4281209 flits)
Measured flits: 427410 427411 427412 427413 427414 427415 427416 427417 427418 427419 [...] (6646 flits)
Class 0:
Remaining flits: 427410 427411 427412 427413 427414 427415 427416 427417 427418 427419 [...] (4294365 flits)
Measured flits: 427410 427411 427412 427413 427414 427415 427416 427417 427418 427419 [...] (5779 flits)
Class 0:
Remaining flits: 427410 427411 427412 427413 427414 427415 427416 427417 427418 427419 [...] (4307529 flits)
Measured flits: 427410 427411 427412 427413 427414 427415 427416 427417 427418 427419 [...] (5260 flits)
Class 0:
Remaining flits: 427410 427411 427412 427413 427414 427415 427416 427417 427418 427419 [...] (4318108 flits)
Measured flits: 427410 427411 427412 427413 427414 427415 427416 427417 427418 427419 [...] (4573 flits)
Class 0:
Remaining flits: 427410 427411 427412 427413 427414 427415 427416 427417 427418 427419 [...] (4326866 flits)
Measured flits: 427410 427411 427412 427413 427414 427415 427416 427417 427418 427419 [...] (4105 flits)
Class 0:
Remaining flits: 427410 427411 427412 427413 427414 427415 427416 427417 427418 427419 [...] (4338072 flits)
Measured flits: 427410 427411 427412 427413 427414 427415 427416 427417 427418 427419 [...] (3888 flits)
Class 0:
Remaining flits: 427410 427411 427412 427413 427414 427415 427416 427417 427418 427419 [...] (4346722 flits)
Measured flits: 427410 427411 427412 427413 427414 427415 427416 427417 427418 427419 [...] (3486 flits)
Class 0:
Remaining flits: 427410 427411 427412 427413 427414 427415 427416 427417 427418 427419 [...] (4355558 flits)
Measured flits: 427410 427411 427412 427413 427414 427415 427416 427417 427418 427419 [...] (3201 flits)
Class 0:
Remaining flits: 427410 427411 427412 427413 427414 427415 427416 427417 427418 427419 [...] (4366598 flits)
Measured flits: 427410 427411 427412 427413 427414 427415 427416 427417 427418 427419 [...] (2924 flits)
Class 0:
Remaining flits: 445752 445753 445754 445755 445756 445757 445758 445759 445760 445761 [...] (4378430 flits)
Measured flits: 445752 445753 445754 445755 445756 445757 445758 445759 445760 445761 [...] (2625 flits)
Class 0:
Remaining flits: 445752 445753 445754 445755 445756 445757 445758 445759 445760 445761 [...] (4385018 flits)
Measured flits: 445752 445753 445754 445755 445756 445757 445758 445759 445760 445761 [...] (2324 flits)
Class 0:
Remaining flits: 445752 445753 445754 445755 445756 445757 445758 445759 445760 445761 [...] (4399640 flits)
Measured flits: 445752 445753 445754 445755 445756 445757 445758 445759 445760 445761 [...] (2036 flits)
Class 0:
Remaining flits: 445752 445753 445754 445755 445756 445757 445758 445759 445760 445761 [...] (4409353 flits)
Measured flits: 445752 445753 445754 445755 445756 445757 445758 445759 445760 445761 [...] (1869 flits)
Class 0:
Remaining flits: 445752 445753 445754 445755 445756 445757 445758 445759 445760 445761 [...] (4421305 flits)
Measured flits: 445752 445753 445754 445755 445756 445757 445758 445759 445760 445761 [...] (1663 flits)
Class 0:
Remaining flits: 445752 445753 445754 445755 445756 445757 445758 445759 445760 445761 [...] (4431030 flits)
Measured flits: 445752 445753 445754 445755 445756 445757 445758 445759 445760 445761 [...] (1395 flits)
Class 0:
Remaining flits: 445752 445753 445754 445755 445756 445757 445758 445759 445760 445761 [...] (4440009 flits)
Measured flits: 445752 445753 445754 445755 445756 445757 445758 445759 445760 445761 [...] (1099 flits)
Class 0:
Remaining flits: 445752 445753 445754 445755 445756 445757 445758 445759 445760 445761 [...] (4452595 flits)
Measured flits: 445752 445753 445754 445755 445756 445757 445758 445759 445760 445761 [...] (994 flits)
Class 0:
Remaining flits: 445752 445753 445754 445755 445756 445757 445758 445759 445760 445761 [...] (4463535 flits)
Measured flits: 445752 445753 445754 445755 445756 445757 445758 445759 445760 445761 [...] (875 flits)
Class 0:
Remaining flits: 445752 445753 445754 445755 445756 445757 445758 445759 445760 445761 [...] (4473117 flits)
Measured flits: 445752 445753 445754 445755 445756 445757 445758 445759 445760 445761 [...] (810 flits)
Class 0:
Remaining flits: 445752 445753 445754 445755 445756 445757 445758 445759 445760 445761 [...] (4487769 flits)
Measured flits: 445752 445753 445754 445755 445756 445757 445758 445759 445760 445761 [...] (756 flits)
Class 0:
Remaining flits: 445752 445753 445754 445755 445756 445757 445758 445759 445760 445761 [...] (4498551 flits)
Measured flits: 445752 445753 445754 445755 445756 445757 445758 445759 445760 445761 [...] (689 flits)
Class 0:
Remaining flits: 445752 445753 445754 445755 445756 445757 445758 445759 445760 445761 [...] (4511489 flits)
Measured flits: 445752 445753 445754 445755 445756 445757 445758 445759 445760 445761 [...] (648 flits)
Class 0:
Remaining flits: 445752 445753 445754 445755 445756 445757 445758 445759 445760 445761 [...] (4522824 flits)
Measured flits: 445752 445753 445754 445755 445756 445757 445758 445759 445760 445761 [...] (498 flits)
Class 0:
Remaining flits: 445752 445753 445754 445755 445756 445757 445758 445759 445760 445761 [...] (4534331 flits)
Measured flits: 445752 445753 445754 445755 445756 445757 445758 445759 445760 445761 [...] (486 flits)
Class 0:
Remaining flits: 735498 735499 735500 735501 735502 735503 735504 735505 735506 735507 [...] (4547142 flits)
Measured flits: 735498 735499 735500 735501 735502 735503 735504 735505 735506 735507 [...] (396 flits)
Class 0:
Remaining flits: 735498 735499 735500 735501 735502 735503 735504 735505 735506 735507 [...] (4556504 flits)
Measured flits: 735498 735499 735500 735501 735502 735503 735504 735505 735506 735507 [...] (378 flits)
Class 0:
Remaining flits: 735498 735499 735500 735501 735502 735503 735504 735505 735506 735507 [...] (4569905 flits)
Measured flits: 735498 735499 735500 735501 735502 735503 735504 735505 735506 735507 [...] (376 flits)
Class 0:
Remaining flits: 735498 735499 735500 735501 735502 735503 735504 735505 735506 735507 [...] (4580211 flits)
Measured flits: 735498 735499 735500 735501 735502 735503 735504 735505 735506 735507 [...] (340 flits)
Class 0:
Remaining flits: 735498 735499 735500 735501 735502 735503 735504 735505 735506 735507 [...] (4588858 flits)
Measured flits: 735498 735499 735500 735501 735502 735503 735504 735505 735506 735507 [...] (287 flits)
Class 0:
Remaining flits: 769464 769465 769466 769467 769468 769469 769470 769471 769472 769473 [...] (4595007 flits)
Measured flits: 769464 769465 769466 769467 769468 769469 769470 769471 769472 769473 [...] (216 flits)
Class 0:
Remaining flits: 769464 769465 769466 769467 769468 769469 769470 769471 769472 769473 [...] (4602022 flits)
Measured flits: 769464 769465 769466 769467 769468 769469 769470 769471 769472 769473 [...] (213 flits)
Class 0:
Remaining flits: 769464 769465 769466 769467 769468 769469 769470 769471 769472 769473 [...] (4613164 flits)
Measured flits: 769464 769465 769466 769467 769468 769469 769470 769471 769472 769473 [...] (198 flits)
Class 0:
Remaining flits: 769464 769465 769466 769467 769468 769469 769470 769471 769472 769473 [...] (4622419 flits)
Measured flits: 769464 769465 769466 769467 769468 769469 769470 769471 769472 769473 [...] (198 flits)
Class 0:
Remaining flits: 769464 769465 769466 769467 769468 769469 769470 769471 769472 769473 [...] (4630767 flits)
Measured flits: 769464 769465 769466 769467 769468 769469 769470 769471 769472 769473 [...] (180 flits)
Class 0:
Remaining flits: 769464 769465 769466 769467 769468 769469 769470 769471 769472 769473 [...] (4640919 flits)
Measured flits: 769464 769465 769466 769467 769468 769469 769470 769471 769472 769473 [...] (162 flits)
Class 0:
Remaining flits: 769464 769465 769466 769467 769468 769469 769470 769471 769472 769473 [...] (4647669 flits)
Measured flits: 769464 769465 769466 769467 769468 769469 769470 769471 769472 769473 [...] (126 flits)
Class 0:
Remaining flits: 769464 769465 769466 769467 769468 769469 769470 769471 769472 769473 [...] (4655784 flits)
Measured flits: 769464 769465 769466 769467 769468 769469 769470 769471 769472 769473 [...] (108 flits)
Class 0:
Remaining flits: 769464 769465 769466 769467 769468 769469 769470 769471 769472 769473 [...] (4665135 flits)
Measured flits: 769464 769465 769466 769467 769468 769469 769470 769471 769472 769473 [...] (108 flits)
Class 0:
Remaining flits: 769464 769465 769466 769467 769468 769469 769470 769471 769472 769473 [...] (4675171 flits)
Measured flits: 769464 769465 769466 769467 769468 769469 769470 769471 769472 769473 [...] (108 flits)
Class 0:
Remaining flits: 769464 769465 769466 769467 769468 769469 769470 769471 769472 769473 [...] (4684305 flits)
Measured flits: 769464 769465 769466 769467 769468 769469 769470 769471 769472 769473 [...] (108 flits)
Class 0:
Remaining flits: 769464 769465 769466 769467 769468 769469 769470 769471 769472 769473 [...] (4691820 flits)
Measured flits: 769464 769465 769466 769467 769468 769469 769470 769471 769472 769473 [...] (108 flits)
Class 0:
Remaining flits: 769464 769465 769466 769467 769468 769469 769470 769471 769472 769473 [...] (4706612 flits)
Measured flits: 769464 769465 769466 769467 769468 769469 769470 769471 769472 769473 [...] (108 flits)
Class 0:
Remaining flits: 949949 1231884 1231885 1231886 1231887 1231888 1231889 1231890 1231891 1231892 [...] (4718003 flits)
Measured flits: 949949 1231884 1231885 1231886 1231887 1231888 1231889 1231890 1231891 1231892 [...] (19 flits)
Class 0:
Remaining flits: 949949 1231884 1231885 1231886 1231887 1231888 1231889 1231890 1231891 1231892 [...] (4725005 flits)
Measured flits: 949949 1231884 1231885 1231886 1231887 1231888 1231889 1231890 1231891 1231892 [...] (19 flits)
Class 0:
Remaining flits: 949949 1231884 1231885 1231886 1231887 1231888 1231889 1231890 1231891 1231892 [...] (4735244 flits)
Measured flits: 949949 1231884 1231885 1231886 1231887 1231888 1231889 1231890 1231891 1231892 [...] (19 flits)
Class 0:
Remaining flits: 949949 1231884 1231885 1231886 1231887 1231888 1231889 1231890 1231891 1231892 [...] (4744519 flits)
Measured flits: 949949 1231884 1231885 1231886 1231887 1231888 1231889 1231890 1231891 1231892 [...] (19 flits)
Class 0:
Remaining flits: 949949 1231884 1231885 1231886 1231887 1231888 1231889 1231890 1231891 1231892 [...] (4757175 flits)
Measured flits: 949949 1231884 1231885 1231886 1231887 1231888 1231889 1231890 1231891 1231892 [...] (19 flits)
Class 0:
Remaining flits: 1231884 1231885 1231886 1231887 1231888 1231889 1231890 1231891 1231892 1231893 [...] (4765123 flits)
Measured flits: 1231884 1231885 1231886 1231887 1231888 1231889 1231890 1231891 1231892 1231893 [...] (18 flits)
Class 0:
Remaining flits: 1231884 1231885 1231886 1231887 1231888 1231889 1231890 1231891 1231892 1231893 [...] (4776566 flits)
Measured flits: 1231884 1231885 1231886 1231887 1231888 1231889 1231890 1231891 1231892 1231893 [...] (18 flits)
Class 0:
Remaining flits: 1231884 1231885 1231886 1231887 1231888 1231889 1231890 1231891 1231892 1231893 [...] (4782296 flits)
Measured flits: 1231884 1231885 1231886 1231887 1231888 1231889 1231890 1231891 1231892 1231893 [...] (18 flits)
Class 0:
Remaining flits: 1231884 1231885 1231886 1231887 1231888 1231889 1231890 1231891 1231892 1231893 [...] (4791811 flits)
Measured flits: 1231884 1231885 1231886 1231887 1231888 1231889 1231890 1231891 1231892 1231893 [...] (18 flits)
Class 0:
Remaining flits: 1231884 1231885 1231886 1231887 1231888 1231889 1231890 1231891 1231892 1231893 [...] (4800531 flits)
Measured flits: 1231884 1231885 1231886 1231887 1231888 1231889 1231890 1231891 1231892 1231893 [...] (18 flits)
Class 0:
Remaining flits: 1231884 1231885 1231886 1231887 1231888 1231889 1231890 1231891 1231892 1231893 [...] (4807498 flits)
Measured flits: 1231884 1231885 1231886 1231887 1231888 1231889 1231890 1231891 1231892 1231893 [...] (18 flits)
Class 0:
Remaining flits: 1231884 1231885 1231886 1231887 1231888 1231889 1231890 1231891 1231892 1231893 [...] (4816359 flits)
Measured flits: 1231884 1231885 1231886 1231887 1231888 1231889 1231890 1231891 1231892 1231893 [...] (18 flits)
Class 0:
Remaining flits: 1231884 1231885 1231886 1231887 1231888 1231889 1231890 1231891 1231892 1231893 [...] (4824538 flits)
Measured flits: 1231884 1231885 1231886 1231887 1231888 1231889 1231890 1231891 1231892 1231893 [...] (18 flits)
Class 0:
Remaining flits: 1231884 1231885 1231886 1231887 1231888 1231889 1231890 1231891 1231892 1231893 [...] (4832832 flits)
Measured flits: 1231884 1231885 1231886 1231887 1231888 1231889 1231890 1231891 1231892 1231893 [...] (18 flits)
Draining remaining packets ...
Class 0:
Remaining flits: 1342296 1342297 1342298 1342299 1342300 1342301 1342302 1342303 1342304 1342305 [...] (4805485 flits)
Measured flits: (0 flits)
Class 0:
Remaining flits: 1342296 1342297 1342298 1342299 1342300 1342301 1342302 1342303 1342304 1342305 [...] (4770704 flits)
Measured flits: (0 flits)
Class 0:
Remaining flits: 1342296 1342297 1342298 1342299 1342300 1342301 1342302 1342303 1342304 1342305 [...] (4736097 flits)
Measured flits: (0 flits)
Class 0:
Remaining flits: 1342296 1342297 1342298 1342299 1342300 1342301 1342302 1342303 1342304 1342305 [...] (4701800 flits)
Measured flits: (0 flits)
Class 0:
Remaining flits: 1342296 1342297 1342298 1342299 1342300 1342301 1342302 1342303 1342304 1342305 [...] (4667162 flits)
Measured flits: (0 flits)
Class 0:
Remaining flits: 1342296 1342297 1342298 1342299 1342300 1342301 1342302 1342303 1342304 1342305 [...] (4632114 flits)
Measured flits: (0 flits)
Class 0:
Remaining flits: 1342296 1342297 1342298 1342299 1342300 1342301 1342302 1342303 1342304 1342305 [...] (4597241 flits)
Measured flits: (0 flits)
Class 0:
Remaining flits: 1342296 1342297 1342298 1342299 1342300 1342301 1342302 1342303 1342304 1342305 [...] (4562265 flits)
Measured flits: (0 flits)
Class 0:
Remaining flits: 1342296 1342297 1342298 1342299 1342300 1342301 1342302 1342303 1342304 1342305 [...] (4526806 flits)
Measured flits: (0 flits)
Class 0:
Remaining flits: 1342296 1342297 1342298 1342299 1342300 1342301 1342302 1342303 1342304 1342305 [...] (4492072 flits)
Measured flits: (0 flits)
Class 0:
Remaining flits: 1342296 1342297 1342298 1342299 1342300 1342301 1342302 1342303 1342304 1342305 [...] (4457209 flits)
Measured flits: (0 flits)
Class 0:
Remaining flits: 1342296 1342297 1342298 1342299 1342300 1342301 1342302 1342303 1342304 1342305 [...] (4423344 flits)
Measured flits: (0 flits)
Class 0:
Remaining flits: 1342296 1342297 1342298 1342299 1342300 1342301 1342302 1342303 1342304 1342305 [...] (4387936 flits)
Measured flits: (0 flits)
Class 0:
Remaining flits: 1342296 1342297 1342298 1342299 1342300 1342301 1342302 1342303 1342304 1342305 [...] (4353936 flits)
Measured flits: (0 flits)
Class 0:
Remaining flits: 1575698 1575699 1575700 1575701 1576386 1576387 1576388 1576389 1576390 1576391 [...] (4319549 flits)
Measured flits: (0 flits)
Class 0:
Remaining flits: 1576386 1576387 1576388 1576389 1576390 1576391 1576392 1576393 1576394 1576395 [...] (4285942 flits)
Measured flits: (0 flits)
Class 0:
Remaining flits: 1576386 1576387 1576388 1576389 1576390 1576391 1576392 1576393 1576394 1576395 [...] (4252541 flits)
Measured flits: (0 flits)
Class 0:
Remaining flits: 1576386 1576387 1576388 1576389 1576390 1576391 1576392 1576393 1576394 1576395 [...] (4218611 flits)
Measured flits: (0 flits)
Class 0:
Remaining flits: 1576386 1576387 1576388 1576389 1576390 1576391 1576392 1576393 1576394 1576395 [...] (4185154 flits)
Measured flits: (0 flits)
Class 0:
Remaining flits: 1576386 1576387 1576388 1576389 1576390 1576391 1576392 1576393 1576394 1576395 [...] (4153088 flits)
Measured flits: (0 flits)
Class 0:
Remaining flits: 1576386 1576387 1576388 1576389 1576390 1576391 1576392 1576393 1576394 1576395 [...] (4119193 flits)
Measured flits: (0 flits)
Class 0:
Remaining flits: 1576386 1576387 1576388 1576389 1576390 1576391 1576392 1576393 1576394 1576395 [...] (4085792 flits)
Measured flits: (0 flits)
Class 0:
Remaining flits: 1576386 1576387 1576388 1576389 1576390 1576391 1576392 1576393 1576394 1576395 [...] (4051906 flits)
Measured flits: (0 flits)
Class 0:
Remaining flits: 1576386 1576387 1576388 1576389 1576390 1576391 1576392 1576393 1576394 1576395 [...] (4018901 flits)
Measured flits: (0 flits)
Class 0:
Remaining flits: 1576386 1576387 1576388 1576389 1576390 1576391 1576392 1576393 1576394 1576395 [...] (3985328 flits)
Measured flits: (0 flits)
Class 0:
Remaining flits: 1576386 1576387 1576388 1576389 1576390 1576391 1576392 1576393 1576394 1576395 [...] (3952052 flits)
Measured flits: (0 flits)
Class 0:
Remaining flits: 1576386 1576387 1576388 1576389 1576390 1576391 1576392 1576393 1576394 1576395 [...] (3919651 flits)
Measured flits: (0 flits)
Class 0:
Remaining flits: 1576386 1576387 1576388 1576389 1576390 1576391 1576392 1576393 1576394 1576395 [...] (3887334 flits)
Measured flits: (0 flits)
Class 0:
Remaining flits: 1576386 1576387 1576388 1576389 1576390 1576391 1576392 1576393 1576394 1576395 [...] (3855637 flits)
Measured flits: (0 flits)
Class 0:
Remaining flits: 1833192 1833193 1833194 1833195 1833196 1833197 1833198 1833199 1833200 1833201 [...] (3822822 flits)
Measured flits: (0 flits)
Class 0:
Remaining flits: 1833192 1833193 1833194 1833195 1833196 1833197 1833198 1833199 1833200 1833201 [...] (3790438 flits)
Measured flits: (0 flits)
Class 0:
Remaining flits: 1833192 1833193 1833194 1833195 1833196 1833197 1833198 1833199 1833200 1833201 [...] (3757987 flits)
Measured flits: (0 flits)
Class 0:
Remaining flits: 1833192 1833193 1833194 1833195 1833196 1833197 1833198 1833199 1833200 1833201 [...] (3724287 flits)
Measured flits: (0 flits)
Class 0:
Remaining flits: 1833192 1833193 1833194 1833195 1833196 1833197 1833198 1833199 1833200 1833201 [...] (3690413 flits)
Measured flits: (0 flits)
Class 0:
Remaining flits: 1833192 1833193 1833194 1833195 1833196 1833197 1833198 1833199 1833200 1833201 [...] (3656107 flits)
Measured flits: (0 flits)
Class 0:
Remaining flits: 1833192 1833193 1833194 1833195 1833196 1833197 1833198 1833199 1833200 1833201 [...] (3621658 flits)
Measured flits: (0 flits)
Class 0:
Remaining flits: 1833192 1833193 1833194 1833195 1833196 1833197 1833198 1833199 1833200 1833201 [...] (3586662 flits)
Measured flits: (0 flits)
Class 0:
Remaining flits: 1833192 1833193 1833194 1833195 1833196 1833197 1833198 1833199 1833200 1833201 [...] (3552103 flits)
Measured flits: (0 flits)
Class 0:
Remaining flits: 1833192 1833193 1833194 1833195 1833196 1833197 1833198 1833199 1833200 1833201 [...] (3518780 flits)
Measured flits: (0 flits)
Class 0:
Remaining flits: 1833192 1833193 1833194 1833195 1833196 1833197 1833198 1833199 1833200 1833201 [...] (3483896 flits)
Measured flits: (0 flits)
Class 0:
Remaining flits: 1833192 1833193 1833194 1833195 1833196 1833197 1833198 1833199 1833200 1833201 [...] (3450078 flits)
Measured flits: (0 flits)
Class 0:
Remaining flits: 1885194 1885195 1885196 1885197 1885198 1885199 1885200 1885201 1885202 1885203 [...] (3417103 flits)
Measured flits: (0 flits)
Class 0:
Remaining flits: 1885194 1885195 1885196 1885197 1885198 1885199 1885200 1885201 1885202 1885203 [...] (3384440 flits)
Measured flits: (0 flits)
Class 0:
Remaining flits: 1885194 1885195 1885196 1885197 1885198 1885199 1885200 1885201 1885202 1885203 [...] (3350594 flits)
Measured flits: (0 flits)
Class 0:
Remaining flits: 1885194 1885195 1885196 1885197 1885198 1885199 1885200 1885201 1885202 1885203 [...] (3316021 flits)
Measured flits: (0 flits)
Class 0:
Remaining flits: 1885194 1885195 1885196 1885197 1885198 1885199 1885200 1885201 1885202 1885203 [...] (3282015 flits)
Measured flits: (0 flits)
Class 0:
Remaining flits: 1885194 1885195 1885196 1885197 1885198 1885199 1885200 1885201 1885202 1885203 [...] (3247952 flits)
Measured flits: (0 flits)
Class 0:
Remaining flits: 1885194 1885195 1885196 1885197 1885198 1885199 1885200 1885201 1885202 1885203 [...] (3215597 flits)
Measured flits: (0 flits)
Class 0:
Remaining flits: 1885194 1885195 1885196 1885197 1885198 1885199 1885200 1885201 1885202 1885203 [...] (3182930 flits)
Measured flits: (0 flits)
Class 0:
Remaining flits: 1885194 1885195 1885196 1885197 1885198 1885199 1885200 1885201 1885202 1885203 [...] (3149212 flits)
Measured flits: (0 flits)
Class 0:
Remaining flits: 1885194 1885195 1885196 1885197 1885198 1885199 1885200 1885201 1885202 1885203 [...] (3115712 flits)
Measured flits: (0 flits)
Class 0:
Remaining flits: 2313522 2313523 2313524 2313525 2313526 2313527 2313528 2313529 2313530 2313531 [...] (3082201 flits)
Measured flits: (0 flits)
Class 0:
Remaining flits: 2313522 2313523 2313524 2313525 2313526 2313527 2313528 2313529 2313530 2313531 [...] (3048911 flits)
Measured flits: (0 flits)
Class 0:
Remaining flits: 2313522 2313523 2313524 2313525 2313526 2313527 2313528 2313529 2313530 2313531 [...] (3016733 flits)
Measured flits: (0 flits)
Class 0:
Remaining flits: 2313522 2313523 2313524 2313525 2313526 2313527 2313528 2313529 2313530 2313531 [...] (2985418 flits)
Measured flits: (0 flits)
Class 0:
Remaining flits: 2313522 2313523 2313524 2313525 2313526 2313527 2313528 2313529 2313530 2313531 [...] (2953488 flits)
Measured flits: (0 flits)
Class 0:
Remaining flits: 2313522 2313523 2313524 2313525 2313526 2313527 2313528 2313529 2313530 2313531 [...] (2922514 flits)
Measured flits: (0 flits)
Class 0:
Remaining flits: 2715354 2715355 2715356 2715357 2715358 2715359 2715360 2715361 2715362 2715363 [...] (2892321 flits)
Measured flits: (0 flits)
Class 0:
Remaining flits: 2715354 2715355 2715356 2715357 2715358 2715359 2715360 2715361 2715362 2715363 [...] (2860749 flits)
Measured flits: (0 flits)
Class 0:
Remaining flits: 2715354 2715355 2715356 2715357 2715358 2715359 2715360 2715361 2715362 2715363 [...] (2828929 flits)
Measured flits: (0 flits)
Class 0:
Remaining flits: 2715354 2715355 2715356 2715357 2715358 2715359 2715360 2715361 2715362 2715363 [...] (2796625 flits)
Measured flits: (0 flits)
Class 0:
Remaining flits: 2715354 2715355 2715356 2715357 2715358 2715359 2715360 2715361 2715362 2715363 [...] (2763972 flits)
Measured flits: (0 flits)
Class 0:
Remaining flits: 2715354 2715355 2715356 2715357 2715358 2715359 2715360 2715361 2715362 2715363 [...] (2731525 flits)
Measured flits: (0 flits)
Class 0:
Remaining flits: 2715354 2715355 2715356 2715357 2715358 2715359 2715360 2715361 2715362 2715363 [...] (2699558 flits)
Measured flits: (0 flits)
Class 0:
Remaining flits: 2715354 2715355 2715356 2715357 2715358 2715359 2715360 2715361 2715362 2715363 [...] (2667225 flits)
Measured flits: (0 flits)
Class 0:
Remaining flits: 2715354 2715355 2715356 2715357 2715358 2715359 2715360 2715361 2715362 2715363 [...] (2634858 flits)
Measured flits: (0 flits)
Class 0:
Remaining flits: 2715354 2715355 2715356 2715357 2715358 2715359 2715360 2715361 2715362 2715363 [...] (2602814 flits)
Measured flits: (0 flits)
Class 0:
Remaining flits: 2715354 2715355 2715356 2715357 2715358 2715359 2715360 2715361 2715362 2715363 [...] (2571415 flits)
Measured flits: (0 flits)
Class 0:
Remaining flits: 2715354 2715355 2715356 2715357 2715358 2715359 2715360 2715361 2715362 2715363 [...] (2539934 flits)
Measured flits: (0 flits)
Class 0:
Remaining flits: 2715354 2715355 2715356 2715357 2715358 2715359 2715360 2715361 2715362 2715363 [...] (2508356 flits)
Measured flits: (0 flits)
Class 0:
Remaining flits: 2715354 2715355 2715356 2715357 2715358 2715359 2715360 2715361 2715362 2715363 [...] (2476758 flits)
Measured flits: (0 flits)
Class 0:
Remaining flits: 2715354 2715355 2715356 2715357 2715358 2715359 2715360 2715361 2715362 2715363 [...] (2445987 flits)
Measured flits: (0 flits)
Class 0:
Remaining flits: 2715354 2715355 2715356 2715357 2715358 2715359 2715360 2715361 2715362 2715363 [...] (2415181 flits)
Measured flits: (0 flits)
Class 0:
Remaining flits: 2715354 2715355 2715356 2715357 2715358 2715359 2715360 2715361 2715362 2715363 [...] (2384786 flits)
Measured flits: (0 flits)
Class 0:
Remaining flits: 3089736 3089737 3089738 3089739 3089740 3089741 3089742 3089743 3089744 3089745 [...] (2353620 flits)
Measured flits: (0 flits)
Class 0:
Remaining flits: 3089736 3089737 3089738 3089739 3089740 3089741 3089742 3089743 3089744 3089745 [...] (2323297 flits)
Measured flits: (0 flits)
Class 0:
Remaining flits: 3089736 3089737 3089738 3089739 3089740 3089741 3089742 3089743 3089744 3089745 [...] (2293037 flits)
Measured flits: (0 flits)
Class 0:
Remaining flits: 3089736 3089737 3089738 3089739 3089740 3089741 3089742 3089743 3089744 3089745 [...] (2261980 flits)
Measured flits: (0 flits)
Class 0:
Remaining flits: 3089736 3089737 3089738 3089739 3089740 3089741 3089742 3089743 3089744 3089745 [...] (2230852 flits)
Measured flits: (0 flits)
Class 0:
Remaining flits: 3089736 3089737 3089738 3089739 3089740 3089741 3089742 3089743 3089744 3089745 [...] (2200965 flits)
Measured flits: (0 flits)
Class 0:
Remaining flits: 3089736 3089737 3089738 3089739 3089740 3089741 3089742 3089743 3089744 3089745 [...] (2170279 flits)
Measured flits: (0 flits)
Class 0:
Remaining flits: 3089736 3089737 3089738 3089739 3089740 3089741 3089742 3089743 3089744 3089745 [...] (2139538 flits)
Measured flits: (0 flits)
Class 0:
Remaining flits: 3089736 3089737 3089738 3089739 3089740 3089741 3089742 3089743 3089744 3089745 [...] (2108890 flits)
Measured flits: (0 flits)
Class 0:
Remaining flits: 3089741 3089742 3089743 3089744 3089745 3089746 3089747 3089748 3089749 3089750 [...] (2078213 flits)
Measured flits: (0 flits)
Class 0:
Remaining flits: 3283056 3283057 3283058 3283059 3283060 3283061 3283062 3283063 3283064 3283065 [...] (2047334 flits)
Measured flits: (0 flits)
Class 0:
Remaining flits: 3283056 3283057 3283058 3283059 3283060 3283061 3283062 3283063 3283064 3283065 [...] (2014895 flits)
Measured flits: (0 flits)
Class 0:
Remaining flits: 3283056 3283057 3283058 3283059 3283060 3283061 3283062 3283063 3283064 3283065 [...] (1982500 flits)
Measured flits: (0 flits)
Class 0:
Remaining flits: 3283056 3283057 3283058 3283059 3283060 3283061 3283062 3283063 3283064 3283065 [...] (1951049 flits)
Measured flits: (0 flits)
Class 0:
Remaining flits: 3283056 3283057 3283058 3283059 3283060 3283061 3283062 3283063 3283064 3283065 [...] (1918659 flits)
Measured flits: (0 flits)
Class 0:
Remaining flits: 3387888 3387889 3387890 3387891 3387892 3387893 3387894 3387895 3387896 3387897 [...] (1886401 flits)
Measured flits: (0 flits)
Class 0:
Remaining flits: 3387888 3387889 3387890 3387891 3387892 3387893 3387894 3387895 3387896 3387897 [...] (1854178 flits)
Measured flits: (0 flits)
Class 0:
Remaining flits: 3387888 3387889 3387890 3387891 3387892 3387893 3387894 3387895 3387896 3387897 [...] (1821589 flits)
Measured flits: (0 flits)
Class 0:
Remaining flits: 3387888 3387889 3387890 3387891 3387892 3387893 3387894 3387895 3387896 3387897 [...] (1788650 flits)
Measured flits: (0 flits)
Class 0:
Remaining flits: 3387888 3387889 3387890 3387891 3387892 3387893 3387894 3387895 3387896 3387897 [...] (1755485 flits)
Measured flits: (0 flits)
Class 0:
Remaining flits: 3387888 3387889 3387890 3387891 3387892 3387893 3387894 3387895 3387896 3387897 [...] (1722981 flits)
Measured flits: (0 flits)
Class 0:
Remaining flits: 3387888 3387889 3387890 3387891 3387892 3387893 3387894 3387895 3387896 3387897 [...] (1691886 flits)
Measured flits: (0 flits)
Class 0:
Remaining flits: 3387888 3387889 3387890 3387891 3387892 3387893 3387894 3387895 3387896 3387897 [...] (1660310 flits)
Measured flits: (0 flits)
Class 0:
Remaining flits: 3387888 3387889 3387890 3387891 3387892 3387893 3387894 3387895 3387896 3387897 [...] (1629378 flits)
Measured flits: (0 flits)
Class 0:
Remaining flits: 3387888 3387889 3387890 3387891 3387892 3387893 3387894 3387895 3387896 3387897 [...] (1598322 flits)
Measured flits: (0 flits)
Class 0:
Remaining flits: 3621510 3621511 3621512 3621513 3621514 3621515 3621516 3621517 3621518 3621519 [...] (1565778 flits)
Measured flits: (0 flits)
Class 0:
Remaining flits: 3621510 3621511 3621512 3621513 3621514 3621515 3621516 3621517 3621518 3621519 [...] (1532855 flits)
Measured flits: (0 flits)
Class 0:
Remaining flits: 3621510 3621511 3621512 3621513 3621514 3621515 3621516 3621517 3621518 3621519 [...] (1501754 flits)
Measured flits: (0 flits)
Class 0:
Remaining flits: 3621510 3621511 3621512 3621513 3621514 3621515 3621516 3621517 3621518 3621519 [...] (1470856 flits)
Measured flits: (0 flits)
Class 0:
Remaining flits: 3621510 3621511 3621512 3621513 3621514 3621515 3621516 3621517 3621518 3621519 [...] (1438962 flits)
Measured flits: (0 flits)
Class 0:
Remaining flits: 3621510 3621511 3621512 3621513 3621514 3621515 3621516 3621517 3621518 3621519 [...] (1406879 flits)
Measured flits: (0 flits)
Class 0:
Remaining flits: 3621510 3621511 3621512 3621513 3621514 3621515 3621516 3621517 3621518 3621519 [...] (1375221 flits)
Measured flits: (0 flits)
Class 0:
Remaining flits: 3621510 3621511 3621512 3621513 3621514 3621515 3621516 3621517 3621518 3621519 [...] (1343837 flits)
Measured flits: (0 flits)
Class 0:
Remaining flits: 3621510 3621511 3621512 3621513 3621514 3621515 3621516 3621517 3621518 3621519 [...] (1312614 flits)
Measured flits: (0 flits)
Class 0:
Remaining flits: 3621510 3621511 3621512 3621513 3621514 3621515 3621516 3621517 3621518 3621519 [...] (1281434 flits)
Measured flits: (0 flits)
Class 0:
Remaining flits: 3621510 3621511 3621512 3621513 3621514 3621515 3621516 3621517 3621518 3621519 [...] (1249304 flits)
Measured flits: (0 flits)
Class 0:
Remaining flits: 3621510 3621511 3621512 3621513 3621514 3621515 3621516 3621517 3621518 3621519 [...] (1217309 flits)
Measured flits: (0 flits)
Class 0:
Remaining flits: 3621510 3621511 3621512 3621513 3621514 3621515 3621516 3621517 3621518 3621519 [...] (1185353 flits)
Measured flits: (0 flits)
Class 0:
Remaining flits: 3621510 3621511 3621512 3621513 3621514 3621515 3621516 3621517 3621518 3621519 [...] (1153264 flits)
Measured flits: (0 flits)
Class 0:
Remaining flits: 3621510 3621511 3621512 3621513 3621514 3621515 3621516 3621517 3621518 3621519 [...] (1121978 flits)
Measured flits: (0 flits)
Class 0:
Remaining flits: 3621510 3621511 3621512 3621513 3621514 3621515 3621516 3621517 3621518 3621519 [...] (1090304 flits)
Measured flits: (0 flits)
Class 0:
Remaining flits: 3621510 3621511 3621512 3621513 3621514 3621515 3621516 3621517 3621518 3621519 [...] (1058686 flits)
Measured flits: (0 flits)
Class 0:
Remaining flits: 3621510 3621511 3621512 3621513 3621514 3621515 3621516 3621517 3621518 3621519 [...] (1026313 flits)
Measured flits: (0 flits)
Class 0:
Remaining flits: 3621527 3627198 3627199 3627200 3627201 3627202 3627203 3627204 3627205 3627206 [...] (994605 flits)
Measured flits: (0 flits)
Class 0:
Remaining flits: 3621527 3627198 3627199 3627200 3627201 3627202 3627203 3627204 3627205 3627206 [...] (963562 flits)
Measured flits: (0 flits)
Class 0:
Remaining flits: 3621527 3627198 3627199 3627200 3627201 3627202 3627203 3627204 3627205 3627206 [...] (931750 flits)
Measured flits: (0 flits)
Class 0:
Remaining flits: 3627198 3627199 3627200 3627201 3627202 3627203 3627204 3627205 3627206 3627207 [...] (900480 flits)
Measured flits: (0 flits)
Class 0:
Remaining flits: 3627198 3627199 3627200 3627201 3627202 3627203 3627204 3627205 3627206 3627207 [...] (868336 flits)
Measured flits: (0 flits)
Class 0:
Remaining flits: 3627198 3627199 3627200 3627201 3627202 3627203 3627204 3627205 3627206 3627207 [...] (835671 flits)
Measured flits: (0 flits)
Class 0:
Remaining flits: 3627198 3627199 3627200 3627201 3627202 3627203 3627204 3627205 3627206 3627207 [...] (803252 flits)
Measured flits: (0 flits)
Class 0:
Remaining flits: 3835944 3835945 3835946 3835947 3835948 3835949 3835950 3835951 3835952 3835953 [...] (771394 flits)
Measured flits: (0 flits)
Class 0:
Remaining flits: 3835944 3835945 3835946 3835947 3835948 3835949 3835950 3835951 3835952 3835953 [...] (738866 flits)
Measured flits: (0 flits)
Class 0:
Remaining flits: 3835944 3835945 3835946 3835947 3835948 3835949 3835950 3835951 3835952 3835953 [...] (706475 flits)
Measured flits: (0 flits)
Class 0:
Remaining flits: 3835944 3835945 3835946 3835947 3835948 3835949 3835950 3835951 3835952 3835953 [...] (673357 flits)
Measured flits: (0 flits)
Class 0:
Remaining flits: 3835944 3835945 3835946 3835947 3835948 3835949 3835950 3835951 3835952 3835953 [...] (639798 flits)
Measured flits: (0 flits)
Class 0:
Remaining flits: 3835944 3835945 3835946 3835947 3835948 3835949 3835950 3835951 3835952 3835953 [...] (607550 flits)
Measured flits: (0 flits)
Class 0:
Remaining flits: 3835944 3835945 3835946 3835947 3835948 3835949 3835950 3835951 3835952 3835953 [...] (574188 flits)
Measured flits: (0 flits)
Class 0:
Remaining flits: 3835944 3835945 3835946 3835947 3835948 3835949 3835950 3835951 3835952 3835953 [...] (541390 flits)
Measured flits: (0 flits)
Class 0:
Remaining flits: 3835944 3835945 3835946 3835947 3835948 3835949 3835950 3835951 3835952 3835953 [...] (508071 flits)
Measured flits: (0 flits)
Class 0:
Remaining flits: 3835944 3835945 3835946 3835947 3835948 3835949 3835950 3835951 3835952 3835953 [...] (475331 flits)
Measured flits: (0 flits)
Class 0:
Remaining flits: 3835944 3835945 3835946 3835947 3835948 3835949 3835950 3835951 3835952 3835953 [...] (442287 flits)
Measured flits: (0 flits)
Class 0:
Remaining flits: 3835944 3835945 3835946 3835947 3835948 3835949 3835950 3835951 3835952 3835953 [...] (409106 flits)
Measured flits: (0 flits)
Class 0:
Remaining flits: 4187682 4187683 4187684 4187685 4187686 4187687 4187688 4187689 4187690 4187691 [...] (376236 flits)
Measured flits: (0 flits)
Class 0:
Remaining flits: 4187687 4187688 4187689 4187690 4187691 4187692 4187693 4187694 4187695 4187696 [...] (343588 flits)
Measured flits: (0 flits)
Class 0:
Remaining flits: 4425246 4425247 4425248 4425249 4425250 4425251 4425252 4425253 4425254 4425255 [...] (311081 flits)
Measured flits: (0 flits)
Class 0:
Remaining flits: 4425246 4425247 4425248 4425249 4425250 4425251 4425252 4425253 4425254 4425255 [...] (279671 flits)
Measured flits: (0 flits)
Class 0:
Remaining flits: 4425249 4425250 4425251 4425252 4425253 4425254 4425255 4425256 4425257 4425258 [...] (249924 flits)
Measured flits: (0 flits)
Class 0:
Remaining flits: 4588758 4588759 4588760 4588761 4588762 4588763 4588764 4588765 4588766 4588767 [...] (220838 flits)
Measured flits: (0 flits)
Class 0:
Remaining flits: 4588758 4588759 4588760 4588761 4588762 4588763 4588764 4588765 4588766 4588767 [...] (193367 flits)
Measured flits: (0 flits)
Class 0:
Remaining flits: 4588758 4588759 4588760 4588761 4588762 4588763 4588764 4588765 4588766 4588767 [...] (168219 flits)
Measured flits: (0 flits)
Class 0:
Remaining flits: 4730814 4730815 4730816 4730817 4730818 4730819 4730820 4730821 4730822 4730823 [...] (145890 flits)
Measured flits: (0 flits)
Class 0:
Remaining flits: 4730814 4730815 4730816 4730817 4730818 4730819 4730820 4730821 4730822 4730823 [...] (125170 flits)
Measured flits: (0 flits)
Class 0:
Remaining flits: 4730814 4730815 4730816 4730817 4730818 4730819 4730820 4730821 4730822 4730823 [...] (106352 flits)
Measured flits: (0 flits)
Class 0:
Remaining flits: 4730814 4730815 4730816 4730817 4730818 4730819 4730820 4730821 4730822 4730823 [...] (89589 flits)
Measured flits: (0 flits)
Class 0:
Remaining flits: 4730814 4730815 4730816 4730817 4730818 4730819 4730820 4730821 4730822 4730823 [...] (74749 flits)
Measured flits: (0 flits)
Class 0:
Remaining flits: 4730814 4730815 4730816 4730817 4730818 4730819 4730820 4730821 4730822 4730823 [...] (62162 flits)
Measured flits: (0 flits)
Class 0:
Remaining flits: 4749354 4749355 4749356 4749357 4749358 4749359 4749360 4749361 4749362 4749363 [...] (51873 flits)
Measured flits: (0 flits)
Class 0:
Remaining flits: 4749354 4749355 4749356 4749357 4749358 4749359 4749360 4749361 4749362 4749363 [...] (42293 flits)
Measured flits: (0 flits)
Class 0:
Remaining flits: 4749364 4749365 4749366 4749367 4749368 4749369 4749370 4749371 4757850 4757851 [...] (34325 flits)
Measured flits: (0 flits)
Class 0:
Remaining flits: 4749364 4749365 4749366 4749367 4749368 4749369 4749370 4749371 4757850 4757851 [...] (27191 flits)
Measured flits: (0 flits)
Class 0:
Remaining flits: 4757856 4757857 4757858 4757859 4757860 4757861 4757862 4757863 4757864 4757865 [...] (21029 flits)
Measured flits: (0 flits)
Class 0:
Remaining flits: 5124546 5124547 5124548 5124549 5124550 5124551 5124552 5124553 5124554 5124555 [...] (14593 flits)
Measured flits: (0 flits)
Class 0:
Remaining flits: 5124547 5124548 5124549 5124550 5124551 5124552 5124553 5124554 5124555 5124556 [...] (10053 flits)
Measured flits: (0 flits)
Class 0:
Remaining flits: 5354496 5354497 5354498 5354499 5354500 5354501 5354502 5354503 5354504 5354505 [...] (7346 flits)
Measured flits: (0 flits)
Class 0:
Remaining flits: 5555070 5555071 5555072 5555073 5555074 5555075 5555076 5555077 5555078 5555079 [...] (4662 flits)
Measured flits: (0 flits)
Class 0:
Remaining flits: 5555070 5555071 5555072 5555073 5555074 5555075 5555076 5555077 5555078 5555079 [...] (2372 flits)
Measured flits: (0 flits)
Class 0:
Remaining flits: 6589505 6589506 6589507 6589508 6589509 6589510 6589511 6767308 6767309 6767310 [...] (392 flits)
Measured flits: (0 flits)
Time taken is 282115 cycles
====== Overall Traffic Statistics ======
====== Traffic class 0 ======
Packet latency average = 15285.4 (1 samples)
	minimum = 23 (1 samples)
	maximum = 110848 (1 samples)
Network latency average = 15270.2 (1 samples)
	minimum = 23 (1 samples)
	maximum = 110836 (1 samples)
Flit latency average = 82523 (1 samples)
	minimum = 6 (1 samples)
	maximum = 233570 (1 samples)
Fragmentation average = 298.83 (1 samples)
	minimum = 0 (1 samples)
	maximum = 12659 (1 samples)
Injected packet rate average = 0.0357225 (1 samples)
	minimum = 0.0301429 (1 samples)
	maximum = 0.0408571 (1 samples)
Accepted packet rate average = 0.0141116 (1 samples)
	minimum = 0.01 (1 samples)
	maximum = 0.0174286 (1 samples)
Injected flit rate average = 0.642952 (1 samples)
	minimum = 0.542714 (1 samples)
	maximum = 0.735286 (1 samples)
Accepted flit rate average = 0.253156 (1 samples)
	minimum = 0.180714 (1 samples)
	maximum = 0.314143 (1 samples)
Injected packet size average = 17.9985 (1 samples)
Accepted packet size average = 17.9395 (1 samples)
Hops average = 5.06929 (1 samples)
Total run time 574.751
