BEGIN Configuration File: networks/mezzanine_config
topology = mezzanine;
n = 12;

routing_function = multipath;
internal_speedup = 2.0;
latency_thres = 100000.0;
use_read_write = 0;

sample_period = 1000;
injection_rate = 0.5;
packet_size = 18;

noq = 1;
routing_delay = 0;
vc_alloc_delay = 1;
sw_alloc_delay = 1;
st_final_delay = 1;
vc_allocator = islip; 
sw_allocator = islip;
alloc_iters  = 4;
num_vcs     = 12;
buffer_policy = private; // private or shared
buf_size = -1; // -1 for buffer_policy = private;
vc_buf_size = 4096; // size of each VOQ with buffer_policy = private
output_buffer_size = -1;


traffic = uniform;

//mezW = 0.0;
//mezPredefinedPatternType = shift-inter; //shift-qfdb

END Configuration File: networks/mezzanine_config
OVERRIDE Parameter: injection_rate=0.051107
OVERRIDE Parameter: routing_function=multipath
OVERRIDE Parameter: num_vcs=64
OVERRIDE Parameter: vc_buf_size=18
OVERRIDE Parameter: internal_speedup=1.0
OVERRIDE Parameter: injection_process=bernoulli
OVERRIDE Parameter: sim_type=latency
OVERRIDE Parameter: burst_alpha=0.0038461538
OVERRIDE Parameter: burst_beta=0.1
network: network_0
========================== Routing table  =====================
Number of Subnets: 1
Class 0:
Packet latency average = 405.057
	minimum = 23
	maximum = 964
Network latency average = 365.352
	minimum = 23
	maximum = 926
Slowest packet = 458
Flit latency average = 269.97
	minimum = 6
	maximum = 956
Slowest flit = 1532
Fragmentation average = 257.517
	minimum = 0
	maximum = 717
Injected packet rate average = 0.0309531
	minimum = 0.016 (at node 136)
	maximum = 0.042 (at node 131)
Accepted packet rate average = 0.00997396
	minimum = 0.003 (at node 81)
	maximum = 0.018 (at node 48)
Injected flit rate average = 0.551786
	minimum = 0.284 (at node 136)
	maximum = 0.747 (at node 131)
Accepted flit rate average= 0.225953
	minimum = 0.079 (at node 81)
	maximum = 0.39 (at node 48)
Injected packet length average = 17.8265
Accepted packet length average = 22.6543
Total in-flight flits = 63645 (0 measured)
latency change    = 1
throughput change = 1
Class 0:
Packet latency average = 794.109
	minimum = 23
	maximum = 1896
Network latency average = 667.738
	minimum = 23
	maximum = 1865
Slowest packet = 347
Flit latency average = 535.841
	minimum = 6
	maximum = 1948
Slowest flit = 4524
Fragmentation average = 318.452
	minimum = 0
	maximum = 1480
Injected packet rate average = 0.0220599
	minimum = 0.0095 (at node 116)
	maximum = 0.0295 (at node 137)
Accepted packet rate average = 0.011138
	minimum = 0.0065 (at node 62)
	maximum = 0.017 (at node 48)
Injected flit rate average = 0.393372
	minimum = 0.171 (at node 116)
	maximum = 0.53 (at node 137)
Accepted flit rate average= 0.223604
	minimum = 0.1345 (at node 62)
	maximum = 0.3255 (at node 48)
Injected packet length average = 17.832
Accepted packet length average = 20.0758
Total in-flight flits = 66794 (0 measured)
latency change    = 0.489923
throughput change = 0.010505
Class 0:
Packet latency average = 1805.93
	minimum = 507
	maximum = 2923
Network latency average = 1263.06
	minimum = 27
	maximum = 2923
Slowest packet = 474
Flit latency average = 1135.29
	minimum = 6
	maximum = 2906
Slowest flit = 8549
Fragmentation average = 335.844
	minimum = 2
	maximum = 2418
Injected packet rate average = 0.0090625
	minimum = 0 (at node 2)
	maximum = 0.031 (at node 69)
Accepted packet rate average = 0.0123542
	minimum = 0.004 (at node 96)
	maximum = 0.024 (at node 16)
Injected flit rate average = 0.162385
	minimum = 0 (at node 2)
	maximum = 0.552 (at node 69)
Accepted flit rate average= 0.2175
	minimum = 0.058 (at node 153)
	maximum = 0.396 (at node 16)
Injected packet length average = 17.9184
Accepted packet length average = 17.6054
Total in-flight flits = 56318 (0 measured)
latency change    = 0.560277
throughput change = 0.0280651
Warmed up ...Time used is 3000 cycles
Class 0:
Packet latency average = 2425.78
	minimum = 1410
	maximum = 3333
Network latency average = 305.41
	minimum = 24
	maximum = 899
Slowest packet = 10219
Flit latency average = 1144.85
	minimum = 6
	maximum = 3882
Slowest flit = 15271
Fragmentation average = 142.345
	minimum = 1
	maximum = 603
Injected packet rate average = 0.0105729
	minimum = 0 (at node 3)
	maximum = 0.041 (at node 1)
Accepted packet rate average = 0.0119583
	minimum = 0.003 (at node 117)
	maximum = 0.026 (at node 129)
Injected flit rate average = 0.190187
	minimum = 0 (at node 3)
	maximum = 0.741 (at node 83)
Accepted flit rate average= 0.209891
	minimum = 0.074 (at node 180)
	maximum = 0.401 (at node 129)
Injected packet length average = 17.9882
Accepted packet length average = 17.5518
Total in-flight flits = 52613 (23309 measured)
latency change    = 0.255524
throughput change = 0.036254
Class 0:
Packet latency average = 2938.62
	minimum = 1410
	maximum = 4524
Network latency average = 521.618
	minimum = 24
	maximum = 1836
Slowest packet = 10219
Flit latency average = 1182.55
	minimum = 6
	maximum = 4869
Slowest flit = 14793
Fragmentation average = 179.031
	minimum = 1
	maximum = 1520
Injected packet rate average = 0.0102813
	minimum = 0 (at node 3)
	maximum = 0.0335 (at node 83)
Accepted packet rate average = 0.0117396
	minimum = 0.005 (at node 117)
	maximum = 0.0185 (at node 129)
Injected flit rate average = 0.185276
	minimum = 0 (at node 3)
	maximum = 0.5995 (at node 83)
Accepted flit rate average= 0.208292
	minimum = 0.099 (at node 117)
	maximum = 0.329 (at node 129)
Injected packet length average = 18.0208
Accepted packet length average = 17.7427
Total in-flight flits = 47398 (30938 measured)
latency change    = 0.174517
throughput change = 0.00767654
Class 0:
Packet latency average = 3414.63
	minimum = 1410
	maximum = 5324
Network latency average = 641.475
	minimum = 24
	maximum = 2916
Slowest packet = 10219
Flit latency average = 1152.34
	minimum = 6
	maximum = 5799
Slowest flit = 8369
Fragmentation average = 203.845
	minimum = 0
	maximum = 2267
Injected packet rate average = 0.0110104
	minimum = 0 (at node 3)
	maximum = 0.0313333 (at node 79)
Accepted packet rate average = 0.0116701
	minimum = 0.00733333 (at node 64)
	maximum = 0.018 (at node 129)
Injected flit rate average = 0.198286
	minimum = 0 (at node 3)
	maximum = 0.566 (at node 79)
Accepted flit rate average= 0.208281
	minimum = 0.121667 (at node 64)
	maximum = 0.307333 (at node 129)
Injected packet length average = 18.009
Accepted packet length average = 17.8474
Total in-flight flits = 50558 (39928 measured)
latency change    = 0.139404
throughput change = 5.00125e-05
Class 0:
Packet latency average = 3864.87
	minimum = 1410
	maximum = 6178
Network latency average = 733.309
	minimum = 24
	maximum = 3791
Slowest packet = 10219
Flit latency average = 1154.62
	minimum = 6
	maximum = 6718
Slowest flit = 34595
Fragmentation average = 218.83
	minimum = 0
	maximum = 3183
Injected packet rate average = 0.0111914
	minimum = 0 (at node 3)
	maximum = 0.029 (at node 163)
Accepted packet rate average = 0.0116406
	minimum = 0.00725 (at node 64)
	maximum = 0.01625 (at node 129)
Injected flit rate average = 0.201466
	minimum = 0 (at node 19)
	maximum = 0.52225 (at node 163)
Accepted flit rate average= 0.207832
	minimum = 0.12175 (at node 64)
	maximum = 0.293 (at node 165)
Injected packet length average = 18.0019
Accepted packet length average = 17.854
Total in-flight flits = 51521 (44693 measured)
latency change    = 0.116495
throughput change = 0.00216145
Class 0:
Packet latency average = 4305.18
	minimum = 1410
	maximum = 7292
Network latency average = 817.068
	minimum = 24
	maximum = 4881
Slowest packet = 10219
Flit latency average = 1154.63
	minimum = 6
	maximum = 7855
Slowest flit = 17437
Fragmentation average = 231.687
	minimum = 0
	maximum = 3183
Injected packet rate average = 0.0112594
	minimum = 0 (at node 19)
	maximum = 0.0276 (at node 10)
Accepted packet rate average = 0.0116115
	minimum = 0.0072 (at node 64)
	maximum = 0.0152 (at node 37)
Injected flit rate average = 0.20278
	minimum = 0 (at node 19)
	maximum = 0.4984 (at node 10)
Accepted flit rate average= 0.207476
	minimum = 0.1298 (at node 64)
	maximum = 0.266 (at node 123)
Injected packet length average = 18.0099
Accepted packet length average = 17.8682
Total in-flight flits = 51739 (46831 measured)
latency change    = 0.102275
throughput change = 0.00171581
Class 0:
Packet latency average = 4730.71
	minimum = 1410
	maximum = 8402
Network latency average = 877.881
	minimum = 24
	maximum = 5814
Slowest packet = 10219
Flit latency average = 1155.89
	minimum = 6
	maximum = 8645
Slowest flit = 24101
Fragmentation average = 238.84
	minimum = 0
	maximum = 5320
Injected packet rate average = 0.011467
	minimum = 0 (at node 19)
	maximum = 0.0301667 (at node 10)
Accepted packet rate average = 0.0116198
	minimum = 0.00816667 (at node 64)
	maximum = 0.0148333 (at node 70)
Injected flit rate average = 0.206512
	minimum = 0 (at node 19)
	maximum = 0.544667 (at node 10)
Accepted flit rate average= 0.207757
	minimum = 0.142833 (at node 64)
	maximum = 0.272333 (at node 70)
Injected packet length average = 18.0092
Accepted packet length average = 17.8796
Total in-flight flits = 54906 (51471 measured)
latency change    = 0.0899494
throughput change = 0.00135207
Class 0:
Packet latency average = 5125.74
	minimum = 1410
	maximum = 9314
Network latency average = 934.824
	minimum = 24
	maximum = 6506
Slowest packet = 10219
Flit latency average = 1169.95
	minimum = 6
	maximum = 9582
Slowest flit = 54800
Fragmentation average = 243.776
	minimum = 0
	maximum = 5332
Injected packet rate average = 0.0114382
	minimum = 0 (at node 19)
	maximum = 0.0311429 (at node 10)
Accepted packet rate average = 0.0115603
	minimum = 0.00842857 (at node 126)
	maximum = 0.0144286 (at node 70)
Injected flit rate average = 0.20608
	minimum = 0 (at node 19)
	maximum = 0.560857 (at node 10)
Accepted flit rate average= 0.207334
	minimum = 0.147714 (at node 126)
	maximum = 0.258429 (at node 70)
Injected packet length average = 18.0168
Accepted packet length average = 17.9351
Total in-flight flits = 54555 (52421 measured)
latency change    = 0.077069
throughput change = 0.00203954
Draining all recorded packets ...
Class 0:
Remaining flits: 23444 23445 23446 23447 23448 23449 23450 23451 23452 23453 [...] (55450 flits)
Measured flits: 185778 185779 185780 185781 185782 185783 185784 185785 185786 185787 [...] (53914 flits)
Class 0:
Remaining flits: 23444 23445 23446 23447 23448 23449 23450 23451 23452 23453 [...] (56731 flits)
Measured flits: 185778 185779 185780 185781 185782 185783 185784 185785 185786 185787 [...] (55727 flits)
Class 0:
Remaining flits: 41055 41056 41057 45756 45757 45758 45759 45760 45761 45762 [...] (59229 flits)
Measured flits: 185778 185779 185780 185781 185782 185783 185784 185785 185786 185787 [...] (58540 flits)
Class 0:
Remaining flits: 45756 45757 45758 45759 45760 45761 45762 45763 45764 45765 [...] (57828 flits)
Measured flits: 185778 185779 185780 185781 185782 185783 185784 185785 185786 185787 [...] (57271 flits)
Class 0:
Remaining flits: 45756 45757 45758 45759 45760 45761 45762 45763 45764 45765 [...] (58125 flits)
Measured flits: 185778 185779 185780 185781 185782 185783 185784 185785 185786 185787 [...] (57679 flits)
Class 0:
Remaining flits: 45756 45757 45758 45759 45760 45761 45762 45763 45764 45765 [...] (58407 flits)
Measured flits: 185778 185779 185780 185781 185782 185783 185784 185785 185786 185787 [...] (58000 flits)
Class 0:
Remaining flits: 45756 45757 45758 45759 45760 45761 45762 45763 45764 45765 [...] (59972 flits)
Measured flits: 187326 187327 187328 187329 187330 187331 187332 187333 187334 187335 [...] (59638 flits)
Class 0:
Remaining flits: 81440 81441 81442 81443 81444 81445 81446 81447 81448 81449 [...] (58654 flits)
Measured flits: 187326 187327 187328 187329 187330 187331 187332 187333 187334 187335 [...] (58436 flits)
Class 0:
Remaining flits: 81440 81441 81442 81443 81444 81445 81446 81447 81448 81449 [...] (60776 flits)
Measured flits: 187326 187327 187328 187329 187330 187331 187332 187333 187334 187335 [...] (60615 flits)
Class 0:
Remaining flits: 81440 81441 81442 81443 81444 81445 81446 81447 81448 81449 [...] (59989 flits)
Measured flits: 187326 187327 187328 187329 187330 187331 187332 187333 187334 187335 [...] (59873 flits)
Class 0:
Remaining flits: 81440 81441 81442 81443 81444 81445 81446 81447 81448 81449 [...] (60785 flits)
Measured flits: 187326 187327 187328 187329 187330 187331 187332 187333 187334 187335 [...] (60696 flits)
Class 0:
Remaining flits: 81440 81441 81442 81443 81444 81445 81446 81447 81448 81449 [...] (61284 flits)
Measured flits: 187326 187327 187328 187329 187330 187331 187332 187333 187334 187335 [...] (61252 flits)
Class 0:
Remaining flits: 81444 81445 81446 81447 81448 81449 187326 187327 187328 187329 [...] (60879 flits)
Measured flits: 187326 187327 187328 187329 187330 187331 187332 187333 187334 187335 [...] (60873 flits)
Class 0:
Remaining flits: 197946 197947 197948 197949 197950 197951 197952 197953 197954 197955 [...] (63134 flits)
Measured flits: 197946 197947 197948 197949 197950 197951 197952 197953 197954 197955 [...] (63134 flits)
Class 0:
Remaining flits: 197946 197947 197948 197949 197950 197951 197952 197953 197954 197955 [...] (62126 flits)
Measured flits: 197946 197947 197948 197949 197950 197951 197952 197953 197954 197955 [...] (62000 flits)
Class 0:
Remaining flits: 197946 197947 197948 197949 197950 197951 197952 197953 197954 197955 [...] (64215 flits)
Measured flits: 197946 197947 197948 197949 197950 197951 197952 197953 197954 197955 [...] (64161 flits)
Class 0:
Remaining flits: 197946 197947 197948 197949 197950 197951 197952 197953 197954 197955 [...] (65462 flits)
Measured flits: 197946 197947 197948 197949 197950 197951 197952 197953 197954 197955 [...] (65408 flits)
Class 0:
Remaining flits: 197946 197947 197948 197949 197950 197951 197952 197953 197954 197955 [...] (65103 flits)
Measured flits: 197946 197947 197948 197949 197950 197951 197952 197953 197954 197955 [...] (64632 flits)
Class 0:
Remaining flits: 197946 197947 197948 197949 197950 197951 197952 197953 197954 197955 [...] (62006 flits)
Measured flits: 197946 197947 197948 197949 197950 197951 197952 197953 197954 197955 [...] (61638 flits)
Class 0:
Remaining flits: 197947 197948 197949 197950 197951 197952 197953 197954 197955 197956 [...] (62775 flits)
Measured flits: 197947 197948 197949 197950 197951 197952 197953 197954 197955 197956 [...] (62463 flits)
Class 0:
Remaining flits: 345955 345956 345957 345958 345959 349611 349612 349613 379134 379135 [...] (64200 flits)
Measured flits: 345955 345956 345957 345958 345959 349611 349612 349613 379134 379135 [...] (62727 flits)
Class 0:
Remaining flits: 379134 379135 379136 379137 379138 379139 379140 379141 379142 379143 [...] (62727 flits)
Measured flits: 379134 379135 379136 379137 379138 379139 379140 379141 379142 379143 [...] (60343 flits)
Class 0:
Remaining flits: 384228 384229 384230 384231 384232 384233 384234 384235 384236 384237 [...] (64333 flits)
Measured flits: 384228 384229 384230 384231 384232 384233 384234 384235 384236 384237 [...] (60300 flits)
Class 0:
Remaining flits: 384228 384229 384230 384231 384232 384233 384234 384235 384236 384237 [...] (65873 flits)
Measured flits: 384228 384229 384230 384231 384232 384233 384234 384235 384236 384237 [...] (60496 flits)
Class 0:
Remaining flits: 413226 413227 413228 413229 413230 413231 413232 413233 413234 413235 [...] (64799 flits)
Measured flits: 413226 413227 413228 413229 413230 413231 413232 413233 413234 413235 [...] (58611 flits)
Class 0:
Remaining flits: 413226 413227 413228 413229 413230 413231 413232 413233 413234 413235 [...] (66248 flits)
Measured flits: 413226 413227 413228 413229 413230 413231 413232 413233 413234 413235 [...] (59258 flits)
Class 0:
Remaining flits: 413226 413227 413228 413229 413230 413231 413232 413233 413234 413235 [...] (65100 flits)
Measured flits: 413226 413227 413228 413229 413230 413231 413232 413233 413234 413235 [...] (57227 flits)
Class 0:
Remaining flits: 497016 497017 497018 497019 497020 497021 497022 497023 497024 497025 [...] (65285 flits)
Measured flits: 497016 497017 497018 497019 497020 497021 497022 497023 497024 497025 [...] (56107 flits)
Class 0:
Remaining flits: 497016 497017 497018 497019 497020 497021 497022 497023 497024 497025 [...] (64466 flits)
Measured flits: 497016 497017 497018 497019 497020 497021 497022 497023 497024 497025 [...] (52896 flits)
Class 0:
Remaining flits: 601308 601309 601310 601311 601312 601313 601314 601315 601316 601317 [...] (65091 flits)
Measured flits: 601308 601309 601310 601311 601312 601313 601314 601315 601316 601317 [...] (51498 flits)
Class 0:
Remaining flits: 601320 601321 601322 601323 601324 601325 609984 609985 609986 609987 [...] (63787 flits)
Measured flits: 601320 601321 601322 601323 601324 601325 609984 609985 609986 609987 [...] (48396 flits)
Class 0:
Remaining flits: 601320 601321 601322 601323 601324 601325 664182 664183 664184 664185 [...] (64392 flits)
Measured flits: 601320 601321 601322 601323 601324 601325 664182 664183 664184 664185 [...] (46452 flits)
Class 0:
Remaining flits: 664182 664183 664184 664185 664186 664187 664188 664189 664190 664191 [...] (63369 flits)
Measured flits: 664182 664183 664184 664185 664186 664187 664188 664189 664190 664191 [...] (43055 flits)
Class 0:
Remaining flits: 664187 664188 664189 664190 664191 664192 664193 664194 664195 664196 [...] (60380 flits)
Measured flits: 664187 664188 664189 664190 664191 664192 664193 664194 664195 664196 [...] (38935 flits)
Class 0:
Remaining flits: 752814 752815 752816 752817 752818 752819 752820 752821 752822 752823 [...] (61021 flits)
Measured flits: 752814 752815 752816 752817 752818 752819 752820 752821 752822 752823 [...] (36935 flits)
Class 0:
Remaining flits: 752814 752815 752816 752817 752818 752819 752820 752821 752822 752823 [...] (59890 flits)
Measured flits: 752814 752815 752816 752817 752818 752819 752820 752821 752822 752823 [...] (33684 flits)
Class 0:
Remaining flits: 752821 752822 752823 752824 752825 752826 752827 752828 752829 752830 [...] (60333 flits)
Measured flits: 752821 752822 752823 752824 752825 752826 752827 752828 752829 752830 [...] (31539 flits)
Class 0:
Remaining flits: 802368 802369 802370 802371 802372 802373 802374 802375 802376 802377 [...] (60216 flits)
Measured flits: 802368 802369 802370 802371 802372 802373 802374 802375 802376 802377 [...] (28197 flits)
Class 0:
Remaining flits: 802368 802369 802370 802371 802372 802373 802374 802375 802376 802377 [...] (58951 flits)
Measured flits: 802368 802369 802370 802371 802372 802373 802374 802375 802376 802377 [...] (26506 flits)
Class 0:
Remaining flits: 802368 802369 802370 802371 802372 802373 802374 802375 802376 802377 [...] (60308 flits)
Measured flits: 802368 802369 802370 802371 802372 802373 802374 802375 802376 802377 [...] (25321 flits)
Class 0:
Remaining flits: 802368 802369 802370 802371 802372 802373 802374 802375 802376 802377 [...] (60198 flits)
Measured flits: 802368 802369 802370 802371 802372 802373 802374 802375 802376 802377 [...] (23995 flits)
Class 0:
Remaining flits: 802368 802369 802370 802371 802372 802373 802374 802375 802376 802377 [...] (61258 flits)
Measured flits: 802368 802369 802370 802371 802372 802373 802374 802375 802376 802377 [...] (22413 flits)
Class 0:
Remaining flits: 802368 802369 802370 802371 802372 802373 802374 802375 802376 802377 [...] (60937 flits)
Measured flits: 802368 802369 802370 802371 802372 802373 802374 802375 802376 802377 [...] (21133 flits)
Class 0:
Remaining flits: 802368 802369 802370 802371 802372 802373 802374 802375 802376 802377 [...] (60963 flits)
Measured flits: 802368 802369 802370 802371 802372 802373 802374 802375 802376 802377 [...] (19908 flits)
Class 0:
Remaining flits: 802369 802370 802371 802372 802373 802374 802375 802376 802377 802378 [...] (61654 flits)
Measured flits: 802369 802370 802371 802372 802373 802374 802375 802376 802377 802378 [...] (18620 flits)
Class 0:
Remaining flits: 802369 802370 802371 802372 802373 802374 802375 802376 802377 802378 [...] (60482 flits)
Measured flits: 802369 802370 802371 802372 802373 802374 802375 802376 802377 802378 [...] (17330 flits)
Class 0:
Remaining flits: 888588 888589 888590 888591 888592 888593 888594 888595 888596 888597 [...] (58822 flits)
Measured flits: 888588 888589 888590 888591 888592 888593 888594 888595 888596 888597 [...] (16214 flits)
Class 0:
Remaining flits: 888588 888589 888590 888591 888592 888593 888594 888595 888596 888597 [...] (58240 flits)
Measured flits: 888588 888589 888590 888591 888592 888593 888594 888595 888596 888597 [...] (14977 flits)
Class 0:
Remaining flits: 888596 888597 888598 888599 888600 888601 888602 888603 888604 888605 [...] (60867 flits)
Measured flits: 888596 888597 888598 888599 888600 888601 888602 888603 888604 888605 [...] (13775 flits)
Class 0:
Remaining flits: 989406 989407 989408 989409 989410 989411 989412 989413 989414 989415 [...] (61874 flits)
Measured flits: 989406 989407 989408 989409 989410 989411 989412 989413 989414 989415 [...] (13365 flits)
Class 0:
Remaining flits: 989409 989410 989411 989412 989413 989414 989415 989416 989417 989418 [...] (61550 flits)
Measured flits: 989409 989410 989411 989412 989413 989414 989415 989416 989417 989418 [...] (12545 flits)
Class 0:
Remaining flits: 989409 989410 989411 989412 989413 989414 989415 989416 989417 989418 [...] (59967 flits)
Measured flits: 989409 989410 989411 989412 989413 989414 989415 989416 989417 989418 [...] (11536 flits)
Class 0:
Remaining flits: 989409 989410 989411 989412 989413 989414 989415 989416 989417 989418 [...] (57317 flits)
Measured flits: 989409 989410 989411 989412 989413 989414 989415 989416 989417 989418 [...] (10620 flits)
Class 0:
Remaining flits: 989409 989410 989411 989412 989413 989414 989415 989416 989417 989418 [...] (59898 flits)
Measured flits: 989409 989410 989411 989412 989413 989414 989415 989416 989417 989418 [...] (10426 flits)
Class 0:
Remaining flits: 989409 989410 989411 989412 989413 989414 989415 989416 989417 989418 [...] (61670 flits)
Measured flits: 989409 989410 989411 989412 989413 989414 989415 989416 989417 989418 [...] (10100 flits)
Class 0:
Remaining flits: 989409 989410 989411 989412 989413 989414 989415 989416 989417 989418 [...] (61123 flits)
Measured flits: 989409 989410 989411 989412 989413 989414 989415 989416 989417 989418 [...] (9211 flits)
Class 0:
Remaining flits: 989409 989410 989411 989412 989413 989414 989415 989416 989417 989418 [...] (59401 flits)
Measured flits: 989409 989410 989411 989412 989413 989414 989415 989416 989417 989418 [...] (8355 flits)
Class 0:
Remaining flits: 989423 1060236 1060237 1060238 1060239 1060240 1060241 1060242 1060243 1060244 [...] (59977 flits)
Measured flits: 989423 1060236 1060237 1060238 1060239 1060240 1060241 1060242 1060243 1060244 [...] (8043 flits)
Class 0:
Remaining flits: 1060236 1060237 1060238 1060239 1060240 1060241 1060242 1060243 1060244 1060245 [...] (61139 flits)
Measured flits: 1060236 1060237 1060238 1060239 1060240 1060241 1060242 1060243 1060244 1060245 [...] (7996 flits)
Class 0:
Remaining flits: 1060236 1060237 1060238 1060239 1060240 1060241 1060242 1060243 1060244 1060245 [...] (60478 flits)
Measured flits: 1060236 1060237 1060238 1060239 1060240 1060241 1060242 1060243 1060244 1060245 [...] (8445 flits)
Class 0:
Remaining flits: 1060236 1060237 1060238 1060239 1060240 1060241 1060242 1060243 1060244 1060245 [...] (60373 flits)
Measured flits: 1060236 1060237 1060238 1060239 1060240 1060241 1060242 1060243 1060244 1060245 [...] (8091 flits)
Class 0:
Remaining flits: 1060236 1060237 1060238 1060239 1060240 1060241 1060242 1060243 1060244 1060245 [...] (61053 flits)
Measured flits: 1060236 1060237 1060238 1060239 1060240 1060241 1060242 1060243 1060244 1060245 [...] (7704 flits)
Class 0:
Remaining flits: 1060253 1321038 1321039 1321040 1321041 1321042 1321043 1321044 1321045 1321046 [...] (60618 flits)
Measured flits: 1060253 1321038 1321039 1321040 1321041 1321042 1321043 1321044 1321045 1321046 [...] (6897 flits)
Class 0:
Remaining flits: 1321038 1321039 1321040 1321041 1321042 1321043 1321044 1321045 1321046 1321047 [...] (60068 flits)
Measured flits: 1321038 1321039 1321040 1321041 1321042 1321043 1321044 1321045 1321046 1321047 [...] (6048 flits)
Class 0:
Remaining flits: 1321038 1321039 1321040 1321041 1321042 1321043 1321044 1321045 1321046 1321047 [...] (58229 flits)
Measured flits: 1321038 1321039 1321040 1321041 1321042 1321043 1321044 1321045 1321046 1321047 [...] (5649 flits)
Class 0:
Remaining flits: 1321038 1321039 1321040 1321041 1321042 1321043 1321044 1321045 1321046 1321047 [...] (59159 flits)
Measured flits: 1321038 1321039 1321040 1321041 1321042 1321043 1321044 1321045 1321046 1321047 [...] (5026 flits)
Class 0:
Remaining flits: 1321038 1321039 1321040 1321041 1321042 1321043 1321044 1321045 1321046 1321047 [...] (59744 flits)
Measured flits: 1321038 1321039 1321040 1321041 1321042 1321043 1321044 1321045 1321046 1321047 [...] (4791 flits)
Class 0:
Remaining flits: 1321038 1321039 1321040 1321041 1321042 1321043 1321044 1321045 1321046 1321047 [...] (59717 flits)
Measured flits: 1321038 1321039 1321040 1321041 1321042 1321043 1321044 1321045 1321046 1321047 [...] (4392 flits)
Class 0:
Remaining flits: 1321038 1321039 1321040 1321041 1321042 1321043 1321044 1321045 1321046 1321047 [...] (58326 flits)
Measured flits: 1321038 1321039 1321040 1321041 1321042 1321043 1321044 1321045 1321046 1321047 [...] (4309 flits)
Class 0:
Remaining flits: 1321038 1321039 1321040 1321041 1321042 1321043 1321044 1321045 1321046 1321047 [...] (59758 flits)
Measured flits: 1321038 1321039 1321040 1321041 1321042 1321043 1321044 1321045 1321046 1321047 [...] (3904 flits)
Class 0:
Remaining flits: 1321038 1321039 1321040 1321041 1321042 1321043 1321044 1321045 1321046 1321047 [...] (59597 flits)
Measured flits: 1321038 1321039 1321040 1321041 1321042 1321043 1321044 1321045 1321046 1321047 [...] (4000 flits)
Class 0:
Remaining flits: 1321045 1321046 1321047 1321048 1321049 1321050 1321051 1321052 1321053 1321054 [...] (57825 flits)
Measured flits: 1321045 1321046 1321047 1321048 1321049 1321050 1321051 1321052 1321053 1321054 [...] (3457 flits)
Class 0:
Remaining flits: 1491894 1491895 1491896 1491897 1491898 1491899 1491900 1491901 1491902 1491903 [...] (59156 flits)
Measured flits: 1491894 1491895 1491896 1491897 1491898 1491899 1491900 1491901 1491902 1491903 [...] (3248 flits)
Class 0:
Remaining flits: 1491894 1491895 1491896 1491897 1491898 1491899 1491900 1491901 1491902 1491903 [...] (57708 flits)
Measured flits: 1491894 1491895 1491896 1491897 1491898 1491899 1491900 1491901 1491902 1491903 [...] (2903 flits)
Class 0:
Remaining flits: 1491894 1491895 1491896 1491897 1491898 1491899 1491900 1491901 1491902 1491903 [...] (60466 flits)
Measured flits: 1491894 1491895 1491896 1491897 1491898 1491899 1491900 1491901 1491902 1491903 [...] (2690 flits)
Class 0:
Remaining flits: 1491894 1491895 1491896 1491897 1491898 1491899 1491900 1491901 1491902 1491903 [...] (61176 flits)
Measured flits: 1491894 1491895 1491896 1491897 1491898 1491899 1491900 1491901 1491902 1491903 [...] (2701 flits)
Class 0:
Remaining flits: 1491903 1491904 1491905 1491906 1491907 1491908 1491909 1491910 1491911 1519578 [...] (64699 flits)
Measured flits: 1491903 1491904 1491905 1491906 1491907 1491908 1491909 1491910 1491911 1519578 [...] (2767 flits)
Class 0:
Remaining flits: 1706526 1706527 1706528 1706529 1706530 1706531 1706532 1706533 1706534 1706535 [...] (63411 flits)
Measured flits: 1706526 1706527 1706528 1706529 1706530 1706531 1706532 1706533 1706534 1706535 [...] (2797 flits)
Class 0:
Remaining flits: 1706526 1706527 1706528 1706529 1706530 1706531 1706532 1706533 1706534 1706535 [...] (61560 flits)
Measured flits: 1706526 1706527 1706528 1706529 1706530 1706531 1706532 1706533 1706534 1706535 [...] (2313 flits)
Class 0:
Remaining flits: 1706526 1706527 1706528 1706529 1706530 1706531 1706532 1706533 1706534 1706535 [...] (62723 flits)
Measured flits: 1706526 1706527 1706528 1706529 1706530 1706531 1706532 1706533 1706534 1706535 [...] (2204 flits)
Class 0:
Remaining flits: 1706526 1706527 1706528 1706529 1706530 1706531 1706532 1706533 1706534 1706535 [...] (61794 flits)
Measured flits: 1706526 1706527 1706528 1706529 1706530 1706531 1706532 1706533 1706534 1706535 [...] (1874 flits)
Class 0:
Remaining flits: 1706526 1706527 1706528 1706529 1706530 1706531 1706532 1706533 1706534 1706535 [...] (61998 flits)
Measured flits: 1706526 1706527 1706528 1706529 1706530 1706531 1706532 1706533 1706534 1706535 [...] (1511 flits)
Class 0:
Remaining flits: 1706526 1706527 1706528 1706529 1706530 1706531 1706532 1706533 1706534 1706535 [...] (60881 flits)
Measured flits: 1706526 1706527 1706528 1706529 1706530 1706531 1706532 1706533 1706534 1706535 [...] (1053 flits)
Class 0:
Remaining flits: 1706526 1706527 1706528 1706529 1706530 1706531 1706532 1706533 1706534 1706535 [...] (61965 flits)
Measured flits: 1706526 1706527 1706528 1706529 1706530 1706531 1706532 1706533 1706534 1706535 [...] (1275 flits)
Class 0:
Remaining flits: 1706526 1706527 1706528 1706529 1706530 1706531 1706532 1706533 1706534 1706535 [...] (60614 flits)
Measured flits: 1706526 1706527 1706528 1706529 1706530 1706531 1706532 1706533 1706534 1706535 [...] (1159 flits)
Class 0:
Remaining flits: 1706526 1706527 1706528 1706529 1706530 1706531 1706532 1706533 1706534 1706535 [...] (62731 flits)
Measured flits: 1706526 1706527 1706528 1706529 1706530 1706531 1706532 1706533 1706534 1706535 [...] (888 flits)
Class 0:
Remaining flits: 1706526 1706527 1706528 1706529 1706530 1706531 1706532 1706533 1706534 1706535 [...] (62661 flits)
Measured flits: 1706526 1706527 1706528 1706529 1706530 1706531 1706532 1706533 1706534 1706535 [...] (671 flits)
Class 0:
Remaining flits: 2221146 2221147 2221148 2221149 2221150 2221151 2221152 2221153 2221154 2221155 [...] (62973 flits)
Measured flits: 2695770 2695771 2695772 2695773 2695774 2695775 2695776 2695777 2695778 2695779 [...] (558 flits)
Class 0:
Remaining flits: 2221146 2221147 2221148 2221149 2221150 2221151 2221152 2221153 2221154 2221155 [...] (62569 flits)
Measured flits: 2695770 2695771 2695772 2695773 2695774 2695775 2695776 2695777 2695778 2695779 [...] (558 flits)
Class 0:
Remaining flits: 2221146 2221147 2221148 2221149 2221150 2221151 2221152 2221153 2221154 2221155 [...] (61494 flits)
Measured flits: 2695770 2695771 2695772 2695773 2695774 2695775 2695776 2695777 2695778 2695779 [...] (558 flits)
Class 0:
Remaining flits: 2221146 2221147 2221148 2221149 2221150 2221151 2221152 2221153 2221154 2221155 [...] (61871 flits)
Measured flits: 2695770 2695771 2695772 2695773 2695774 2695775 2695776 2695777 2695778 2695779 [...] (601 flits)
Class 0:
Remaining flits: 2221146 2221147 2221148 2221149 2221150 2221151 2221152 2221153 2221154 2221155 [...] (60919 flits)
Measured flits: 2695770 2695771 2695772 2695773 2695774 2695775 2695776 2695777 2695778 2695779 [...] (516 flits)
Class 0:
Remaining flits: 2221146 2221147 2221148 2221149 2221150 2221151 2221152 2221153 2221154 2221155 [...] (60866 flits)
Measured flits: 2695770 2695771 2695772 2695773 2695774 2695775 2695776 2695777 2695778 2695779 [...] (450 flits)
Class 0:
Remaining flits: 2221146 2221147 2221148 2221149 2221150 2221151 2221152 2221153 2221154 2221155 [...] (60480 flits)
Measured flits: 2695770 2695771 2695772 2695773 2695774 2695775 2695776 2695777 2695778 2695779 [...] (539 flits)
Class 0:
Remaining flits: 2221160 2221161 2221162 2221163 2411244 2411245 2411246 2411247 2411248 2411249 [...] (61615 flits)
Measured flits: 2695770 2695771 2695772 2695773 2695774 2695775 2695776 2695777 2695778 2695779 [...] (436 flits)
Class 0:
Remaining flits: 2411244 2411245 2411246 2411247 2411248 2411249 2411250 2411251 2411252 2411253 [...] (60398 flits)
Measured flits: 2695770 2695771 2695772 2695773 2695774 2695775 2695776 2695777 2695778 2695779 [...] (518 flits)
Class 0:
Remaining flits: 2411250 2411251 2411252 2411253 2411254 2411255 2411256 2411257 2411258 2411259 [...] (60876 flits)
Measured flits: 2695770 2695771 2695772 2695773 2695774 2695775 2695776 2695777 2695778 2695779 [...] (759 flits)
Class 0:
Remaining flits: 2473092 2473093 2473094 2473095 2473096 2473097 2473098 2473099 2473100 2473101 [...] (62059 flits)
Measured flits: 2695770 2695771 2695772 2695773 2695774 2695775 2695776 2695777 2695778 2695779 [...] (813 flits)
Class 0:
Remaining flits: 2473092 2473093 2473094 2473095 2473096 2473097 2473098 2473099 2473100 2473101 [...] (64465 flits)
Measured flits: 2695770 2695771 2695772 2695773 2695774 2695775 2695776 2695777 2695778 2695779 [...] (509 flits)
Class 0:
Remaining flits: 2497572 2497573 2497574 2497575 2497576 2497577 2497578 2497579 2497580 2497581 [...] (61674 flits)
Measured flits: 2695770 2695771 2695772 2695773 2695774 2695775 2695776 2695777 2695778 2695779 [...] (410 flits)
Class 0:
Remaining flits: 2497572 2497573 2497574 2497575 2497576 2497577 2497578 2497579 2497580 2497581 [...] (61174 flits)
Measured flits: 2695770 2695771 2695772 2695773 2695774 2695775 2695776 2695777 2695778 2695779 [...] (367 flits)
Class 0:
Remaining flits: 2497572 2497573 2497574 2497575 2497576 2497577 2497578 2497579 2497580 2497581 [...] (59973 flits)
Measured flits: 2695770 2695771 2695772 2695773 2695774 2695775 2695776 2695777 2695778 2695779 [...] (296 flits)
Class 0:
Remaining flits: 2497572 2497573 2497574 2497575 2497576 2497577 2497578 2497579 2497580 2497581 [...] (58406 flits)
Measured flits: 2695770 2695771 2695772 2695773 2695774 2695775 2695776 2695777 2695778 2695779 [...] (323 flits)
Class 0:
Remaining flits: 2497572 2497573 2497574 2497575 2497576 2497577 2497578 2497579 2497580 2497581 [...] (61129 flits)
Measured flits: 2695770 2695771 2695772 2695773 2695774 2695775 2695776 2695777 2695778 2695779 [...] (287 flits)
Class 0:
Remaining flits: 2497572 2497573 2497574 2497575 2497576 2497577 2497578 2497579 2497580 2497581 [...] (62011 flits)
Measured flits: 2695770 2695771 2695772 2695773 2695774 2695775 2695776 2695777 2695778 2695779 [...] (404 flits)
Class 0:
Remaining flits: 2497572 2497573 2497574 2497575 2497576 2497577 2497578 2497579 2497580 2497581 [...] (62225 flits)
Measured flits: 2772002 2772003 2772004 2772005 2772006 2772007 2772008 2772009 2772010 2772011 [...] (307 flits)
Class 0:
Remaining flits: 2497572 2497573 2497574 2497575 2497576 2497577 2497578 2497579 2497580 2497581 [...] (61580 flits)
Measured flits: 3310866 3310867 3310868 3310869 3310870 3310871 3310872 3310873 3310874 3310875 [...] (199 flits)
Class 0:
Remaining flits: 2497572 2497573 2497574 2497575 2497576 2497577 2497578 2497579 2497580 2497581 [...] (61398 flits)
Measured flits: 3310866 3310867 3310868 3310869 3310870 3310871 3310872 3310873 3310874 3310875 [...] (176 flits)
Class 0:
Remaining flits: 2637254 2637255 2637256 2637257 2637258 2637259 2637260 2637261 2637262 2637263 [...] (61171 flits)
Measured flits: 3310866 3310867 3310868 3310869 3310870 3310871 3310872 3310873 3310874 3310875 [...] (176 flits)
Class 0:
Remaining flits: 2655846 2655847 2655848 2655849 2655850 2655851 2655852 2655853 2655854 2655855 [...] (62218 flits)
Measured flits: 3310871 3310872 3310873 3310874 3310875 3310876 3310877 3310878 3310879 3310880 [...] (159 flits)
Class 0:
Remaining flits: 2655846 2655847 2655848 2655849 2655850 2655851 2655852 2655853 2655854 2655855 [...] (64873 flits)
Measured flits: 3544092 3544093 3544094 3544095 3544096 3544097 3544098 3544099 3544100 3544101 [...] (144 flits)
Class 0:
Remaining flits: 2655851 2655852 2655853 2655854 2655855 2655856 2655857 2655858 2655859 2655860 [...] (62673 flits)
Measured flits: 3544092 3544093 3544094 3544095 3544096 3544097 3544098 3544099 3544100 3544101 [...] (144 flits)
Class 0:
Remaining flits: 2655853 2655854 2655855 2655856 2655857 2655858 2655859 2655860 2655861 2655862 [...] (61706 flits)
Measured flits: 3544095 3544096 3544097 3544098 3544099 3544100 3544101 3544102 3544103 3544104 [...] (214 flits)
Class 0:
Remaining flits: 2740014 2740015 2740016 2740017 2740018 2740019 2740020 2740021 2740022 2740023 [...] (61273 flits)
Measured flits: 3719808 3719809 3719810 3719811 3719812 3719813 3719814 3719815 3719816 3719817 [...] (110 flits)
Class 0:
Remaining flits: 2740014 2740015 2740016 2740017 2740018 2740019 2740020 2740021 2740022 2740023 [...] (60092 flits)
Measured flits: 3719808 3719809 3719810 3719811 3719812 3719813 3719814 3719815 3719816 3719817 [...] (109 flits)
Class 0:
Remaining flits: 2740014 2740015 2740016 2740017 2740018 2740019 2740020 2740021 2740022 2740023 [...] (60985 flits)
Measured flits: 3719808 3719809 3719810 3719811 3719812 3719813 3719814 3719815 3719816 3719817 [...] (109 flits)
Class 0:
Remaining flits: 2740014 2740015 2740016 2740017 2740018 2740019 2740020 2740021 2740022 2740023 [...] (61717 flits)
Measured flits: 3719808 3719809 3719810 3719811 3719812 3719813 3719814 3719815 3719816 3719817 [...] (90 flits)
Class 0:
Remaining flits: 2740014 2740015 2740016 2740017 2740018 2740019 2740020 2740021 2740022 2740023 [...] (61379 flits)
Measured flits: 3719808 3719809 3719810 3719811 3719812 3719813 3719814 3719815 3719816 3719817 [...] (90 flits)
Class 0:
Remaining flits: 2740014 2740015 2740016 2740017 2740018 2740019 2740020 2740021 2740022 2740023 [...] (62521 flits)
Measured flits: 3719808 3719809 3719810 3719811 3719812 3719813 3719814 3719815 3719816 3719817 [...] (83 flits)
Class 0:
Remaining flits: 2915910 2915911 2915912 2915913 2915914 2915915 2915916 2915917 2915918 2915919 [...] (61279 flits)
Measured flits: 3915576 3915577 3915578 3915579 3915580 3915581 3915582 3915583 3915584 3915585 [...] (54 flits)
Class 0:
Remaining flits: 2915910 2915911 2915912 2915913 2915914 2915915 2915916 2915917 2915918 2915919 [...] (61029 flits)
Measured flits: 3982590 3982591 3982592 3982593 3982594 3982595 3982596 3982597 3982598 3982599 [...] (18 flits)
Class 0:
Remaining flits: 3219282 3219283 3219284 3219285 3219286 3219287 3219288 3219289 3219290 3219291 [...] (62779 flits)
Measured flits: 3982590 3982591 3982592 3982593 3982594 3982595 3982596 3982597 3982598 3982599 [...] (18 flits)
Class 0:
Remaining flits: 3219282 3219283 3219284 3219285 3219286 3219287 3219288 3219289 3219290 3219291 [...] (61891 flits)
Measured flits: 3982590 3982591 3982592 3982593 3982594 3982595 3982596 3982597 3982598 3982599 [...] (18 flits)
Class 0:
Remaining flits: 3219282 3219283 3219284 3219285 3219286 3219287 3219288 3219289 3219290 3219291 [...] (62550 flits)
Measured flits: 3982590 3982591 3982592 3982593 3982594 3982595 3982596 3982597 3982598 3982599 [...] (18 flits)
Draining remaining packets ...
Class 0:
Remaining flits: 3281419 3281420 3281421 3281422 3281423 3281424 3281425 3281426 3281427 3281428 [...] (38623 flits)
Measured flits: (0 flits)
Class 0:
Remaining flits: 3295224 3295225 3295226 3295227 3295228 3295229 3295230 3295231 3295232 3295233 [...] (27958 flits)
Measured flits: (0 flits)
Class 0:
Remaining flits: 3474306 3474307 3474308 3474309 3474310 3474311 3474312 3474313 3474314 3474315 [...] (18766 flits)
Measured flits: (0 flits)
Class 0:
Remaining flits: 3474306 3474307 3474308 3474309 3474310 3474311 3474312 3474313 3474314 3474315 [...] (11058 flits)
Measured flits: (0 flits)
Class 0:
Remaining flits: 3474306 3474307 3474308 3474309 3474310 3474311 3474312 3474313 3474314 3474315 [...] (5025 flits)
Measured flits: (0 flits)
Class 0:
Remaining flits: 4075506 4075507 4075508 4075509 4075510 4075511 4075512 4075513 4075514 4075515 [...] (464 flits)
Measured flits: (0 flits)
Time taken is 141132 cycles
====== Overall Traffic Statistics ======
====== Traffic class 0 ======
Packet latency average = 23611.2 (1 samples)
	minimum = 1410 (1 samples)
	maximum = 125097 (1 samples)
Network latency average = 1875.64 (1 samples)
	minimum = 23 (1 samples)
	maximum = 50436 (1 samples)
Flit latency average = 1865.59 (1 samples)
	minimum = 6 (1 samples)
	maximum = 50419 (1 samples)
Fragmentation average = 251.537 (1 samples)
	minimum = 0 (1 samples)
	maximum = 16268 (1 samples)
Injected packet rate average = 0.0114382 (1 samples)
	minimum = 0 (1 samples)
	maximum = 0.0311429 (1 samples)
Accepted packet rate average = 0.0115603 (1 samples)
	minimum = 0.00842857 (1 samples)
	maximum = 0.0144286 (1 samples)
Injected flit rate average = 0.20608 (1 samples)
	minimum = 0 (1 samples)
	maximum = 0.560857 (1 samples)
Accepted flit rate average = 0.207334 (1 samples)
	minimum = 0.147714 (1 samples)
	maximum = 0.258429 (1 samples)
Injected packet size average = 18.0168 (1 samples)
Accepted packet size average = 17.9351 (1 samples)
Hops average = 5.0599 (1 samples)
Total run time 220.519
