BEGIN Configuration File: networks/mezzanine_config
topology = mezzanine;
n = 12;

routing_function = multipath;
internal_speedup = 2.0;
latency_thres = 100000.0;
use_read_write = 0;

sample_period = 1000;
injection_rate = 0.5;
packet_size = 18;

noq = 1;
routing_delay = 0;
vc_alloc_delay = 1;
sw_alloc_delay = 1;
st_final_delay = 1;
vc_allocator = islip; 
sw_allocator = islip;
alloc_iters  = 4;
num_vcs     = 12;
buffer_policy = private; // private or shared
buf_size = -1; // -1 for buffer_policy = private;
vc_buf_size = 4096; // size of each VOQ with buffer_policy = private
output_buffer_size = -1;


traffic = uniform;

//mezW = 0.0;
//mezPredefinedPatternType = shift-inter; //shift-qfdb

END Configuration File: networks/mezzanine_config
OVERRIDE Parameter: injection_rate=0.033427
OVERRIDE Parameter: routing_function=min
OVERRIDE Parameter: num_vcs=64
OVERRIDE Parameter: vc_buf_size=1024
OVERRIDE Parameter: internal_speedup=1.0
OVERRIDE Parameter: injection_process=on_off
OVERRIDE Parameter: sim_type=latency
OVERRIDE Parameter: burst_alpha=0.0038461538
OVERRIDE Parameter: burst_beta=0.1
network: network_0
========================== Routing table  =====================
Number of Subnets: 1
Class 0:
Packet latency average = 374.684
	minimum = 23
	maximum = 984
Network latency average = 276.205
	minimum = 23
	maximum = 957
Slowest packet = 68
Flit latency average = 203.689
	minimum = 6
	maximum = 951
Slowest flit = 3295
Fragmentation average = 163.111
	minimum = 0
	maximum = 816
Injected packet rate average = 0.0290625
	minimum = 0 (at node 5)
	maximum = 0.056 (at node 0)
Accepted packet rate average = 0.0100625
	minimum = 0.004 (at node 23)
	maximum = 0.018 (at node 152)
Injected flit rate average = 0.517656
	minimum = 0 (at node 5)
	maximum = 1 (at node 6)
Accepted flit rate average= 0.214271
	minimum = 0.089 (at node 68)
	maximum = 0.364 (at node 152)
Injected packet length average = 17.8118
Accepted packet length average = 21.294
Total in-flight flits = 59300 (0 measured)
latency change    = 1
throughput change = 1
Class 0:
Packet latency average = 627.7
	minimum = 23
	maximum = 1954
Network latency average = 482.662
	minimum = 23
	maximum = 1757
Slowest packet = 183
Flit latency average = 392.91
	minimum = 6
	maximum = 1934
Slowest flit = 2842
Fragmentation average = 225.529
	minimum = 0
	maximum = 1436
Injected packet rate average = 0.0304896
	minimum = 0 (at node 5)
	maximum = 0.056 (at node 6)
Accepted packet rate average = 0.0117083
	minimum = 0.0065 (at node 135)
	maximum = 0.0175 (at node 152)
Injected flit rate average = 0.546388
	minimum = 0 (at node 5)
	maximum = 1 (at node 6)
Accepted flit rate average= 0.232789
	minimum = 0.143 (at node 96)
	maximum = 0.341 (at node 152)
Injected packet length average = 17.9205
Accepted packet length average = 19.8823
Total in-flight flits = 121353 (0 measured)
latency change    = 0.403084
throughput change = 0.0795494
Class 0:
Packet latency average = 1247.15
	minimum = 29
	maximum = 2975
Network latency average = 1027.44
	minimum = 25
	maximum = 2781
Slowest packet = 439
Flit latency average = 938.324
	minimum = 6
	maximum = 2878
Slowest flit = 8131
Fragmentation average = 324.033
	minimum = 0
	maximum = 2210
Injected packet rate average = 0.031875
	minimum = 0 (at node 15)
	maximum = 0.056 (at node 40)
Accepted packet rate average = 0.0138385
	minimum = 0.006 (at node 61)
	maximum = 0.024 (at node 14)
Injected flit rate average = 0.573807
	minimum = 0.014 (at node 15)
	maximum = 1 (at node 3)
Accepted flit rate average= 0.253292
	minimum = 0.099 (at node 167)
	maximum = 0.407 (at node 16)
Injected packet length average = 18.0018
Accepted packet length average = 18.3033
Total in-flight flits = 182881 (0 measured)
latency change    = 0.496692
throughput change = 0.0809446
Warmed up ...Time used is 3000 cycles
Class 0:
Packet latency average = 411.986
	minimum = 37
	maximum = 1486
Network latency average = 130.454
	minimum = 23
	maximum = 931
Slowest packet = 17887
Flit latency average = 1365.5
	minimum = 6
	maximum = 3836
Slowest flit = 11985
Fragmentation average = 65.058
	minimum = 0
	maximum = 816
Injected packet rate average = 0.0326719
	minimum = 0 (at node 5)
	maximum = 0.056 (at node 6)
Accepted packet rate average = 0.0139427
	minimum = 0.005 (at node 126)
	maximum = 0.025 (at node 66)
Injected flit rate average = 0.587896
	minimum = 0 (at node 5)
	maximum = 1 (at node 0)
Accepted flit rate average= 0.253823
	minimum = 0.114 (at node 184)
	maximum = 0.395 (at node 103)
Injected packet length average = 17.9939
Accepted packet length average = 18.2047
Total in-flight flits = 247061 (100884 measured)
latency change    = 2.02716
throughput change = 0.00209299
Class 0:
Packet latency average = 643.172
	minimum = 27
	maximum = 2358
Network latency average = 395.883
	minimum = 23
	maximum = 1956
Slowest packet = 17887
Flit latency average = 1587.31
	minimum = 6
	maximum = 4784
Slowest flit = 16242
Fragmentation average = 139.051
	minimum = 0
	maximum = 1442
Injected packet rate average = 0.032362
	minimum = 0.004 (at node 123)
	maximum = 0.0555 (at node 0)
Accepted packet rate average = 0.0139557
	minimum = 0.008 (at node 126)
	maximum = 0.021 (at node 30)
Injected flit rate average = 0.582534
	minimum = 0.0715 (at node 123)
	maximum = 1 (at node 0)
Accepted flit rate average= 0.254047
	minimum = 0.149 (at node 71)
	maximum = 0.378 (at node 172)
Injected packet length average = 18.0006
Accepted packet length average = 18.2038
Total in-flight flits = 309013 (192448 measured)
latency change    = 0.359446
throughput change = 0.000881563
Class 0:
Packet latency average = 928.753
	minimum = 27
	maximum = 3657
Network latency average = 691.259
	minimum = 23
	maximum = 2975
Slowest packet = 17887
Flit latency average = 1833.81
	minimum = 6
	maximum = 5628
Slowest flit = 21722
Fragmentation average = 178.867
	minimum = 0
	maximum = 2271
Injected packet rate average = 0.0321302
	minimum = 0.00866667 (at node 95)
	maximum = 0.0556667 (at node 25)
Accepted packet rate average = 0.0139583
	minimum = 0.00933333 (at node 77)
	maximum = 0.0206667 (at node 123)
Injected flit rate average = 0.578356
	minimum = 0.156 (at node 95)
	maximum = 1 (at node 0)
Accepted flit rate average= 0.253731
	minimum = 0.172333 (at node 77)
	maximum = 0.356 (at node 137)
Injected packet length average = 18.0004
Accepted packet length average = 18.1777
Total in-flight flits = 369858 (277831 measured)
latency change    = 0.307488
throughput change = 0.0012453
Class 0:
Packet latency average = 1277.02
	minimum = 27
	maximum = 5120
Network latency average = 1035.05
	minimum = 23
	maximum = 3955
Slowest packet = 17887
Flit latency average = 2097.3
	minimum = 6
	maximum = 6482
Slowest flit = 17081
Fragmentation average = 210.292
	minimum = 0
	maximum = 2384
Injected packet rate average = 0.0320638
	minimum = 0.00975 (at node 165)
	maximum = 0.05575 (at node 25)
Accepted packet rate average = 0.0139128
	minimum = 0.01 (at node 100)
	maximum = 0.019 (at node 123)
Injected flit rate average = 0.577078
	minimum = 0.177 (at node 165)
	maximum = 1 (at node 0)
Accepted flit rate average= 0.252033
	minimum = 0.18375 (at node 92)
	maximum = 0.32975 (at node 136)
Injected packet length average = 17.9978
Accepted packet length average = 18.1152
Total in-flight flits = 432570 (361533 measured)
latency change    = 0.272717
throughput change = 0.00673862
Class 0:
Packet latency average = 1623.31
	minimum = 25
	maximum = 5827
Network latency average = 1378.34
	minimum = 23
	maximum = 4906
Slowest packet = 17887
Flit latency average = 2355.33
	minimum = 6
	maximum = 7744
Slowest flit = 20518
Fragmentation average = 235.857
	minimum = 0
	maximum = 4185
Injected packet rate average = 0.0319188
	minimum = 0.0092 (at node 164)
	maximum = 0.0556 (at node 25)
Accepted packet rate average = 0.0139479
	minimum = 0.0098 (at node 92)
	maximum = 0.0182 (at node 136)
Injected flit rate average = 0.574432
	minimum = 0.1656 (at node 164)
	maximum = 1 (at node 0)
Accepted flit rate average= 0.251397
	minimum = 0.1702 (at node 92)
	maximum = 0.3204 (at node 136)
Injected packet length average = 17.9967
Accepted packet length average = 18.024
Total in-flight flits = 493096 (439361 measured)
latency change    = 0.213323
throughput change = 0.00252858
Class 0:
Packet latency average = 2001.7
	minimum = 25
	maximum = 6951
Network latency average = 1754.74
	minimum = 23
	maximum = 5978
Slowest packet = 17887
Flit latency average = 2611.73
	minimum = 6
	maximum = 8621
Slowest flit = 31740
Fragmentation average = 252.955
	minimum = 0
	maximum = 4185
Injected packet rate average = 0.0318793
	minimum = 0.0128333 (at node 180)
	maximum = 0.0556667 (at node 25)
Accepted packet rate average = 0.0138403
	minimum = 0.0105 (at node 92)
	maximum = 0.0173333 (at node 90)
Injected flit rate average = 0.573848
	minimum = 0.231 (at node 180)
	maximum = 1 (at node 0)
Accepted flit rate average= 0.249455
	minimum = 0.1875 (at node 67)
	maximum = 0.310833 (at node 136)
Injected packet length average = 18.0006
Accepted packet length average = 18.0238
Total in-flight flits = 556559 (516111 measured)
latency change    = 0.189036
throughput change = 0.00778503
Class 0:
Packet latency average = 2391.43
	minimum = 25
	maximum = 7832
Network latency average = 2138.17
	minimum = 23
	maximum = 6919
Slowest packet = 17887
Flit latency average = 2855.64
	minimum = 6
	maximum = 9481
Slowest flit = 45968
Fragmentation average = 266.444
	minimum = 0
	maximum = 4819
Injected packet rate average = 0.0323906
	minimum = 0.0138571 (at node 180)
	maximum = 0.0555714 (at node 0)
Accepted packet rate average = 0.0138318
	minimum = 0.01 (at node 67)
	maximum = 0.0171429 (at node 136)
Injected flit rate average = 0.582882
	minimum = 0.249429 (at node 180)
	maximum = 1 (at node 0)
Accepted flit rate average= 0.248935
	minimum = 0.177143 (at node 67)
	maximum = 0.312714 (at node 136)
Injected packet length average = 17.9954
Accepted packet length average = 17.9972
Total in-flight flits = 631907 (601417 measured)
latency change    = 0.16297
throughput change = 0.00209026
Draining all recorded packets ...
Class 0:
Remaining flits: 36375 36376 36377 38995 38996 38997 38998 38999 39000 39001 [...] (705437 flits)
Measured flits: 321048 321049 321050 321051 321052 321053 321054 321055 321056 321057 [...] (605640 flits)
Class 0:
Remaining flits: 39794 39795 39796 39797 41706 41707 41708 41709 41710 41711 [...] (772827 flits)
Measured flits: 321048 321049 321050 321051 321052 321053 321054 321055 321056 321057 [...] (574659 flits)
Class 0:
Remaining flits: 39794 39795 39796 39797 41706 41707 41708 41709 41710 41711 [...] (846244 flits)
Measured flits: 321048 321049 321050 321051 321052 321053 321054 321055 321056 321057 [...] (542845 flits)
Class 0:
Remaining flits: 41706 41707 41708 41709 41710 41711 41712 41713 41714 41715 [...] (914879 flits)
Measured flits: 321048 321049 321050 321051 321052 321053 321054 321055 321056 321057 [...] (510413 flits)
Class 0:
Remaining flits: 45684 45685 45686 45687 45688 45689 45690 45691 45692 45693 [...] (980430 flits)
Measured flits: 321048 321049 321050 321051 321052 321053 321054 321055 321056 321057 [...] (478169 flits)
Class 0:
Remaining flits: 45684 45685 45686 45687 45688 45689 45690 45691 45692 45693 [...] (1049745 flits)
Measured flits: 321048 321049 321050 321051 321052 321053 321054 321055 321056 321057 [...] (447191 flits)
Class 0:
Remaining flits: 45684 45685 45686 45687 45688 45689 45690 45691 45692 45693 [...] (1114658 flits)
Measured flits: 321064 321065 321174 321175 321176 321177 321178 321179 321180 321181 [...] (417257 flits)
Class 0:
Remaining flits: 45684 45685 45686 45687 45688 45689 45690 45691 45692 45693 [...] (1182233 flits)
Measured flits: 321174 321175 321176 321177 321178 321179 321180 321181 321182 321183 [...] (388409 flits)
Class 0:
Remaining flits: 45684 45685 45686 45687 45688 45689 45690 45691 45692 45693 [...] (1248816 flits)
Measured flits: 321174 321175 321176 321177 321178 321179 321180 321181 321182 321183 [...] (360471 flits)
Class 0:
Remaining flits: 45684 45685 45686 45687 45688 45689 45690 45691 45692 45693 [...] (1313661 flits)
Measured flits: 321174 321175 321176 321177 321178 321179 321180 321181 321182 321183 [...] (334077 flits)
Class 0:
Remaining flits: 45694 45695 45696 45697 45698 45699 45700 45701 69426 69427 [...] (1374662 flits)
Measured flits: 321174 321175 321176 321177 321178 321179 321180 321181 321182 321183 [...] (307846 flits)
Class 0:
Remaining flits: 69426 69427 69428 69429 69430 69431 69432 69433 69434 69435 [...] (1434293 flits)
Measured flits: 321174 321175 321176 321177 321178 321179 321180 321181 321182 321183 [...] (283695 flits)
Class 0:
Remaining flits: 69426 69427 69428 69429 69430 69431 69432 69433 69434 69435 [...] (1492962 flits)
Measured flits: 321174 321175 321176 321177 321178 321179 321180 321181 321182 321183 [...] (261650 flits)
Class 0:
Remaining flits: 69426 69427 69428 69429 69430 69431 69432 69433 69434 69435 [...] (1554705 flits)
Measured flits: 321174 321175 321176 321177 321178 321179 321180 321181 321182 321183 [...] (240907 flits)
Class 0:
Remaining flits: 69429 69430 69431 69432 69433 69434 69435 69436 69437 69438 [...] (1614153 flits)
Measured flits: 321174 321175 321176 321177 321178 321179 321180 321181 321182 321183 [...] (221739 flits)
Class 0:
Remaining flits: 69429 69430 69431 69432 69433 69434 69435 69436 69437 69438 [...] (1680143 flits)
Measured flits: 321174 321175 321176 321177 321178 321179 321180 321181 321182 321183 [...] (203444 flits)
Class 0:
Remaining flits: 69429 69430 69431 69432 69433 69434 69435 69436 69437 69438 [...] (1743758 flits)
Measured flits: 321189 321190 321191 322740 322741 322742 322743 322744 322745 322746 [...] (185780 flits)
Class 0:
Remaining flits: 69431 69432 69433 69434 69435 69436 69437 69438 69439 69440 [...] (1804792 flits)
Measured flits: 322740 322741 322742 322743 322744 322745 322746 322747 322748 322749 [...] (170085 flits)
Class 0:
Remaining flits: 69431 69432 69433 69434 69435 69436 69437 69438 69439 69440 [...] (1867385 flits)
Measured flits: 322740 322741 322742 322743 322744 322745 322746 322747 322748 322749 [...] (155054 flits)
Class 0:
Remaining flits: 111222 111223 111224 111225 111226 111227 111228 111229 111230 111231 [...] (1930712 flits)
Measured flits: 322740 322741 322742 322743 322744 322745 322746 322747 322748 322749 [...] (140923 flits)
Class 0:
Remaining flits: 111222 111223 111224 111225 111226 111227 111228 111229 111230 111231 [...] (1996742 flits)
Measured flits: 322740 322741 322742 322743 322744 322745 322746 322747 322748 322749 [...] (128892 flits)
Class 0:
Remaining flits: 111222 111223 111224 111225 111226 111227 111228 111229 111230 111231 [...] (2058309 flits)
Measured flits: 322740 322741 322742 322743 322744 322745 322746 322747 322748 322749 [...] (117497 flits)
Class 0:
Remaining flits: 111230 111231 111232 111233 111234 111235 111236 111237 111238 111239 [...] (2115917 flits)
Measured flits: 322740 322741 322742 322743 322744 322745 322746 322747 322748 322749 [...] (107167 flits)
Class 0:
Remaining flits: 111238 111239 117666 117667 117668 117669 117670 117671 117672 117673 [...] (2176892 flits)
Measured flits: 322740 322741 322742 322743 322744 322745 322746 322747 322748 322749 [...] (97609 flits)
Class 0:
Remaining flits: 111238 111239 117666 117667 117668 117669 117670 117671 117672 117673 [...] (2235836 flits)
Measured flits: 322740 322741 322742 322743 322744 322745 322746 322747 322748 322749 [...] (88452 flits)
Class 0:
Remaining flits: 119088 119089 119090 119091 119092 119093 119094 119095 119096 119097 [...] (2298115 flits)
Measured flits: 322740 322741 322742 322743 322744 322745 322746 322747 322748 322749 [...] (80222 flits)
Class 0:
Remaining flits: 119088 119089 119090 119091 119092 119093 119094 119095 119096 119097 [...] (2361870 flits)
Measured flits: 322740 322741 322742 322743 322744 322745 322746 322747 322748 322749 [...] (73337 flits)
Class 0:
Remaining flits: 119088 119089 119090 119091 119092 119093 119094 119095 119096 119097 [...] (2424844 flits)
Measured flits: 322740 322741 322742 322743 322744 322745 322746 322747 322748 322749 [...] (65762 flits)
Class 0:
Remaining flits: 119088 119089 119090 119091 119092 119093 119094 119095 119096 119097 [...] (2483692 flits)
Measured flits: 322740 322741 322742 322743 322744 322745 322746 322747 322748 322749 [...] (59633 flits)
Class 0:
Remaining flits: 119088 119089 119090 119091 119092 119093 119094 119095 119096 119097 [...] (2544026 flits)
Measured flits: 322740 322741 322742 322743 322744 322745 322746 322747 322748 322749 [...] (53934 flits)
Class 0:
Remaining flits: 119104 119105 157935 157936 157937 157938 157939 157940 157941 157942 [...] (2599799 flits)
Measured flits: 322740 322741 322742 322743 322744 322745 322746 322747 322748 322749 [...] (49069 flits)
Class 0:
Remaining flits: 157935 157936 157937 157938 157939 157940 157941 157942 157943 157944 [...] (2657790 flits)
Measured flits: 322740 322741 322742 322743 322744 322745 322746 322747 322748 322749 [...] (44623 flits)
Class 0:
Remaining flits: 157935 157936 157937 157938 157939 157940 157941 157942 157943 157944 [...] (2724547 flits)
Measured flits: 322740 322741 322742 322743 322744 322745 322746 322747 322748 322749 [...] (40880 flits)
Class 0:
Remaining flits: 157935 157936 157937 157938 157939 157940 157941 157942 157943 157944 [...] (2791525 flits)
Measured flits: 322740 322741 322742 322743 322744 322745 322746 322747 322748 322749 [...] (37238 flits)
Class 0:
Remaining flits: 286092 286093 286094 286095 286096 286097 286098 286099 286100 286101 [...] (2858302 flits)
Measured flits: 322740 322741 322742 322743 322744 322745 322746 322747 322748 322749 [...] (34093 flits)
Class 0:
Remaining flits: 286092 286093 286094 286095 286096 286097 286098 286099 286100 286101 [...] (2917583 flits)
Measured flits: 322741 322742 322743 322744 322745 322746 322747 322748 322749 322750 [...] (31053 flits)
Class 0:
Remaining flits: 286092 286093 286094 286095 286096 286097 286098 286099 286100 286101 [...] (2983228 flits)
Measured flits: 343080 343081 343082 343083 343084 343085 343086 343087 343088 343089 [...] (28690 flits)
Class 0:
Remaining flits: 286092 286093 286094 286095 286096 286097 286098 286099 286100 286101 [...] (3043309 flits)
Measured flits: 343080 343081 343082 343083 343084 343085 343086 343087 343088 343089 [...] (26135 flits)
Class 0:
Remaining flits: 286092 286093 286094 286095 286096 286097 286098 286099 286100 286101 [...] (3098605 flits)
Measured flits: 419868 419869 419870 419871 419872 419873 419874 419875 419876 419877 [...] (23763 flits)
Class 0:
Remaining flits: 286092 286093 286094 286095 286096 286097 286098 286099 286100 286101 [...] (3164590 flits)
Measured flits: 419868 419869 419870 419871 419872 419873 419874 419875 419876 419877 [...] (21617 flits)
Class 0:
Remaining flits: 286092 286093 286094 286095 286096 286097 286098 286099 286100 286101 [...] (3221574 flits)
Measured flits: 419868 419869 419870 419871 419872 419873 419874 419875 419876 419877 [...] (19322 flits)
Class 0:
Remaining flits: 286092 286093 286094 286095 286096 286097 286098 286099 286100 286101 [...] (3283154 flits)
Measured flits: 419868 419869 419870 419871 419872 419873 419874 419875 419876 419877 [...] (17154 flits)
Class 0:
Remaining flits: 286092 286093 286094 286095 286096 286097 286098 286099 286100 286101 [...] (3342888 flits)
Measured flits: 483120 483121 483122 483123 483124 483125 483126 483127 483128 483129 [...] (15236 flits)
Class 0:
Remaining flits: 483120 483121 483122 483123 483124 483125 483126 483127 483128 483129 [...] (3404147 flits)
Measured flits: 483120 483121 483122 483123 483124 483125 483126 483127 483128 483129 [...] (13819 flits)
Class 0:
Remaining flits: 483120 483121 483122 483123 483124 483125 483126 483127 483128 483129 [...] (3465563 flits)
Measured flits: 483120 483121 483122 483123 483124 483125 483126 483127 483128 483129 [...] (12487 flits)
Class 0:
Remaining flits: 483120 483121 483122 483123 483124 483125 483126 483127 483128 483129 [...] (3520308 flits)
Measured flits: 483120 483121 483122 483123 483124 483125 483126 483127 483128 483129 [...] (11654 flits)
Class 0:
Remaining flits: 489798 489799 489800 489801 489802 489803 489804 489805 489806 489807 [...] (3575678 flits)
Measured flits: 489798 489799 489800 489801 489802 489803 489804 489805 489806 489807 [...] (10772 flits)
Class 0:
Remaining flits: 489798 489799 489800 489801 489802 489803 489804 489805 489806 489807 [...] (3633130 flits)
Measured flits: 489798 489799 489800 489801 489802 489803 489804 489805 489806 489807 [...] (9757 flits)
Class 0:
Remaining flits: 489798 489799 489800 489801 489802 489803 489804 489805 489806 489807 [...] (3683435 flits)
Measured flits: 489798 489799 489800 489801 489802 489803 489804 489805 489806 489807 [...] (8747 flits)
Class 0:
Remaining flits: 489798 489799 489800 489801 489802 489803 489804 489805 489806 489807 [...] (3737449 flits)
Measured flits: 489798 489799 489800 489801 489802 489803 489804 489805 489806 489807 [...] (8048 flits)
Class 0:
Remaining flits: 489798 489799 489800 489801 489802 489803 489804 489805 489806 489807 [...] (3795948 flits)
Measured flits: 489798 489799 489800 489801 489802 489803 489804 489805 489806 489807 [...] (7534 flits)
Class 0:
Remaining flits: 489798 489799 489800 489801 489802 489803 489804 489805 489806 489807 [...] (3845594 flits)
Measured flits: 489798 489799 489800 489801 489802 489803 489804 489805 489806 489807 [...] (6933 flits)
Class 0:
Remaining flits: 489798 489799 489800 489801 489802 489803 489804 489805 489806 489807 [...] (3889768 flits)
Measured flits: 489798 489799 489800 489801 489802 489803 489804 489805 489806 489807 [...] (6417 flits)
Class 0:
Remaining flits: 489805 489806 489807 489808 489809 489810 489811 489812 489813 489814 [...] (3935915 flits)
Measured flits: 489805 489806 489807 489808 489809 489810 489811 489812 489813 489814 [...] (5934 flits)
Class 0:
Remaining flits: 539640 539641 539642 539643 539644 539645 539646 539647 539648 539649 [...] (3975788 flits)
Measured flits: 539640 539641 539642 539643 539644 539645 539646 539647 539648 539649 [...] (5501 flits)
Class 0:
Remaining flits: 539640 539641 539642 539643 539644 539645 539646 539647 539648 539649 [...] (4017977 flits)
Measured flits: 539640 539641 539642 539643 539644 539645 539646 539647 539648 539649 [...] (5128 flits)
Class 0:
Remaining flits: 539640 539641 539642 539643 539644 539645 539646 539647 539648 539649 [...] (4057759 flits)
Measured flits: 539640 539641 539642 539643 539644 539645 539646 539647 539648 539649 [...] (4827 flits)
Class 0:
Remaining flits: 539640 539641 539642 539643 539644 539645 539646 539647 539648 539649 [...] (4092371 flits)
Measured flits: 539640 539641 539642 539643 539644 539645 539646 539647 539648 539649 [...] (4446 flits)
Class 0:
Remaining flits: 539640 539641 539642 539643 539644 539645 539646 539647 539648 539649 [...] (4129166 flits)
Measured flits: 539640 539641 539642 539643 539644 539645 539646 539647 539648 539649 [...] (4105 flits)
Class 0:
Remaining flits: 539640 539641 539642 539643 539644 539645 539646 539647 539648 539649 [...] (4165144 flits)
Measured flits: 539640 539641 539642 539643 539644 539645 539646 539647 539648 539649 [...] (3844 flits)
Class 0:
Remaining flits: 539640 539641 539642 539643 539644 539645 539646 539647 539648 539649 [...] (4203515 flits)
Measured flits: 539640 539641 539642 539643 539644 539645 539646 539647 539648 539649 [...] (3435 flits)
Class 0:
Remaining flits: 539640 539641 539642 539643 539644 539645 539646 539647 539648 539649 [...] (4233180 flits)
Measured flits: 539640 539641 539642 539643 539644 539645 539646 539647 539648 539649 [...] (3090 flits)
Class 0:
Remaining flits: 539640 539641 539642 539643 539644 539645 539646 539647 539648 539649 [...] (4258848 flits)
Measured flits: 539640 539641 539642 539643 539644 539645 539646 539647 539648 539649 [...] (2722 flits)
Class 0:
Remaining flits: 539640 539641 539642 539643 539644 539645 539646 539647 539648 539649 [...] (4282536 flits)
Measured flits: 539640 539641 539642 539643 539644 539645 539646 539647 539648 539649 [...] (2373 flits)
Class 0:
Remaining flits: 593964 593965 593966 593967 593968 593969 593970 593971 593972 593973 [...] (4301915 flits)
Measured flits: 593964 593965 593966 593967 593968 593969 593970 593971 593972 593973 [...] (2115 flits)
Class 0:
Remaining flits: 593964 593965 593966 593967 593968 593969 593970 593971 593972 593973 [...] (4324551 flits)
Measured flits: 593964 593965 593966 593967 593968 593969 593970 593971 593972 593973 [...] (1952 flits)
Class 0:
Remaining flits: 593964 593965 593966 593967 593968 593969 593970 593971 593972 593973 [...] (4349656 flits)
Measured flits: 593964 593965 593966 593967 593968 593969 593970 593971 593972 593973 [...] (1758 flits)
Class 0:
Remaining flits: 593964 593965 593966 593967 593968 593969 593970 593971 593972 593973 [...] (4369246 flits)
Measured flits: 593964 593965 593966 593967 593968 593969 593970 593971 593972 593973 [...] (1552 flits)
Class 0:
Remaining flits: 593964 593965 593966 593967 593968 593969 593970 593971 593972 593973 [...] (4388957 flits)
Measured flits: 593964 593965 593966 593967 593968 593969 593970 593971 593972 593973 [...] (1449 flits)
Class 0:
Remaining flits: 593964 593965 593966 593967 593968 593969 593970 593971 593972 593973 [...] (4402720 flits)
Measured flits: 593964 593965 593966 593967 593968 593969 593970 593971 593972 593973 [...] (1331 flits)
Class 0:
Remaining flits: 593964 593965 593966 593967 593968 593969 593970 593971 593972 593973 [...] (4418132 flits)
Measured flits: 593964 593965 593966 593967 593968 593969 593970 593971 593972 593973 [...] (1155 flits)
Class 0:
Remaining flits: 593964 593965 593966 593967 593968 593969 593970 593971 593972 593973 [...] (4431309 flits)
Measured flits: 593964 593965 593966 593967 593968 593969 593970 593971 593972 593973 [...] (941 flits)
Class 0:
Remaining flits: 593964 593965 593966 593967 593968 593969 593970 593971 593972 593973 [...] (4447631 flits)
Measured flits: 593964 593965 593966 593967 593968 593969 593970 593971 593972 593973 [...] (815 flits)
Class 0:
Remaining flits: 593964 593965 593966 593967 593968 593969 593970 593971 593972 593973 [...] (4462357 flits)
Measured flits: 593964 593965 593966 593967 593968 593969 593970 593971 593972 593973 [...] (728 flits)
Class 0:
Remaining flits: 593964 593965 593966 593967 593968 593969 593970 593971 593972 593973 [...] (4476658 flits)
Measured flits: 593964 593965 593966 593967 593968 593969 593970 593971 593972 593973 [...] (594 flits)
Class 0:
Remaining flits: 593964 593965 593966 593967 593968 593969 593970 593971 593972 593973 [...] (4488895 flits)
Measured flits: 593964 593965 593966 593967 593968 593969 593970 593971 593972 593973 [...] (468 flits)
Class 0:
Remaining flits: 593964 593965 593966 593967 593968 593969 593970 593971 593972 593973 [...] (4505583 flits)
Measured flits: 593964 593965 593966 593967 593968 593969 593970 593971 593972 593973 [...] (432 flits)
Class 0:
Remaining flits: 593964 593965 593966 593967 593968 593969 593970 593971 593972 593973 [...] (4520130 flits)
Measured flits: 593964 593965 593966 593967 593968 593969 593970 593971 593972 593973 [...] (360 flits)
Class 0:
Remaining flits: 593964 593965 593966 593967 593968 593969 593970 593971 593972 593973 [...] (4532522 flits)
Measured flits: 593964 593965 593966 593967 593968 593969 593970 593971 593972 593973 [...] (324 flits)
Class 0:
Remaining flits: 593964 593965 593966 593967 593968 593969 593970 593971 593972 593973 [...] (4541314 flits)
Measured flits: 593964 593965 593966 593967 593968 593969 593970 593971 593972 593973 [...] (276 flits)
Class 0:
Remaining flits: 593964 593965 593966 593967 593968 593969 593970 593971 593972 593973 [...] (4551522 flits)
Measured flits: 593964 593965 593966 593967 593968 593969 593970 593971 593972 593973 [...] (270 flits)
Class 0:
Remaining flits: 593964 593965 593966 593967 593968 593969 593970 593971 593972 593973 [...] (4562002 flits)
Measured flits: 593964 593965 593966 593967 593968 593969 593970 593971 593972 593973 [...] (252 flits)
Class 0:
Remaining flits: 593964 593965 593966 593967 593968 593969 593970 593971 593972 593973 [...] (4572123 flits)
Measured flits: 593964 593965 593966 593967 593968 593969 593970 593971 593972 593973 [...] (234 flits)
Class 0:
Remaining flits: 593964 593965 593966 593967 593968 593969 593970 593971 593972 593973 [...] (4582208 flits)
Measured flits: 593964 593965 593966 593967 593968 593969 593970 593971 593972 593973 [...] (198 flits)
Class 0:
Remaining flits: 593964 593965 593966 593967 593968 593969 593970 593971 593972 593973 [...] (4593673 flits)
Measured flits: 593964 593965 593966 593967 593968 593969 593970 593971 593972 593973 [...] (198 flits)
Class 0:
Remaining flits: 593964 593965 593966 593967 593968 593969 593970 593971 593972 593973 [...] (4603741 flits)
Measured flits: 593964 593965 593966 593967 593968 593969 593970 593971 593972 593973 [...] (180 flits)
Class 0:
Remaining flits: 593981 908352 908353 908354 908355 908356 908357 908358 908359 908360 [...] (4614269 flits)
Measured flits: 593981 908352 908353 908354 908355 908356 908357 908358 908359 908360 [...] (145 flits)
Class 0:
Remaining flits: 908352 908353 908354 908355 908356 908357 908358 908359 908360 908361 [...] (4626321 flits)
Measured flits: 908352 908353 908354 908355 908356 908357 908358 908359 908360 908361 [...] (126 flits)
Class 0:
Remaining flits: 908352 908353 908354 908355 908356 908357 908358 908359 908360 908361 [...] (4636263 flits)
Measured flits: 908352 908353 908354 908355 908356 908357 908358 908359 908360 908361 [...] (126 flits)
Class 0:
Remaining flits: 908352 908353 908354 908355 908356 908357 908358 908359 908360 908361 [...] (4644634 flits)
Measured flits: 908352 908353 908354 908355 908356 908357 908358 908359 908360 908361 [...] (108 flits)
Class 0:
Remaining flits: 908352 908353 908354 908355 908356 908357 908358 908359 908360 908361 [...] (4651333 flits)
Measured flits: 908352 908353 908354 908355 908356 908357 908358 908359 908360 908361 [...] (108 flits)
Class 0:
Remaining flits: 908352 908353 908354 908355 908356 908357 908358 908359 908360 908361 [...] (4658829 flits)
Measured flits: 908352 908353 908354 908355 908356 908357 908358 908359 908360 908361 [...] (108 flits)
Class 0:
Remaining flits: 908352 908353 908354 908355 908356 908357 908358 908359 908360 908361 [...] (4667812 flits)
Measured flits: 908352 908353 908354 908355 908356 908357 908358 908359 908360 908361 [...] (108 flits)
Class 0:
Remaining flits: 908352 908353 908354 908355 908356 908357 908358 908359 908360 908361 [...] (4676894 flits)
Measured flits: 908352 908353 908354 908355 908356 908357 908358 908359 908360 908361 [...] (108 flits)
Class 0:
Remaining flits: 908352 908353 908354 908355 908356 908357 908358 908359 908360 908361 [...] (4687236 flits)
Measured flits: 908352 908353 908354 908355 908356 908357 908358 908359 908360 908361 [...] (72 flits)
Class 0:
Remaining flits: 908352 908353 908354 908355 908356 908357 908358 908359 908360 908361 [...] (4695542 flits)
Measured flits: 908352 908353 908354 908355 908356 908357 908358 908359 908360 908361 [...] (54 flits)
Class 0:
Remaining flits: 908352 908353 908354 908355 908356 908357 908358 908359 908360 908361 [...] (4707429 flits)
Measured flits: 908352 908353 908354 908355 908356 908357 908358 908359 908360 908361 [...] (54 flits)
Class 0:
Remaining flits: 908352 908353 908354 908355 908356 908357 908358 908359 908360 908361 [...] (4718693 flits)
Measured flits: 908352 908353 908354 908355 908356 908357 908358 908359 908360 908361 [...] (36 flits)
Class 0:
Remaining flits: 908352 908353 908354 908355 908356 908357 908358 908359 908360 908361 [...] (4728844 flits)
Measured flits: 908352 908353 908354 908355 908356 908357 908358 908359 908360 908361 [...] (36 flits)
Class 0:
Remaining flits: 908352 908353 908354 908355 908356 908357 908358 908359 908360 908361 [...] (4741407 flits)
Measured flits: 908352 908353 908354 908355 908356 908357 908358 908359 908360 908361 [...] (36 flits)
Class 0:
Remaining flits: 908352 908353 908354 908355 908356 908357 908358 908359 908360 908361 [...] (4752731 flits)
Measured flits: 908352 908353 908354 908355 908356 908357 908358 908359 908360 908361 [...] (36 flits)
Class 0:
Remaining flits: 908352 908353 908354 908355 908356 908357 908358 908359 908360 908361 [...] (4762442 flits)
Measured flits: 908352 908353 908354 908355 908356 908357 908358 908359 908360 908361 [...] (36 flits)
Class 0:
Remaining flits: 908354 908355 908356 908357 908358 908359 908360 908361 908362 908363 [...] (4771895 flits)
Measured flits: 908354 908355 908356 908357 908358 908359 908360 908361 908362 908363 [...] (34 flits)
Class 0:
Remaining flits: 908354 908355 908356 908357 908358 908359 908360 908361 908362 908363 [...] (4779767 flits)
Measured flits: 908354 908355 908356 908357 908358 908359 908360 908361 908362 908363 [...] (34 flits)
Class 0:
Remaining flits: 966492 966493 966494 966495 966496 966497 966498 966499 966500 966501 [...] (4787548 flits)
Measured flits: 966492 966493 966494 966495 966496 966497 966498 966499 966500 966501 [...] (18 flits)
Class 0:
Remaining flits: 966492 966493 966494 966495 966496 966497 966498 966499 966500 966501 [...] (4793594 flits)
Measured flits: 966492 966493 966494 966495 966496 966497 966498 966499 966500 966501 [...] (18 flits)
Class 0:
Remaining flits: 966492 966493 966494 966495 966496 966497 966498 966499 966500 966501 [...] (4799506 flits)
Measured flits: 966492 966493 966494 966495 966496 966497 966498 966499 966500 966501 [...] (18 flits)
Class 0:
Remaining flits: 966492 966493 966494 966495 966496 966497 966498 966499 966500 966501 [...] (4806893 flits)
Measured flits: 966492 966493 966494 966495 966496 966497 966498 966499 966500 966501 [...] (18 flits)
Class 0:
Remaining flits: 966492 966493 966494 966495 966496 966497 966498 966499 966500 966501 [...] (4813460 flits)
Measured flits: 966492 966493 966494 966495 966496 966497 966498 966499 966500 966501 [...] (18 flits)
Class 0:
Remaining flits: 966492 966493 966494 966495 966496 966497 966498 966499 966500 966501 [...] (4821850 flits)
Measured flits: 966492 966493 966494 966495 966496 966497 966498 966499 966500 966501 [...] (18 flits)
Draining remaining packets ...
Class 0:
Remaining flits: 1262430 1262431 1262432 1262433 1262434 1262435 1262436 1262437 1262438 1262439 [...] (4795858 flits)
Measured flits: (0 flits)
Class 0:
Remaining flits: 1262430 1262431 1262432 1262433 1262434 1262435 1262436 1262437 1262438 1262439 [...] (4762003 flits)
Measured flits: (0 flits)
Class 0:
Remaining flits: 1262430 1262431 1262432 1262433 1262434 1262435 1262436 1262437 1262438 1262439 [...] (4727353 flits)
Measured flits: (0 flits)
Class 0:
Remaining flits: 1262430 1262431 1262432 1262433 1262434 1262435 1262436 1262437 1262438 1262439 [...] (4693267 flits)
Measured flits: (0 flits)
Class 0:
Remaining flits: 1262430 1262431 1262432 1262433 1262434 1262435 1262436 1262437 1262438 1262439 [...] (4659856 flits)
Measured flits: (0 flits)
Class 0:
Remaining flits: 1262430 1262431 1262432 1262433 1262434 1262435 1262436 1262437 1262438 1262439 [...] (4626557 flits)
Measured flits: (0 flits)
Class 0:
Remaining flits: 1262430 1262431 1262432 1262433 1262434 1262435 1262436 1262437 1262438 1262439 [...] (4591865 flits)
Measured flits: (0 flits)
Class 0:
Remaining flits: 1262430 1262431 1262432 1262433 1262434 1262435 1262436 1262437 1262438 1262439 [...] (4556790 flits)
Measured flits: (0 flits)
Class 0:
Remaining flits: 1262430 1262431 1262432 1262433 1262434 1262435 1262436 1262437 1262438 1262439 [...] (4522732 flits)
Measured flits: (0 flits)
Class 0:
Remaining flits: 1262430 1262431 1262432 1262433 1262434 1262435 1262436 1262437 1262438 1262439 [...] (4490063 flits)
Measured flits: (0 flits)
Class 0:
Remaining flits: 1262430 1262431 1262432 1262433 1262434 1262435 1262436 1262437 1262438 1262439 [...] (4457085 flits)
Measured flits: (0 flits)
Class 0:
Remaining flits: 1262430 1262431 1262432 1262433 1262434 1262435 1262436 1262437 1262438 1262439 [...] (4423317 flits)
Measured flits: (0 flits)
Class 0:
Remaining flits: 1262442 1262443 1262444 1262445 1262446 1262447 1347228 1347229 1347230 1347231 [...] (4388882 flits)
Measured flits: (0 flits)
Class 0:
Remaining flits: 1262443 1262444 1262445 1262446 1262447 1347228 1347229 1347230 1347231 1347232 [...] (4355000 flits)
Measured flits: (0 flits)
Class 0:
Remaining flits: 1262443 1262444 1262445 1262446 1262447 1347228 1347229 1347230 1347231 1347232 [...] (4320395 flits)
Measured flits: (0 flits)
Class 0:
Remaining flits: 1347228 1347229 1347230 1347231 1347232 1347233 1347234 1347235 1347236 1347237 [...] (4286386 flits)
Measured flits: (0 flits)
Class 0:
Remaining flits: 1347228 1347229 1347230 1347231 1347232 1347233 1347234 1347235 1347236 1347237 [...] (4253635 flits)
Measured flits: (0 flits)
Class 0:
Remaining flits: 1347228 1347229 1347230 1347231 1347232 1347233 1347234 1347235 1347236 1347237 [...] (4221118 flits)
Measured flits: (0 flits)
Class 0:
Remaining flits: 1347228 1347229 1347230 1347231 1347232 1347233 1347234 1347235 1347236 1347237 [...] (4188906 flits)
Measured flits: (0 flits)
Class 0:
Remaining flits: 1347228 1347229 1347230 1347231 1347232 1347233 1347234 1347235 1347236 1347237 [...] (4155411 flits)
Measured flits: (0 flits)
Class 0:
Remaining flits: 1347228 1347229 1347230 1347231 1347232 1347233 1347234 1347235 1347236 1347237 [...] (4121155 flits)
Measured flits: (0 flits)
Class 0:
Remaining flits: 1347228 1347229 1347230 1347231 1347232 1347233 1347234 1347235 1347236 1347237 [...] (4087335 flits)
Measured flits: (0 flits)
Class 0:
Remaining flits: 1347228 1347229 1347230 1347231 1347232 1347233 1347234 1347235 1347236 1347237 [...] (4053084 flits)
Measured flits: (0 flits)
Class 0:
Remaining flits: 1347228 1347229 1347230 1347231 1347232 1347233 1347234 1347235 1347236 1347237 [...] (4018963 flits)
Measured flits: (0 flits)
Class 0:
Remaining flits: 1347228 1347229 1347230 1347231 1347232 1347233 1347234 1347235 1347236 1347237 [...] (3985136 flits)
Measured flits: (0 flits)
Class 0:
Remaining flits: 1347228 1347229 1347230 1347231 1347232 1347233 1347234 1347235 1347236 1347237 [...] (3951747 flits)
Measured flits: (0 flits)
Class 0:
Remaining flits: 1347228 1347229 1347230 1347231 1347232 1347233 1347234 1347235 1347236 1347237 [...] (3919082 flits)
Measured flits: (0 flits)
Class 0:
Remaining flits: 1347228 1347229 1347230 1347231 1347232 1347233 1347234 1347235 1347236 1347237 [...] (3886726 flits)
Measured flits: (0 flits)
Class 0:
Remaining flits: 1347228 1347229 1347230 1347231 1347232 1347233 1347234 1347235 1347236 1347237 [...] (3853423 flits)
Measured flits: (0 flits)
Class 0:
Remaining flits: 1347228 1347229 1347230 1347231 1347232 1347233 1347234 1347235 1347236 1347237 [...] (3819580 flits)
Measured flits: (0 flits)
Class 0:
Remaining flits: 1642914 1642915 1642916 1642917 1642918 1642919 1642920 1642921 1642922 1642923 [...] (3786538 flits)
Measured flits: (0 flits)
Class 0:
Remaining flits: 2037168 2037169 2037170 2037171 2037172 2037173 2037174 2037175 2037176 2037177 [...] (3753967 flits)
Measured flits: (0 flits)
Class 0:
Remaining flits: 2037168 2037169 2037170 2037171 2037172 2037173 2037174 2037175 2037176 2037177 [...] (3722741 flits)
Measured flits: (0 flits)
Class 0:
Remaining flits: 2057886 2057887 2057888 2057889 2057890 2057891 2057892 2057893 2057894 2057895 [...] (3691496 flits)
Measured flits: (0 flits)
Class 0:
Remaining flits: 2057886 2057887 2057888 2057889 2057890 2057891 2057892 2057893 2057894 2057895 [...] (3661255 flits)
Measured flits: (0 flits)
Class 0:
Remaining flits: 2057886 2057887 2057888 2057889 2057890 2057891 2057892 2057893 2057894 2057895 [...] (3628138 flits)
Measured flits: (0 flits)
Class 0:
Remaining flits: 2057886 2057887 2057888 2057889 2057890 2057891 2057892 2057893 2057894 2057895 [...] (3595012 flits)
Measured flits: (0 flits)
Class 0:
Remaining flits: 2057886 2057887 2057888 2057889 2057890 2057891 2057892 2057893 2057894 2057895 [...] (3562824 flits)
Measured flits: (0 flits)
Class 0:
Remaining flits: 2057886 2057887 2057888 2057889 2057890 2057891 2057892 2057893 2057894 2057895 [...] (3530407 flits)
Measured flits: (0 flits)
Class 0:
Remaining flits: 2057886 2057887 2057888 2057889 2057890 2057891 2057892 2057893 2057894 2057895 [...] (3498289 flits)
Measured flits: (0 flits)
Class 0:
Remaining flits: 2057886 2057887 2057888 2057889 2057890 2057891 2057892 2057893 2057894 2057895 [...] (3465810 flits)
Measured flits: (0 flits)
Class 0:
Remaining flits: 2057886 2057887 2057888 2057889 2057890 2057891 2057892 2057893 2057894 2057895 [...] (3434880 flits)
Measured flits: (0 flits)
Class 0:
Remaining flits: 2057886 2057887 2057888 2057889 2057890 2057891 2057892 2057893 2057894 2057895 [...] (3402309 flits)
Measured flits: (0 flits)
Class 0:
Remaining flits: 2057886 2057887 2057888 2057889 2057890 2057891 2057892 2057893 2057894 2057895 [...] (3369707 flits)
Measured flits: (0 flits)
Class 0:
Remaining flits: 2057887 2057888 2057889 2057890 2057891 2057892 2057893 2057894 2057895 2057896 [...] (3336916 flits)
Measured flits: (0 flits)
Class 0:
Remaining flits: 2215926 2215927 2215928 2215929 2215930 2215931 2215932 2215933 2215934 2215935 [...] (3304460 flits)
Measured flits: (0 flits)
Class 0:
Remaining flits: 2215926 2215927 2215928 2215929 2215930 2215931 2215932 2215933 2215934 2215935 [...] (3271230 flits)
Measured flits: (0 flits)
Class 0:
Remaining flits: 2215926 2215927 2215928 2215929 2215930 2215931 2215932 2215933 2215934 2215935 [...] (3238240 flits)
Measured flits: (0 flits)
Class 0:
Remaining flits: 2215926 2215927 2215928 2215929 2215930 2215931 2215932 2215933 2215934 2215935 [...] (3205156 flits)
Measured flits: (0 flits)
Class 0:
Remaining flits: 2215926 2215927 2215928 2215929 2215930 2215931 2215932 2215933 2215934 2215935 [...] (3171904 flits)
Measured flits: (0 flits)
Class 0:
Remaining flits: 2215926 2215927 2215928 2215929 2215930 2215931 2215932 2215933 2215934 2215935 [...] (3139442 flits)
Measured flits: (0 flits)
Class 0:
Remaining flits: 2215926 2215927 2215928 2215929 2215930 2215931 2215932 2215933 2215934 2215935 [...] (3106816 flits)
Measured flits: (0 flits)
Class 0:
Remaining flits: 2215926 2215927 2215928 2215929 2215930 2215931 2215932 2215933 2215934 2215935 [...] (3074063 flits)
Measured flits: (0 flits)
Class 0:
Remaining flits: 2215926 2215927 2215928 2215929 2215930 2215931 2215932 2215933 2215934 2215935 [...] (3042151 flits)
Measured flits: (0 flits)
Class 0:
Remaining flits: 2215926 2215927 2215928 2215929 2215930 2215931 2215932 2215933 2215934 2215935 [...] (3010917 flits)
Measured flits: (0 flits)
Class 0:
Remaining flits: 2215926 2215927 2215928 2215929 2215930 2215931 2215932 2215933 2215934 2215935 [...] (2980026 flits)
Measured flits: (0 flits)
Class 0:
Remaining flits: 2215926 2215927 2215928 2215929 2215930 2215931 2215932 2215933 2215934 2215935 [...] (2948320 flits)
Measured flits: (0 flits)
Class 0:
Remaining flits: 2215926 2215927 2215928 2215929 2215930 2215931 2215932 2215933 2215934 2215935 [...] (2919093 flits)
Measured flits: (0 flits)
Class 0:
Remaining flits: 2215926 2215927 2215928 2215929 2215930 2215931 2215932 2215933 2215934 2215935 [...] (2888946 flits)
Measured flits: (0 flits)
Class 0:
Remaining flits: 2215926 2215927 2215928 2215929 2215930 2215931 2215932 2215933 2215934 2215935 [...] (2858190 flits)
Measured flits: (0 flits)
Class 0:
Remaining flits: 2215926 2215927 2215928 2215929 2215930 2215931 2215932 2215933 2215934 2215935 [...] (2827192 flits)
Measured flits: (0 flits)
Class 0:
Remaining flits: 2215926 2215927 2215928 2215929 2215930 2215931 2215932 2215933 2215934 2215935 [...] (2795578 flits)
Measured flits: (0 flits)
Class 0:
Remaining flits: 2311074 2311075 2311076 2311077 2311078 2311079 2311080 2311081 2311082 2311083 [...] (2764559 flits)
Measured flits: (0 flits)
Class 0:
Remaining flits: 2311074 2311075 2311076 2311077 2311078 2311079 2311080 2311081 2311082 2311083 [...] (2733358 flits)
Measured flits: (0 flits)
Class 0:
Remaining flits: 2311074 2311075 2311076 2311077 2311078 2311079 2311080 2311081 2311082 2311083 [...] (2701767 flits)
Measured flits: (0 flits)
Class 0:
Remaining flits: 2311090 2311091 2498850 2498851 2498852 2498853 2498854 2498855 2498856 2498857 [...] (2669048 flits)
Measured flits: (0 flits)
Class 0:
Remaining flits: 2498850 2498851 2498852 2498853 2498854 2498855 2498856 2498857 2498858 2498859 [...] (2637520 flits)
Measured flits: (0 flits)
Class 0:
Remaining flits: 2514312 2514313 2514314 2514315 2514316 2514317 2514318 2514319 2514320 2514321 [...] (2605961 flits)
Measured flits: (0 flits)
Class 0:
Remaining flits: 2514312 2514313 2514314 2514315 2514316 2514317 2514318 2514319 2514320 2514321 [...] (2575328 flits)
Measured flits: (0 flits)
Class 0:
Remaining flits: 2514312 2514313 2514314 2514315 2514316 2514317 2514318 2514319 2514320 2514321 [...] (2543232 flits)
Measured flits: (0 flits)
Class 0:
Remaining flits: 2514312 2514313 2514314 2514315 2514316 2514317 2514318 2514319 2514320 2514321 [...] (2510972 flits)
Measured flits: (0 flits)
Class 0:
Remaining flits: 2811150 2811151 2811152 2811153 2811154 2811155 2811156 2811157 2811158 2811159 [...] (2479099 flits)
Measured flits: (0 flits)
Class 0:
Remaining flits: 2811150 2811151 2811152 2811153 2811154 2811155 2811156 2811157 2811158 2811159 [...] (2447799 flits)
Measured flits: (0 flits)
Class 0:
Remaining flits: 2811150 2811151 2811152 2811153 2811154 2811155 2811156 2811157 2811158 2811159 [...] (2416023 flits)
Measured flits: (0 flits)
Class 0:
Remaining flits: 2811150 2811151 2811152 2811153 2811154 2811155 2811156 2811157 2811158 2811159 [...] (2384698 flits)
Measured flits: (0 flits)
Class 0:
Remaining flits: 2811150 2811151 2811152 2811153 2811154 2811155 2811156 2811157 2811158 2811159 [...] (2352155 flits)
Measured flits: (0 flits)
Class 0:
Remaining flits: 2811150 2811151 2811152 2811153 2811154 2811155 2811156 2811157 2811158 2811159 [...] (2321212 flits)
Measured flits: (0 flits)
Class 0:
Remaining flits: 2811150 2811151 2811152 2811153 2811154 2811155 2811156 2811157 2811158 2811159 [...] (2292254 flits)
Measured flits: (0 flits)
Class 0:
Remaining flits: 2811150 2811151 2811152 2811153 2811154 2811155 2811156 2811157 2811158 2811159 [...] (2262027 flits)
Measured flits: (0 flits)
Class 0:
Remaining flits: 2811150 2811151 2811152 2811153 2811154 2811155 2811156 2811157 2811158 2811159 [...] (2230035 flits)
Measured flits: (0 flits)
Class 0:
Remaining flits: 2811150 2811151 2811152 2811153 2811154 2811155 2811156 2811157 2811158 2811159 [...] (2197780 flits)
Measured flits: (0 flits)
Class 0:
Remaining flits: 2811150 2811151 2811152 2811153 2811154 2811155 2811156 2811157 2811158 2811159 [...] (2165115 flits)
Measured flits: (0 flits)
Class 0:
Remaining flits: 2811150 2811151 2811152 2811153 2811154 2811155 2811156 2811157 2811158 2811159 [...] (2131940 flits)
Measured flits: (0 flits)
Class 0:
Remaining flits: 2811150 2811151 2811152 2811153 2811154 2811155 2811156 2811157 2811158 2811159 [...] (2099351 flits)
Measured flits: (0 flits)
Class 0:
Remaining flits: 2889936 2889937 2889938 2889939 2889940 2889941 2889942 2889943 2889944 2889945 [...] (2066386 flits)
Measured flits: (0 flits)
Class 0:
Remaining flits: 2889936 2889937 2889938 2889939 2889940 2889941 2889942 2889943 2889944 2889945 [...] (2033812 flits)
Measured flits: (0 flits)
Class 0:
Remaining flits: 2889936 2889937 2889938 2889939 2889940 2889941 2889942 2889943 2889944 2889945 [...] (2001611 flits)
Measured flits: (0 flits)
Class 0:
Remaining flits: 2889936 2889937 2889938 2889939 2889940 2889941 2889942 2889943 2889944 2889945 [...] (1969200 flits)
Measured flits: (0 flits)
Class 0:
Remaining flits: 2889936 2889937 2889938 2889939 2889940 2889941 2889942 2889943 2889944 2889945 [...] (1936951 flits)
Measured flits: (0 flits)
Class 0:
Remaining flits: 2889936 2889937 2889938 2889939 2889940 2889941 2889942 2889943 2889944 2889945 [...] (1905517 flits)
Measured flits: (0 flits)
Class 0:
Remaining flits: 2889936 2889937 2889938 2889939 2889940 2889941 2889942 2889943 2889944 2889945 [...] (1873271 flits)
Measured flits: (0 flits)
Class 0:
Remaining flits: 2889936 2889937 2889938 2889939 2889940 2889941 2889942 2889943 2889944 2889945 [...] (1839930 flits)
Measured flits: (0 flits)
Class 0:
Remaining flits: 2889936 2889937 2889938 2889939 2889940 2889941 2889942 2889943 2889944 2889945 [...] (1806725 flits)
Measured flits: (0 flits)
Class 0:
Remaining flits: 2889936 2889937 2889938 2889939 2889940 2889941 2889942 2889943 2889944 2889945 [...] (1773990 flits)
Measured flits: (0 flits)
Class 0:
Remaining flits: 2889936 2889937 2889938 2889939 2889940 2889941 2889942 2889943 2889944 2889945 [...] (1742082 flits)
Measured flits: (0 flits)
Class 0:
Remaining flits: 2889936 2889937 2889938 2889939 2889940 2889941 2889942 2889943 2889944 2889945 [...] (1710034 flits)
Measured flits: (0 flits)
Class 0:
Remaining flits: 2889936 2889937 2889938 2889939 2889940 2889941 2889942 2889943 2889944 2889945 [...] (1677670 flits)
Measured flits: (0 flits)
Class 0:
Remaining flits: 2889936 2889937 2889938 2889939 2889940 2889941 2889942 2889943 2889944 2889945 [...] (1645301 flits)
Measured flits: (0 flits)
Class 0:
Remaining flits: 2889936 2889937 2889938 2889939 2889940 2889941 2889942 2889943 2889944 2889945 [...] (1612383 flits)
Measured flits: (0 flits)
Class 0:
Remaining flits: 2889936 2889937 2889938 2889939 2889940 2889941 2889942 2889943 2889944 2889945 [...] (1579738 flits)
Measured flits: (0 flits)
Class 0:
Remaining flits: 2889936 2889937 2889938 2889939 2889940 2889941 2889942 2889943 2889944 2889945 [...] (1546574 flits)
Measured flits: (0 flits)
Class 0:
Remaining flits: 2889936 2889937 2889938 2889939 2889940 2889941 2889942 2889943 2889944 2889945 [...] (1513663 flits)
Measured flits: (0 flits)
Class 0:
Remaining flits: 2889936 2889937 2889938 2889939 2889940 2889941 2889942 2889943 2889944 2889945 [...] (1481164 flits)
Measured flits: (0 flits)
Class 0:
Remaining flits: 2889936 2889937 2889938 2889939 2889940 2889941 2889942 2889943 2889944 2889945 [...] (1449351 flits)
Measured flits: (0 flits)
Class 0:
Remaining flits: 2889936 2889937 2889938 2889939 2889940 2889941 2889942 2889943 2889944 2889945 [...] (1416717 flits)
Measured flits: (0 flits)
Class 0:
Remaining flits: 3285738 3285739 3285740 3285741 3285742 3285743 3285744 3285745 3285746 3285747 [...] (1384038 flits)
Measured flits: (0 flits)
Class 0:
Remaining flits: 3285738 3285739 3285740 3285741 3285742 3285743 3285744 3285745 3285746 3285747 [...] (1350929 flits)
Measured flits: (0 flits)
Class 0:
Remaining flits: 3285738 3285739 3285740 3285741 3285742 3285743 3285744 3285745 3285746 3285747 [...] (1318105 flits)
Measured flits: (0 flits)
Class 0:
Remaining flits: 3285738 3285739 3285740 3285741 3285742 3285743 3285744 3285745 3285746 3285747 [...] (1285234 flits)
Measured flits: (0 flits)
Class 0:
Remaining flits: 3285738 3285739 3285740 3285741 3285742 3285743 3285744 3285745 3285746 3285747 [...] (1252773 flits)
Measured flits: (0 flits)
Class 0:
Remaining flits: 3285738 3285739 3285740 3285741 3285742 3285743 3285744 3285745 3285746 3285747 [...] (1220684 flits)
Measured flits: (0 flits)
Class 0:
Remaining flits: 3285738 3285739 3285740 3285741 3285742 3285743 3285744 3285745 3285746 3285747 [...] (1188226 flits)
Measured flits: (0 flits)
Class 0:
Remaining flits: 3285738 3285739 3285740 3285741 3285742 3285743 3285744 3285745 3285746 3285747 [...] (1155823 flits)
Measured flits: (0 flits)
Class 0:
Remaining flits: 3285738 3285739 3285740 3285741 3285742 3285743 3285744 3285745 3285746 3285747 [...] (1124827 flits)
Measured flits: (0 flits)
Class 0:
Remaining flits: 3285738 3285739 3285740 3285741 3285742 3285743 3285744 3285745 3285746 3285747 [...] (1093242 flits)
Measured flits: (0 flits)
Class 0:
Remaining flits: 3285738 3285739 3285740 3285741 3285742 3285743 3285744 3285745 3285746 3285747 [...] (1060747 flits)
Measured flits: (0 flits)
Class 0:
Remaining flits: 3285738 3285739 3285740 3285741 3285742 3285743 3285744 3285745 3285746 3285747 [...] (1029259 flits)
Measured flits: (0 flits)
Class 0:
Remaining flits: 3285738 3285739 3285740 3285741 3285742 3285743 3285744 3285745 3285746 3285747 [...] (997116 flits)
Measured flits: (0 flits)
Class 0:
Remaining flits: 3285738 3285739 3285740 3285741 3285742 3285743 3285744 3285745 3285746 3285747 [...] (965023 flits)
Measured flits: (0 flits)
Class 0:
Remaining flits: 3285738 3285739 3285740 3285741 3285742 3285743 3285744 3285745 3285746 3285747 [...] (932367 flits)
Measured flits: (0 flits)
Class 0:
Remaining flits: 3285738 3285739 3285740 3285741 3285742 3285743 3285744 3285745 3285746 3285747 [...] (900753 flits)
Measured flits: (0 flits)
Class 0:
Remaining flits: 3285738 3285739 3285740 3285741 3285742 3285743 3285744 3285745 3285746 3285747 [...] (868524 flits)
Measured flits: (0 flits)
Class 0:
Remaining flits: 3285738 3285739 3285740 3285741 3285742 3285743 3285744 3285745 3285746 3285747 [...] (835428 flits)
Measured flits: (0 flits)
Class 0:
Remaining flits: 3285741 3285742 3285743 3285744 3285745 3285746 3285747 3285748 3285749 3285750 [...] (802294 flits)
Measured flits: (0 flits)
Class 0:
Remaining flits: 3285741 3285742 3285743 3285744 3285745 3285746 3285747 3285748 3285749 3285750 [...] (769488 flits)
Measured flits: (0 flits)
Class 0:
Remaining flits: 3402900 3402901 3402902 3402903 3402904 3402905 3402906 3402907 3402908 3402909 [...] (736934 flits)
Measured flits: (0 flits)
Class 0:
Remaining flits: 3402900 3402901 3402902 3402903 3402904 3402905 3402906 3402907 3402908 3402909 [...] (704362 flits)
Measured flits: (0 flits)
Class 0:
Remaining flits: 3402900 3402901 3402902 3402903 3402904 3402905 3402906 3402907 3402908 3402909 [...] (672828 flits)
Measured flits: (0 flits)
Class 0:
Remaining flits: 3402900 3402901 3402902 3402903 3402904 3402905 3402906 3402907 3402908 3402909 [...] (640926 flits)
Measured flits: (0 flits)
Class 0:
Remaining flits: 3402900 3402901 3402902 3402903 3402904 3402905 3402906 3402907 3402908 3402909 [...] (609054 flits)
Measured flits: (0 flits)
Class 0:
Remaining flits: 3402900 3402901 3402902 3402903 3402904 3402905 3402906 3402907 3402908 3402909 [...] (575605 flits)
Measured flits: (0 flits)
Class 0:
Remaining flits: 3402900 3402901 3402902 3402903 3402904 3402905 3402906 3402907 3402908 3402909 [...] (542343 flits)
Measured flits: (0 flits)
Class 0:
Remaining flits: 3402900 3402901 3402902 3402903 3402904 3402905 3402906 3402907 3402908 3402909 [...] (509340 flits)
Measured flits: (0 flits)
Class 0:
Remaining flits: 3402900 3402901 3402902 3402903 3402904 3402905 3402906 3402907 3402908 3402909 [...] (476452 flits)
Measured flits: (0 flits)
Class 0:
Remaining flits: 3402900 3402901 3402902 3402903 3402904 3402905 3402906 3402907 3402908 3402909 [...] (443509 flits)
Measured flits: (0 flits)
Class 0:
Remaining flits: 3402900 3402901 3402902 3402903 3402904 3402905 3402906 3402907 3402908 3402909 [...] (410360 flits)
Measured flits: (0 flits)
Class 0:
Remaining flits: 3402900 3402901 3402902 3402903 3402904 3402905 3402906 3402907 3402908 3402909 [...] (377583 flits)
Measured flits: (0 flits)
Class 0:
Remaining flits: 3402900 3402901 3402902 3402903 3402904 3402905 3402906 3402907 3402908 3402909 [...] (344615 flits)
Measured flits: (0 flits)
Class 0:
Remaining flits: 3402900 3402901 3402902 3402903 3402904 3402905 3402906 3402907 3402908 3402909 [...] (312606 flits)
Measured flits: (0 flits)
Class 0:
Remaining flits: 4062996 4062997 4062998 4062999 4063000 4063001 4063002 4063003 4063004 4063005 [...] (281072 flits)
Measured flits: (0 flits)
Class 0:
Remaining flits: 4062996 4062997 4062998 4062999 4063000 4063001 4063002 4063003 4063004 4063005 [...] (249745 flits)
Measured flits: (0 flits)
Class 0:
Remaining flits: 4062996 4062997 4062998 4062999 4063000 4063001 4063002 4063003 4063004 4063005 [...] (219659 flits)
Measured flits: (0 flits)
Class 0:
Remaining flits: 4062996 4062997 4062998 4062999 4063000 4063001 4063002 4063003 4063004 4063005 [...] (191673 flits)
Measured flits: (0 flits)
Class 0:
Remaining flits: 4062996 4062997 4062998 4062999 4063000 4063001 4063002 4063003 4063004 4063005 [...] (164213 flits)
Measured flits: (0 flits)
Class 0:
Remaining flits: 4062996 4062997 4062998 4062999 4063000 4063001 4063002 4063003 4063004 4063005 [...] (137903 flits)
Measured flits: (0 flits)
Class 0:
Remaining flits: 4062996 4062997 4062998 4062999 4063000 4063001 4063002 4063003 4063004 4063005 [...] (112025 flits)
Measured flits: (0 flits)
Class 0:
Remaining flits: 4062996 4062997 4062998 4062999 4063000 4063001 4063002 4063003 4063004 4063005 [...] (88620 flits)
Measured flits: (0 flits)
Class 0:
Remaining flits: 4241610 4241611 4241612 4241613 4241614 4241615 4241616 4241617 4241618 4241619 [...] (68626 flits)
Measured flits: (0 flits)
Class 0:
Remaining flits: 4241610 4241611 4241612 4241613 4241614 4241615 4241616 4241617 4241618 4241619 [...] (50431 flits)
Measured flits: (0 flits)
Class 0:
Remaining flits: 4241610 4241611 4241612 4241613 4241614 4241615 4241616 4241617 4241618 4241619 [...] (35092 flits)
Measured flits: (0 flits)
Class 0:
Remaining flits: 4241610 4241611 4241612 4241613 4241614 4241615 4241616 4241617 4241618 4241619 [...] (21744 flits)
Measured flits: (0 flits)
Class 0:
Remaining flits: 4241610 4241611 4241612 4241613 4241614 4241615 4241616 4241617 4241618 4241619 [...] (11749 flits)
Measured flits: (0 flits)
Class 0:
Remaining flits: 4241610 4241611 4241612 4241613 4241614 4241615 4241616 4241617 4241618 4241619 [...] (5473 flits)
Measured flits: (0 flits)
Class 0:
Remaining flits: 4574381 4574382 4574383 4574384 4574385 4574386 4574387 4574388 4574389 4574390 [...] (2707 flits)
Measured flits: (0 flits)
Class 0:
Remaining flits: 5884146 5884147 5884148 5884149 5884150 5884151 5884152 5884153 5884154 5884155 [...] (1707 flits)
Measured flits: (0 flits)
Class 0:
Remaining flits: 7133465 7133466 7133467 7133468 7133469 7133470 7133471 7320600 7320601 7320602 [...] (709 flits)
Measured flits: (0 flits)
Time taken is 277610 cycles
====== Overall Traffic Statistics ======
====== Traffic class 0 ======
Packet latency average = 13552.3 (1 samples)
	minimum = 25 (1 samples)
	maximum = 112268 (1 samples)
Network latency average = 13233.2 (1 samples)
	minimum = 23 (1 samples)
	maximum = 112035 (1 samples)
Flit latency average = 80363.2 (1 samples)
	minimum = 6 (1 samples)
	maximum = 234316 (1 samples)
Fragmentation average = 313.636 (1 samples)
	minimum = 0 (1 samples)
	maximum = 12181 (1 samples)
Injected packet rate average = 0.0323906 (1 samples)
	minimum = 0.0138571 (1 samples)
	maximum = 0.0555714 (1 samples)
Accepted packet rate average = 0.0138318 (1 samples)
	minimum = 0.01 (1 samples)
	maximum = 0.0171429 (1 samples)
Injected flit rate average = 0.582882 (1 samples)
	minimum = 0.249429 (1 samples)
	maximum = 1 (1 samples)
Accepted flit rate average = 0.248935 (1 samples)
	minimum = 0.177143 (1 samples)
	maximum = 0.312714 (1 samples)
Injected packet size average = 17.9954 (1 samples)
Accepted packet size average = 17.9972 (1 samples)
Hops average = 5.06271 (1 samples)
Total run time 572.243
