BEGIN Configuration File: networks/mezzanine_config
topology = mezzanine;
n = 12;

routing_function = multipath;
internal_speedup = 2.0;
latency_thres = 100000.0;
use_read_write = 0;

sample_period = 1000;
injection_rate = 0.5;
packet_size = 18;

noq = 1;
routing_delay = 0;
vc_alloc_delay = 1;
sw_alloc_delay = 1;
st_final_delay = 1;
vc_allocator = islip; 
sw_allocator = islip;
alloc_iters  = 4;
num_vcs     = 12;
buffer_policy = private; // private or shared
buf_size = -1; // -1 for buffer_policy = private;
vc_buf_size = 4096; // size of each VOQ with buffer_policy = private
output_buffer_size = -1;


traffic = uniform;

//mezW = 0.0;
//mezPredefinedPatternType = shift-inter; //shift-qfdb

END Configuration File: networks/mezzanine_config
OVERRIDE Parameter: injection_rate=0.011327
OVERRIDE Parameter: routing_function=multipath
OVERRIDE Parameter: num_vcs=12
OVERRIDE Parameter: vc_buf_size=1024
OVERRIDE Parameter: internal_speedup=2.0
OVERRIDE Parameter: injection_process=bernoulli
OVERRIDE Parameter: sim_type=latency
OVERRIDE Parameter: burst_alpha=0.0038461538
OVERRIDE Parameter: burst_beta=0.1
network: network_0
========================== Routing table  =====================
Number of Subnets: 1
Class 0:
Packet latency average = 78.1378
	minimum = 22
	maximum = 270
Network latency average = 76.1521
	minimum = 22
	maximum = 252
Slowest packet = 845
Flit latency average = 52.7093
	minimum = 5
	maximum = 240
Slowest flit = 29214
Fragmentation average = 12.3154
	minimum = 0
	maximum = 72
Injected packet rate average = 0.0112448
	minimum = 0.004 (at node 12)
	maximum = 0.021 (at node 162)
Accepted packet rate average = 0.0102396
	minimum = 0.002 (at node 174)
	maximum = 0.018 (at node 91)
Injected flit rate average = 0.200438
	minimum = 0.072 (at node 12)
	maximum = 0.378 (at node 162)
Accepted flit rate average= 0.187323
	minimum = 0.036 (at node 174)
	maximum = 0.324 (at node 91)
Injected packet length average = 17.8249
Accepted packet length average = 18.294
Total in-flight flits = 2896 (0 measured)
latency change    = 1
throughput change = 1
Class 0:
Packet latency average = 85.7765
	minimum = 22
	maximum = 338
Network latency average = 83.7882
	minimum = 22
	maximum = 338
Slowest packet = 2127
Flit latency average = 60.0844
	minimum = 5
	maximum = 321
Slowest flit = 38303
Fragmentation average = 12.4956
	minimum = 0
	maximum = 72
Injected packet rate average = 0.0110964
	minimum = 0.0055 (at node 40)
	maximum = 0.017 (at node 166)
Accepted packet rate average = 0.0106719
	minimum = 0.006 (at node 30)
	maximum = 0.017 (at node 22)
Injected flit rate average = 0.198698
	minimum = 0.0955 (at node 40)
	maximum = 0.306 (at node 166)
Accepted flit rate average= 0.193398
	minimum = 0.108 (at node 30)
	maximum = 0.306 (at node 22)
Injected packet length average = 17.9066
Accepted packet length average = 18.1223
Total in-flight flits = 2433 (0 measured)
latency change    = 0.0890528
throughput change = 0.0314145
Class 0:
Packet latency average = 85.3986
	minimum = 22
	maximum = 315
Network latency average = 83.2259
	minimum = 22
	maximum = 315
Slowest packet = 5768
Flit latency average = 59.2597
	minimum = 5
	maximum = 298
Slowest flit = 103841
Fragmentation average = 12.5662
	minimum = 0
	maximum = 66
Injected packet rate average = 0.0112969
	minimum = 0.002 (at node 100)
	maximum = 0.022 (at node 144)
Accepted packet rate average = 0.01125
	minimum = 0.005 (at node 121)
	maximum = 0.02 (at node 73)
Injected flit rate average = 0.203667
	minimum = 0.036 (at node 100)
	maximum = 0.386 (at node 144)
Accepted flit rate average= 0.202594
	minimum = 0.073 (at node 184)
	maximum = 0.354 (at node 73)
Injected packet length average = 18.0286
Accepted packet length average = 18.0083
Total in-flight flits = 2577 (0 measured)
latency change    = 0.00442472
throughput change = 0.0453879
Warmed up ...Time used is 3000 cycles
Class 0:
Packet latency average = 88.4632
	minimum = 22
	maximum = 351
Network latency average = 86.4089
	minimum = 22
	maximum = 324
Slowest packet = 7301
Flit latency average = 63.9594
	minimum = 5
	maximum = 339
Slowest flit = 142058
Fragmentation average = 12.5289
	minimum = 0
	maximum = 63
Injected packet rate average = 0.0117604
	minimum = 0.002 (at node 104)
	maximum = 0.02 (at node 78)
Accepted packet rate average = 0.0114427
	minimum = 0.003 (at node 163)
	maximum = 0.022 (at node 120)
Injected flit rate average = 0.210964
	minimum = 0.036 (at node 104)
	maximum = 0.36 (at node 117)
Accepted flit rate average= 0.20662
	minimum = 0.064 (at node 163)
	maximum = 0.388 (at node 120)
Injected packet length average = 17.9384
Accepted packet length average = 18.0569
Total in-flight flits = 3550 (3550 measured)
latency change    = 0.0346426
throughput change = 0.0194853
Class 0:
Packet latency average = 92.5592
	minimum = 22
	maximum = 445
Network latency average = 90.455
	minimum = 22
	maximum = 445
Slowest packet = 9036
Flit latency average = 66.829
	minimum = 5
	maximum = 428
Slowest flit = 162648
Fragmentation average = 12.9335
	minimum = 0
	maximum = 71
Injected packet rate average = 0.0114141
	minimum = 0.0065 (at node 18)
	maximum = 0.017 (at node 117)
Accepted packet rate average = 0.0114479
	minimum = 0.0065 (at node 86)
	maximum = 0.019 (at node 182)
Injected flit rate average = 0.20537
	minimum = 0.117 (at node 18)
	maximum = 0.3115 (at node 172)
Accepted flit rate average= 0.205956
	minimum = 0.117 (at node 86)
	maximum = 0.342 (at node 182)
Injected packet length average = 17.9927
Accepted packet length average = 17.9907
Total in-flight flits = 2384 (2384 measured)
latency change    = 0.0442525
throughput change = 0.0032243
Class 0:
Packet latency average = 88.8565
	minimum = 22
	maximum = 445
Network latency average = 86.7347
	minimum = 22
	maximum = 445
Slowest packet = 9036
Flit latency average = 63.1488
	minimum = 5
	maximum = 428
Slowest flit = 162648
Fragmentation average = 12.7413
	minimum = 0
	maximum = 71
Injected packet rate average = 0.0113872
	minimum = 0.007 (at node 104)
	maximum = 0.0163333 (at node 172)
Accepted packet rate average = 0.0113299
	minimum = 0.00566667 (at node 4)
	maximum = 0.0173333 (at node 129)
Injected flit rate average = 0.205071
	minimum = 0.126 (at node 104)
	maximum = 0.297667 (at node 172)
Accepted flit rate average= 0.204233
	minimum = 0.105667 (at node 4)
	maximum = 0.310333 (at node 129)
Injected packet length average = 18.009
Accepted packet length average = 18.026
Total in-flight flits = 3001 (3001 measured)
latency change    = 0.0416708
throughput change = 0.0084369
Draining all recorded packets ...
Draining remaining packets ...
Time taken is 6376 cycles
====== Overall Traffic Statistics ======
====== Traffic class 0 ======
Packet latency average = 89.5966 (1 samples)
	minimum = 22 (1 samples)
	maximum = 445 (1 samples)
Network latency average = 87.4595 (1 samples)
	minimum = 22 (1 samples)
	maximum = 445 (1 samples)
Flit latency average = 63.6281 (1 samples)
	minimum = 5 (1 samples)
	maximum = 428 (1 samples)
Fragmentation average = 12.839 (1 samples)
	minimum = 0 (1 samples)
	maximum = 71 (1 samples)
Injected packet rate average = 0.0113872 (1 samples)
	minimum = 0.007 (1 samples)
	maximum = 0.0163333 (1 samples)
Accepted packet rate average = 0.0113299 (1 samples)
	minimum = 0.00566667 (1 samples)
	maximum = 0.0173333 (1 samples)
Injected flit rate average = 0.205071 (1 samples)
	minimum = 0.126 (1 samples)
	maximum = 0.297667 (1 samples)
Accepted flit rate average = 0.204233 (1 samples)
	minimum = 0.105667 (1 samples)
	maximum = 0.310333 (1 samples)
Injected packet size average = 18.009 (1 samples)
Accepted packet size average = 18.026 (1 samples)
Hops average = 5.06627 (1 samples)
Total run time 2.90118
