BEGIN Configuration File: networks/mezzanine_config
topology = mezzanine;
n = 12;

routing_function = multipath;
internal_speedup = 2.0;
latency_thres = 100000.0;
use_read_write = 0;

sample_period = 1000;
injection_rate = 0.5;
packet_size = 18;

noq = 1;
routing_delay = 0;
vc_alloc_delay = 1;
sw_alloc_delay = 1;
st_final_delay = 1;
vc_allocator = islip; 
sw_allocator = islip;
alloc_iters  = 4;
num_vcs     = 12;
buffer_policy = private; // private or shared
buf_size = -1; // -1 for buffer_policy = private;
vc_buf_size = 4096; // size of each VOQ with buffer_policy = private
output_buffer_size = -1;


traffic = uniform;

//mezW = 0.0;
//mezPredefinedPatternType = shift-inter; //shift-qfdb

END Configuration File: networks/mezzanine_config
OVERRIDE Parameter: injection_rate=0.042267
OVERRIDE Parameter: routing_function=multipath
OVERRIDE Parameter: num_vcs=64
OVERRIDE Parameter: vc_buf_size=18
OVERRIDE Parameter: internal_speedup=1.0
OVERRIDE Parameter: injection_process=bernoulli
OVERRIDE Parameter: sim_type=latency
OVERRIDE Parameter: burst_alpha=0.0038461538
OVERRIDE Parameter: burst_beta=0.1
network: network_0
========================== Routing table  =====================
Number of Subnets: 1
Class 0:
Packet latency average = 382.658
	minimum = 27
	maximum = 966
Network latency average = 356.036
	minimum = 27
	maximum = 943
Slowest packet = 235
Flit latency average = 260.353
	minimum = 6
	maximum = 950
Slowest flit = 3184
Fragmentation average = 251.917
	minimum = 0
	maximum = 850
Injected packet rate average = 0.0303437
	minimum = 0.016 (at node 160)
	maximum = 0.04 (at node 77)
Accepted packet rate average = 0.00976562
	minimum = 0.002 (at node 174)
	maximum = 0.017 (at node 63)
Injected flit rate average = 0.540714
	minimum = 0.288 (at node 160)
	maximum = 0.718 (at node 183)
Accepted flit rate average= 0.221625
	minimum = 0.087 (at node 81)
	maximum = 0.366 (at node 76)
Injected packet length average = 17.8196
Accepted packet length average = 22.6944
Total in-flight flits = 62424 (0 measured)
latency change    = 1
throughput change = 1
Class 0:
Packet latency average = 747.275
	minimum = 27
	maximum = 1910
Network latency average = 647.622
	minimum = 27
	maximum = 1910
Slowest packet = 76
Flit latency average = 515.956
	minimum = 6
	maximum = 1933
Slowest flit = 5821
Fragmentation average = 312.17
	minimum = 0
	maximum = 1449
Injected packet rate average = 0.021862
	minimum = 0.01 (at node 56)
	maximum = 0.0295 (at node 57)
Accepted packet rate average = 0.0111146
	minimum = 0.0055 (at node 120)
	maximum = 0.0175 (at node 44)
Injected flit rate average = 0.38957
	minimum = 0.1755 (at node 56)
	maximum = 0.5275 (at node 57)
Accepted flit rate average= 0.221708
	minimum = 0.139 (at node 120)
	maximum = 0.3295 (at node 131)
Injected packet length average = 17.8195
Accepted packet length average = 19.9475
Total in-flight flits = 66208 (0 measured)
latency change    = 0.487929
throughput change = 0.000375869
Class 0:
Packet latency average = 1676.86
	minimum = 451
	maximum = 2882
Network latency average = 1201.08
	minimum = 28
	maximum = 2882
Slowest packet = 694
Flit latency average = 1064.78
	minimum = 6
	maximum = 2865
Slowest flit = 12509
Fragmentation average = 325.986
	minimum = 3
	maximum = 2622
Injected packet rate average = 0.00925
	minimum = 0 (at node 1)
	maximum = 0.031 (at node 25)
Accepted packet rate average = 0.0123229
	minimum = 0.004 (at node 117)
	maximum = 0.02 (at node 10)
Injected flit rate average = 0.166818
	minimum = 0 (at node 1)
	maximum = 0.558 (at node 151)
Accepted flit rate average= 0.217401
	minimum = 0.077 (at node 138)
	maximum = 0.356 (at node 10)
Injected packet length average = 18.0343
Accepted packet length average = 17.642
Total in-flight flits = 56507 (0 measured)
latency change    = 0.55436
throughput change = 0.0198127
Warmed up ...Time used is 3000 cycles
Class 0:
Packet latency average = 2213.91
	minimum = 1052
	maximum = 3442
Network latency average = 346.317
	minimum = 29
	maximum = 957
Slowest packet = 10204
Flit latency average = 1222.87
	minimum = 6
	maximum = 3918
Slowest flit = 7960
Fragmentation average = 152.753
	minimum = 2
	maximum = 624
Injected packet rate average = 0.00978125
	minimum = 0 (at node 0)
	maximum = 0.043 (at node 63)
Accepted packet rate average = 0.0116406
	minimum = 0.001 (at node 115)
	maximum = 0.022 (at node 123)
Injected flit rate average = 0.175406
	minimum = 0 (at node 0)
	maximum = 0.762 (at node 63)
Accepted flit rate average= 0.206849
	minimum = 0.044 (at node 115)
	maximum = 0.35 (at node 123)
Injected packet length average = 17.9329
Accepted packet length average = 17.7696
Total in-flight flits = 50524 (21987 measured)
latency change    = 0.242579
throughput change = 0.0510135
Class 0:
Packet latency average = 2681.32
	minimum = 1052
	maximum = 4250
Network latency average = 534.662
	minimum = 28
	maximum = 1970
Slowest packet = 10204
Flit latency average = 1218.83
	minimum = 6
	maximum = 4830
Slowest flit = 21174
Fragmentation average = 185.4
	minimum = 1
	maximum = 1507
Injected packet rate average = 0.00990104
	minimum = 0 (at node 8)
	maximum = 0.028 (at node 114)
Accepted packet rate average = 0.0115078
	minimum = 0.0055 (at node 36)
	maximum = 0.0175 (at node 181)
Injected flit rate average = 0.17788
	minimum = 0 (at node 8)
	maximum = 0.5025 (at node 114)
Accepted flit rate average= 0.20525
	minimum = 0.0925 (at node 2)
	maximum = 0.3035 (at node 181)
Injected packet length average = 17.9658
Accepted packet length average = 17.8357
Total in-flight flits = 45983 (30292 measured)
latency change    = 0.174324
throughput change = 0.0077903
Class 0:
Packet latency average = 3158.21
	minimum = 1052
	maximum = 5181
Network latency average = 631.646
	minimum = 25
	maximum = 2963
Slowest packet = 10204
Flit latency average = 1163.37
	minimum = 6
	maximum = 5868
Slowest flit = 10223
Fragmentation average = 201.365
	minimum = 1
	maximum = 2362
Injected packet rate average = 0.0109913
	minimum = 0 (at node 8)
	maximum = 0.0286667 (at node 85)
Accepted packet rate average = 0.0115885
	minimum = 0.006 (at node 2)
	maximum = 0.0166667 (at node 128)
Injected flit rate average = 0.197552
	minimum = 0 (at node 8)
	maximum = 0.514667 (at node 85)
Accepted flit rate average= 0.207236
	minimum = 0.097 (at node 2)
	maximum = 0.291667 (at node 128)
Injected packet length average = 17.9735
Accepted packet length average = 17.8828
Total in-flight flits = 50971 (41017 measured)
latency change    = 0.151
throughput change = 0.00958381
Class 0:
Packet latency average = 3587.82
	minimum = 1052
	maximum = 6254
Network latency average = 723.478
	minimum = 25
	maximum = 3836
Slowest packet = 10204
Flit latency average = 1138.76
	minimum = 6
	maximum = 6841
Slowest flit = 18119
Fragmentation average = 217.294
	minimum = 1
	maximum = 2362
Injected packet rate average = 0.0114193
	minimum = 0 (at node 29)
	maximum = 0.02525 (at node 134)
Accepted packet rate average = 0.0116432
	minimum = 0.0065 (at node 2)
	maximum = 0.0165 (at node 151)
Injected flit rate average = 0.205493
	minimum = 0 (at node 29)
	maximum = 0.4545 (at node 134)
Accepted flit rate average= 0.208792
	minimum = 0.117 (at node 2)
	maximum = 0.28925 (at node 128)
Injected packet length average = 17.9953
Accepted packet length average = 17.9325
Total in-flight flits = 53871 (47132 measured)
latency change    = 0.119741
throughput change = 0.00745028
Class 0:
Packet latency average = 3986.93
	minimum = 1052
	maximum = 7260
Network latency average = 798.165
	minimum = 25
	maximum = 4621
Slowest packet = 10204
Flit latency average = 1131.18
	minimum = 6
	maximum = 7687
Slowest flit = 22621
Fragmentation average = 230.384
	minimum = 0
	maximum = 3450
Injected packet rate average = 0.0114427
	minimum = 0 (at node 29)
	maximum = 0.024 (at node 134)
Accepted packet rate average = 0.011676
	minimum = 0.0072 (at node 2)
	maximum = 0.0162 (at node 128)
Injected flit rate average = 0.205976
	minimum = 0 (at node 29)
	maximum = 0.4308 (at node 134)
Accepted flit rate average= 0.209433
	minimum = 0.122 (at node 2)
	maximum = 0.2812 (at node 128)
Injected packet length average = 18.0006
Accepted packet length average = 17.937
Total in-flight flits = 53091 (48259 measured)
latency change    = 0.100104
throughput change = 0.00306382
Class 0:
Packet latency average = 4391.97
	minimum = 1052
	maximum = 8158
Network latency average = 873.231
	minimum = 25
	maximum = 5868
Slowest packet = 10204
Flit latency average = 1140.13
	minimum = 6
	maximum = 8735
Slowest flit = 31117
Fragmentation average = 241.556
	minimum = 0
	maximum = 4633
Injected packet rate average = 0.0115955
	minimum = 0 (at node 55)
	maximum = 0.0233333 (at node 154)
Accepted packet rate average = 0.011691
	minimum = 0.00816667 (at node 2)
	maximum = 0.0158333 (at node 128)
Injected flit rate average = 0.208662
	minimum = 0 (at node 55)
	maximum = 0.422167 (at node 154)
Accepted flit rate average= 0.209643
	minimum = 0.143167 (at node 2)
	maximum = 0.279167 (at node 128)
Injected packet length average = 17.9951
Accepted packet length average = 17.9321
Total in-flight flits = 55388 (51912 measured)
latency change    = 0.0922227
throughput change = 0.0010012
Class 0:
Packet latency average = 4759.54
	minimum = 1052
	maximum = 8986
Network latency average = 931.797
	minimum = 25
	maximum = 6890
Slowest packet = 10204
Flit latency average = 1152.04
	minimum = 6
	maximum = 9372
Slowest flit = 27899
Fragmentation average = 247.379
	minimum = 0
	maximum = 5047
Injected packet rate average = 0.0114896
	minimum = 0 (at node 55)
	maximum = 0.0225714 (at node 63)
Accepted packet rate average = 0.0116243
	minimum = 0.009 (at node 52)
	maximum = 0.0152857 (at node 128)
Injected flit rate average = 0.206807
	minimum = 0 (at node 55)
	maximum = 0.404857 (at node 63)
Accepted flit rate average= 0.208546
	minimum = 0.158143 (at node 52)
	maximum = 0.274429 (at node 128)
Injected packet length average = 17.9995
Accepted packet length average = 17.9406
Total in-flight flits = 54069 (51491 measured)
latency change    = 0.0772281
throughput change = 0.0052607
Draining all recorded packets ...
Class 0:
Remaining flits: 13922 13923 13924 13925 13926 13927 13928 13929 13930 13931 [...] (52677 flits)
Measured flits: 186231 186232 186233 186234 186235 186236 186237 186238 186239 186240 [...] (50584 flits)
Class 0:
Remaining flits: 13922 13923 13924 13925 13926 13927 13928 13929 13930 13931 [...] (53914 flits)
Measured flits: 186497 186624 186625 186626 186627 186628 186629 186630 186631 186632 [...] (52191 flits)
Class 0:
Remaining flits: 14958 14959 14960 14961 14962 14963 14964 14965 14966 14967 [...] (54298 flits)
Measured flits: 186624 186625 186626 186627 186628 186629 186630 186631 186632 186633 [...] (52911 flits)
Class 0:
Remaining flits: 14958 14959 14960 14961 14962 14963 14964 14965 14966 14967 [...] (53865 flits)
Measured flits: 186624 186625 186626 186627 186628 186629 186630 186631 186632 186633 [...] (52725 flits)
Class 0:
Remaining flits: 14958 14959 14960 14961 14962 14963 14964 14965 14966 14967 [...] (52778 flits)
Measured flits: 186624 186625 186626 186627 186628 186629 186630 186631 186632 186633 [...] (51867 flits)
Class 0:
Remaining flits: 14958 14959 14960 14961 14962 14963 14964 14965 14966 14967 [...] (55125 flits)
Measured flits: 186624 186625 186626 186627 186628 186629 186630 186631 186632 186633 [...] (54406 flits)
Class 0:
Remaining flits: 14958 14959 14960 14961 14962 14963 14964 14965 14966 14967 [...] (55814 flits)
Measured flits: 186624 186625 186626 186627 186628 186629 186630 186631 186632 186633 [...] (55220 flits)
Class 0:
Remaining flits: 14958 14959 14960 14961 14962 14963 14964 14965 14966 14967 [...] (56021 flits)
Measured flits: 186624 186625 186626 186627 186628 186629 186630 186631 186632 186633 [...] (55555 flits)
Class 0:
Remaining flits: 14964 14965 14966 14967 14968 14969 14970 14971 14972 14973 [...] (56332 flits)
Measured flits: 186624 186625 186626 186627 186628 186629 186630 186631 186632 186633 [...] (56019 flits)
Class 0:
Remaining flits: 42983 43437 43438 43439 43440 43441 43442 43443 43444 43445 [...] (60154 flits)
Measured flits: 186638 186639 186640 186641 207072 207073 207074 207075 207076 207077 [...] (59972 flits)
Class 0:
Remaining flits: 43437 43438 43439 43440 43441 43442 43443 43444 43445 43446 [...] (59179 flits)
Measured flits: 227988 227989 227990 227991 227992 227993 227994 227995 227996 227997 [...] (58773 flits)
Class 0:
Remaining flits: 43437 43438 43439 43440 43441 43442 43443 43444 43445 43446 [...] (58552 flits)
Measured flits: 227988 227989 227990 227991 227992 227993 227994 227995 227996 227997 [...] (57633 flits)
Class 0:
Remaining flits: 43437 43438 43439 43440 43441 43442 43443 43444 43445 43446 [...] (57787 flits)
Measured flits: 227988 227989 227990 227991 227992 227993 227994 227995 227996 227997 [...] (56570 flits)
Class 0:
Remaining flits: 43437 43438 43439 43440 43441 43442 43443 43444 43445 43446 [...] (60179 flits)
Measured flits: 227988 227989 227990 227991 227992 227993 227994 227995 227996 227997 [...] (58084 flits)
Class 0:
Remaining flits: 43437 43438 43439 43440 43441 43442 43443 43444 43445 43446 [...] (62029 flits)
Measured flits: 227988 227989 227990 227991 227992 227993 227994 227995 227996 227997 [...] (58575 flits)
Class 0:
Remaining flits: 43437 43438 43439 43440 43441 43442 43443 43444 43445 43446 [...] (63561 flits)
Measured flits: 227988 227989 227990 227991 227992 227993 227994 227995 227996 227997 [...] (58802 flits)
Class 0:
Remaining flits: 43437 43438 43439 43440 43441 43442 43443 43444 43445 43446 [...] (61615 flits)
Measured flits: 227989 227990 227991 227992 227993 227994 227995 227996 227997 227998 [...] (55254 flits)
Class 0:
Remaining flits: 43437 43438 43439 43440 43441 43442 43443 43444 43445 43446 [...] (60506 flits)
Measured flits: 227999 228000 228001 228002 228003 228004 228005 283114 283115 283116 [...] (52800 flits)
Class 0:
Remaining flits: 43437 43438 43439 43440 43441 43442 43443 43444 43445 43446 [...] (60855 flits)
Measured flits: 297439 297440 297441 297442 297443 297444 297445 297446 297447 297448 [...] (51241 flits)
Class 0:
Remaining flits: 297439 297440 297441 297442 297443 297444 297445 297446 297447 297448 [...] (59497 flits)
Measured flits: 297439 297440 297441 297442 297443 297444 297445 297446 297447 297448 [...] (47822 flits)
Class 0:
Remaining flits: 317898 317899 317900 317901 317902 317903 317904 317905 317906 317907 [...] (58038 flits)
Measured flits: 317898 317899 317900 317901 317902 317903 317904 317905 317906 317907 [...] (44927 flits)
Class 0:
Remaining flits: 317913 317914 317915 448290 448291 448292 448293 448294 448295 448296 [...] (57216 flits)
Measured flits: 317913 317914 317915 448290 448291 448292 448293 448294 448295 448296 [...] (41627 flits)
Class 0:
Remaining flits: 448290 448291 448292 448293 448294 448295 448296 448297 448298 448299 [...] (58383 flits)
Measured flits: 448290 448291 448292 448293 448294 448295 448296 448297 448298 448299 [...] (39207 flits)
Class 0:
Remaining flits: 454284 454285 454286 454287 454288 454289 454290 454291 454292 454293 [...] (59756 flits)
Measured flits: 454284 454285 454286 454287 454288 454289 454290 454291 454292 454293 [...] (38592 flits)
Class 0:
Remaining flits: 454284 454285 454286 454287 454288 454289 454290 454291 454292 454293 [...] (60128 flits)
Measured flits: 454284 454285 454286 454287 454288 454289 454290 454291 454292 454293 [...] (34902 flits)
Class 0:
Remaining flits: 454284 454285 454286 454287 454288 454289 454290 454291 454292 454293 [...] (61805 flits)
Measured flits: 454284 454285 454286 454287 454288 454289 454290 454291 454292 454293 [...] (33139 flits)
Class 0:
Remaining flits: 454284 454285 454286 454287 454288 454289 454290 454291 454292 454293 [...] (60415 flits)
Measured flits: 454284 454285 454286 454287 454288 454289 454290 454291 454292 454293 [...] (31106 flits)
Class 0:
Remaining flits: 454284 454285 454286 454287 454288 454289 454290 454291 454292 454293 [...] (62338 flits)
Measured flits: 454284 454285 454286 454287 454288 454289 454290 454291 454292 454293 [...] (29939 flits)
Class 0:
Remaining flits: 454284 454285 454286 454287 454288 454289 454290 454291 454292 454293 [...] (62656 flits)
Measured flits: 454284 454285 454286 454287 454288 454289 454290 454291 454292 454293 [...] (27301 flits)
Class 0:
Remaining flits: 586332 586333 586334 586335 586336 586337 586338 586339 586340 586341 [...] (62817 flits)
Measured flits: 586332 586333 586334 586335 586336 586337 586338 586339 586340 586341 [...] (24482 flits)
Class 0:
Remaining flits: 586332 586333 586334 586335 586336 586337 586338 586339 586340 586341 [...] (63521 flits)
Measured flits: 586332 586333 586334 586335 586336 586337 586338 586339 586340 586341 [...] (23577 flits)
Class 0:
Remaining flits: 586332 586333 586334 586335 586336 586337 586338 586339 586340 586341 [...] (62298 flits)
Measured flits: 586332 586333 586334 586335 586336 586337 586338 586339 586340 586341 [...] (21589 flits)
Class 0:
Remaining flits: 586332 586333 586334 586335 586336 586337 586338 586339 586340 586341 [...] (61048 flits)
Measured flits: 586332 586333 586334 586335 586336 586337 586338 586339 586340 586341 [...] (19118 flits)
Class 0:
Remaining flits: 586332 586333 586334 586335 586336 586337 586338 586339 586340 586341 [...] (61362 flits)
Measured flits: 586332 586333 586334 586335 586336 586337 586338 586339 586340 586341 [...] (17386 flits)
Class 0:
Remaining flits: 586332 586333 586334 586335 586336 586337 586338 586339 586340 586341 [...] (61182 flits)
Measured flits: 586332 586333 586334 586335 586336 586337 586338 586339 586340 586341 [...] (15985 flits)
Class 0:
Remaining flits: 586332 586333 586334 586335 586336 586337 586338 586339 586340 586341 [...] (63710 flits)
Measured flits: 586332 586333 586334 586335 586336 586337 586338 586339 586340 586341 [...] (15362 flits)
Class 0:
Remaining flits: 586349 630684 630685 630686 630687 630688 630689 630690 630691 630692 [...] (62998 flits)
Measured flits: 586349 630684 630685 630686 630687 630688 630689 630690 630691 630692 [...] (15282 flits)
Class 0:
Remaining flits: 586349 630684 630685 630686 630687 630688 630689 630690 630691 630692 [...] (60715 flits)
Measured flits: 586349 630684 630685 630686 630687 630688 630689 630690 630691 630692 [...] (13462 flits)
Class 0:
Remaining flits: 586349 630684 630685 630686 630687 630688 630689 630690 630691 630692 [...] (59942 flits)
Measured flits: 586349 630684 630685 630686 630687 630688 630689 630690 630691 630692 [...] (12533 flits)
Class 0:
Remaining flits: 586349 630684 630685 630686 630687 630688 630689 630690 630691 630692 [...] (61786 flits)
Measured flits: 586349 630684 630685 630686 630687 630688 630689 630690 630691 630692 [...] (11216 flits)
Class 0:
Remaining flits: 586349 630684 630685 630686 630687 630688 630689 630690 630691 630692 [...] (64241 flits)
Measured flits: 586349 630684 630685 630686 630687 630688 630689 630690 630691 630692 [...] (10394 flits)
Class 0:
Remaining flits: 586349 630684 630685 630686 630687 630688 630689 630690 630691 630692 [...] (62678 flits)
Measured flits: 586349 630684 630685 630686 630687 630688 630689 630690 630691 630692 [...] (10000 flits)
Class 0:
Remaining flits: 586349 630684 630685 630686 630687 630688 630689 630690 630691 630692 [...] (60708 flits)
Measured flits: 586349 630684 630685 630686 630687 630688 630689 630690 630691 630692 [...] (9083 flits)
Class 0:
Remaining flits: 630684 630685 630686 630687 630688 630689 630690 630691 630692 630693 [...] (62259 flits)
Measured flits: 630684 630685 630686 630687 630688 630689 630690 630691 630692 630693 [...] (7673 flits)
Class 0:
Remaining flits: 630684 630685 630686 630687 630688 630689 630690 630691 630692 630693 [...] (60638 flits)
Measured flits: 630684 630685 630686 630687 630688 630689 630690 630691 630692 630693 [...] (7323 flits)
Class 0:
Remaining flits: 630684 630685 630686 630687 630688 630689 630690 630691 630692 630693 [...] (58537 flits)
Measured flits: 630684 630685 630686 630687 630688 630689 630690 630691 630692 630693 [...] (7076 flits)
Class 0:
Remaining flits: 873289 873290 873291 873292 873293 873294 873295 873296 873297 873298 [...] (60953 flits)
Measured flits: 873289 873290 873291 873292 873293 873294 873295 873296 873297 873298 [...] (6445 flits)
Class 0:
Remaining flits: 873289 873290 873291 873292 873293 873294 873295 873296 873297 873298 [...] (61581 flits)
Measured flits: 873289 873290 873291 873292 873293 873294 873295 873296 873297 873298 [...] (5918 flits)
Class 0:
Remaining flits: 1100088 1100089 1100090 1100091 1100092 1100093 1100094 1100095 1100096 1100097 [...] (62656 flits)
Measured flits: 1100088 1100089 1100090 1100091 1100092 1100093 1100094 1100095 1100096 1100097 [...] (5742 flits)
Class 0:
Remaining flits: 1173438 1173439 1173440 1173441 1173442 1173443 1173444 1173445 1173446 1173447 [...] (60574 flits)
Measured flits: 1199520 1199521 1199522 1199523 1199524 1199525 1199526 1199527 1199528 1199529 [...] (5384 flits)
Class 0:
Remaining flits: 1173438 1173439 1173440 1173441 1173442 1173443 1173444 1173445 1173446 1173447 [...] (58226 flits)
Measured flits: 1199520 1199521 1199522 1199523 1199524 1199525 1199526 1199527 1199528 1199529 [...] (4200 flits)
Class 0:
Remaining flits: 1173438 1173439 1173440 1173441 1173442 1173443 1173444 1173445 1173446 1173447 [...] (58714 flits)
Measured flits: 1199520 1199521 1199522 1199523 1199524 1199525 1199526 1199527 1199528 1199529 [...] (3503 flits)
Class 0:
Remaining flits: 1173438 1173439 1173440 1173441 1173442 1173443 1173444 1173445 1173446 1173447 [...] (58003 flits)
Measured flits: 1199520 1199521 1199522 1199523 1199524 1199525 1199526 1199527 1199528 1199529 [...] (3467 flits)
Class 0:
Remaining flits: 1173448 1173449 1173450 1173451 1173452 1173453 1173454 1173455 1199520 1199521 [...] (61044 flits)
Measured flits: 1199520 1199521 1199522 1199523 1199524 1199525 1199526 1199527 1199528 1199529 [...] (3288 flits)
Class 0:
Remaining flits: 1199520 1199521 1199522 1199523 1199524 1199525 1199526 1199527 1199528 1199529 [...] (60033 flits)
Measured flits: 1199520 1199521 1199522 1199523 1199524 1199525 1199526 1199527 1199528 1199529 [...] (3131 flits)
Class 0:
Remaining flits: 1199520 1199521 1199522 1199523 1199524 1199525 1199526 1199527 1199528 1199529 [...] (60158 flits)
Measured flits: 1199520 1199521 1199522 1199523 1199524 1199525 1199526 1199527 1199528 1199529 [...] (2681 flits)
Class 0:
Remaining flits: 1199520 1199521 1199522 1199523 1199524 1199525 1199526 1199527 1199528 1199529 [...] (59988 flits)
Measured flits: 1199520 1199521 1199522 1199523 1199524 1199525 1199526 1199527 1199528 1199529 [...] (2501 flits)
Class 0:
Remaining flits: 1199537 1360998 1360999 1361000 1361001 1361002 1361003 1361004 1361005 1361006 [...] (60871 flits)
Measured flits: 1199537 1384902 1384903 1384904 1384905 1384906 1384907 1384908 1384909 1384910 [...] (1965 flits)
Class 0:
Remaining flits: 1199537 1360998 1360999 1361000 1361001 1361002 1361003 1361004 1361005 1361006 [...] (61432 flits)
Measured flits: 1199537 1384902 1384903 1384904 1384905 1384906 1384907 1384908 1384909 1384910 [...] (2218 flits)
Class 0:
Remaining flits: 1360998 1360999 1361000 1361001 1361002 1361003 1361004 1361005 1361006 1361007 [...] (61540 flits)
Measured flits: 1476374 1476375 1476376 1476377 1665344 1665345 1665346 1665347 1665348 1665349 [...] (2222 flits)
Class 0:
Remaining flits: 1360998 1360999 1361000 1361001 1361002 1361003 1361004 1361005 1361006 1361007 [...] (63084 flits)
Measured flits: 1665344 1665345 1665346 1665347 1665348 1665349 1665350 1665351 1665352 1665353 [...] (1918 flits)
Class 0:
Remaining flits: 1360998 1360999 1361000 1361001 1361002 1361003 1361004 1361005 1361006 1361007 [...] (60987 flits)
Measured flits: 1665344 1665345 1665346 1665347 1665348 1665349 1665350 1665351 1665352 1665353 [...] (1565 flits)
Class 0:
Remaining flits: 1360998 1360999 1361000 1361001 1361002 1361003 1361004 1361005 1361006 1361007 [...] (60925 flits)
Measured flits: 1665344 1665345 1665346 1665347 1665348 1665349 1665350 1665351 1665352 1665353 [...] (1282 flits)
Class 0:
Remaining flits: 1360998 1360999 1361000 1361001 1361002 1361003 1361004 1361005 1361006 1361007 [...] (61437 flits)
Measured flits: 1680892 1680893 1695022 1695023 1824102 1824103 1824104 1824105 1824106 1824107 [...] (1297 flits)
Class 0:
Remaining flits: 1360998 1360999 1361000 1361001 1361002 1361003 1361004 1361005 1361006 1361007 [...] (58496 flits)
Measured flits: 1824102 1824103 1824104 1824105 1824106 1824107 1824108 1824109 1824110 1824111 [...] (1294 flits)
Class 0:
Remaining flits: 1360998 1360999 1361000 1361001 1361002 1361003 1361004 1361005 1361006 1361007 [...] (61230 flits)
Measured flits: 1869552 1869553 1869554 1869555 1869556 1869557 1869558 1869559 1869560 1869561 [...] (1302 flits)
Class 0:
Remaining flits: 1360998 1360999 1361000 1361001 1361002 1361003 1361004 1361005 1361006 1361007 [...] (62725 flits)
Measured flits: 1869552 1869553 1869554 1869555 1869556 1869557 1869558 1869559 1869560 1869561 [...] (1555 flits)
Class 0:
Remaining flits: 1360998 1360999 1361000 1361001 1361002 1361003 1361004 1361005 1361006 1361007 [...] (59809 flits)
Measured flits: 1869552 1869553 1869554 1869555 1869556 1869557 1869558 1869559 1869560 1869561 [...] (1523 flits)
Class 0:
Remaining flits: 1360998 1360999 1361000 1361001 1361002 1361003 1361004 1361005 1361006 1361007 [...] (59961 flits)
Measured flits: 1869552 1869553 1869554 1869555 1869556 1869557 1869558 1869559 1869560 1869561 [...] (1627 flits)
Class 0:
Remaining flits: 1360998 1360999 1361000 1361001 1361002 1361003 1361004 1361005 1361006 1361007 [...] (62297 flits)
Measured flits: 1869552 1869553 1869554 1869555 1869556 1869557 1869558 1869559 1869560 1869561 [...] (1645 flits)
Class 0:
Remaining flits: 1360998 1360999 1361000 1361001 1361002 1361003 1361004 1361005 1361006 1361007 [...] (63193 flits)
Measured flits: 1869552 1869553 1869554 1869555 1869556 1869557 1869558 1869559 1869560 1869561 [...] (1361 flits)
Class 0:
Remaining flits: 1655514 1655515 1655516 1655517 1655518 1655519 1655520 1655521 1655522 1655523 [...] (62250 flits)
Measured flits: 1869552 1869553 1869554 1869555 1869556 1869557 1869558 1869559 1869560 1869561 [...] (1179 flits)
Class 0:
Remaining flits: 1655514 1655515 1655516 1655517 1655518 1655519 1655520 1655521 1655522 1655523 [...] (63619 flits)
Measured flits: 1894824 1894825 1894826 1894827 1894828 1894829 1894830 1894831 1894832 1894833 [...] (1334 flits)
Class 0:
Remaining flits: 1671894 1671895 1671896 1671897 1671898 1671899 1671900 1671901 1671902 1671903 [...] (65027 flits)
Measured flits: 1894825 1894826 1894827 1894828 1894829 1894830 1894831 1894832 1894833 1894834 [...] (1239 flits)
Class 0:
Remaining flits: 1675764 1675765 1675766 1675767 1675768 1675769 1675770 1675771 1675772 1675773 [...] (62359 flits)
Measured flits: 2289690 2289691 2289692 2289693 2289694 2289695 2289696 2289697 2289698 2289699 [...] (1136 flits)
Class 0:
Remaining flits: 1675764 1675765 1675766 1675767 1675768 1675769 1675770 1675771 1675772 1675773 [...] (62614 flits)
Measured flits: 2289690 2289691 2289692 2289693 2289694 2289695 2289696 2289697 2289698 2289699 [...] (1137 flits)
Class 0:
Remaining flits: 1675764 1675765 1675766 1675767 1675768 1675769 1675770 1675771 1675772 1675773 [...] (63517 flits)
Measured flits: 2289690 2289691 2289692 2289693 2289694 2289695 2289696 2289697 2289698 2289699 [...] (1192 flits)
Class 0:
Remaining flits: 1675764 1675765 1675766 1675767 1675768 1675769 1675770 1675771 1675772 1675773 [...] (62633 flits)
Measured flits: 2289690 2289691 2289692 2289693 2289694 2289695 2289696 2289697 2289698 2289699 [...] (950 flits)
Class 0:
Remaining flits: 1675764 1675765 1675766 1675767 1675768 1675769 1675770 1675771 1675772 1675773 [...] (62945 flits)
Measured flits: 2472876 2472877 2472878 2472879 2472880 2472881 2472882 2472883 2472884 2472885 [...] (828 flits)
Class 0:
Remaining flits: 1675764 1675765 1675766 1675767 1675768 1675769 1675770 1675771 1675772 1675773 [...] (61447 flits)
Measured flits: 2472876 2472877 2472878 2472879 2472880 2472881 2472882 2472883 2472884 2472885 [...] (799 flits)
Class 0:
Remaining flits: 2110320 2110321 2110322 2110323 2110324 2110325 2110326 2110327 2110328 2110329 [...] (60636 flits)
Measured flits: 2472876 2472877 2472878 2472879 2472880 2472881 2472882 2472883 2472884 2472885 [...] (558 flits)
Class 0:
Remaining flits: 2110320 2110321 2110322 2110323 2110324 2110325 2110326 2110327 2110328 2110329 [...] (61878 flits)
Measured flits: 2472877 2472878 2472879 2472880 2472881 2472882 2472883 2472884 2472885 2472886 [...] (503 flits)
Class 0:
Remaining flits: 2110320 2110321 2110322 2110323 2110324 2110325 2110326 2110327 2110328 2110329 [...] (62903 flits)
Measured flits: 2472877 2472878 2472879 2472880 2472881 2472882 2472883 2472884 2472885 2472886 [...] (388 flits)
Class 0:
Remaining flits: 2110320 2110321 2110322 2110323 2110324 2110325 2110326 2110327 2110328 2110329 [...] (63441 flits)
Measured flits: 2472877 2472878 2472879 2472880 2472881 2472882 2472883 2472884 2472885 2472886 [...] (325 flits)
Class 0:
Remaining flits: 2110320 2110321 2110322 2110323 2110324 2110325 2110326 2110327 2110328 2110329 [...] (64298 flits)
Measured flits: 2472877 2472878 2472879 2472880 2472881 2472882 2472883 2472884 2472885 2472886 [...] (251 flits)
Class 0:
Remaining flits: 2110320 2110321 2110322 2110323 2110324 2110325 2110326 2110327 2110328 2110329 [...] (63672 flits)
Measured flits: 2472877 2472878 2472879 2472880 2472881 2472882 2472883 2472884 2472885 2472886 [...] (251 flits)
Class 0:
Remaining flits: 2110334 2110335 2110336 2110337 2146932 2146933 2146934 2146935 2146936 2146937 [...] (60887 flits)
Measured flits: 2472877 2472878 2472879 2472880 2472881 2472882 2472883 2472884 2472885 2472886 [...] (233 flits)
Class 0:
Remaining flits: 2110334 2110335 2110336 2110337 2146932 2146933 2146934 2146935 2146936 2146937 [...] (60915 flits)
Measured flits: 2472877 2472878 2472879 2472880 2472881 2472882 2472883 2472884 2472885 2472886 [...] (233 flits)
Class 0:
Remaining flits: 2110334 2110335 2110336 2110337 2146932 2146933 2146934 2146935 2146936 2146937 [...] (61026 flits)
Measured flits: 2472877 2472878 2472879 2472880 2472881 2472882 2472883 2472884 2472885 2472886 [...] (233 flits)
Class 0:
Remaining flits: 2146932 2146933 2146934 2146935 2146936 2146937 2146938 2146939 2146940 2146941 [...] (60332 flits)
Measured flits: 2763378 2763379 2763380 2763381 2763382 2763383 2763384 2763385 2763386 2763387 [...] (144 flits)
Class 0:
Remaining flits: 2146932 2146933 2146934 2146935 2146936 2146937 2146938 2146939 2146940 2146941 [...] (61505 flits)
Measured flits: 2763378 2763379 2763380 2763381 2763382 2763383 2763384 2763385 2763386 2763387 [...] (108 flits)
Class 0:
Remaining flits: 2146932 2146933 2146934 2146935 2146936 2146937 2146938 2146939 2146940 2146941 [...] (59947 flits)
Measured flits: 2763378 2763379 2763380 2763381 2763382 2763383 2763384 2763385 2763386 2763387 [...] (108 flits)
Class 0:
Remaining flits: 2146932 2146933 2146934 2146935 2146936 2146937 2146938 2146939 2146940 2146941 [...] (58475 flits)
Measured flits: 2763379 2763380 2763381 2763382 2763383 2763384 2763385 2763386 2763387 2763388 [...] (104 flits)
Class 0:
Remaining flits: 2146932 2146933 2146934 2146935 2146936 2146937 2146938 2146939 2146940 2146941 [...] (57968 flits)
Measured flits: 2908315 2908316 2908317 2908318 2908319 2908320 2908321 2908322 2908323 2908324 [...] (107 flits)
Class 0:
Remaining flits: 2146932 2146933 2146934 2146935 2146936 2146937 2146938 2146939 2146940 2146941 [...] (58426 flits)
Measured flits: 3470641 3470642 3470643 3470644 3470645 3470646 3470647 3470648 3470649 3470650 [...] (135 flits)
Class 0:
Remaining flits: 2482200 2482201 2482202 2482203 2482204 2482205 2482206 2482207 2482208 2482209 [...] (58548 flits)
Measured flits: 3482700 3482701 3482702 3482703 3482704 3482705 3482706 3482707 3482708 3482709 [...] (149 flits)
Class 0:
Remaining flits: 2482200 2482201 2482202 2482203 2482204 2482205 2482206 2482207 2482208 2482209 [...] (61438 flits)
Measured flits: 3488112 3488113 3488114 3488115 3488116 3488117 3488118 3488119 3488120 3488121 [...] (144 flits)
Class 0:
Remaining flits: 2482200 2482201 2482202 2482203 2482204 2482205 2482206 2482207 2482208 2482209 [...] (61130 flits)
Measured flits: 3488112 3488113 3488114 3488115 3488116 3488117 3488118 3488119 3488120 3488121 [...] (116 flits)
Class 0:
Remaining flits: 2482200 2482201 2482202 2482203 2482204 2482205 2482206 2482207 2482208 2482209 [...] (59941 flits)
Measured flits: 3488112 3488113 3488114 3488115 3488116 3488117 3488118 3488119 3488120 3488121 [...] (90 flits)
Class 0:
Remaining flits: 2482200 2482201 2482202 2482203 2482204 2482205 2482206 2482207 2482208 2482209 [...] (59448 flits)
Measured flits: 3488112 3488113 3488114 3488115 3488116 3488117 3488118 3488119 3488120 3488121 [...] (72 flits)
Class 0:
Remaining flits: 2482200 2482201 2482202 2482203 2482204 2482205 2482206 2482207 2482208 2482209 [...] (60986 flits)
Measured flits: 3488112 3488113 3488114 3488115 3488116 3488117 3488118 3488119 3488120 3488121 [...] (72 flits)
Class 0:
Remaining flits: 2482200 2482201 2482202 2482203 2482204 2482205 2482206 2482207 2482208 2482209 [...] (62089 flits)
Measured flits: 3488112 3488113 3488114 3488115 3488116 3488117 3488118 3488119 3488120 3488121 [...] (72 flits)
Class 0:
Remaining flits: 2482200 2482201 2482202 2482203 2482204 2482205 2482206 2482207 2482208 2482209 [...] (62884 flits)
Measured flits: 3488112 3488113 3488114 3488115 3488116 3488117 3488118 3488119 3488120 3488121 [...] (54 flits)
Class 0:
Remaining flits: 2482200 2482201 2482202 2482203 2482204 2482205 2482206 2482207 2482208 2482209 [...] (61979 flits)
Measured flits: 3488112 3488113 3488114 3488115 3488116 3488117 3488118 3488119 3488120 3488121 [...] (54 flits)
Class 0:
Remaining flits: 2482200 2482201 2482202 2482203 2482204 2482205 2482206 2482207 2482208 2482209 [...] (61887 flits)
Measured flits: 3488112 3488113 3488114 3488115 3488116 3488117 3488118 3488119 3488120 3488121 [...] (54 flits)
Class 0:
Remaining flits: 2482200 2482201 2482202 2482203 2482204 2482205 2482206 2482207 2482208 2482209 [...] (60832 flits)
Measured flits: 3488112 3488113 3488114 3488115 3488116 3488117 3488118 3488119 3488120 3488121 [...] (54 flits)
Class 0:
Remaining flits: 2482200 2482201 2482202 2482203 2482204 2482205 2482206 2482207 2482208 2482209 [...] (60400 flits)
Measured flits: 3488112 3488113 3488114 3488115 3488116 3488117 3488118 3488119 3488120 3488121 [...] (54 flits)
Class 0:
Remaining flits: 2482211 2482212 2482213 2482214 2482215 2482216 2482217 2779938 2779939 2779940 [...] (61124 flits)
Measured flits: 3488112 3488113 3488114 3488115 3488116 3488117 3488118 3488119 3488120 3488121 [...] (54 flits)
Class 0:
Remaining flits: 2779938 2779939 2779940 2779941 2779942 2779943 2779944 2779945 2779946 2779947 [...] (59742 flits)
Measured flits: 3488112 3488113 3488114 3488115 3488116 3488117 3488118 3488119 3488120 3488121 [...] (54 flits)
Class 0:
Remaining flits: 2779938 2779939 2779940 2779941 2779942 2779943 2779944 2779945 2779946 2779947 [...] (59069 flits)
Measured flits: 3488113 3488114 3488115 3488116 3488117 3488118 3488119 3488120 3488121 3488122 [...] (53 flits)
Class 0:
Remaining flits: 2982420 2982421 2982422 2982423 2982424 2982425 2982426 2982427 2982428 2982429 [...] (59465 flits)
Measured flits: 3972636 3972637 3972638 3972639 3972640 3972641 3972642 3972643 3972644 3972645 [...] (185 flits)
Class 0:
Remaining flits: 2982420 2982421 2982422 2982423 2982424 2982425 2982426 2982427 2982428 2982429 [...] (59255 flits)
Measured flits: 3973752 3973753 3973754 3973755 3973756 3973757 3973758 3973759 3973760 3973761 [...] (50 flits)
Class 0:
Remaining flits: 2982420 2982421 2982422 2982423 2982424 2982425 2982426 2982427 2982428 2982429 [...] (61174 flits)
Measured flits: 3973752 3973753 3973754 3973755 3973756 3973757 3973758 3973759 3973760 3973761 [...] (36 flits)
Class 0:
Remaining flits: 2982420 2982421 2982422 2982423 2982424 2982425 2982426 2982427 2982428 2982429 [...] (60202 flits)
Measured flits: 3973752 3973753 3973754 3973755 3973756 3973757 3973758 3973759 3973760 3973761 [...] (36 flits)
Class 0:
Remaining flits: 2982420 2982421 2982422 2982423 2982424 2982425 2982426 2982427 2982428 2982429 [...] (60819 flits)
Measured flits: 3973752 3973753 3973754 3973755 3973756 3973757 3973758 3973759 3973760 3973761 [...] (36 flits)
Class 0:
Remaining flits: 2982420 2982421 2982422 2982423 2982424 2982425 2982426 2982427 2982428 2982429 [...] (59025 flits)
Measured flits: 3973752 3973753 3973754 3973755 3973756 3973757 3973758 3973759 3973760 3973761 [...] (18 flits)
Class 0:
Remaining flits: 2982420 2982421 2982422 2982423 2982424 2982425 2982426 2982427 2982428 2982429 [...] (60551 flits)
Measured flits: 3973752 3973753 3973754 3973755 3973756 3973757 3973758 3973759 3973760 3973761 [...] (18 flits)
Class 0:
Remaining flits: 2982420 2982421 2982422 2982423 2982424 2982425 2982426 2982427 2982428 2982429 [...] (61371 flits)
Measured flits: 3973752 3973753 3973754 3973755 3973756 3973757 3973758 3973759 3973760 3973761 [...] (18 flits)
Class 0:
Remaining flits: 2982420 2982421 2982422 2982423 2982424 2982425 2982426 2982427 2982428 2982429 [...] (61429 flits)
Measured flits: 3973752 3973753 3973754 3973755 3973756 3973757 3973758 3973759 3973760 3973761 [...] (18 flits)
Class 0:
Remaining flits: 2982420 2982421 2982422 2982423 2982424 2982425 2982426 2982427 2982428 2982429 [...] (60403 flits)
Measured flits: 3973752 3973753 3973754 3973755 3973756 3973757 3973758 3973759 3973760 3973761 [...] (18 flits)
Draining remaining packets ...
Class 0:
Remaining flits: 3048786 3048787 3048788 3048789 3048790 3048791 3048792 3048793 3048794 3048795 [...] (37930 flits)
Measured flits: (0 flits)
Class 0:
Remaining flits: 3144528 3144529 3144530 3144531 3144532 3144533 3144534 3144535 3144536 3144537 [...] (29052 flits)
Measured flits: (0 flits)
Class 0:
Remaining flits: 3144528 3144529 3144530 3144531 3144532 3144533 3144534 3144535 3144536 3144537 [...] (21258 flits)
Measured flits: (0 flits)
Class 0:
Remaining flits: 3369456 3369457 3369458 3369459 3369460 3369461 3369462 3369463 3369464 3369465 [...] (13887 flits)
Measured flits: (0 flits)
Class 0:
Remaining flits: 3494088 3494089 3494090 3494091 3494092 3494093 3494094 3494095 3494096 3494097 [...] (7250 flits)
Measured flits: (0 flits)
Class 0:
Remaining flits: 3629016 3629017 3629018 3629019 3629020 3629021 3629022 3629023 3629024 3629025 [...] (1795 flits)
Measured flits: (0 flits)
Time taken is 137208 cycles
====== Overall Traffic Statistics ======
====== Traffic class 0 ======
Packet latency average = 18256.6 (1 samples)
	minimum = 1052 (1 samples)
	maximum = 121003 (1 samples)
Network latency average = 1702.22 (1 samples)
	minimum = 23 (1 samples)
	maximum = 42248 (1 samples)
Flit latency average = 1824.12 (1 samples)
	minimum = 6 (1 samples)
	maximum = 47003 (1 samples)
Fragmentation average = 264.671 (1 samples)
	minimum = 0 (1 samples)
	maximum = 17733 (1 samples)
Injected packet rate average = 0.0114896 (1 samples)
	minimum = 0 (1 samples)
	maximum = 0.0225714 (1 samples)
Accepted packet rate average = 0.0116243 (1 samples)
	minimum = 0.009 (1 samples)
	maximum = 0.0152857 (1 samples)
Injected flit rate average = 0.206807 (1 samples)
	minimum = 0 (1 samples)
	maximum = 0.404857 (1 samples)
Accepted flit rate average = 0.208546 (1 samples)
	minimum = 0.158143 (1 samples)
	maximum = 0.274429 (1 samples)
Injected packet size average = 17.9995 (1 samples)
Accepted packet size average = 17.9406 (1 samples)
Hops average = 5.05812 (1 samples)
Total run time 214.268
