BEGIN Configuration File: networks/mezzanine_config
topology = mezzanine;
n = 12;

routing_function = multipath;
internal_speedup = 2.0;
latency_thres = 100000.0;
use_read_write = 0;

sample_period = 1000;
injection_rate = 0.5;
packet_size = 18;

noq = 1;
routing_delay = 0;
vc_alloc_delay = 1;
sw_alloc_delay = 1;
st_final_delay = 1;
vc_allocator = islip; 
sw_allocator = islip;
alloc_iters  = 4;
num_vcs     = 12;
buffer_policy = private; // private or shared
buf_size = -1; // -1 for buffer_policy = private;
vc_buf_size = 4096; // size of each VOQ with buffer_policy = private
output_buffer_size = -1;


traffic = uniform;

//mezW = 0.0;
//mezPredefinedPatternType = shift-inter; //shift-qfdb

END Configuration File: networks/mezzanine_config
OVERRIDE Parameter: injection_rate=0.048897
OVERRIDE Parameter: routing_function=min
OVERRIDE Parameter: num_vcs=64
OVERRIDE Parameter: vc_buf_size=1024
OVERRIDE Parameter: internal_speedup=1.0
OVERRIDE Parameter: injection_process=bernoulli
OVERRIDE Parameter: sim_type=latency
OVERRIDE Parameter: burst_alpha=0.0038461538
OVERRIDE Parameter: burst_beta=0.1
network: network_0
========================== Routing table  =====================
Number of Subnets: 1
Class 0:
Packet latency average = 334.268
	minimum = 27
	maximum = 931
Network latency average = 311.89
	minimum = 24
	maximum = 931
Slowest packet = 458
Flit latency average = 241.482
	minimum = 6
	maximum = 959
Slowest flit = 3009
Fragmentation average = 189.011
	minimum = 0
	maximum = 795
Injected packet rate average = 0.0464479
	minimum = 0.029 (at node 72)
	maximum = 0.056 (at node 39)
Accepted packet rate average = 0.011474
	minimum = 0.004 (at node 174)
	maximum = 0.022 (at node 122)
Injected flit rate average = 0.827828
	minimum = 0.517 (at node 72)
	maximum = 0.999 (at node 68)
Accepted flit rate average= 0.246052
	minimum = 0.104 (at node 174)
	maximum = 0.407 (at node 122)
Injected packet length average = 17.8227
Accepted packet length average = 21.4444
Total in-flight flits = 113282 (0 measured)
latency change    = 1
throughput change = 1
Class 0:
Packet latency average = 589.593
	minimum = 27
	maximum = 1910
Network latency average = 557.914
	minimum = 23
	maximum = 1887
Slowest packet = 719
Flit latency average = 474.69
	minimum = 6
	maximum = 1909
Slowest flit = 10130
Fragmentation average = 250.35
	minimum = 0
	maximum = 1745
Injected packet rate average = 0.0475937
	minimum = 0.0365 (at node 72)
	maximum = 0.0555 (at node 32)
Accepted packet rate average = 0.0128854
	minimum = 0.007 (at node 116)
	maximum = 0.0195 (at node 165)
Injected flit rate average = 0.852776
	minimum = 0.6485 (at node 72)
	maximum = 0.996 (at node 39)
Accepted flit rate average= 0.257969
	minimum = 0.141 (at node 116)
	maximum = 0.383 (at node 165)
Injected packet length average = 17.9178
Accepted packet length average = 20.0202
Total in-flight flits = 229908 (0 measured)
latency change    = 0.433053
throughput change = 0.0461942
Class 0:
Packet latency average = 1277.37
	minimum = 27
	maximum = 2871
Network latency average = 1230.87
	minimum = 23
	maximum = 2859
Slowest packet = 546
Flit latency average = 1162.88
	minimum = 6
	maximum = 2871
Slowest flit = 15234
Fragmentation average = 344.31
	minimum = 0
	maximum = 2287
Injected packet rate average = 0.0485
	minimum = 0.034 (at node 2)
	maximum = 0.056 (at node 0)
Accepted packet rate average = 0.0151354
	minimum = 0.007 (at node 4)
	maximum = 0.025 (at node 133)
Injected flit rate average = 0.872458
	minimum = 0.608 (at node 2)
	maximum = 1 (at node 0)
Accepted flit rate average= 0.27462
	minimum = 0.152 (at node 183)
	maximum = 0.431 (at node 159)
Injected packet length average = 17.9888
Accepted packet length average = 18.1442
Total in-flight flits = 344797 (0 measured)
latency change    = 0.53843
throughput change = 0.0606331
Warmed up ...Time used is 3000 cycles
Class 0:
Packet latency average = 111.73
	minimum = 27
	maximum = 473
Network latency average = 55.3206
	minimum = 25
	maximum = 372
Slowest packet = 27676
Flit latency average = 1705.05
	minimum = 6
	maximum = 3873
Slowest flit = 15472
Fragmentation average = 17.4461
	minimum = 0
	maximum = 81
Injected packet rate average = 0.0492031
	minimum = 0.031 (at node 153)
	maximum = 0.056 (at node 32)
Accepted packet rate average = 0.015224
	minimum = 0.005 (at node 64)
	maximum = 0.028 (at node 125)
Injected flit rate average = 0.886292
	minimum = 0.541 (at node 153)
	maximum = 1 (at node 0)
Accepted flit rate average= 0.275813
	minimum = 0.093 (at node 64)
	maximum = 0.469 (at node 125)
Injected packet length average = 18.0129
Accepted packet length average = 18.117
Total in-flight flits = 461887 (156651 measured)
latency change    = 10.4326
throughput change = 0.00432434
Class 0:
Packet latency average = 114.647
	minimum = 25
	maximum = 1714
Network latency average = 55.5089
	minimum = 25
	maximum = 1712
Slowest packet = 28789
Flit latency average = 2010.56
	minimum = 6
	maximum = 4885
Slowest flit = 15123
Fragmentation average = 17.1339
	minimum = 0
	maximum = 407
Injected packet rate average = 0.0489766
	minimum = 0.0365 (at node 153)
	maximum = 0.056 (at node 164)
Accepted packet rate average = 0.0151432
	minimum = 0.007 (at node 35)
	maximum = 0.026 (at node 125)
Injected flit rate average = 0.882107
	minimum = 0.657 (at node 153)
	maximum = 1 (at node 0)
Accepted flit rate average= 0.273359
	minimum = 0.143 (at node 35)
	maximum = 0.423 (at node 125)
Injected packet length average = 18.0108
Accepted packet length average = 18.0516
Total in-flight flits = 578353 (312005 measured)
latency change    = 0.0254442
throughput change = 0.00897399
Class 0:
Packet latency average = 139.481
	minimum = 23
	maximum = 2904
Network latency average = 79.3109
	minimum = 23
	maximum = 2904
Slowest packet = 27911
Flit latency average = 2292.92
	minimum = 6
	maximum = 5716
Slowest flit = 39709
Fragmentation average = 20.1039
	minimum = 0
	maximum = 662
Injected packet rate average = 0.0488854
	minimum = 0.0406667 (at node 152)
	maximum = 0.0556667 (at node 44)
Accepted packet rate average = 0.0151545
	minimum = 0.009 (at node 35)
	maximum = 0.0216667 (at node 125)
Injected flit rate average = 0.88021
	minimum = 0.733333 (at node 152)
	maximum = 1 (at node 0)
Accepted flit rate average= 0.272998
	minimum = 0.169 (at node 35)
	maximum = 0.371333 (at node 125)
Injected packet length average = 18.0056
Accepted packet length average = 18.0143
Total in-flight flits = 694394 (466106 measured)
latency change    = 0.178047
throughput change = 0.00132276
Class 0:
Packet latency average = 229.929
	minimum = 23
	maximum = 4020
Network latency average = 169.139
	minimum = 23
	maximum = 3878
Slowest packet = 27995
Flit latency average = 2585.48
	minimum = 6
	maximum = 6686
Slowest flit = 33185
Fragmentation average = 28.2292
	minimum = 0
	maximum = 887
Injected packet rate average = 0.0489036
	minimum = 0.04025 (at node 156)
	maximum = 0.0555 (at node 0)
Accepted packet rate average = 0.0151836
	minimum = 0.01025 (at node 35)
	maximum = 0.01975 (at node 125)
Injected flit rate average = 0.880551
	minimum = 0.72625 (at node 156)
	maximum = 1 (at node 0)
Accepted flit rate average= 0.273246
	minimum = 0.1885 (at node 111)
	maximum = 0.3575 (at node 168)
Injected packet length average = 18.0058
Accepted packet length average = 17.9961
Total in-flight flits = 810988 (619301 measured)
latency change    = 0.393373
throughput change = 0.000906984
Class 0:
Packet latency average = 442.183
	minimum = 23
	maximum = 5012
Network latency average = 380.496
	minimum = 23
	maximum = 4990
Slowest packet = 27620
Flit latency average = 2862.42
	minimum = 6
	maximum = 7727
Slowest flit = 38777
Fragmentation average = 44.4474
	minimum = 0
	maximum = 1518
Injected packet rate average = 0.049049
	minimum = 0.0392 (at node 156)
	maximum = 0.0556 (at node 44)
Accepted packet rate average = 0.0152094
	minimum = 0.0106 (at node 153)
	maximum = 0.0192 (at node 22)
Injected flit rate average = 0.883096
	minimum = 0.707 (at node 156)
	maximum = 1 (at node 0)
Accepted flit rate average= 0.273406
	minimum = 0.1892 (at node 111)
	maximum = 0.347 (at node 188)
Injected packet length average = 18.0044
Accepted packet length average = 17.9762
Total in-flight flits = 929893 (771340 measured)
latency change    = 0.480014
throughput change = 0.000585781
Class 0:
Packet latency average = 754.028
	minimum = 23
	maximum = 6075
Network latency average = 692.088
	minimum = 23
	maximum = 5989
Slowest packet = 27753
Flit latency average = 3141.16
	minimum = 6
	maximum = 8748
Slowest flit = 28313
Fragmentation average = 64.022
	minimum = 0
	maximum = 2752
Injected packet rate average = 0.0490573
	minimum = 0.0416667 (at node 156)
	maximum = 0.0555 (at node 44)
Accepted packet rate average = 0.0151936
	minimum = 0.011 (at node 153)
	maximum = 0.019 (at node 188)
Injected flit rate average = 0.883172
	minimum = 0.749333 (at node 156)
	maximum = 1 (at node 44)
Accepted flit rate average= 0.272483
	minimum = 0.203167 (at node 153)
	maximum = 0.344667 (at node 188)
Injected packet length average = 18.0029
Accepted packet length average = 17.9341
Total in-flight flits = 1048149 (919218 measured)
latency change    = 0.413571
throughput change = 0.00338961
Class 0:
Packet latency average = 1138.9
	minimum = 23
	maximum = 7073
Network latency average = 1077.59
	minimum = 23
	maximum = 6922
Slowest packet = 27643
Flit latency average = 3398.07
	minimum = 6
	maximum = 9583
Slowest flit = 59704
Fragmentation average = 87.0734
	minimum = 0
	maximum = 2860
Injected packet rate average = 0.0489621
	minimum = 0.042 (at node 78)
	maximum = 0.0551429 (at node 44)
Accepted packet rate average = 0.0151548
	minimum = 0.0107143 (at node 111)
	maximum = 0.0187143 (at node 188)
Injected flit rate average = 0.881437
	minimum = 0.755 (at node 78)
	maximum = 0.993571 (at node 44)
Accepted flit rate average= 0.272259
	minimum = 0.188 (at node 111)
	maximum = 0.337714 (at node 188)
Injected packet length average = 18.0024
Accepted packet length average = 17.9652
Total in-flight flits = 1163371 (1059836 measured)
latency change    = 0.337933
throughput change = 0.000821682
Draining all recorded packets ...
Class 0:
Remaining flits: 32563 32564 32565 32566 32567 32568 32569 32570 32571 32572 [...] (1274472 flits)
Measured flits: 496584 496585 496586 496587 496588 496589 496590 496591 496592 496593 [...] (1052730 flits)
Class 0:
Remaining flits: 32563 32564 32565 32566 32567 32568 32569 32570 32571 32572 [...] (1373283 flits)
Measured flits: 496587 496588 496589 496590 496591 496592 496593 496594 496595 496596 [...] (1033106 flits)
Class 0:
Remaining flits: 47196 47197 47198 47199 47200 47201 47202 47203 47204 47205 [...] (1466472 flits)
Measured flits: 496638 496639 496640 496641 496642 496643 496644 496645 496646 496647 [...] (1010788 flits)
Class 0:
Remaining flits: 47196 47197 47198 47199 47200 47201 47202 47203 47204 47205 [...] (1557862 flits)
Measured flits: 496638 496639 496640 496641 496642 496643 496644 496645 496646 496647 [...] (985170 flits)
Class 0:
Remaining flits: 47211 47212 47213 51300 51301 51302 51303 51304 51305 51306 [...] (1651815 flits)
Measured flits: 496764 496765 496766 496767 496768 496769 496770 496771 496772 496773 [...] (958371 flits)
Class 0:
Remaining flits: 51300 51301 51302 51303 51304 51305 51306 51307 51308 51309 [...] (1747011 flits)
Measured flits: 496764 496765 496766 496767 496768 496769 496770 496771 496772 496773 [...] (931051 flits)
Class 0:
Remaining flits: 51300 51301 51302 51303 51304 51305 51306 51307 51308 51309 [...] (1848461 flits)
Measured flits: 496851 496852 496853 496854 496855 496856 496857 496858 496859 496860 [...] (901432 flits)
Class 0:
Remaining flits: 51300 51301 51302 51303 51304 51305 51306 51307 51308 51309 [...] (1946835 flits)
Measured flits: 496854 496855 496856 496857 496858 496859 496860 496861 496862 496863 [...] (871487 flits)
Class 0:
Remaining flits: 65178 65179 65180 65181 65182 65183 65184 65185 65186 65187 [...] (2045533 flits)
Measured flits: 496854 496855 496856 496857 496858 496859 496860 496861 496862 496863 [...] (842231 flits)
Class 0:
Remaining flits: 65178 65179 65180 65181 65182 65183 65184 65185 65186 65187 [...] (2142409 flits)
Measured flits: 496854 496855 496856 496857 496858 496859 496860 496861 496862 496863 [...] (811860 flits)
Class 0:
Remaining flits: 65178 65179 65180 65181 65182 65183 65184 65185 65186 65187 [...] (2243706 flits)
Measured flits: 496854 496855 496856 496857 496858 496859 496860 496861 496862 496863 [...] (781493 flits)
Class 0:
Remaining flits: 65178 65179 65180 65181 65182 65183 65184 65185 65186 65187 [...] (2345239 flits)
Measured flits: 496854 496855 496856 496857 496858 496859 496860 496861 496862 496863 [...] (751708 flits)
Class 0:
Remaining flits: 65178 65179 65180 65181 65182 65183 65184 65185 65186 65187 [...] (2445393 flits)
Measured flits: 496890 496891 496892 496893 496894 496895 496896 496897 496898 496899 [...] (721523 flits)
Class 0:
Remaining flits: 65178 65179 65180 65181 65182 65183 65184 65185 65186 65187 [...] (2547742 flits)
Measured flits: 496890 496891 496892 496893 496894 496895 496896 496897 496898 496899 [...] (691713 flits)
Class 0:
Remaining flits: 74268 74269 74270 74271 74272 74273 74274 74275 74276 74277 [...] (2646171 flits)
Measured flits: 496890 496891 496892 496893 496894 496895 496896 496897 496898 496899 [...] (661040 flits)
Class 0:
Remaining flits: 74268 74269 74270 74271 74272 74273 74274 74275 74276 74277 [...] (2744959 flits)
Measured flits: 496890 496891 496892 496893 496894 496895 496896 496897 496898 496899 [...] (630493 flits)
Class 0:
Remaining flits: 74268 74269 74270 74271 74272 74273 74274 74275 74276 74277 [...] (2843859 flits)
Measured flits: 496890 496891 496892 496893 496894 496895 496896 496897 496898 496899 [...] (599812 flits)
Class 0:
Remaining flits: 74268 74269 74270 74271 74272 74273 74274 74275 74276 74277 [...] (2943526 flits)
Measured flits: 496890 496891 496892 496893 496894 496895 496896 496897 496898 496899 [...] (569839 flits)
Class 0:
Remaining flits: 74268 74269 74270 74271 74272 74273 74274 74275 74276 74277 [...] (3045390 flits)
Measured flits: 496890 496891 496892 496893 496894 496895 496896 496897 496898 496899 [...] (540898 flits)
Class 0:
Remaining flits: 74268 74269 74270 74271 74272 74273 74274 74275 74276 74277 [...] (3144830 flits)
Measured flits: 496890 496891 496892 496893 496894 496895 496896 496897 496898 496899 [...] (512785 flits)
Class 0:
Remaining flits: 74268 74269 74270 74271 74272 74273 74274 74275 74276 74277 [...] (3246922 flits)
Measured flits: 496890 496891 496892 496893 496894 496895 496896 496897 496898 496899 [...] (485676 flits)
Class 0:
Remaining flits: 74268 74269 74270 74271 74272 74273 74274 74275 74276 74277 [...] (3349262 flits)
Measured flits: 496890 496891 496892 496893 496894 496895 496896 496897 496898 496899 [...] (459143 flits)
Class 0:
Remaining flits: 74268 74269 74270 74271 74272 74273 74274 74275 74276 74277 [...] (3449616 flits)
Measured flits: 496890 496891 496892 496893 496894 496895 496896 496897 496898 496899 [...] (432371 flits)
Class 0:
Remaining flits: 116532 116533 116534 116535 116536 116537 116538 116539 116540 116541 [...] (3552007 flits)
Measured flits: 496890 496891 496892 496893 496894 496895 496896 496897 496898 496899 [...] (407924 flits)
Class 0:
Remaining flits: 116532 116533 116534 116535 116536 116537 116538 116539 116540 116541 [...] (3648512 flits)
Measured flits: 496890 496891 496892 496893 496894 496895 496896 496897 496898 496899 [...] (384357 flits)
Class 0:
Remaining flits: 116532 116533 116534 116535 116536 116537 116538 116539 116540 116541 [...] (3742794 flits)
Measured flits: 496890 496891 496892 496893 496894 496895 496896 496897 496898 496899 [...] (361542 flits)
Class 0:
Remaining flits: 150588 150589 150590 150591 150592 150593 150594 150595 150596 150597 [...] (3823822 flits)
Measured flits: 496890 496891 496892 496893 496894 496895 496896 496897 496898 496899 [...] (338839 flits)
Class 0:
Remaining flits: 150588 150589 150590 150591 150592 150593 150594 150595 150596 150597 [...] (3885240 flits)
Measured flits: 496900 496901 496902 496903 496904 496905 496906 496907 502200 502201 [...] (316919 flits)
Class 0:
Remaining flits: 150588 150589 150590 150591 150592 150593 150594 150595 150596 150597 [...] (3924837 flits)
Measured flits: 496900 496901 496902 496903 496904 496905 496906 496907 502200 502201 [...] (295991 flits)
Class 0:
Remaining flits: 150588 150589 150590 150591 150592 150593 150594 150595 150596 150597 [...] (3950103 flits)
Measured flits: 496900 496901 496902 496903 496904 496905 496906 496907 503640 503641 [...] (277306 flits)
Class 0:
Remaining flits: 150588 150589 150590 150591 150592 150593 150594 150595 150596 150597 [...] (3966212 flits)
Measured flits: 503640 503641 503642 503643 503644 503645 503646 503647 503648 503649 [...] (258375 flits)
Class 0:
Remaining flits: 150588 150589 150590 150591 150592 150593 150594 150595 150596 150597 [...] (3978580 flits)
Measured flits: 503640 503641 503642 503643 503644 503645 503646 503647 503648 503649 [...] (241029 flits)
Class 0:
Remaining flits: 150588 150589 150590 150591 150592 150593 150594 150595 150596 150597 [...] (3989581 flits)
Measured flits: 503640 503641 503642 503643 503644 503645 503646 503647 503648 503649 [...] (224565 flits)
Class 0:
Remaining flits: 150588 150589 150590 150591 150592 150593 150594 150595 150596 150597 [...] (3999500 flits)
Measured flits: 503640 503641 503642 503643 503644 503645 503646 503647 503648 503649 [...] (208908 flits)
Class 0:
Remaining flits: 150589 150590 150591 150592 150593 150594 150595 150596 150597 150598 [...] (4015968 flits)
Measured flits: 503640 503641 503642 503643 503644 503645 503646 503647 503648 503649 [...] (194663 flits)
Class 0:
Remaining flits: 150589 150590 150591 150592 150593 150594 150595 150596 150597 150598 [...] (4024219 flits)
Measured flits: 503640 503641 503642 503643 503644 503645 503646 503647 503648 503649 [...] (181158 flits)
Class 0:
Remaining flits: 338634 338635 338636 338637 338638 338639 338640 338641 338642 338643 [...] (4036134 flits)
Measured flits: 503640 503641 503642 503643 503644 503645 503646 503647 503648 503649 [...] (168019 flits)
Class 0:
Remaining flits: 338634 338635 338636 338637 338638 338639 338640 338641 338642 338643 [...] (4046487 flits)
Measured flits: 503640 503641 503642 503643 503644 503645 503646 503647 503648 503649 [...] (155641 flits)
Class 0:
Remaining flits: 338634 338635 338636 338637 338638 338639 338640 338641 338642 338643 [...] (4052992 flits)
Measured flits: 503640 503641 503642 503643 503644 503645 503646 503647 503648 503649 [...] (143933 flits)
Class 0:
Remaining flits: 338634 338635 338636 338637 338638 338639 338640 338641 338642 338643 [...] (4067479 flits)
Measured flits: 503640 503641 503642 503643 503644 503645 503646 503647 503648 503649 [...] (134230 flits)
Class 0:
Remaining flits: 338634 338635 338636 338637 338638 338639 338640 338641 338642 338643 [...] (4076864 flits)
Measured flits: 503640 503641 503642 503643 503644 503645 503646 503647 503648 503649 [...] (124714 flits)
Class 0:
Remaining flits: 379386 379387 379388 379389 379390 379391 379392 379393 379394 379395 [...] (4086021 flits)
Measured flits: 503640 503641 503642 503643 503644 503645 503646 503647 503648 503649 [...] (115472 flits)
Class 0:
Remaining flits: 379386 379387 379388 379389 379390 379391 379392 379393 379394 379395 [...] (4096809 flits)
Measured flits: 503640 503641 503642 503643 503644 503645 503646 503647 503648 503649 [...] (106542 flits)
Class 0:
Remaining flits: 379386 379387 379388 379389 379390 379391 379392 379393 379394 379395 [...] (4108076 flits)
Measured flits: 503640 503641 503642 503643 503644 503645 503646 503647 503648 503649 [...] (98238 flits)
Class 0:
Remaining flits: 379386 379387 379388 379389 379390 379391 379392 379393 379394 379395 [...] (4117770 flits)
Measured flits: 503640 503641 503642 503643 503644 503645 503646 503647 503648 503649 [...] (90073 flits)
Class 0:
Remaining flits: 379386 379387 379388 379389 379390 379391 379392 379393 379394 379395 [...] (4132558 flits)
Measured flits: 503640 503641 503642 503643 503644 503645 503646 503647 503648 503649 [...] (82630 flits)
Class 0:
Remaining flits: 379386 379387 379388 379389 379390 379391 379392 379393 379394 379395 [...] (4142749 flits)
Measured flits: 551869 551870 551871 551872 551873 551874 551875 551876 551877 551878 [...] (75972 flits)
Class 0:
Remaining flits: 379386 379387 379388 379389 379390 379391 379392 379393 379394 379395 [...] (4151822 flits)
Measured flits: 577584 577585 577586 577587 577588 577589 577590 577591 577592 577593 [...] (69932 flits)
Class 0:
Remaining flits: 379386 379387 379388 379389 379390 379391 379392 379393 379394 379395 [...] (4162477 flits)
Measured flits: 577584 577585 577586 577587 577588 577589 577590 577591 577592 577593 [...] (63698 flits)
Class 0:
Remaining flits: 379386 379387 379388 379389 379390 379391 379392 379393 379394 379395 [...] (4174231 flits)
Measured flits: 577584 577585 577586 577587 577588 577589 577590 577591 577592 577593 [...] (58163 flits)
Class 0:
Remaining flits: 379386 379387 379388 379389 379390 379391 379392 379393 379394 379395 [...] (4185846 flits)
Measured flits: 577584 577585 577586 577587 577588 577589 577590 577591 577592 577593 [...] (52738 flits)
Class 0:
Remaining flits: 379386 379387 379388 379389 379390 379391 379392 379393 379394 379395 [...] (4198443 flits)
Measured flits: 580248 580249 580250 580251 580252 580253 580254 580255 580256 580257 [...] (48883 flits)
Class 0:
Remaining flits: 379386 379387 379388 379389 379390 379391 379392 379393 379394 379395 [...] (4207349 flits)
Measured flits: 584064 584065 584066 584067 584068 584069 584070 584071 584072 584073 [...] (44676 flits)
Class 0:
Remaining flits: 379386 379387 379388 379389 379390 379391 379392 379393 379394 379395 [...] (4215549 flits)
Measured flits: 584064 584065 584066 584067 584068 584069 584070 584071 584072 584073 [...] (41023 flits)
Class 0:
Remaining flits: 379386 379387 379388 379389 379390 379391 379392 379393 379394 379395 [...] (4226428 flits)
Measured flits: 584064 584065 584066 584067 584068 584069 584070 584071 584072 584073 [...] (37836 flits)
Class 0:
Remaining flits: 488214 488215 488216 488217 488218 488219 488220 488221 488222 488223 [...] (4234277 flits)
Measured flits: 597078 597079 597080 597081 597082 597083 597084 597085 597086 597087 [...] (33934 flits)
Class 0:
Remaining flits: 488214 488215 488216 488217 488218 488219 488220 488221 488222 488223 [...] (4243854 flits)
Measured flits: 597078 597079 597080 597081 597082 597083 597084 597085 597086 597087 [...] (30752 flits)
Class 0:
Remaining flits: 488214 488215 488216 488217 488218 488219 488220 488221 488222 488223 [...] (4250729 flits)
Measured flits: 597078 597079 597080 597081 597082 597083 597084 597085 597086 597087 [...] (27675 flits)
Class 0:
Remaining flits: 488214 488215 488216 488217 488218 488219 488220 488221 488222 488223 [...] (4263067 flits)
Measured flits: 597078 597079 597080 597081 597082 597083 597084 597085 597086 597087 [...] (25561 flits)
Class 0:
Remaining flits: 488214 488215 488216 488217 488218 488219 488220 488221 488222 488223 [...] (4275893 flits)
Measured flits: 597078 597079 597080 597081 597082 597083 597084 597085 597086 597087 [...] (23055 flits)
Class 0:
Remaining flits: 488214 488215 488216 488217 488218 488219 488220 488221 488222 488223 [...] (4290227 flits)
Measured flits: 597078 597079 597080 597081 597082 597083 597084 597085 597086 597087 [...] (21336 flits)
Class 0:
Remaining flits: 488214 488215 488216 488217 488218 488219 488220 488221 488222 488223 [...] (4298898 flits)
Measured flits: 597078 597079 597080 597081 597082 597083 597084 597085 597086 597087 [...] (19492 flits)
Class 0:
Remaining flits: 488214 488215 488216 488217 488218 488219 488220 488221 488222 488223 [...] (4308884 flits)
Measured flits: 620226 620227 620228 620229 620230 620231 620232 620233 620234 620235 [...] (18023 flits)
Class 0:
Remaining flits: 488214 488215 488216 488217 488218 488219 488220 488221 488222 488223 [...] (4320527 flits)
Measured flits: 620226 620227 620228 620229 620230 620231 620232 620233 620234 620235 [...] (16506 flits)
Class 0:
Remaining flits: 488214 488215 488216 488217 488218 488219 488220 488221 488222 488223 [...] (4330743 flits)
Measured flits: 620226 620227 620228 620229 620230 620231 620232 620233 620234 620235 [...] (14937 flits)
Class 0:
Remaining flits: 488214 488215 488216 488217 488218 488219 488220 488221 488222 488223 [...] (4338975 flits)
Measured flits: 620226 620227 620228 620229 620230 620231 620232 620233 620234 620235 [...] (13392 flits)
Class 0:
Remaining flits: 488214 488215 488216 488217 488218 488219 488220 488221 488222 488223 [...] (4348726 flits)
Measured flits: 620226 620227 620228 620229 620230 620231 620232 620233 620234 620235 [...] (11951 flits)
Class 0:
Remaining flits: 488214 488215 488216 488217 488218 488219 488220 488221 488222 488223 [...] (4357859 flits)
Measured flits: 620226 620227 620228 620229 620230 620231 620232 620233 620234 620235 [...] (10779 flits)
Class 0:
Remaining flits: 488214 488215 488216 488217 488218 488219 488220 488221 488222 488223 [...] (4369429 flits)
Measured flits: 620231 620232 620233 620234 620235 620236 620237 620238 620239 620240 [...] (9824 flits)
Class 0:
Remaining flits: 488214 488215 488216 488217 488218 488219 488220 488221 488222 488223 [...] (4385113 flits)
Measured flits: 725580 725581 725582 725583 725584 725585 725586 725587 725588 725589 [...] (8935 flits)
Class 0:
Remaining flits: 725580 725581 725582 725583 725584 725585 725586 725587 725588 725589 [...] (4395070 flits)
Measured flits: 725580 725581 725582 725583 725584 725585 725586 725587 725588 725589 [...] (8236 flits)
Class 0:
Remaining flits: 725580 725581 725582 725583 725584 725585 725586 725587 725588 725589 [...] (4405600 flits)
Measured flits: 725580 725581 725582 725583 725584 725585 725586 725587 725588 725589 [...] (7527 flits)
Class 0:
Remaining flits: 725580 725581 725582 725583 725584 725585 725586 725587 725588 725589 [...] (4414203 flits)
Measured flits: 725580 725581 725582 725583 725584 725585 725586 725587 725588 725589 [...] (6908 flits)
Class 0:
Remaining flits: 725580 725581 725582 725583 725584 725585 725586 725587 725588 725589 [...] (4425399 flits)
Measured flits: 725580 725581 725582 725583 725584 725585 725586 725587 725588 725589 [...] (6434 flits)
Class 0:
Remaining flits: 725580 725581 725582 725583 725584 725585 725586 725587 725588 725589 [...] (4434751 flits)
Measured flits: 725580 725581 725582 725583 725584 725585 725586 725587 725588 725589 [...] (5976 flits)
Class 0:
Remaining flits: 725580 725581 725582 725583 725584 725585 725586 725587 725588 725589 [...] (4444384 flits)
Measured flits: 725580 725581 725582 725583 725584 725585 725586 725587 725588 725589 [...] (5492 flits)
Class 0:
Remaining flits: 794358 794359 794360 794361 794362 794363 794364 794365 794366 794367 [...] (4454717 flits)
Measured flits: 794358 794359 794360 794361 794362 794363 794364 794365 794366 794367 [...] (4718 flits)
Class 0:
Remaining flits: 794358 794359 794360 794361 794362 794363 794364 794365 794366 794367 [...] (4462180 flits)
Measured flits: 794358 794359 794360 794361 794362 794363 794364 794365 794366 794367 [...] (4047 flits)
Class 0:
Remaining flits: 794358 794359 794360 794361 794362 794363 794364 794365 794366 794367 [...] (4474885 flits)
Measured flits: 794358 794359 794360 794361 794362 794363 794364 794365 794366 794367 [...] (3686 flits)
Class 0:
Remaining flits: 794358 794359 794360 794361 794362 794363 794364 794365 794366 794367 [...] (4485370 flits)
Measured flits: 794358 794359 794360 794361 794362 794363 794364 794365 794366 794367 [...] (3408 flits)
Class 0:
Remaining flits: 794358 794359 794360 794361 794362 794363 794364 794365 794366 794367 [...] (4494105 flits)
Measured flits: 794358 794359 794360 794361 794362 794363 794364 794365 794366 794367 [...] (2975 flits)
Class 0:
Remaining flits: 794358 794359 794360 794361 794362 794363 794364 794365 794366 794367 [...] (4505165 flits)
Measured flits: 794358 794359 794360 794361 794362 794363 794364 794365 794366 794367 [...] (2721 flits)
Class 0:
Remaining flits: 794358 794359 794360 794361 794362 794363 794364 794365 794366 794367 [...] (4516307 flits)
Measured flits: 794358 794359 794360 794361 794362 794363 794364 794365 794366 794367 [...] (2428 flits)
Class 0:
Remaining flits: 794358 794359 794360 794361 794362 794363 794364 794365 794366 794367 [...] (4526734 flits)
Measured flits: 794358 794359 794360 794361 794362 794363 794364 794365 794366 794367 [...] (2228 flits)
Class 0:
Remaining flits: 794358 794359 794360 794361 794362 794363 794364 794365 794366 794367 [...] (4537415 flits)
Measured flits: 794358 794359 794360 794361 794362 794363 794364 794365 794366 794367 [...] (2015 flits)
Class 0:
Remaining flits: 794358 794359 794360 794361 794362 794363 794364 794365 794366 794367 [...] (4546710 flits)
Measured flits: 794358 794359 794360 794361 794362 794363 794364 794365 794366 794367 [...] (1802 flits)
Class 0:
Remaining flits: 794358 794359 794360 794361 794362 794363 794364 794365 794366 794367 [...] (4554672 flits)
Measured flits: 794358 794359 794360 794361 794362 794363 794364 794365 794366 794367 [...] (1651 flits)
Class 0:
Remaining flits: 905310 905311 905312 905313 905314 905315 905316 905317 905318 905319 [...] (4566077 flits)
Measured flits: 905310 905311 905312 905313 905314 905315 905316 905317 905318 905319 [...] (1427 flits)
Class 0:
Remaining flits: 905310 905311 905312 905313 905314 905315 905316 905317 905318 905319 [...] (4574635 flits)
Measured flits: 905310 905311 905312 905313 905314 905315 905316 905317 905318 905319 [...] (1273 flits)
Class 0:
Remaining flits: 905310 905311 905312 905313 905314 905315 905316 905317 905318 905319 [...] (4585432 flits)
Measured flits: 905310 905311 905312 905313 905314 905315 905316 905317 905318 905319 [...] (1158 flits)
Class 0:
Remaining flits: 905310 905311 905312 905313 905314 905315 905316 905317 905318 905319 [...] (4593515 flits)
Measured flits: 905310 905311 905312 905313 905314 905315 905316 905317 905318 905319 [...] (1137 flits)
Class 0:
Remaining flits: 905310 905311 905312 905313 905314 905315 905316 905317 905318 905319 [...] (4599472 flits)
Measured flits: 905310 905311 905312 905313 905314 905315 905316 905317 905318 905319 [...] (1006 flits)
Class 0:
Remaining flits: 905310 905311 905312 905313 905314 905315 905316 905317 905318 905319 [...] (4608725 flits)
Measured flits: 905310 905311 905312 905313 905314 905315 905316 905317 905318 905319 [...] (972 flits)
Class 0:
Remaining flits: 1171206 1171207 1171208 1171209 1171210 1171211 1171212 1171213 1171214 1171215 [...] (4616923 flits)
Measured flits: 1171206 1171207 1171208 1171209 1171210 1171211 1171212 1171213 1171214 1171215 [...] (864 flits)
Class 0:
Remaining flits: 1171206 1171207 1171208 1171209 1171210 1171211 1171212 1171213 1171214 1171215 [...] (4622704 flits)
Measured flits: 1171206 1171207 1171208 1171209 1171210 1171211 1171212 1171213 1171214 1171215 [...] (702 flits)
Class 0:
Remaining flits: 1171206 1171207 1171208 1171209 1171210 1171211 1171212 1171213 1171214 1171215 [...] (4631485 flits)
Measured flits: 1171206 1171207 1171208 1171209 1171210 1171211 1171212 1171213 1171214 1171215 [...] (666 flits)
Class 0:
Remaining flits: 1171206 1171207 1171208 1171209 1171210 1171211 1171212 1171213 1171214 1171215 [...] (4638858 flits)
Measured flits: 1171206 1171207 1171208 1171209 1171210 1171211 1171212 1171213 1171214 1171215 [...] (648 flits)
Class 0:
Remaining flits: 1171206 1171207 1171208 1171209 1171210 1171211 1171212 1171213 1171214 1171215 [...] (4650807 flits)
Measured flits: 1171206 1171207 1171208 1171209 1171210 1171211 1171212 1171213 1171214 1171215 [...] (555 flits)
Class 0:
Remaining flits: 1171206 1171207 1171208 1171209 1171210 1171211 1171212 1171213 1171214 1171215 [...] (4657001 flits)
Measured flits: 1171206 1171207 1171208 1171209 1171210 1171211 1171212 1171213 1171214 1171215 [...] (519 flits)
Class 0:
Remaining flits: 1171206 1171207 1171208 1171209 1171210 1171211 1171212 1171213 1171214 1171215 [...] (4666126 flits)
Measured flits: 1171206 1171207 1171208 1171209 1171210 1171211 1171212 1171213 1171214 1171215 [...] (453 flits)
Class 0:
Remaining flits: 1171206 1171207 1171208 1171209 1171210 1171211 1171212 1171213 1171214 1171215 [...] (4674889 flits)
Measured flits: 1171206 1171207 1171208 1171209 1171210 1171211 1171212 1171213 1171214 1171215 [...] (435 flits)
Class 0:
Remaining flits: 1191384 1191385 1191386 1191387 1191388 1191389 1191390 1191391 1191392 1191393 [...] (4683577 flits)
Measured flits: 1191384 1191385 1191386 1191387 1191388 1191389 1191390 1191391 1191392 1191393 [...] (324 flits)
Class 0:
Remaining flits: 1191384 1191385 1191386 1191387 1191388 1191389 1191390 1191391 1191392 1191393 [...] (4689896 flits)
Measured flits: 1191384 1191385 1191386 1191387 1191388 1191389 1191390 1191391 1191392 1191393 [...] (324 flits)
Class 0:
Remaining flits: 1191384 1191385 1191386 1191387 1191388 1191389 1191390 1191391 1191392 1191393 [...] (4697162 flits)
Measured flits: 1191384 1191385 1191386 1191387 1191388 1191389 1191390 1191391 1191392 1191393 [...] (324 flits)
Class 0:
Remaining flits: 1191384 1191385 1191386 1191387 1191388 1191389 1191390 1191391 1191392 1191393 [...] (4703821 flits)
Measured flits: 1191384 1191385 1191386 1191387 1191388 1191389 1191390 1191391 1191392 1191393 [...] (306 flits)
Class 0:
Remaining flits: 1191384 1191385 1191386 1191387 1191388 1191389 1191390 1191391 1191392 1191393 [...] (4710202 flits)
Measured flits: 1191384 1191385 1191386 1191387 1191388 1191389 1191390 1191391 1191392 1191393 [...] (266 flits)
Class 0:
Remaining flits: 1191384 1191385 1191386 1191387 1191388 1191389 1191390 1191391 1191392 1191393 [...] (4717805 flits)
Measured flits: 1191384 1191385 1191386 1191387 1191388 1191389 1191390 1191391 1191392 1191393 [...] (216 flits)
Class 0:
Remaining flits: 1345644 1345645 1345646 1345647 1345648 1345649 1345650 1345651 1345652 1345653 [...] (4724855 flits)
Measured flits: 1345644 1345645 1345646 1345647 1345648 1345649 1345650 1345651 1345652 1345653 [...] (126 flits)
Class 0:
Remaining flits: 1360624 1360625 1360626 1360627 1360628 1360629 1360630 1360631 1360632 1360633 [...] (4730480 flits)
Measured flits: 1360624 1360625 1360626 1360627 1360628 1360629 1360630 1360631 1360632 1360633 [...] (68 flits)
Class 0:
Remaining flits: 1670904 1670905 1670906 1670907 1670908 1670909 1670910 1670911 1670912 1670913 [...] (4737935 flits)
Measured flits: 1670904 1670905 1670906 1670907 1670908 1670909 1670910 1670911 1670912 1670913 [...] (36 flits)
Class 0:
Remaining flits: 1670904 1670905 1670906 1670907 1670908 1670909 1670910 1670911 1670912 1670913 [...] (4743930 flits)
Measured flits: 1670904 1670905 1670906 1670907 1670908 1670909 1670910 1670911 1670912 1670913 [...] (36 flits)
Class 0:
Remaining flits: 1670904 1670905 1670906 1670907 1670908 1670909 1670910 1670911 1670912 1670913 [...] (4749950 flits)
Measured flits: 1670904 1670905 1670906 1670907 1670908 1670909 1670910 1670911 1670912 1670913 [...] (36 flits)
Class 0:
Remaining flits: 1670904 1670905 1670906 1670907 1670908 1670909 1670910 1670911 1670912 1670913 [...] (4752739 flits)
Measured flits: 1670904 1670905 1670906 1670907 1670908 1670909 1670910 1670911 1670912 1670913 [...] (36 flits)
Class 0:
Remaining flits: 1670904 1670905 1670906 1670907 1670908 1670909 1670910 1670911 1670912 1670913 [...] (4756024 flits)
Measured flits: 1670904 1670905 1670906 1670907 1670908 1670909 1670910 1670911 1670912 1670913 [...] (36 flits)
Class 0:
Remaining flits: 1670904 1670905 1670906 1670907 1670908 1670909 1670910 1670911 1670912 1670913 [...] (4760493 flits)
Measured flits: 1670904 1670905 1670906 1670907 1670908 1670909 1670910 1670911 1670912 1670913 [...] (36 flits)
Class 0:
Remaining flits: 1670904 1670905 1670906 1670907 1670908 1670909 1670910 1670911 1670912 1670913 [...] (4767120 flits)
Measured flits: 1670904 1670905 1670906 1670907 1670908 1670909 1670910 1670911 1670912 1670913 [...] (36 flits)
Class 0:
Remaining flits: 1670904 1670905 1670906 1670907 1670908 1670909 1670910 1670911 1670912 1670913 [...] (4771640 flits)
Measured flits: 1670904 1670905 1670906 1670907 1670908 1670909 1670910 1670911 1670912 1670913 [...] (23 flits)
Class 0:
Remaining flits: 1670904 1670905 1670906 1670907 1670908 1670909 1670910 1670911 1670912 1670913 [...] (4774711 flits)
Measured flits: 1670904 1670905 1670906 1670907 1670908 1670909 1670910 1670911 1670912 1670913 [...] (18 flits)
Class 0:
Remaining flits: 1670904 1670905 1670906 1670907 1670908 1670909 1670910 1670911 1670912 1670913 [...] (4778149 flits)
Measured flits: 1670904 1670905 1670906 1670907 1670908 1670909 1670910 1670911 1670912 1670913 [...] (18 flits)
Class 0:
Remaining flits: 1670904 1670905 1670906 1670907 1670908 1670909 1670910 1670911 1670912 1670913 [...] (4781528 flits)
Measured flits: 1670904 1670905 1670906 1670907 1670908 1670909 1670910 1670911 1670912 1670913 [...] (18 flits)
Class 0:
Remaining flits: 1670904 1670905 1670906 1670907 1670908 1670909 1670910 1670911 1670912 1670913 [...] (4784726 flits)
Measured flits: 1670904 1670905 1670906 1670907 1670908 1670909 1670910 1670911 1670912 1670913 [...] (18 flits)
Draining remaining packets ...
Class 0:
Remaining flits: 1815642 1815643 1815644 1815645 1815646 1815647 1815648 1815649 1815650 1815651 [...] (4751622 flits)
Measured flits: (0 flits)
Class 0:
Remaining flits: 1815642 1815643 1815644 1815645 1815646 1815647 1815648 1815649 1815650 1815651 [...] (4716972 flits)
Measured flits: (0 flits)
Class 0:
Remaining flits: 1815642 1815643 1815644 1815645 1815646 1815647 1815648 1815649 1815650 1815651 [...] (4682404 flits)
Measured flits: (0 flits)
Class 0:
Remaining flits: 1815642 1815643 1815644 1815645 1815646 1815647 1815648 1815649 1815650 1815651 [...] (4648360 flits)
Measured flits: (0 flits)
Class 0:
Remaining flits: 1815642 1815643 1815644 1815645 1815646 1815647 1815648 1815649 1815650 1815651 [...] (4613332 flits)
Measured flits: (0 flits)
Class 0:
Remaining flits: 1815658 1815659 1964862 1964863 1964864 1964865 1964866 1964867 1964868 1964869 [...] (4577977 flits)
Measured flits: (0 flits)
Class 0:
Remaining flits: 2014956 2014957 2014958 2014959 2014960 2014961 2014962 2014963 2014964 2014965 [...] (4543592 flits)
Measured flits: (0 flits)
Class 0:
Remaining flits: 2014956 2014957 2014958 2014959 2014960 2014961 2014962 2014963 2014964 2014965 [...] (4509614 flits)
Measured flits: (0 flits)
Class 0:
Remaining flits: 2014956 2014957 2014958 2014959 2014960 2014961 2014962 2014963 2014964 2014965 [...] (4474938 flits)
Measured flits: (0 flits)
Class 0:
Remaining flits: 2018700 2018701 2018702 2018703 2018704 2018705 2018706 2018707 2018708 2018709 [...] (4440414 flits)
Measured flits: (0 flits)
Class 0:
Remaining flits: 2018700 2018701 2018702 2018703 2018704 2018705 2018706 2018707 2018708 2018709 [...] (4407104 flits)
Measured flits: (0 flits)
Class 0:
Remaining flits: 2018700 2018701 2018702 2018703 2018704 2018705 2018706 2018707 2018708 2018709 [...] (4374631 flits)
Measured flits: (0 flits)
Class 0:
Remaining flits: 2018700 2018701 2018702 2018703 2018704 2018705 2018706 2018707 2018708 2018709 [...] (4341509 flits)
Measured flits: (0 flits)
Class 0:
Remaining flits: 2018700 2018701 2018702 2018703 2018704 2018705 2018706 2018707 2018708 2018709 [...] (4308537 flits)
Measured flits: (0 flits)
Class 0:
Remaining flits: 2018700 2018701 2018702 2018703 2018704 2018705 2018706 2018707 2018708 2018709 [...] (4276865 flits)
Measured flits: (0 flits)
Class 0:
Remaining flits: 2129346 2129347 2129348 2129349 2129350 2129351 2129352 2129353 2129354 2129355 [...] (4243088 flits)
Measured flits: (0 flits)
Class 0:
Remaining flits: 2129346 2129347 2129348 2129349 2129350 2129351 2129352 2129353 2129354 2129355 [...] (4209728 flits)
Measured flits: (0 flits)
Class 0:
Remaining flits: 2129346 2129347 2129348 2129349 2129350 2129351 2129352 2129353 2129354 2129355 [...] (4176928 flits)
Measured flits: (0 flits)
Class 0:
Remaining flits: 2129346 2129347 2129348 2129349 2129350 2129351 2129352 2129353 2129354 2129355 [...] (4143966 flits)
Measured flits: (0 flits)
Class 0:
Remaining flits: 2129346 2129347 2129348 2129349 2129350 2129351 2129352 2129353 2129354 2129355 [...] (4112275 flits)
Measured flits: (0 flits)
Class 0:
Remaining flits: 2129346 2129347 2129348 2129349 2129350 2129351 2129352 2129353 2129354 2129355 [...] (4079931 flits)
Measured flits: (0 flits)
Class 0:
Remaining flits: 2129346 2129347 2129348 2129349 2129350 2129351 2129352 2129353 2129354 2129355 [...] (4046476 flits)
Measured flits: (0 flits)
Class 0:
Remaining flits: 2129346 2129347 2129348 2129349 2129350 2129351 2129352 2129353 2129354 2129355 [...] (4013252 flits)
Measured flits: (0 flits)
Class 0:
Remaining flits: 2129346 2129347 2129348 2129349 2129350 2129351 2129352 2129353 2129354 2129355 [...] (3979634 flits)
Measured flits: (0 flits)
Class 0:
Remaining flits: 2129346 2129347 2129348 2129349 2129350 2129351 2129352 2129353 2129354 2129355 [...] (3946211 flits)
Measured flits: (0 flits)
Class 0:
Remaining flits: 2129346 2129347 2129348 2129349 2129350 2129351 2129352 2129353 2129354 2129355 [...] (3914355 flits)
Measured flits: (0 flits)
Class 0:
Remaining flits: 2403954 2403955 2403956 2403957 2403958 2403959 2403960 2403961 2403962 2403963 [...] (3882809 flits)
Measured flits: (0 flits)
Class 0:
Remaining flits: 2403954 2403955 2403956 2403957 2403958 2403959 2403960 2403961 2403962 2403963 [...] (3851616 flits)
Measured flits: (0 flits)
Class 0:
Remaining flits: 2403954 2403955 2403956 2403957 2403958 2403959 2403960 2403961 2403962 2403963 [...] (3820906 flits)
Measured flits: (0 flits)
Class 0:
Remaining flits: 2403954 2403955 2403956 2403957 2403958 2403959 2403960 2403961 2403962 2403963 [...] (3789359 flits)
Measured flits: (0 flits)
Class 0:
Remaining flits: 2403954 2403955 2403956 2403957 2403958 2403959 2403960 2403961 2403962 2403963 [...] (3756631 flits)
Measured flits: (0 flits)
Class 0:
Remaining flits: 2403954 2403955 2403956 2403957 2403958 2403959 2403960 2403961 2403962 2403963 [...] (3724020 flits)
Measured flits: (0 flits)
Class 0:
Remaining flits: 2403954 2403955 2403956 2403957 2403958 2403959 2403960 2403961 2403962 2403963 [...] (3692659 flits)
Measured flits: (0 flits)
Class 0:
Remaining flits: 2403954 2403955 2403956 2403957 2403958 2403959 2403960 2403961 2403962 2403963 [...] (3659541 flits)
Measured flits: (0 flits)
Class 0:
Remaining flits: 2403954 2403955 2403956 2403957 2403958 2403959 2403960 2403961 2403962 2403963 [...] (3624514 flits)
Measured flits: (0 flits)
Class 0:
Remaining flits: 2403954 2403955 2403956 2403957 2403958 2403959 2403960 2403961 2403962 2403963 [...] (3590592 flits)
Measured flits: (0 flits)
Class 0:
Remaining flits: 2649636 2649637 2649638 2649639 2649640 2649641 2649642 2649643 2649644 2649645 [...] (3557233 flits)
Measured flits: (0 flits)
Class 0:
Remaining flits: 2649636 2649637 2649638 2649639 2649640 2649641 2649642 2649643 2649644 2649645 [...] (3523142 flits)
Measured flits: (0 flits)
Class 0:
Remaining flits: 2649636 2649637 2649638 2649639 2649640 2649641 2649642 2649643 2649644 2649645 [...] (3488202 flits)
Measured flits: (0 flits)
Class 0:
Remaining flits: 2649636 2649637 2649638 2649639 2649640 2649641 2649642 2649643 2649644 2649645 [...] (3454534 flits)
Measured flits: (0 flits)
Class 0:
Remaining flits: 2649636 2649637 2649638 2649639 2649640 2649641 2649642 2649643 2649644 2649645 [...] (3421175 flits)
Measured flits: (0 flits)
Class 0:
Remaining flits: 2649636 2649637 2649638 2649639 2649640 2649641 2649642 2649643 2649644 2649645 [...] (3387394 flits)
Measured flits: (0 flits)
Class 0:
Remaining flits: 2649636 2649637 2649638 2649639 2649640 2649641 2649642 2649643 2649644 2649645 [...] (3353844 flits)
Measured flits: (0 flits)
Class 0:
Remaining flits: 2649636 2649637 2649638 2649639 2649640 2649641 2649642 2649643 2649644 2649645 [...] (3319730 flits)
Measured flits: (0 flits)
Class 0:
Remaining flits: 2649636 2649637 2649638 2649639 2649640 2649641 2649642 2649643 2649644 2649645 [...] (3285964 flits)
Measured flits: (0 flits)
Class 0:
Remaining flits: 2649636 2649637 2649638 2649639 2649640 2649641 2649642 2649643 2649644 2649645 [...] (3252999 flits)
Measured flits: (0 flits)
Class 0:
Remaining flits: 2678454 2678455 2678456 2678457 2678458 2678459 2678460 2678461 2678462 2678463 [...] (3221119 flits)
Measured flits: (0 flits)
Class 0:
Remaining flits: 2678454 2678455 2678456 2678457 2678458 2678459 2678460 2678461 2678462 2678463 [...] (3189459 flits)
Measured flits: (0 flits)
Class 0:
Remaining flits: 2678454 2678455 2678456 2678457 2678458 2678459 2678460 2678461 2678462 2678463 [...] (3159120 flits)
Measured flits: (0 flits)
Class 0:
Remaining flits: 2678454 2678455 2678456 2678457 2678458 2678459 2678460 2678461 2678462 2678463 [...] (3128389 flits)
Measured flits: (0 flits)
Class 0:
Remaining flits: 2678454 2678455 2678456 2678457 2678458 2678459 2678460 2678461 2678462 2678463 [...] (3098194 flits)
Measured flits: (0 flits)
Class 0:
Remaining flits: 2678454 2678455 2678456 2678457 2678458 2678459 2678460 2678461 2678462 2678463 [...] (3067380 flits)
Measured flits: (0 flits)
Class 0:
Remaining flits: 2678454 2678455 2678456 2678457 2678458 2678459 2678460 2678461 2678462 2678463 [...] (3035611 flits)
Measured flits: (0 flits)
Class 0:
Remaining flits: 2678466 2678467 2678468 2678469 2678470 2678471 2817702 2817703 2817704 2817705 [...] (3003613 flits)
Measured flits: (0 flits)
Class 0:
Remaining flits: 2678466 2678467 2678468 2678469 2678470 2678471 2817702 2817703 2817704 2817705 [...] (2972580 flits)
Measured flits: (0 flits)
Class 0:
Remaining flits: 2678466 2678467 2678468 2678469 2678470 2678471 2817702 2817703 2817704 2817705 [...] (2941646 flits)
Measured flits: (0 flits)
Class 0:
Remaining flits: 2817702 2817703 2817704 2817705 2817706 2817707 2817708 2817709 2817710 2817711 [...] (2909562 flits)
Measured flits: (0 flits)
Class 0:
Remaining flits: 2817702 2817703 2817704 2817705 2817706 2817707 2817708 2817709 2817710 2817711 [...] (2877652 flits)
Measured flits: (0 flits)
Class 0:
Remaining flits: 2817702 2817703 2817704 2817705 2817706 2817707 2817708 2817709 2817710 2817711 [...] (2845689 flits)
Measured flits: (0 flits)
Class 0:
Remaining flits: 2817702 2817703 2817704 2817705 2817706 2817707 2817708 2817709 2817710 2817711 [...] (2813176 flits)
Measured flits: (0 flits)
Class 0:
Remaining flits: 2817702 2817703 2817704 2817705 2817706 2817707 2817708 2817709 2817710 2817711 [...] (2780328 flits)
Measured flits: (0 flits)
Class 0:
Remaining flits: 2817702 2817703 2817704 2817705 2817706 2817707 2817708 2817709 2817710 2817711 [...] (2747671 flits)
Measured flits: (0 flits)
Class 0:
Remaining flits: 2817702 2817703 2817704 2817705 2817706 2817707 2817708 2817709 2817710 2817711 [...] (2716677 flits)
Measured flits: (0 flits)
Class 0:
Remaining flits: 2817702 2817703 2817704 2817705 2817706 2817707 2817708 2817709 2817710 2817711 [...] (2684281 flits)
Measured flits: (0 flits)
Class 0:
Remaining flits: 2817702 2817703 2817704 2817705 2817706 2817707 2817708 2817709 2817710 2817711 [...] (2651598 flits)
Measured flits: (0 flits)
Class 0:
Remaining flits: 2817702 2817703 2817704 2817705 2817706 2817707 2817708 2817709 2817710 2817711 [...] (2619737 flits)
Measured flits: (0 flits)
Class 0:
Remaining flits: 2817702 2817703 2817704 2817705 2817706 2817707 2817708 2817709 2817710 2817711 [...] (2587120 flits)
Measured flits: (0 flits)
Class 0:
Remaining flits: 2817702 2817703 2817704 2817705 2817706 2817707 2817708 2817709 2817710 2817711 [...] (2554344 flits)
Measured flits: (0 flits)
Class 0:
Remaining flits: 2817702 2817703 2817704 2817705 2817706 2817707 2817708 2817709 2817710 2817711 [...] (2522181 flits)
Measured flits: (0 flits)
Class 0:
Remaining flits: 2817702 2817703 2817704 2817705 2817706 2817707 2817708 2817709 2817710 2817711 [...] (2490139 flits)
Measured flits: (0 flits)
Class 0:
Remaining flits: 2817702 2817703 2817704 2817705 2817706 2817707 2817708 2817709 2817710 2817711 [...] (2458812 flits)
Measured flits: (0 flits)
Class 0:
Remaining flits: 2817702 2817703 2817704 2817705 2817706 2817707 2817708 2817709 2817710 2817711 [...] (2427448 flits)
Measured flits: (0 flits)
Class 0:
Remaining flits: 2817702 2817703 2817704 2817705 2817706 2817707 2817708 2817709 2817710 2817711 [...] (2394887 flits)
Measured flits: (0 flits)
Class 0:
Remaining flits: 3005406 3005407 3005408 3005409 3005410 3005411 3005412 3005413 3005414 3005415 [...] (2362705 flits)
Measured flits: (0 flits)
Class 0:
Remaining flits: 3005406 3005407 3005408 3005409 3005410 3005411 3005412 3005413 3005414 3005415 [...] (2331307 flits)
Measured flits: (0 flits)
Class 0:
Remaining flits: 3005406 3005407 3005408 3005409 3005410 3005411 3005412 3005413 3005414 3005415 [...] (2300200 flits)
Measured flits: (0 flits)
Class 0:
Remaining flits: 3005406 3005407 3005408 3005409 3005410 3005411 3005412 3005413 3005414 3005415 [...] (2268647 flits)
Measured flits: (0 flits)
Class 0:
Remaining flits: 3005406 3005407 3005408 3005409 3005410 3005411 3005412 3005413 3005414 3005415 [...] (2237670 flits)
Measured flits: (0 flits)
Class 0:
Remaining flits: 3005406 3005407 3005408 3005409 3005410 3005411 3005412 3005413 3005414 3005415 [...] (2206500 flits)
Measured flits: (0 flits)
Class 0:
Remaining flits: 3005406 3005407 3005408 3005409 3005410 3005411 3005412 3005413 3005414 3005415 [...] (2175617 flits)
Measured flits: (0 flits)
Class 0:
Remaining flits: 3005406 3005407 3005408 3005409 3005410 3005411 3005412 3005413 3005414 3005415 [...] (2143845 flits)
Measured flits: (0 flits)
Class 0:
Remaining flits: 3005406 3005407 3005408 3005409 3005410 3005411 3005412 3005413 3005414 3005415 [...] (2112224 flits)
Measured flits: (0 flits)
Class 0:
Remaining flits: 3005406 3005407 3005408 3005409 3005410 3005411 3005412 3005413 3005414 3005415 [...] (2081074 flits)
Measured flits: (0 flits)
Class 0:
Remaining flits: 3005406 3005407 3005408 3005409 3005410 3005411 3005412 3005413 3005414 3005415 [...] (2049820 flits)
Measured flits: (0 flits)
Class 0:
Remaining flits: 3005406 3005407 3005408 3005409 3005410 3005411 3005412 3005413 3005414 3005415 [...] (2018576 flits)
Measured flits: (0 flits)
Class 0:
Remaining flits: 3005406 3005407 3005408 3005409 3005410 3005411 3005412 3005413 3005414 3005415 [...] (1987539 flits)
Measured flits: (0 flits)
Class 0:
Remaining flits: 3005406 3005407 3005408 3005409 3005410 3005411 3005412 3005413 3005414 3005415 [...] (1955181 flits)
Measured flits: (0 flits)
Class 0:
Remaining flits: 3005406 3005407 3005408 3005409 3005410 3005411 3005412 3005413 3005414 3005415 [...] (1924310 flits)
Measured flits: (0 flits)
Class 0:
Remaining flits: 3268694 3268695 3268696 3268697 3268698 3268699 3268700 3268701 3268702 3268703 [...] (1893176 flits)
Measured flits: (0 flits)
Class 0:
Remaining flits: 3273840 3273841 3273842 3273843 3273844 3273845 3273846 3273847 3273848 3273849 [...] (1862070 flits)
Measured flits: (0 flits)
Class 0:
Remaining flits: 3273840 3273841 3273842 3273843 3273844 3273845 3273846 3273847 3273848 3273849 [...] (1830048 flits)
Measured flits: (0 flits)
Class 0:
Remaining flits: 3273840 3273841 3273842 3273843 3273844 3273845 3273846 3273847 3273848 3273849 [...] (1798151 flits)
Measured flits: (0 flits)
Class 0:
Remaining flits: 3273840 3273841 3273842 3273843 3273844 3273845 3273846 3273847 3273848 3273849 [...] (1765693 flits)
Measured flits: (0 flits)
Class 0:
Remaining flits: 3273840 3273841 3273842 3273843 3273844 3273845 3273846 3273847 3273848 3273849 [...] (1733766 flits)
Measured flits: (0 flits)
Class 0:
Remaining flits: 3273840 3273841 3273842 3273843 3273844 3273845 3273846 3273847 3273848 3273849 [...] (1701978 flits)
Measured flits: (0 flits)
Class 0:
Remaining flits: 3273840 3273841 3273842 3273843 3273844 3273845 3273846 3273847 3273848 3273849 [...] (1670186 flits)
Measured flits: (0 flits)
Class 0:
Remaining flits: 3273840 3273841 3273842 3273843 3273844 3273845 3273846 3273847 3273848 3273849 [...] (1638833 flits)
Measured flits: (0 flits)
Class 0:
Remaining flits: 3273840 3273841 3273842 3273843 3273844 3273845 3273846 3273847 3273848 3273849 [...] (1606057 flits)
Measured flits: (0 flits)
Class 0:
Remaining flits: 3273840 3273841 3273842 3273843 3273844 3273845 3273846 3273847 3273848 3273849 [...] (1574129 flits)
Measured flits: (0 flits)
Class 0:
Remaining flits: 3273840 3273841 3273842 3273843 3273844 3273845 3273846 3273847 3273848 3273849 [...] (1541818 flits)
Measured flits: (0 flits)
Class 0:
Remaining flits: 3273840 3273841 3273842 3273843 3273844 3273845 3273846 3273847 3273848 3273849 [...] (1510126 flits)
Measured flits: (0 flits)
Class 0:
Remaining flits: 3533868 3533869 3533870 3533871 3533872 3533873 3533874 3533875 3533876 3533877 [...] (1477789 flits)
Measured flits: (0 flits)
Class 0:
Remaining flits: 3533868 3533869 3533870 3533871 3533872 3533873 3533874 3533875 3533876 3533877 [...] (1446614 flits)
Measured flits: (0 flits)
Class 0:
Remaining flits: 3533882 3533883 3533884 3533885 3706200 3706201 3706202 3706203 3706204 3706205 [...] (1416453 flits)
Measured flits: (0 flits)
Class 0:
Remaining flits: 3706200 3706201 3706202 3706203 3706204 3706205 3706206 3706207 3706208 3706209 [...] (1384882 flits)
Measured flits: (0 flits)
Class 0:
Remaining flits: 3706200 3706201 3706202 3706203 3706204 3706205 3706206 3706207 3706208 3706209 [...] (1353011 flits)
Measured flits: (0 flits)
Class 0:
Remaining flits: 3772206 3772207 3772208 3772209 3772210 3772211 3772212 3772213 3772214 3772215 [...] (1321947 flits)
Measured flits: (0 flits)
Class 0:
Remaining flits: 3772206 3772207 3772208 3772209 3772210 3772211 3772212 3772213 3772214 3772215 [...] (1289756 flits)
Measured flits: (0 flits)
Class 0:
Remaining flits: 3772206 3772207 3772208 3772209 3772210 3772211 3772212 3772213 3772214 3772215 [...] (1257704 flits)
Measured flits: (0 flits)
Class 0:
Remaining flits: 3772206 3772207 3772208 3772209 3772210 3772211 3772212 3772213 3772214 3772215 [...] (1225008 flits)
Measured flits: (0 flits)
Class 0:
Remaining flits: 3772206 3772207 3772208 3772209 3772210 3772211 3772212 3772213 3772214 3772215 [...] (1191659 flits)
Measured flits: (0 flits)
Class 0:
Remaining flits: 3772206 3772207 3772208 3772209 3772210 3772211 3772212 3772213 3772214 3772215 [...] (1158785 flits)
Measured flits: (0 flits)
Class 0:
Remaining flits: 3772206 3772207 3772208 3772209 3772210 3772211 3772212 3772213 3772214 3772215 [...] (1125853 flits)
Measured flits: (0 flits)
Class 0:
Remaining flits: 3772206 3772207 3772208 3772209 3772210 3772211 3772212 3772213 3772214 3772215 [...] (1092871 flits)
Measured flits: (0 flits)
Class 0:
Remaining flits: 3772206 3772207 3772208 3772209 3772210 3772211 3772212 3772213 3772214 3772215 [...] (1059916 flits)
Measured flits: (0 flits)
Class 0:
Remaining flits: 4260582 4260583 4260584 4260585 4260586 4260587 4260588 4260589 4260590 4260591 [...] (1027133 flits)
Measured flits: (0 flits)
Class 0:
Remaining flits: 4348782 4348783 4348784 4348785 4348786 4348787 4348788 4348789 4348790 4348791 [...] (995146 flits)
Measured flits: (0 flits)
Class 0:
Remaining flits: 4348782 4348783 4348784 4348785 4348786 4348787 4348788 4348789 4348790 4348791 [...] (963141 flits)
Measured flits: (0 flits)
Class 0:
Remaining flits: 4348782 4348783 4348784 4348785 4348786 4348787 4348788 4348789 4348790 4348791 [...] (931000 flits)
Measured flits: (0 flits)
Class 0:
Remaining flits: 4348782 4348783 4348784 4348785 4348786 4348787 4348788 4348789 4348790 4348791 [...] (898744 flits)
Measured flits: (0 flits)
Class 0:
Remaining flits: 4348782 4348783 4348784 4348785 4348786 4348787 4348788 4348789 4348790 4348791 [...] (866339 flits)
Measured flits: (0 flits)
Class 0:
Remaining flits: 4348782 4348783 4348784 4348785 4348786 4348787 4348788 4348789 4348790 4348791 [...] (834261 flits)
Measured flits: (0 flits)
Class 0:
Remaining flits: 4348782 4348783 4348784 4348785 4348786 4348787 4348788 4348789 4348790 4348791 [...] (802539 flits)
Measured flits: (0 flits)
Class 0:
Remaining flits: 4348782 4348783 4348784 4348785 4348786 4348787 4348788 4348789 4348790 4348791 [...] (770128 flits)
Measured flits: (0 flits)
Class 0:
Remaining flits: 4348782 4348783 4348784 4348785 4348786 4348787 4348788 4348789 4348790 4348791 [...] (738866 flits)
Measured flits: (0 flits)
Class 0:
Remaining flits: 4388832 4388833 4388834 4388835 4388836 4388837 4388838 4388839 4388840 4388841 [...] (706294 flits)
Measured flits: (0 flits)
Class 0:
Remaining flits: 4429134 4429135 4429136 4429137 4429138 4429139 4429140 4429141 4429142 4429143 [...] (673751 flits)
Measured flits: (0 flits)
Class 0:
Remaining flits: 4429134 4429135 4429136 4429137 4429138 4429139 4429140 4429141 4429142 4429143 [...] (641103 flits)
Measured flits: (0 flits)
Class 0:
Remaining flits: 4429134 4429135 4429136 4429137 4429138 4429139 4429140 4429141 4429142 4429143 [...] (608793 flits)
Measured flits: (0 flits)
Class 0:
Remaining flits: 4429134 4429135 4429136 4429137 4429138 4429139 4429140 4429141 4429142 4429143 [...] (576883 flits)
Measured flits: (0 flits)
Class 0:
Remaining flits: 4429134 4429135 4429136 4429137 4429138 4429139 4429140 4429141 4429142 4429143 [...] (545409 flits)
Measured flits: (0 flits)
Class 0:
Remaining flits: 4429134 4429135 4429136 4429137 4429138 4429139 4429140 4429141 4429142 4429143 [...] (513521 flits)
Measured flits: (0 flits)
Class 0:
Remaining flits: 4429146 4429147 4429148 4429149 4429150 4429151 4588920 4588921 4588922 4588923 [...] (481814 flits)
Measured flits: (0 flits)
Class 0:
Remaining flits: 4588920 4588921 4588922 4588923 4588924 4588925 4588926 4588927 4588928 4588929 [...] (449423 flits)
Measured flits: (0 flits)
Class 0:
Remaining flits: 4588920 4588921 4588922 4588923 4588924 4588925 4588926 4588927 4588928 4588929 [...] (417401 flits)
Measured flits: (0 flits)
Class 0:
Remaining flits: 4588929 4588930 4588931 4588932 4588933 4588934 4588935 4588936 4588937 4795182 [...] (386253 flits)
Measured flits: (0 flits)
Class 0:
Remaining flits: 4795182 4795183 4795184 4795185 4795186 4795187 4795188 4795189 4795190 4795191 [...] (356109 flits)
Measured flits: (0 flits)
Class 0:
Remaining flits: 4795182 4795183 4795184 4795185 4795186 4795187 4795188 4795189 4795190 4795191 [...] (326524 flits)
Measured flits: (0 flits)
Class 0:
Remaining flits: 4795182 4795183 4795184 4795185 4795186 4795187 4795188 4795189 4795190 4795191 [...] (296446 flits)
Measured flits: (0 flits)
Class 0:
Remaining flits: 4795182 4795183 4795184 4795185 4795186 4795187 4795188 4795189 4795190 4795191 [...] (266864 flits)
Measured flits: (0 flits)
Class 0:
Remaining flits: 4795182 4795183 4795184 4795185 4795186 4795187 4795188 4795189 4795190 4795191 [...] (238585 flits)
Measured flits: (0 flits)
Class 0:
Remaining flits: 4795182 4795183 4795184 4795185 4795186 4795187 4795188 4795189 4795190 4795191 [...] (209896 flits)
Measured flits: (0 flits)
Class 0:
Remaining flits: 4795182 4795183 4795184 4795185 4795186 4795187 4795188 4795189 4795190 4795191 [...] (182393 flits)
Measured flits: (0 flits)
Class 0:
Remaining flits: 4795182 4795183 4795184 4795185 4795186 4795187 4795188 4795189 4795190 4795191 [...] (156877 flits)
Measured flits: (0 flits)
Class 0:
Remaining flits: 4795182 4795183 4795184 4795185 4795186 4795187 4795188 4795189 4795190 4795191 [...] (133142 flits)
Measured flits: (0 flits)
Class 0:
Remaining flits: 4795182 4795183 4795184 4795185 4795186 4795187 4795188 4795189 4795190 4795191 [...] (111377 flits)
Measured flits: (0 flits)
Class 0:
Remaining flits: 4795182 4795183 4795184 4795185 4795186 4795187 4795188 4795189 4795190 4795191 [...] (92400 flits)
Measured flits: (0 flits)
Class 0:
Remaining flits: 4795182 4795183 4795184 4795185 4795186 4795187 4795188 4795189 4795190 4795191 [...] (74029 flits)
Measured flits: (0 flits)
Class 0:
Remaining flits: 4795182 4795183 4795184 4795185 4795186 4795187 4795188 4795189 4795190 4795191 [...] (57174 flits)
Measured flits: (0 flits)
Class 0:
Remaining flits: 4795182 4795183 4795184 4795185 4795186 4795187 4795188 4795189 4795190 4795191 [...] (43910 flits)
Measured flits: (0 flits)
Class 0:
Remaining flits: 5008986 5008987 5008988 5008989 5008990 5008991 5008992 5008993 5008994 5008995 [...] (33369 flits)
Measured flits: (0 flits)
Class 0:
Remaining flits: 5008986 5008987 5008988 5008989 5008990 5008991 5008992 5008993 5008994 5008995 [...] (24504 flits)
Measured flits: (0 flits)
Class 0:
Remaining flits: 5461884 5461885 5461886 5461887 5461888 5461889 5461890 5461891 5461892 5461893 [...] (16939 flits)
Measured flits: (0 flits)
Class 0:
Remaining flits: 5461884 5461885 5461886 5461887 5461888 5461889 5461890 5461891 5461892 5461893 [...] (10410 flits)
Measured flits: (0 flits)
Class 0:
Remaining flits: 6298416 6298417 6298418 6298419 6298420 6298421 6298422 6298423 6298424 6298425 [...] (5841 flits)
Measured flits: (0 flits)
Class 0:
Remaining flits: 6314400 6314401 6314402 6314403 6314404 6314405 6314406 6314407 6314408 6314409 [...] (1855 flits)
Measured flits: (0 flits)
Time taken is 288235 cycles
====== Overall Traffic Statistics ======
====== Traffic class 0 ======
Packet latency average = 23035.8 (1 samples)
	minimum = 23 (1 samples)
	maximum = 121746 (1 samples)
Network latency average = 22968 (1 samples)
	minimum = 23 (1 samples)
	maximum = 121670 (1 samples)
Flit latency average = 87896.7 (1 samples)
	minimum = 6 (1 samples)
	maximum = 250298 (1 samples)
Fragmentation average = 251.101 (1 samples)
	minimum = 0 (1 samples)
	maximum = 12042 (1 samples)
Injected packet rate average = 0.0489621 (1 samples)
	minimum = 0.042 (1 samples)
	maximum = 0.0551429 (1 samples)
Accepted packet rate average = 0.0151548 (1 samples)
	minimum = 0.0107143 (1 samples)
	maximum = 0.0187143 (1 samples)
Injected flit rate average = 0.881437 (1 samples)
	minimum = 0.755 (1 samples)
	maximum = 0.993571 (1 samples)
Accepted flit rate average = 0.272259 (1 samples)
	minimum = 0.188 (1 samples)
	maximum = 0.337714 (1 samples)
Injected packet size average = 18.0024 (1 samples)
Accepted packet size average = 17.9652 (1 samples)
Hops average = 5.06998 (1 samples)
Total run time 611.518
