BEGIN Configuration File: networks/mezzanine_config
topology = mezzanine;
n = 12;

routing_function = multipath;
internal_speedup = 2.0;
latency_thres = 100000.0;
use_read_write = 0;

sample_period = 1000;
injection_rate = 0.5;
packet_size = 18;

noq = 1;
routing_delay = 0;
vc_alloc_delay = 1;
sw_alloc_delay = 1;
st_final_delay = 1;
vc_allocator = islip; 
sw_allocator = islip;
alloc_iters  = 4;
num_vcs     = 12;
buffer_policy = private; // private or shared
buf_size = -1; // -1 for buffer_policy = private;
vc_buf_size = 4096; // size of each VOQ with buffer_policy = private
output_buffer_size = -1;


traffic = uniform;

//mezW = 0.0;
//mezPredefinedPatternType = shift-inter; //shift-qfdb

END Configuration File: networks/mezzanine_config
OVERRIDE Parameter: injection_rate=0.013537
OVERRIDE Parameter: routing_function=min
OVERRIDE Parameter: num_vcs=64
OVERRIDE Parameter: vc_buf_size=1024
OVERRIDE Parameter: internal_speedup=2.0
OVERRIDE Parameter: injection_process=bernoulli
OVERRIDE Parameter: sim_type=latency
OVERRIDE Parameter: burst_alpha=0.0038461538
OVERRIDE Parameter: burst_beta=0.1
network: network_0
========================== Routing table  =====================
Number of Subnets: 1
Class 0:
Packet latency average = 100.335
	minimum = 22
	maximum = 409
Network latency average = 97.7938
	minimum = 22
	maximum = 403
Slowest packet = 1471
Flit latency average = 69.8397
	minimum = 5
	maximum = 386
Slowest flit = 26491
Fragmentation average = 22.2299
	minimum = 0
	maximum = 161
Injected packet rate average = 0.0136094
	minimum = 0.006 (at node 87)
	maximum = 0.022 (at node 123)
Accepted packet rate average = 0.011849
	minimum = 0.004 (at node 64)
	maximum = 0.02 (at node 44)
Injected flit rate average = 0.242297
	minimum = 0.1 (at node 87)
	maximum = 0.396 (at node 123)
Accepted flit rate average= 0.217698
	minimum = 0.072 (at node 64)
	maximum = 0.369 (at node 132)
Injected packet length average = 17.8037
Accepted packet length average = 18.3727
Total in-flight flits = 5236 (0 measured)
latency change    = 1
throughput change = 1
Class 0:
Packet latency average = 123.541
	minimum = 22
	maximum = 527
Network latency average = 120.902
	minimum = 22
	maximum = 527
Slowest packet = 3706
Flit latency average = 92.0419
	minimum = 5
	maximum = 510
Slowest flit = 66725
Fragmentation average = 23.3707
	minimum = 0
	maximum = 177
Injected packet rate average = 0.0133906
	minimum = 0.0075 (at node 161)
	maximum = 0.019 (at node 77)
Accepted packet rate average = 0.0124271
	minimum = 0.007 (at node 30)
	maximum = 0.018 (at node 22)
Injected flit rate average = 0.239911
	minimum = 0.135 (at node 161)
	maximum = 0.342 (at node 77)
Accepted flit rate average= 0.225891
	minimum = 0.126 (at node 83)
	maximum = 0.324 (at node 22)
Injected packet length average = 17.9164
Accepted packet length average = 18.1773
Total in-flight flits = 5814 (0 measured)
latency change    = 0.187841
throughput change = 0.0362685
Class 0:
Packet latency average = 153.879
	minimum = 22
	maximum = 599
Network latency average = 151.327
	minimum = 22
	maximum = 595
Slowest packet = 3979
Flit latency average = 122.061
	minimum = 5
	maximum = 578
Slowest flit = 71457
Fragmentation average = 23.5606
	minimum = 0
	maximum = 149
Injected packet rate average = 0.0134844
	minimum = 0.004 (at node 136)
	maximum = 0.025 (at node 191)
Accepted packet rate average = 0.0132396
	minimum = 0.004 (at node 184)
	maximum = 0.022 (at node 24)
Injected flit rate average = 0.242443
	minimum = 0.064 (at node 136)
	maximum = 0.457 (at node 191)
Accepted flit rate average= 0.239854
	minimum = 0.084 (at node 184)
	maximum = 0.408 (at node 16)
Injected packet length average = 17.9795
Accepted packet length average = 18.1164
Total in-flight flits = 6364 (0 measured)
latency change    = 0.197156
throughput change = 0.0582168
Warmed up ...Time used is 3000 cycles
Class 0:
Packet latency average = 159.689
	minimum = 22
	maximum = 624
Network latency average = 156.95
	minimum = 22
	maximum = 621
Slowest packet = 7811
Flit latency average = 134.776
	minimum = 5
	maximum = 628
Slowest flit = 133307
Fragmentation average = 25.4213
	minimum = 0
	maximum = 148
Injected packet rate average = 0.0140469
	minimum = 0.004 (at node 150)
	maximum = 0.025 (at node 84)
Accepted packet rate average = 0.0137188
	minimum = 0.004 (at node 154)
	maximum = 0.026 (at node 16)
Injected flit rate average = 0.252427
	minimum = 0.072 (at node 150)
	maximum = 0.45 (at node 84)
Accepted flit rate average= 0.245531
	minimum = 0.057 (at node 154)
	maximum = 0.454 (at node 16)
Injected packet length average = 17.9703
Accepted packet length average = 17.8975
Total in-flight flits = 7768 (7768 measured)
latency change    = 0.0363804
throughput change = 0.0231216
Class 0:
Packet latency average = 170.371
	minimum = 22
	maximum = 624
Network latency average = 167.776
	minimum = 22
	maximum = 621
Slowest packet = 7811
Flit latency average = 141.16
	minimum = 5
	maximum = 628
Slowest flit = 133307
Fragmentation average = 24.69
	minimum = 0
	maximum = 167
Injected packet rate average = 0.0136901
	minimum = 0.0085 (at node 10)
	maximum = 0.022 (at node 126)
Accepted packet rate average = 0.0137292
	minimum = 0.006 (at node 4)
	maximum = 0.0215 (at node 129)
Injected flit rate average = 0.246563
	minimum = 0.153 (at node 10)
	maximum = 0.392 (at node 126)
Accepted flit rate average= 0.246479
	minimum = 0.1075 (at node 4)
	maximum = 0.39 (at node 129)
Injected packet length average = 18.0103
Accepted packet length average = 17.953
Total in-flight flits = 6342 (6342 measured)
latency change    = 0.0626973
throughput change = 0.00384583
Class 0:
Packet latency average = 168.306
	minimum = 22
	maximum = 624
Network latency average = 165.704
	minimum = 22
	maximum = 621
Slowest packet = 7811
Flit latency average = 138.023
	minimum = 5
	maximum = 628
Slowest flit = 133307
Fragmentation average = 24.8071
	minimum = 0
	maximum = 169
Injected packet rate average = 0.013658
	minimum = 0.00866667 (at node 18)
	maximum = 0.0196667 (at node 116)
Accepted packet rate average = 0.0136111
	minimum = 0.00866667 (at node 86)
	maximum = 0.02 (at node 128)
Injected flit rate average = 0.245995
	minimum = 0.156 (at node 18)
	maximum = 0.354 (at node 116)
Accepted flit rate average= 0.244639
	minimum = 0.161 (at node 86)
	maximum = 0.362333 (at node 128)
Injected packet length average = 18.0111
Accepted packet length average = 17.9735
Total in-flight flits = 7058 (7058 measured)
latency change    = 0.0122694
throughput change = 0.00752243
Class 0:
Packet latency average = 170.132
	minimum = 22
	maximum = 903
Network latency average = 167.487
	minimum = 22
	maximum = 888
Slowest packet = 15537
Flit latency average = 139.045
	minimum = 5
	maximum = 871
Slowest flit = 279683
Fragmentation average = 25.1828
	minimum = 0
	maximum = 169
Injected packet rate average = 0.0136523
	minimum = 0.0085 (at node 172)
	maximum = 0.01775 (at node 126)
Accepted packet rate average = 0.0135846
	minimum = 0.00975 (at node 36)
	maximum = 0.01925 (at node 128)
Injected flit rate average = 0.245932
	minimum = 0.15675 (at node 172)
	maximum = 0.3195 (at node 126)
Accepted flit rate average= 0.244311
	minimum = 0.1745 (at node 36)
	maximum = 0.347 (at node 128)
Injected packet length average = 18.0139
Accepted packet length average = 17.9844
Total in-flight flits = 7463 (7463 measured)
latency change    = 0.0107378
throughput change = 0.00134129
Class 0:
Packet latency average = 172.221
	minimum = 22
	maximum = 903
Network latency average = 169.527
	minimum = 22
	maximum = 888
Slowest packet = 15537
Flit latency average = 140.726
	minimum = 5
	maximum = 871
Slowest flit = 279683
Fragmentation average = 25.0519
	minimum = 0
	maximum = 169
Injected packet rate average = 0.013574
	minimum = 0.0106 (at node 163)
	maximum = 0.0178 (at node 116)
Accepted packet rate average = 0.013601
	minimum = 0.0094 (at node 162)
	maximum = 0.0178 (at node 128)
Injected flit rate average = 0.244522
	minimum = 0.191 (at node 163)
	maximum = 0.3178 (at node 116)
Accepted flit rate average= 0.244624
	minimum = 0.17 (at node 162)
	maximum = 0.3228 (at node 128)
Injected packet length average = 18.014
Accepted packet length average = 17.9857
Total in-flight flits = 6083 (6083 measured)
latency change    = 0.0121291
throughput change = 0.00127854
Draining all recorded packets ...
Draining remaining packets ...
Time taken is 9006 cycles
====== Overall Traffic Statistics ======
====== Traffic class 0 ======
Packet latency average = 174.702 (1 samples)
	minimum = 22 (1 samples)
	maximum = 903 (1 samples)
Network latency average = 171.993 (1 samples)
	minimum = 22 (1 samples)
	maximum = 888 (1 samples)
Flit latency average = 140.221 (1 samples)
	minimum = 5 (1 samples)
	maximum = 871 (1 samples)
Fragmentation average = 25.2126 (1 samples)
	minimum = 0 (1 samples)
	maximum = 260 (1 samples)
Injected packet rate average = 0.013574 (1 samples)
	minimum = 0.0106 (1 samples)
	maximum = 0.0178 (1 samples)
Accepted packet rate average = 0.013601 (1 samples)
	minimum = 0.0094 (1 samples)
	maximum = 0.0178 (1 samples)
Injected flit rate average = 0.244522 (1 samples)
	minimum = 0.191 (1 samples)
	maximum = 0.3178 (1 samples)
Accepted flit rate average = 0.244624 (1 samples)
	minimum = 0.17 (1 samples)
	maximum = 0.3228 (1 samples)
Injected packet size average = 18.014 (1 samples)
Accepted packet size average = 17.9857 (1 samples)
Hops average = 5.05375 (1 samples)
Total run time 7.01328
