BEGIN Configuration File: networks/mezzanine_config
topology = mezzanine;
n = 12;

routing_function = multipath;
internal_speedup = 2.0;
latency_thres = 100000.0;
use_read_write = 0;

sample_period = 1000;
injection_rate = 0.5;
packet_size = 18;

noq = 1;
routing_delay = 0;
vc_alloc_delay = 1;
sw_alloc_delay = 1;
st_final_delay = 1;
vc_allocator = islip; 
sw_allocator = islip;
alloc_iters  = 4;
num_vcs     = 12;
buffer_policy = private; // private or shared
buf_size = -1; // -1 for buffer_policy = private;
vc_buf_size = 4096; // size of each VOQ with buffer_policy = private
output_buffer_size = -1;


traffic = uniform;

//mezW = 0.0;
//mezPredefinedPatternType = shift-inter; //shift-qfdb

END Configuration File: networks/mezzanine_config
OVERRIDE Parameter: injection_rate=0.022377
OVERRIDE Parameter: routing_function=min
OVERRIDE Parameter: num_vcs=64
OVERRIDE Parameter: vc_buf_size=1024
OVERRIDE Parameter: internal_speedup=1.0
OVERRIDE Parameter: injection_process=bernoulli
OVERRIDE Parameter: sim_type=latency
OVERRIDE Parameter: burst_alpha=0.0038461538
OVERRIDE Parameter: burst_beta=0.1
network: network_0
========================== Routing table  =====================
Number of Subnets: 1
Class 0:
Packet latency average = 275.213
	minimum = 23
	maximum = 933
Network latency average = 270.25
	minimum = 23
	maximum = 933
Slowest packet = 122
Flit latency average = 192.75
	minimum = 6
	maximum = 916
Slowest flit = 2213
Fragmentation average = 165.909
	minimum = 0
	maximum = 890
Injected packet rate average = 0.0223802
	minimum = 0.012 (at node 79)
	maximum = 0.038 (at node 11)
Accepted packet rate average = 0.00967708
	minimum = 0.003 (at node 174)
	maximum = 0.02 (at node 70)
Injected flit rate average = 0.399089
	minimum = 0.216 (at node 79)
	maximum = 0.684 (at node 11)
Accepted flit rate average= 0.206927
	minimum = 0.074 (at node 174)
	maximum = 0.387 (at node 70)
Injected packet length average = 17.8322
Accepted packet length average = 21.3832
Total in-flight flits = 37616 (0 measured)
latency change    = 1
throughput change = 1
Class 0:
Packet latency average = 475.247
	minimum = 23
	maximum = 1856
Network latency average = 469.772
	minimum = 23
	maximum = 1827
Slowest packet = 636
Flit latency average = 366.565
	minimum = 6
	maximum = 1876
Slowest flit = 5228
Fragmentation average = 230.496
	minimum = 0
	maximum = 1539
Injected packet rate average = 0.0222448
	minimum = 0.0145 (at node 105)
	maximum = 0.031 (at node 98)
Accepted packet rate average = 0.0110599
	minimum = 0.006 (at node 153)
	maximum = 0.0165 (at node 22)
Injected flit rate average = 0.398753
	minimum = 0.2555 (at node 105)
	maximum = 0.553 (at node 98)
Accepted flit rate average= 0.219508
	minimum = 0.1255 (at node 116)
	maximum = 0.321 (at node 152)
Injected packet length average = 17.9257
Accepted packet length average = 19.8472
Total in-flight flits = 69465 (0 measured)
latency change    = 0.420904
throughput change = 0.0573134
Class 0:
Packet latency average = 953.679
	minimum = 23
	maximum = 2687
Network latency average = 947.943
	minimum = 23
	maximum = 2687
Slowest packet = 524
Flit latency average = 843.973
	minimum = 6
	maximum = 2845
Slowest flit = 10609
Fragmentation average = 323.26
	minimum = 0
	maximum = 2148
Injected packet rate average = 0.0222552
	minimum = 0.013 (at node 23)
	maximum = 0.034 (at node 48)
Accepted packet rate average = 0.0129635
	minimum = 0.004 (at node 74)
	maximum = 0.023 (at node 16)
Injected flit rate average = 0.400745
	minimum = 0.234 (at node 23)
	maximum = 0.612 (at node 48)
Accepted flit rate average= 0.238005
	minimum = 0.106 (at node 105)
	maximum = 0.463 (at node 16)
Injected packet length average = 18.0068
Accepted packet length average = 18.3596
Total in-flight flits = 100682 (0 measured)
latency change    = 0.50167
throughput change = 0.0777184
Warmed up ...Time used is 3000 cycles
Class 0:
Packet latency average = 199.202
	minimum = 24
	maximum = 922
Network latency average = 194.004
	minimum = 24
	maximum = 922
Slowest packet = 12979
Flit latency average = 1178.03
	minimum = 6
	maximum = 3726
Slowest flit = 18161
Fragmentation average = 107.555
	minimum = 0
	maximum = 671
Injected packet rate average = 0.0229583
	minimum = 0.013 (at node 43)
	maximum = 0.033 (at node 59)
Accepted packet rate average = 0.0132604
	minimum = 0.005 (at node 4)
	maximum = 0.025 (at node 78)
Injected flit rate average = 0.412031
	minimum = 0.234 (at node 43)
	maximum = 0.603 (at node 105)
Accepted flit rate average= 0.243406
	minimum = 0.108 (at node 54)
	maximum = 0.456 (at node 78)
Injected packet length average = 17.9469
Accepted packet length average = 18.3559
Total in-flight flits = 133292 (68211 measured)
latency change    = 3.78749
throughput change = 0.0221894
Class 0:
Packet latency average = 558.577
	minimum = 23
	maximum = 2037
Network latency average = 553.269
	minimum = 23
	maximum = 1984
Slowest packet = 12826
Flit latency average = 1364.35
	minimum = 6
	maximum = 4696
Slowest flit = 12869
Fragmentation average = 216.721
	minimum = 0
	maximum = 1443
Injected packet rate average = 0.0224818
	minimum = 0.0145 (at node 51)
	maximum = 0.032 (at node 139)
Accepted packet rate average = 0.0132005
	minimum = 0.007 (at node 45)
	maximum = 0.0205 (at node 78)
Injected flit rate average = 0.404633
	minimum = 0.261 (at node 171)
	maximum = 0.57 (at node 139)
Accepted flit rate average= 0.241354
	minimum = 0.147 (at node 153)
	maximum = 0.368 (at node 78)
Injected packet length average = 17.9983
Accepted packet length average = 18.2837
Total in-flight flits = 163396 (122509 measured)
latency change    = 0.643376
throughput change = 0.00850237
Class 0:
Packet latency average = 939.798
	minimum = 23
	maximum = 2951
Network latency average = 934.351
	minimum = 23
	maximum = 2941
Slowest packet = 13033
Flit latency average = 1540.7
	minimum = 6
	maximum = 5721
Slowest flit = 19970
Fragmentation average = 260.865
	minimum = 0
	maximum = 1872
Injected packet rate average = 0.0225382
	minimum = 0.0146667 (at node 171)
	maximum = 0.03 (at node 139)
Accepted packet rate average = 0.0132153
	minimum = 0.008 (at node 88)
	maximum = 0.0193333 (at node 181)
Injected flit rate average = 0.405694
	minimum = 0.264 (at node 171)
	maximum = 0.541333 (at node 151)
Accepted flit rate average= 0.240127
	minimum = 0.169667 (at node 188)
	maximum = 0.344333 (at node 99)
Injected packet length average = 18.0003
Accepted packet length average = 18.1704
Total in-flight flits = 196045 (170059 measured)
latency change    = 0.405641
throughput change = 0.00511159
Class 0:
Packet latency average = 1289.18
	minimum = 23
	maximum = 3917
Network latency average = 1283.49
	minimum = 23
	maximum = 3917
Slowest packet = 13056
Flit latency average = 1723.13
	minimum = 6
	maximum = 6699
Slowest flit = 18953
Fragmentation average = 284.343
	minimum = 0
	maximum = 2664
Injected packet rate average = 0.022526
	minimum = 0.0165 (at node 191)
	maximum = 0.02825 (at node 121)
Accepted packet rate average = 0.0132005
	minimum = 0.009 (at node 190)
	maximum = 0.0185 (at node 95)
Injected flit rate average = 0.405411
	minimum = 0.29625 (at node 191)
	maximum = 0.5095 (at node 151)
Accepted flit rate average= 0.239462
	minimum = 0.16025 (at node 190)
	maximum = 0.33375 (at node 95)
Injected packet length average = 17.9975
Accepted packet length average = 18.1404
Total in-flight flits = 228175 (211321 measured)
latency change    = 0.271013
throughput change = 0.00277495
Class 0:
Packet latency average = 1633.4
	minimum = 23
	maximum = 4925
Network latency average = 1627.74
	minimum = 23
	maximum = 4918
Slowest packet = 13135
Flit latency average = 1916.84
	minimum = 6
	maximum = 7461
Slowest flit = 38911
Fragmentation average = 302.336
	minimum = 0
	maximum = 3642
Injected packet rate average = 0.0225396
	minimum = 0.0168 (at node 171)
	maximum = 0.0282 (at node 121)
Accepted packet rate average = 0.013201
	minimum = 0.0092 (at node 190)
	maximum = 0.0176 (at node 78)
Injected flit rate average = 0.40568
	minimum = 0.3024 (at node 171)
	maximum = 0.5076 (at node 121)
Accepted flit rate average= 0.238048
	minimum = 0.1656 (at node 190)
	maximum = 0.3194 (at node 78)
Injected packet length average = 17.9986
Accepted packet length average = 18.0325
Total in-flight flits = 261640 (250654 measured)
latency change    = 0.210735
throughput change = 0.00594134
Class 0:
Packet latency average = 1930.36
	minimum = 23
	maximum = 5929
Network latency average = 1924.7
	minimum = 23
	maximum = 5909
Slowest packet = 12953
Flit latency average = 2104.73
	minimum = 6
	maximum = 8423
Slowest flit = 43640
Fragmentation average = 314.293
	minimum = 0
	maximum = 3936
Injected packet rate average = 0.0225061
	minimum = 0.0173333 (at node 191)
	maximum = 0.0273333 (at node 127)
Accepted packet rate average = 0.0131545
	minimum = 0.0095 (at node 190)
	maximum = 0.017 (at node 142)
Injected flit rate average = 0.405128
	minimum = 0.313333 (at node 191)
	maximum = 0.492 (at node 127)
Accepted flit rate average= 0.237193
	minimum = 0.171833 (at node 190)
	maximum = 0.303167 (at node 181)
Injected packet length average = 18.0008
Accepted packet length average = 18.0313
Total in-flight flits = 294122 (286524 measured)
latency change    = 0.153839
throughput change = 0.00360554
Class 0:
Packet latency average = 2213.15
	minimum = 23
	maximum = 6949
Network latency average = 2207.44
	minimum = 23
	maximum = 6949
Slowest packet = 13016
Flit latency average = 2295.82
	minimum = 6
	maximum = 9453
Slowest flit = 32633
Fragmentation average = 323.237
	minimum = 0
	maximum = 5202
Injected packet rate average = 0.0224814
	minimum = 0.0172857 (at node 171)
	maximum = 0.0267143 (at node 127)
Accepted packet rate average = 0.0130982
	minimum = 0.00928571 (at node 190)
	maximum = 0.0177143 (at node 181)
Injected flit rate average = 0.40459
	minimum = 0.311143 (at node 171)
	maximum = 0.480857 (at node 127)
Accepted flit rate average= 0.23612
	minimum = 0.168714 (at node 190)
	maximum = 0.312 (at node 181)
Injected packet length average = 17.9967
Accepted packet length average = 18.0269
Total in-flight flits = 327207 (321937 measured)
latency change    = 0.127778
throughput change = 0.00454395
Draining all recorded packets ...
Class 0:
Remaining flits: 33745 33746 33747 33748 33749 62801 63165 63166 63167 63168 [...] (361937 flits)
Measured flits: 230688 230689 230690 230691 230692 230693 230694 230695 230696 230697 [...] (286730 flits)
Class 0:
Remaining flits: 62801 63165 63166 63167 63168 63169 63170 63171 63172 63173 [...] (394308 flits)
Measured flits: 230688 230689 230690 230691 230692 230693 230694 230695 230696 230697 [...] (252142 flits)
Class 0:
Remaining flits: 81378 81379 81380 81381 81382 81383 81384 81385 81386 81387 [...] (429327 flits)
Measured flits: 230688 230689 230690 230691 230692 230693 230694 230695 230696 230697 [...] (218415 flits)
Class 0:
Remaining flits: 82301 82302 82303 82304 82305 82306 82307 82308 82309 82310 [...] (465673 flits)
Measured flits: 231732 231733 231734 231735 231736 231737 231738 231739 231740 231741 [...] (187896 flits)
Class 0:
Remaining flits: 92849 92850 92851 92852 92853 92854 92855 92856 92857 92858 [...] (500755 flits)
Measured flits: 231732 231733 231734 231735 231736 231737 231738 231739 231740 231741 [...] (161126 flits)
Class 0:
Remaining flits: 92861 105359 105360 105361 105362 105363 105364 105365 105366 105367 [...] (539138 flits)
Measured flits: 231732 231733 231734 231735 231736 231737 231738 231739 231740 231741 [...] (137335 flits)
Class 0:
Remaining flits: 92861 105359 105360 105361 105362 105363 105364 105365 105366 105367 [...] (574773 flits)
Measured flits: 232236 232237 232238 232239 232240 232241 232242 232243 232244 232245 [...] (116932 flits)
Class 0:
Remaining flits: 105359 105360 105361 105362 105363 105364 105365 105366 105367 105368 [...] (611671 flits)
Measured flits: 233298 233299 233300 233301 233302 233303 233304 233305 233306 233307 [...] (99492 flits)
Class 0:
Remaining flits: 146250 146251 146252 146253 146254 146255 146256 146257 146258 146259 [...] (648339 flits)
Measured flits: 235983 235984 235985 235986 235987 235988 235989 235990 235991 235992 [...] (84453 flits)
Class 0:
Remaining flits: 146250 146251 146252 146253 146254 146255 146256 146257 146258 146259 [...] (686947 flits)
Measured flits: 235988 235989 235990 235991 235992 235993 235994 235995 235996 235997 [...] (72785 flits)
Class 0:
Remaining flits: 146250 146251 146252 146253 146254 146255 146256 146257 146258 146259 [...] (725100 flits)
Measured flits: 235988 235989 235990 235991 235992 235993 235994 235995 235996 235997 [...] (62719 flits)
Class 0:
Remaining flits: 146251 146252 146253 146254 146255 146256 146257 146258 146259 146260 [...] (763358 flits)
Measured flits: 235988 235989 235990 235991 235992 235993 235994 235995 235996 235997 [...] (54145 flits)
Class 0:
Remaining flits: 152010 152011 152012 152013 152014 152015 152016 152017 152018 152019 [...] (802629 flits)
Measured flits: 235988 235989 235990 235991 235992 235993 235994 235995 235996 235997 [...] (47053 flits)
Class 0:
Remaining flits: 152010 152011 152012 152013 152014 152015 152016 152017 152018 152019 [...] (839617 flits)
Measured flits: 251280 251281 251282 251283 251284 251285 251286 251287 251288 251289 [...] (40044 flits)
Class 0:
Remaining flits: 152010 152011 152012 152013 152014 152015 152016 152017 152018 152019 [...] (877164 flits)
Measured flits: 251280 251281 251282 251283 251284 251285 251286 251287 251288 251289 [...] (34801 flits)
Class 0:
Remaining flits: 152010 152011 152012 152013 152014 152015 152016 152017 152018 152019 [...] (916545 flits)
Measured flits: 251280 251281 251282 251283 251284 251285 251286 251287 251288 251289 [...] (30030 flits)
Class 0:
Remaining flits: 152010 152011 152012 152013 152014 152015 152016 152017 152018 152019 [...] (955506 flits)
Measured flits: 251280 251281 251282 251283 251284 251285 251286 251287 251288 251289 [...] (26122 flits)
Class 0:
Remaining flits: 152010 152011 152012 152013 152014 152015 152016 152017 152018 152019 [...] (994025 flits)
Measured flits: 251280 251281 251282 251283 251284 251285 251286 251287 251288 251289 [...] (22504 flits)
Class 0:
Remaining flits: 152010 152011 152012 152013 152014 152015 152016 152017 152018 152019 [...] (1033050 flits)
Measured flits: 251280 251281 251282 251283 251284 251285 251286 251287 251288 251289 [...] (19566 flits)
Class 0:
Remaining flits: 152010 152011 152012 152013 152014 152015 152016 152017 152018 152019 [...] (1073609 flits)
Measured flits: 251280 251281 251282 251283 251284 251285 251286 251287 251288 251289 [...] (16881 flits)
Class 0:
Remaining flits: 152010 152011 152012 152013 152014 152015 152016 152017 152018 152019 [...] (1113640 flits)
Measured flits: 278010 278011 278012 278013 278014 278015 278016 278017 278018 278019 [...] (14944 flits)
Class 0:
Remaining flits: 152010 152011 152012 152013 152014 152015 152016 152017 152018 152019 [...] (1154465 flits)
Measured flits: 278010 278011 278012 278013 278014 278015 278016 278017 278018 278019 [...] (12801 flits)
Class 0:
Remaining flits: 206298 206299 206300 206301 206302 206303 206304 206305 206306 206307 [...] (1193882 flits)
Measured flits: 278010 278011 278012 278013 278014 278015 278016 278017 278018 278019 [...] (11308 flits)
Class 0:
Remaining flits: 212310 212311 212312 212313 212314 212315 212316 212317 212318 212319 [...] (1235291 flits)
Measured flits: 278010 278011 278012 278013 278014 278015 278016 278017 278018 278019 [...] (9951 flits)
Class 0:
Remaining flits: 212310 212311 212312 212313 212314 212315 212316 212317 212318 212319 [...] (1273227 flits)
Measured flits: 278010 278011 278012 278013 278014 278015 278016 278017 278018 278019 [...] (8815 flits)
Class 0:
Remaining flits: 212310 212311 212312 212313 212314 212315 212316 212317 212318 212319 [...] (1312447 flits)
Measured flits: 278010 278011 278012 278013 278014 278015 278016 278017 278018 278019 [...] (7896 flits)
Class 0:
Remaining flits: 212310 212311 212312 212313 212314 212315 212316 212317 212318 212319 [...] (1351781 flits)
Measured flits: 278010 278011 278012 278013 278014 278015 278016 278017 278018 278019 [...] (7283 flits)
Class 0:
Remaining flits: 212310 212311 212312 212313 212314 212315 212316 212317 212318 212319 [...] (1390380 flits)
Measured flits: 278010 278011 278012 278013 278014 278015 278016 278017 278018 278019 [...] (6288 flits)
Class 0:
Remaining flits: 212310 212311 212312 212313 212314 212315 212316 212317 212318 212319 [...] (1428349 flits)
Measured flits: 278010 278011 278012 278013 278014 278015 278016 278017 278018 278019 [...] (5535 flits)
Class 0:
Remaining flits: 212310 212311 212312 212313 212314 212315 212316 212317 212318 212319 [...] (1463571 flits)
Measured flits: 278010 278011 278012 278013 278014 278015 278016 278017 278018 278019 [...] (5185 flits)
Class 0:
Remaining flits: 278010 278011 278012 278013 278014 278015 278016 278017 278018 278019 [...] (1496445 flits)
Measured flits: 278010 278011 278012 278013 278014 278015 278016 278017 278018 278019 [...] (4520 flits)
Class 0:
Remaining flits: 278010 278011 278012 278013 278014 278015 278016 278017 278018 278019 [...] (1532934 flits)
Measured flits: 278010 278011 278012 278013 278014 278015 278016 278017 278018 278019 [...] (3668 flits)
Class 0:
Remaining flits: 278010 278011 278012 278013 278014 278015 278016 278017 278018 278019 [...] (1565517 flits)
Measured flits: 278010 278011 278012 278013 278014 278015 278016 278017 278018 278019 [...] (3086 flits)
Class 0:
Remaining flits: 278010 278011 278012 278013 278014 278015 278016 278017 278018 278019 [...] (1596661 flits)
Measured flits: 278010 278011 278012 278013 278014 278015 278016 278017 278018 278019 [...] (2722 flits)
Class 0:
Remaining flits: 278010 278011 278012 278013 278014 278015 278016 278017 278018 278019 [...] (1630518 flits)
Measured flits: 278010 278011 278012 278013 278014 278015 278016 278017 278018 278019 [...] (2151 flits)
Class 0:
Remaining flits: 278010 278011 278012 278013 278014 278015 278016 278017 278018 278019 [...] (1662736 flits)
Measured flits: 278010 278011 278012 278013 278014 278015 278016 278017 278018 278019 [...] (1956 flits)
Class 0:
Remaining flits: 278010 278011 278012 278013 278014 278015 278016 278017 278018 278019 [...] (1694102 flits)
Measured flits: 278010 278011 278012 278013 278014 278015 278016 278017 278018 278019 [...] (1544 flits)
Class 0:
Remaining flits: 278010 278011 278012 278013 278014 278015 278016 278017 278018 278019 [...] (1725885 flits)
Measured flits: 278010 278011 278012 278013 278014 278015 278016 278017 278018 278019 [...] (1283 flits)
Class 0:
Remaining flits: 326106 326107 326108 326109 326110 326111 326112 326113 326114 326115 [...] (1758090 flits)
Measured flits: 326106 326107 326108 326109 326110 326111 326112 326113 326114 326115 [...] (1072 flits)
Class 0:
Remaining flits: 326106 326107 326108 326109 326110 326111 326112 326113 326114 326115 [...] (1788968 flits)
Measured flits: 326106 326107 326108 326109 326110 326111 326112 326113 326114 326115 [...] (965 flits)
Class 0:
Remaining flits: 326106 326107 326108 326109 326110 326111 326112 326113 326114 326115 [...] (1822457 flits)
Measured flits: 326106 326107 326108 326109 326110 326111 326112 326113 326114 326115 [...] (892 flits)
Class 0:
Remaining flits: 326106 326107 326108 326109 326110 326111 326112 326113 326114 326115 [...] (1855640 flits)
Measured flits: 326106 326107 326108 326109 326110 326111 326112 326113 326114 326115 [...] (784 flits)
Class 0:
Remaining flits: 326106 326107 326108 326109 326110 326111 326112 326113 326114 326115 [...] (1890539 flits)
Measured flits: 326106 326107 326108 326109 326110 326111 326112 326113 326114 326115 [...] (665 flits)
Class 0:
Remaining flits: 326106 326107 326108 326109 326110 326111 326112 326113 326114 326115 [...] (1922478 flits)
Measured flits: 326106 326107 326108 326109 326110 326111 326112 326113 326114 326115 [...] (557 flits)
Class 0:
Remaining flits: 326106 326107 326108 326109 326110 326111 326112 326113 326114 326115 [...] (1953839 flits)
Measured flits: 326106 326107 326108 326109 326110 326111 326112 326113 326114 326115 [...] (539 flits)
Class 0:
Remaining flits: 326106 326107 326108 326109 326110 326111 326112 326113 326114 326115 [...] (1985793 flits)
Measured flits: 326106 326107 326108 326109 326110 326111 326112 326113 326114 326115 [...] (539 flits)
Class 0:
Remaining flits: 326106 326107 326108 326109 326110 326111 326112 326113 326114 326115 [...] (2018616 flits)
Measured flits: 326106 326107 326108 326109 326110 326111 326112 326113 326114 326115 [...] (470 flits)
Class 0:
Remaining flits: 326106 326107 326108 326109 326110 326111 326112 326113 326114 326115 [...] (2050317 flits)
Measured flits: 326106 326107 326108 326109 326110 326111 326112 326113 326114 326115 [...] (362 flits)
Class 0:
Remaining flits: 326106 326107 326108 326109 326110 326111 326112 326113 326114 326115 [...] (2082700 flits)
Measured flits: 326106 326107 326108 326109 326110 326111 326112 326113 326114 326115 [...] (362 flits)
Class 0:
Remaining flits: 326106 326107 326108 326109 326110 326111 326112 326113 326114 326115 [...] (2113312 flits)
Measured flits: 326106 326107 326108 326109 326110 326111 326112 326113 326114 326115 [...] (343 flits)
Class 0:
Remaining flits: 326106 326107 326108 326109 326110 326111 326112 326113 326114 326115 [...] (2144221 flits)
Measured flits: 326106 326107 326108 326109 326110 326111 326112 326113 326114 326115 [...] (241 flits)
Class 0:
Remaining flits: 326106 326107 326108 326109 326110 326111 326112 326113 326114 326115 [...] (2177157 flits)
Measured flits: 326106 326107 326108 326109 326110 326111 326112 326113 326114 326115 [...] (187 flits)
Class 0:
Remaining flits: 326106 326107 326108 326109 326110 326111 326112 326113 326114 326115 [...] (2212384 flits)
Measured flits: 326106 326107 326108 326109 326110 326111 326112 326113 326114 326115 [...] (187 flits)
Class 0:
Remaining flits: 494712 494713 494714 494715 494716 494717 494718 494719 494720 494721 [...] (2242940 flits)
Measured flits: 494712 494713 494714 494715 494716 494717 494718 494719 494720 494721 [...] (151 flits)
Class 0:
Remaining flits: 494712 494713 494714 494715 494716 494717 494718 494719 494720 494721 [...] (2275587 flits)
Measured flits: 494712 494713 494714 494715 494716 494717 494718 494719 494720 494721 [...] (151 flits)
Class 0:
Remaining flits: 494712 494713 494714 494715 494716 494717 494718 494719 494720 494721 [...] (2306407 flits)
Measured flits: 494712 494713 494714 494715 494716 494717 494718 494719 494720 494721 [...] (144 flits)
Class 0:
Remaining flits: 494712 494713 494714 494715 494716 494717 494718 494719 494720 494721 [...] (2338277 flits)
Measured flits: 494712 494713 494714 494715 494716 494717 494718 494719 494720 494721 [...] (144 flits)
Class 0:
Remaining flits: 625140 625141 625142 625143 625144 625145 625146 625147 625148 625149 [...] (2371170 flits)
Measured flits: 625140 625141 625142 625143 625144 625145 625146 625147 625148 625149 [...] (108 flits)
Class 0:
Remaining flits: 625140 625141 625142 625143 625144 625145 625146 625147 625148 625149 [...] (2407155 flits)
Measured flits: 625140 625141 625142 625143 625144 625145 625146 625147 625148 625149 [...] (108 flits)
Class 0:
Remaining flits: 625140 625141 625142 625143 625144 625145 625146 625147 625148 625149 [...] (2439844 flits)
Measured flits: 625140 625141 625142 625143 625144 625145 625146 625147 625148 625149 [...] (108 flits)
Class 0:
Remaining flits: 625140 625141 625142 625143 625144 625145 625146 625147 625148 625149 [...] (2475509 flits)
Measured flits: 625140 625141 625142 625143 625144 625145 625146 625147 625148 625149 [...] (108 flits)
Class 0:
Remaining flits: 637776 637777 637778 637779 637780 637781 637782 637783 637784 637785 [...] (2509428 flits)
Measured flits: 637776 637777 637778 637779 637780 637781 637782 637783 637784 637785 [...] (72 flits)
Class 0:
Remaining flits: 637776 637777 637778 637779 637780 637781 637782 637783 637784 637785 [...] (2544656 flits)
Measured flits: 637776 637777 637778 637779 637780 637781 637782 637783 637784 637785 [...] (72 flits)
Class 0:
Remaining flits: 637776 637777 637778 637779 637780 637781 637782 637783 637784 637785 [...] (2577370 flits)
Measured flits: 637776 637777 637778 637779 637780 637781 637782 637783 637784 637785 [...] (72 flits)
Class 0:
Remaining flits: 637776 637777 637778 637779 637780 637781 637782 637783 637784 637785 [...] (2612875 flits)
Measured flits: 637776 637777 637778 637779 637780 637781 637782 637783 637784 637785 [...] (72 flits)
Class 0:
Remaining flits: 637776 637777 637778 637779 637780 637781 637782 637783 637784 637785 [...] (2646054 flits)
Measured flits: 637776 637777 637778 637779 637780 637781 637782 637783 637784 637785 [...] (72 flits)
Class 0:
Remaining flits: 637776 637777 637778 637779 637780 637781 637782 637783 637784 637785 [...] (2679797 flits)
Measured flits: 637776 637777 637778 637779 637780 637781 637782 637783 637784 637785 [...] (72 flits)
Class 0:
Remaining flits: 637776 637777 637778 637779 637780 637781 637782 637783 637784 637785 [...] (2715318 flits)
Measured flits: 637776 637777 637778 637779 637780 637781 637782 637783 637784 637785 [...] (72 flits)
Class 0:
Remaining flits: 637776 637777 637778 637779 637780 637781 637782 637783 637784 637785 [...] (2750226 flits)
Measured flits: 637776 637777 637778 637779 637780 637781 637782 637783 637784 637785 [...] (72 flits)
Class 0:
Remaining flits: 637776 637777 637778 637779 637780 637781 637782 637783 637784 637785 [...] (2785231 flits)
Measured flits: 637776 637777 637778 637779 637780 637781 637782 637783 637784 637785 [...] (72 flits)
Class 0:
Remaining flits: 637776 637777 637778 637779 637780 637781 637782 637783 637784 637785 [...] (2819026 flits)
Measured flits: 637776 637777 637778 637779 637780 637781 637782 637783 637784 637785 [...] (72 flits)
Class 0:
Remaining flits: 637776 637777 637778 637779 637780 637781 637782 637783 637784 637785 [...] (2854159 flits)
Measured flits: 637776 637777 637778 637779 637780 637781 637782 637783 637784 637785 [...] (36 flits)
Class 0:
Remaining flits: 637776 637777 637778 637779 637780 637781 637782 637783 637784 637785 [...] (2888507 flits)
Measured flits: 637776 637777 637778 637779 637780 637781 637782 637783 637784 637785 [...] (36 flits)
Draining remaining packets ...
Class 0:
Remaining flits: 845874 845875 845876 845877 845878 845879 845880 845881 845882 845883 [...] (2876241 flits)
Measured flits: (0 flits)
Class 0:
Remaining flits: 845874 845875 845876 845877 845878 845879 845880 845881 845882 845883 [...] (2843773 flits)
Measured flits: (0 flits)
Class 0:
Remaining flits: 845874 845875 845876 845877 845878 845879 845880 845881 845882 845883 [...] (2812227 flits)
Measured flits: (0 flits)
Class 0:
Remaining flits: 868734 868735 868736 868737 868738 868739 868740 868741 868742 868743 [...] (2781374 flits)
Measured flits: (0 flits)
Class 0:
Remaining flits: 868734 868735 868736 868737 868738 868739 868740 868741 868742 868743 [...] (2749137 flits)
Measured flits: (0 flits)
Class 0:
Remaining flits: 868734 868735 868736 868737 868738 868739 868740 868741 868742 868743 [...] (2717068 flits)
Measured flits: (0 flits)
Class 0:
Remaining flits: 868734 868735 868736 868737 868738 868739 868740 868741 868742 868743 [...] (2684757 flits)
Measured flits: (0 flits)
Class 0:
Remaining flits: 868734 868735 868736 868737 868738 868739 868740 868741 868742 868743 [...] (2653018 flits)
Measured flits: (0 flits)
Class 0:
Remaining flits: 868734 868735 868736 868737 868738 868739 868740 868741 868742 868743 [...] (2621014 flits)
Measured flits: (0 flits)
Class 0:
Remaining flits: 868734 868735 868736 868737 868738 868739 868740 868741 868742 868743 [...] (2588828 flits)
Measured flits: (0 flits)
Class 0:
Remaining flits: 868734 868735 868736 868737 868738 868739 868740 868741 868742 868743 [...] (2557030 flits)
Measured flits: (0 flits)
Class 0:
Remaining flits: 1062486 1062487 1062488 1062489 1062490 1062491 1062492 1062493 1062494 1062495 [...] (2524838 flits)
Measured flits: (0 flits)
Class 0:
Remaining flits: 1062486 1062487 1062488 1062489 1062490 1062491 1062492 1062493 1062494 1062495 [...] (2492419 flits)
Measured flits: (0 flits)
Class 0:
Remaining flits: 1062486 1062487 1062488 1062489 1062490 1062491 1062492 1062493 1062494 1062495 [...] (2459656 flits)
Measured flits: (0 flits)
Class 0:
Remaining flits: 1062486 1062487 1062488 1062489 1062490 1062491 1062492 1062493 1062494 1062495 [...] (2428870 flits)
Measured flits: (0 flits)
Class 0:
Remaining flits: 1062486 1062487 1062488 1062489 1062490 1062491 1062492 1062493 1062494 1062495 [...] (2397753 flits)
Measured flits: (0 flits)
Class 0:
Remaining flits: 1152396 1152397 1152398 1152399 1152400 1152401 1152402 1152403 1152404 1152405 [...] (2368310 flits)
Measured flits: (0 flits)
Class 0:
Remaining flits: 1152396 1152397 1152398 1152399 1152400 1152401 1152402 1152403 1152404 1152405 [...] (2338685 flits)
Measured flits: (0 flits)
Class 0:
Remaining flits: 1152396 1152397 1152398 1152399 1152400 1152401 1152402 1152403 1152404 1152405 [...] (2309007 flits)
Measured flits: (0 flits)
Class 0:
Remaining flits: 1152396 1152397 1152398 1152399 1152400 1152401 1152402 1152403 1152404 1152405 [...] (2278810 flits)
Measured flits: (0 flits)
Class 0:
Remaining flits: 1152396 1152397 1152398 1152399 1152400 1152401 1152402 1152403 1152404 1152405 [...] (2249418 flits)
Measured flits: (0 flits)
Class 0:
Remaining flits: 1152396 1152397 1152398 1152399 1152400 1152401 1152402 1152403 1152404 1152405 [...] (2220193 flits)
Measured flits: (0 flits)
Class 0:
Remaining flits: 1160874 1160875 1160876 1160877 1160878 1160879 1160880 1160881 1160882 1160883 [...] (2190121 flits)
Measured flits: (0 flits)
Class 0:
Remaining flits: 1160874 1160875 1160876 1160877 1160878 1160879 1160880 1160881 1160882 1160883 [...] (2158830 flits)
Measured flits: (0 flits)
Class 0:
Remaining flits: 1160874 1160875 1160876 1160877 1160878 1160879 1160880 1160881 1160882 1160883 [...] (2128884 flits)
Measured flits: (0 flits)
Class 0:
Remaining flits: 1160874 1160875 1160876 1160877 1160878 1160879 1160880 1160881 1160882 1160883 [...] (2097984 flits)
Measured flits: (0 flits)
Class 0:
Remaining flits: 1160874 1160875 1160876 1160877 1160878 1160879 1160880 1160881 1160882 1160883 [...] (2066501 flits)
Measured flits: (0 flits)
Class 0:
Remaining flits: 1160874 1160875 1160876 1160877 1160878 1160879 1160880 1160881 1160882 1160883 [...] (2034362 flits)
Measured flits: (0 flits)
Class 0:
Remaining flits: 1160874 1160875 1160876 1160877 1160878 1160879 1160880 1160881 1160882 1160883 [...] (2002792 flits)
Measured flits: (0 flits)
Class 0:
Remaining flits: 1160874 1160875 1160876 1160877 1160878 1160879 1160880 1160881 1160882 1160883 [...] (1971531 flits)
Measured flits: (0 flits)
Class 0:
Remaining flits: 1160874 1160875 1160876 1160877 1160878 1160879 1160880 1160881 1160882 1160883 [...] (1939389 flits)
Measured flits: (0 flits)
Class 0:
Remaining flits: 1160874 1160875 1160876 1160877 1160878 1160879 1160880 1160881 1160882 1160883 [...] (1908076 flits)
Measured flits: (0 flits)
Class 0:
Remaining flits: 1160874 1160875 1160876 1160877 1160878 1160879 1160880 1160881 1160882 1160883 [...] (1876832 flits)
Measured flits: (0 flits)
Class 0:
Remaining flits: 1160874 1160875 1160876 1160877 1160878 1160879 1160880 1160881 1160882 1160883 [...] (1844225 flits)
Measured flits: (0 flits)
Class 0:
Remaining flits: 1160874 1160875 1160876 1160877 1160878 1160879 1160880 1160881 1160882 1160883 [...] (1811666 flits)
Measured flits: (0 flits)
Class 0:
Remaining flits: 1160874 1160875 1160876 1160877 1160878 1160879 1160880 1160881 1160882 1160883 [...] (1779850 flits)
Measured flits: (0 flits)
Class 0:
Remaining flits: 1160874 1160875 1160876 1160877 1160878 1160879 1160880 1160881 1160882 1160883 [...] (1747661 flits)
Measured flits: (0 flits)
Class 0:
Remaining flits: 1160874 1160875 1160876 1160877 1160878 1160879 1160880 1160881 1160882 1160883 [...] (1715223 flits)
Measured flits: (0 flits)
Class 0:
Remaining flits: 1160874 1160875 1160876 1160877 1160878 1160879 1160880 1160881 1160882 1160883 [...] (1683236 flits)
Measured flits: (0 flits)
Class 0:
Remaining flits: 1160874 1160875 1160876 1160877 1160878 1160879 1160880 1160881 1160882 1160883 [...] (1650764 flits)
Measured flits: (0 flits)
Class 0:
Remaining flits: 1160874 1160875 1160876 1160877 1160878 1160879 1160880 1160881 1160882 1160883 [...] (1619015 flits)
Measured flits: (0 flits)
Class 0:
Remaining flits: 1160874 1160875 1160876 1160877 1160878 1160879 1160880 1160881 1160882 1160883 [...] (1586409 flits)
Measured flits: (0 flits)
Class 0:
Remaining flits: 1654386 1654387 1654388 1654389 1654390 1654391 1654392 1654393 1654394 1654395 [...] (1554174 flits)
Measured flits: (0 flits)
Class 0:
Remaining flits: 1662894 1662895 1662896 1662897 1662898 1662899 1662900 1662901 1662902 1662903 [...] (1521092 flits)
Measured flits: (0 flits)
Class 0:
Remaining flits: 1662894 1662895 1662896 1662897 1662898 1662899 1662900 1662901 1662902 1662903 [...] (1487787 flits)
Measured flits: (0 flits)
Class 0:
Remaining flits: 1662894 1662895 1662896 1662897 1662898 1662899 1662900 1662901 1662902 1662903 [...] (1455196 flits)
Measured flits: (0 flits)
Class 0:
Remaining flits: 1662894 1662895 1662896 1662897 1662898 1662899 1662900 1662901 1662902 1662903 [...] (1422804 flits)
Measured flits: (0 flits)
Class 0:
Remaining flits: 1888452 1888453 1888454 1888455 1888456 1888457 1888458 1888459 1888460 1888461 [...] (1390804 flits)
Measured flits: (0 flits)
Class 0:
Remaining flits: 1888452 1888453 1888454 1888455 1888456 1888457 1888458 1888459 1888460 1888461 [...] (1358702 flits)
Measured flits: (0 flits)
Class 0:
Remaining flits: 1889622 1889623 1889624 1889625 1889626 1889627 1889628 1889629 1889630 1889631 [...] (1326493 flits)
Measured flits: (0 flits)
Class 0:
Remaining flits: 1889622 1889623 1889624 1889625 1889626 1889627 1889628 1889629 1889630 1889631 [...] (1294352 flits)
Measured flits: (0 flits)
Class 0:
Remaining flits: 1889622 1889623 1889624 1889625 1889626 1889627 1889628 1889629 1889630 1889631 [...] (1261796 flits)
Measured flits: (0 flits)
Class 0:
Remaining flits: 1889622 1889623 1889624 1889625 1889626 1889627 1889628 1889629 1889630 1889631 [...] (1230075 flits)
Measured flits: (0 flits)
Class 0:
Remaining flits: 1889622 1889623 1889624 1889625 1889626 1889627 1889628 1889629 1889630 1889631 [...] (1197193 flits)
Measured flits: (0 flits)
Class 0:
Remaining flits: 1889622 1889623 1889624 1889625 1889626 1889627 1889628 1889629 1889630 1889631 [...] (1164692 flits)
Measured flits: (0 flits)
Class 0:
Remaining flits: 1889622 1889623 1889624 1889625 1889626 1889627 1889628 1889629 1889630 1889631 [...] (1132491 flits)
Measured flits: (0 flits)
Class 0:
Remaining flits: 1889622 1889623 1889624 1889625 1889626 1889627 1889628 1889629 1889630 1889631 [...] (1100080 flits)
Measured flits: (0 flits)
Class 0:
Remaining flits: 1889622 1889623 1889624 1889625 1889626 1889627 1889628 1889629 1889630 1889631 [...] (1067271 flits)
Measured flits: (0 flits)
Class 0:
Remaining flits: 1889622 1889623 1889624 1889625 1889626 1889627 1889628 1889629 1889630 1889631 [...] (1035285 flits)
Measured flits: (0 flits)
Class 0:
Remaining flits: 1889622 1889623 1889624 1889625 1889626 1889627 1889628 1889629 1889630 1889631 [...] (1002661 flits)
Measured flits: (0 flits)
Class 0:
Remaining flits: 1889622 1889623 1889624 1889625 1889626 1889627 1889628 1889629 1889630 1889631 [...] (970476 flits)
Measured flits: (0 flits)
Class 0:
Remaining flits: 1889622 1889623 1889624 1889625 1889626 1889627 1889628 1889629 1889630 1889631 [...] (938042 flits)
Measured flits: (0 flits)
Class 0:
Remaining flits: 1889622 1889623 1889624 1889625 1889626 1889627 1889628 1889629 1889630 1889631 [...] (905879 flits)
Measured flits: (0 flits)
Class 0:
Remaining flits: 1889622 1889623 1889624 1889625 1889626 1889627 1889628 1889629 1889630 1889631 [...] (873070 flits)
Measured flits: (0 flits)
Class 0:
Remaining flits: 1889622 1889623 1889624 1889625 1889626 1889627 1889628 1889629 1889630 1889631 [...] (839943 flits)
Measured flits: (0 flits)
Class 0:
Remaining flits: 1889622 1889623 1889624 1889625 1889626 1889627 1889628 1889629 1889630 1889631 [...] (808119 flits)
Measured flits: (0 flits)
Class 0:
Remaining flits: 2209734 2209735 2209736 2209737 2209738 2209739 2209740 2209741 2209742 2209743 [...] (775794 flits)
Measured flits: (0 flits)
Class 0:
Remaining flits: 2209734 2209735 2209736 2209737 2209738 2209739 2209740 2209741 2209742 2209743 [...] (743983 flits)
Measured flits: (0 flits)
Class 0:
Remaining flits: 2209734 2209735 2209736 2209737 2209738 2209739 2209740 2209741 2209742 2209743 [...] (712673 flits)
Measured flits: (0 flits)
Class 0:
Remaining flits: 2209734 2209735 2209736 2209737 2209738 2209739 2209740 2209741 2209742 2209743 [...] (680213 flits)
Measured flits: (0 flits)
Class 0:
Remaining flits: 2209734 2209735 2209736 2209737 2209738 2209739 2209740 2209741 2209742 2209743 [...] (647916 flits)
Measured flits: (0 flits)
Class 0:
Remaining flits: 2209734 2209735 2209736 2209737 2209738 2209739 2209740 2209741 2209742 2209743 [...] (615611 flits)
Measured flits: (0 flits)
Class 0:
Remaining flits: 2209734 2209735 2209736 2209737 2209738 2209739 2209740 2209741 2209742 2209743 [...] (582341 flits)
Measured flits: (0 flits)
Class 0:
Remaining flits: 2262456 2262457 2262458 2262459 2262460 2262461 2262462 2262463 2262464 2262465 [...] (548732 flits)
Measured flits: (0 flits)
Class 0:
Remaining flits: 2262456 2262457 2262458 2262459 2262460 2262461 2262462 2262463 2262464 2262465 [...] (515780 flits)
Measured flits: (0 flits)
Class 0:
Remaining flits: 2395584 2395585 2395586 2395587 2395588 2395589 2395590 2395591 2395592 2395593 [...] (483110 flits)
Measured flits: (0 flits)
Class 0:
Remaining flits: 2395584 2395585 2395586 2395587 2395588 2395589 2395590 2395591 2395592 2395593 [...] (450268 flits)
Measured flits: (0 flits)
Class 0:
Remaining flits: 2395584 2395585 2395586 2395587 2395588 2395589 2395590 2395591 2395592 2395593 [...] (417795 flits)
Measured flits: (0 flits)
Class 0:
Remaining flits: 2395584 2395585 2395586 2395587 2395588 2395589 2395590 2395591 2395592 2395593 [...] (385211 flits)
Measured flits: (0 flits)
Class 0:
Remaining flits: 2395584 2395585 2395586 2395587 2395588 2395589 2395590 2395591 2395592 2395593 [...] (353387 flits)
Measured flits: (0 flits)
Class 0:
Remaining flits: 2395584 2395585 2395586 2395587 2395588 2395589 2395590 2395591 2395592 2395593 [...] (320175 flits)
Measured flits: (0 flits)
Class 0:
Remaining flits: 2395601 2545056 2545057 2545058 2545059 2545060 2545061 2545062 2545063 2545064 [...] (286784 flits)
Measured flits: (0 flits)
Class 0:
Remaining flits: 2545056 2545057 2545058 2545059 2545060 2545061 2545062 2545063 2545064 2545065 [...] (253969 flits)
Measured flits: (0 flits)
Class 0:
Remaining flits: 2545056 2545057 2545058 2545059 2545060 2545061 2545062 2545063 2545064 2545065 [...] (221901 flits)
Measured flits: (0 flits)
Class 0:
Remaining flits: 2545056 2545057 2545058 2545059 2545060 2545061 2545062 2545063 2545064 2545065 [...] (190676 flits)
Measured flits: (0 flits)
Class 0:
Remaining flits: 2545067 2545068 2545069 2545070 2545071 2545072 2545073 2608497 2608498 2608499 [...] (160606 flits)
Measured flits: (0 flits)
Class 0:
Remaining flits: 2608497 2608498 2608499 2608500 2608501 2608502 2608503 2608504 2608505 2671308 [...] (131247 flits)
Measured flits: (0 flits)
Class 0:
Remaining flits: 2671308 2671309 2671310 2671311 2671312 2671313 2671314 2671315 2671316 2671317 [...] (104588 flits)
Measured flits: (0 flits)
Class 0:
Remaining flits: 2671308 2671309 2671310 2671311 2671312 2671313 2671314 2671315 2671316 2671317 [...] (82020 flits)
Measured flits: (0 flits)
Class 0:
Remaining flits: 2671308 2671309 2671310 2671311 2671312 2671313 2671314 2671315 2671316 2671317 [...] (60804 flits)
Measured flits: (0 flits)
Class 0:
Remaining flits: 2671308 2671309 2671310 2671311 2671312 2671313 2671314 2671315 2671316 2671317 [...] (41027 flits)
Measured flits: (0 flits)
Class 0:
Remaining flits: 3300607 3300608 3300609 3300610 3300611 3300612 3300613 3300614 3300615 3300616 [...] (25598 flits)
Measured flits: (0 flits)
Class 0:
Remaining flits: 4053744 4053745 4053746 4053747 4053748 4053749 4053750 4053751 4053752 4053753 [...] (13039 flits)
Measured flits: (0 flits)
Class 0:
Remaining flits: 4081579 4081580 4081581 4081582 4081583 4081584 4081585 4081586 4081587 4081588 [...] (6677 flits)
Measured flits: (0 flits)
Class 0:
Remaining flits: 4131240 4131241 4131242 4131243 4131244 4131245 4131246 4131247 4131248 4131249 [...] (3428 flits)
Measured flits: (0 flits)
Class 0:
Remaining flits: 4667220 4667221 4667222 4667223 4667224 4667225 4667226 4667227 4667228 4667229 [...] (1466 flits)
Measured flits: (0 flits)
Class 0:
Remaining flits: 4965804 4965805 4965806 4965807 4965808 4965809 4965810 4965811 4965812 4965813 [...] (467 flits)
Measured flits: (0 flits)
Time taken is 181166 cycles
====== Overall Traffic Statistics ======
====== Traffic class 0 ======
Packet latency average = 6666.23 (1 samples)
	minimum = 23 (1 samples)
	maximum = 75340 (1 samples)
Network latency average = 6660.4 (1 samples)
	minimum = 23 (1 samples)
	maximum = 75340 (1 samples)
Flit latency average = 42690.9 (1 samples)
	minimum = 6 (1 samples)
	maximum = 140899 (1 samples)
Fragmentation average = 366.521 (1 samples)
	minimum = 0 (1 samples)
	maximum = 10142 (1 samples)
Injected packet rate average = 0.0224814 (1 samples)
	minimum = 0.0172857 (1 samples)
	maximum = 0.0267143 (1 samples)
Accepted packet rate average = 0.0130982 (1 samples)
	minimum = 0.00928571 (1 samples)
	maximum = 0.0177143 (1 samples)
Injected flit rate average = 0.40459 (1 samples)
	minimum = 0.311143 (1 samples)
	maximum = 0.480857 (1 samples)
Accepted flit rate average = 0.23612 (1 samples)
	minimum = 0.168714 (1 samples)
	maximum = 0.312 (1 samples)
Injected packet size average = 17.9967 (1 samples)
Accepted packet size average = 18.0269 (1 samples)
Hops average = 5.07459 (1 samples)
Total run time 306.249
