BEGIN Configuration File: networks/mezzanine_config
topology = mezzanine;
n = 12;

routing_function = multipath;
internal_speedup = 2.0;
latency_thres = 100000.0;
use_read_write = 0;

sample_period = 1000;
injection_rate = 0.5;
packet_size = 18;

noq = 1;
routing_delay = 0;
vc_alloc_delay = 1;
sw_alloc_delay = 1;
st_final_delay = 1;
vc_allocator = islip; 
sw_allocator = islip;
alloc_iters  = 4;
num_vcs     = 12;
buffer_policy = private; // private or shared
buf_size = -1; // -1 for buffer_policy = private;
vc_buf_size = 4096; // size of each VOQ with buffer_policy = private
output_buffer_size = -1;


traffic = uniform;

//mezW = 0.0;
//mezPredefinedPatternType = shift-inter; //shift-qfdb

END Configuration File: networks/mezzanine_config
OVERRIDE Parameter: injection_rate=0.000277
OVERRIDE Parameter: routing_function=multipath
OVERRIDE Parameter: num_vcs=32
OVERRIDE Parameter: vc_buf_size=1024
OVERRIDE Parameter: internal_speedup=1.0
OVERRIDE Parameter: injection_process=on_off
OVERRIDE Parameter: sim_type=latency
OVERRIDE Parameter: burst_alpha=0.0038461538
OVERRIDE Parameter: burst_beta=0.1
network: network_0
========================== Routing table  =====================
Number of Subnets: 1
Class 0:
Packet latency average = 38.875
	minimum = 23
	maximum = 55
Network latency average = 38.6607
	minimum = 23
	maximum = 49
Slowest packet = 8
Flit latency average = 21.4887
	minimum = 6
	maximum = 32
Slowest flit = 153
Fragmentation average = 0.375
	minimum = 0
	maximum = 6
Injected packet rate average = 0.000328125
	minimum = 0 (at node 0)
	maximum = 0.003 (at node 110)
Accepted packet rate average = 0.000291667
	minimum = 0 (at node 0)
	maximum = 0.002 (at node 15)
Injected flit rate average = 0.00555208
	minimum = 0 (at node 0)
	maximum = 0.054 (at node 110)
Accepted flit rate average= 0.00530729
	minimum = 0 (at node 0)
	maximum = 0.036 (at node 15)
Injected packet length average = 16.9206
Accepted packet length average = 18.1964
Total in-flight flits = 115 (0 measured)
latency change    = 1
throughput change = 1
Class 0:
Packet latency average = 39.8636
	minimum = 23
	maximum = 57
Network latency average = 39.6818
	minimum = 23
	maximum = 57
Slowest packet = 85
Flit latency average = 22.4242
	minimum = 6
	maximum = 40
Slowest flit = 1546
Fragmentation average = 0.463636
	minimum = 0
	maximum = 16
Injected packet rate average = 0.000289062
	minimum = 0 (at node 0)
	maximum = 0.0015 (at node 27)
Accepted packet rate average = 0.000286458
	minimum = 0 (at node 4)
	maximum = 0.0015 (at node 15)
Injected flit rate average = 0.00520313
	minimum = 0 (at node 0)
	maximum = 0.027 (at node 27)
Accepted flit rate average= 0.00516927
	minimum = 0 (at node 4)
	maximum = 0.027 (at node 15)
Injected packet length average = 18
Accepted packet length average = 18.0455
Total in-flight flits = 13 (0 measured)
latency change    = 0.0248005
throughput change = 0.0267003
Class 0:
Packet latency average = 40.1915
	minimum = 23
	maximum = 43
Network latency average = 40.1064
	minimum = 23
	maximum = 43
Slowest packet = 112
Flit latency average = 23.113
	minimum = 6
	maximum = 26
Slowest flit = 2016
Fragmentation average = 0
	minimum = 0
	maximum = 0
Injected packet rate average = 0.000239583
	minimum = 0 (at node 0)
	maximum = 0.003 (at node 18)
Accepted packet rate average = 0.000244792
	minimum = 0 (at node 0)
	maximum = 0.003 (at node 85)
Injected flit rate average = 0.0043125
	minimum = 0 (at node 0)
	maximum = 0.054 (at node 18)
Accepted flit rate average= 0.00438021
	minimum = 0 (at node 0)
	maximum = 0.054 (at node 85)
Injected packet length average = 18
Accepted packet length average = 17.8936
Total in-flight flits = 0 (0 measured)
latency change    = 0.00815727
throughput change = 0.180143
Warmed up ...Time used is 3000 cycles
Class 0:
Packet latency average = 40.6792
	minimum = 27
	maximum = 60
Network latency average = 39.7736
	minimum = 27
	maximum = 53
Slowest packet = 166
Flit latency average = 22.1604
	minimum = 10
	maximum = 36
Slowest flit = 3455
Fragmentation average = 1.15094
	minimum = 0
	maximum = 17
Injected packet rate average = 0.000286458
	minimum = 0 (at node 0)
	maximum = 0.003 (at node 48)
Accepted packet rate average = 0.000276042
	minimum = 0 (at node 0)
	maximum = 0.003 (at node 74)
Injected flit rate average = 0.00508854
	minimum = 0 (at node 0)
	maximum = 0.054 (at node 48)
Accepted flit rate average= 0.00496875
	minimum = 0 (at node 0)
	maximum = 0.054 (at node 74)
Injected packet length average = 17.7636
Accepted packet length average = 18
Total in-flight flits = 36 (36 measured)
latency change    = 0.0119903
throughput change = 0.118449
Class 0:
Packet latency average = 39.9341
	minimum = 23
	maximum = 60
Network latency average = 39.4066
	minimum = 23
	maximum = 53
Slowest packet = 166
Flit latency average = 22.0495
	minimum = 6
	maximum = 36
Slowest flit = 3455
Fragmentation average = 0.67033
	minimum = 0
	maximum = 17
Injected packet rate average = 0.000239583
	minimum = 0 (at node 0)
	maximum = 0.0015 (at node 48)
Accepted packet rate average = 0.000236979
	minimum = 0 (at node 0)
	maximum = 0.002 (at node 74)
Injected flit rate average = 0.00428646
	minimum = 0 (at node 0)
	maximum = 0.027 (at node 48)
Accepted flit rate average= 0.00426562
	minimum = 0 (at node 0)
	maximum = 0.036 (at node 74)
Injected packet length average = 17.8913
Accepted packet length average = 18
Total in-flight flits = 18 (18 measured)
latency change    = 0.0186602
throughput change = 0.164835
Class 0:
Packet latency average = 40.1367
	minimum = 23
	maximum = 60
Network latency average = 39.4964
	minimum = 23
	maximum = 53
Slowest packet = 166
Flit latency average = 22.2626
	minimum = 6
	maximum = 36
Slowest flit = 3455
Fragmentation average = 0.438849
	minimum = 0
	maximum = 17
Injected packet rate average = 0.000243056
	minimum = 0 (at node 0)
	maximum = 0.00133333 (at node 104)
Accepted packet rate average = 0.000241319
	minimum = 0 (at node 0)
	maximum = 0.00133333 (at node 56)
Injected flit rate average = 0.00436285
	minimum = 0 (at node 0)
	maximum = 0.024 (at node 104)
Accepted flit rate average= 0.00434375
	minimum = 0 (at node 0)
	maximum = 0.024 (at node 56)
Injected packet length average = 17.95
Accepted packet length average = 18
Total in-flight flits = 18 (18 measured)
latency change    = 0.00504837
throughput change = 0.0179856
Class 0:
Packet latency average = 40.4378
	minimum = 23
	maximum = 71
Network latency average = 39.627
	minimum = 23
	maximum = 57
Slowest packet = 166
Flit latency average = 22.2841
	minimum = 6
	maximum = 40
Slowest flit = 5651
Fragmentation average = 0.627027
	minimum = 0
	maximum = 17
Injected packet rate average = 0.000240885
	minimum = 0 (at node 0)
	maximum = 0.0015 (at node 40)
Accepted packet rate average = 0.000240885
	minimum = 0 (at node 0)
	maximum = 0.00125 (at node 140)
Injected flit rate average = 0.00433594
	minimum = 0 (at node 0)
	maximum = 0.027 (at node 40)
Accepted flit rate average= 0.00433594
	minimum = 0 (at node 0)
	maximum = 0.0225 (at node 140)
Injected packet length average = 18
Accepted packet length average = 18
Total in-flight flits = 0 (0 measured)
latency change    = 0.00744716
throughput change = 0.0018018
Class 0:
Packet latency average = 40.4138
	minimum = 23
	maximum = 71
Network latency average = 39.7155
	minimum = 23
	maximum = 57
Slowest packet = 166
Flit latency average = 22.3788
	minimum = 6
	maximum = 40
Slowest flit = 5651
Fragmentation average = 0.612069
	minimum = 0
	maximum = 17
Injected packet rate average = 0.000244792
	minimum = 0 (at node 0)
	maximum = 0.0012 (at node 40)
Accepted packet rate average = 0.000241667
	minimum = 0 (at node 1)
	maximum = 0.0012 (at node 140)
Injected flit rate average = 0.00439583
	minimum = 0 (at node 0)
	maximum = 0.0216 (at node 40)
Accepted flit rate average= 0.00435625
	minimum = 0 (at node 1)
	maximum = 0.0216 (at node 140)
Injected packet length average = 17.9574
Accepted packet length average = 18.0259
Total in-flight flits = 48 (48 measured)
latency change    = 0.000594964
throughput change = 0.00466284
Draining all recorded packets ...
Draining remaining packets ...
Time taken is 8056 cycles
====== Overall Traffic Statistics ======
====== Traffic class 0 ======
Packet latency average = 40.3787 (1 samples)
	minimum = 23 (1 samples)
	maximum = 71 (1 samples)
Network latency average = 39.6894 (1 samples)
	minimum = 23 (1 samples)
	maximum = 57 (1 samples)
Flit latency average = 22.3559 (1 samples)
	minimum = 6 (1 samples)
	maximum = 40 (1 samples)
Fragmentation average = 0.604255 (1 samples)
	minimum = 0 (1 samples)
	maximum = 17 (1 samples)
Injected packet rate average = 0.000244792 (1 samples)
	minimum = 0 (1 samples)
	maximum = 0.0012 (1 samples)
Accepted packet rate average = 0.000241667 (1 samples)
	minimum = 0 (1 samples)
	maximum = 0.0012 (1 samples)
Injected flit rate average = 0.00439583 (1 samples)
	minimum = 0 (1 samples)
	maximum = 0.0216 (1 samples)
Accepted flit rate average = 0.00435625 (1 samples)
	minimum = 0 (1 samples)
	maximum = 0.0216 (1 samples)
Injected packet size average = 17.9574 (1 samples)
Accepted packet size average = 18.0259 (1 samples)
Hops average = 5.02128 (1 samples)
Total run time 0.7887
