BEGIN Configuration File: networks/mezzanine_config
topology = mezzanine;
n = 12;

routing_function = multipath;
internal_speedup = 2.0;
latency_thres = 100000.0;
use_read_write = 0;

sample_period = 1000;
injection_rate = 0.5;
packet_size = 18;

noq = 1;
routing_delay = 0;
vc_alloc_delay = 1;
sw_alloc_delay = 1;
st_final_delay = 1;
vc_allocator = islip; 
sw_allocator = islip;
alloc_iters  = 4;
num_vcs     = 12;
buffer_policy = private; // private or shared
buf_size = -1; // -1 for buffer_policy = private;
vc_buf_size = 4096; // size of each VOQ with buffer_policy = private
output_buffer_size = -1;


traffic = uniform;

//mezW = 0.0;
//mezPredefinedPatternType = shift-inter; //shift-qfdb

END Configuration File: networks/mezzanine_config
OVERRIDE Parameter: injection_rate=0.031217
OVERRIDE Parameter: routing_function=multipath
OVERRIDE Parameter: num_vcs=64
OVERRIDE Parameter: vc_buf_size=18
OVERRIDE Parameter: internal_speedup=1.0
OVERRIDE Parameter: injection_process=on_off
OVERRIDE Parameter: sim_type=latency
OVERRIDE Parameter: burst_alpha=0.0038461538
OVERRIDE Parameter: burst_beta=0.1
network: network_0
========================== Routing table  =====================
Number of Subnets: 1
Class 0:
Packet latency average = 379.691
	minimum = 27
	maximum = 996
Network latency average = 285.549
	minimum = 23
	maximum = 979
Slowest packet = 64
Flit latency average = 199.517
	minimum = 6
	maximum = 962
Slowest flit = 2825
Fragmentation average = 192.083
	minimum = 0
	maximum = 933
Injected packet rate average = 0.0225937
	minimum = 0 (at node 21)
	maximum = 0.047 (at node 57)
Accepted packet rate average = 0.00951042
	minimum = 0.004 (at node 41)
	maximum = 0.023 (at node 44)
Injected flit rate average = 0.402349
	minimum = 0 (at node 21)
	maximum = 0.83 (at node 57)
Accepted flit rate average= 0.206589
	minimum = 0.078 (at node 59)
	maximum = 0.432 (at node 44)
Injected packet length average = 17.808
Accepted packet length average = 21.7223
Total in-flight flits = 38473 (0 measured)
latency change    = 1
throughput change = 1
Class 0:
Packet latency average = 665.573
	minimum = 27
	maximum = 1953
Network latency average = 493.091
	minimum = 23
	maximum = 1733
Slowest packet = 64
Flit latency average = 379.007
	minimum = 6
	maximum = 1884
Slowest flit = 8450
Fragmentation average = 260.285
	minimum = 0
	maximum = 1512
Injected packet rate average = 0.0200495
	minimum = 0.004 (at node 113)
	maximum = 0.0375 (at node 18)
Accepted packet rate average = 0.0109193
	minimum = 0.006 (at node 59)
	maximum = 0.018 (at node 103)
Injected flit rate average = 0.357708
	minimum = 0.072 (at node 113)
	maximum = 0.675 (at node 18)
Accepted flit rate average= 0.217268
	minimum = 0.1225 (at node 96)
	maximum = 0.3265 (at node 22)
Injected packet length average = 17.8413
Accepted packet length average = 19.8977
Total in-flight flits = 55295 (0 measured)
latency change    = 0.429527
throughput change = 0.0491544
Class 0:
Packet latency average = 1372.37
	minimum = 36
	maximum = 2922
Network latency average = 934.367
	minimum = 26
	maximum = 2702
Slowest packet = 1008
Flit latency average = 806.298
	minimum = 6
	maximum = 2821
Slowest flit = 13621
Fragmentation average = 308.547
	minimum = 2
	maximum = 2637
Injected packet rate average = 0.0121667
	minimum = 0 (at node 4)
	maximum = 0.041 (at node 189)
Accepted packet rate average = 0.012599
	minimum = 0.003 (at node 4)
	maximum = 0.024 (at node 34)
Injected flit rate average = 0.218063
	minimum = 0 (at node 4)
	maximum = 0.746 (at node 189)
Accepted flit rate average= 0.224109
	minimum = 0.063 (at node 4)
	maximum = 0.39 (at node 34)
Injected packet length average = 17.9229
Accepted packet length average = 17.7879
Total in-flight flits = 54404 (0 measured)
latency change    = 0.515021
throughput change = 0.0305259
Warmed up ...Time used is 3000 cycles
Class 0:
Packet latency average = 1685.71
	minimum = 44
	maximum = 3840
Network latency average = 334.484
	minimum = 27
	maximum = 929
Slowest packet = 10049
Flit latency average = 952.572
	minimum = 6
	maximum = 3818
Slowest flit = 14342
Fragmentation average = 155.933
	minimum = 2
	maximum = 624
Injected packet rate average = 0.0109583
	minimum = 0 (at node 4)
	maximum = 0.047 (at node 121)
Accepted packet rate average = 0.0119948
	minimum = 0.005 (at node 4)
	maximum = 0.026 (at node 119)
Injected flit rate average = 0.196943
	minimum = 0 (at node 4)
	maximum = 0.845 (at node 121)
Accepted flit rate average= 0.212406
	minimum = 0.064 (at node 139)
	maximum = 0.432 (at node 119)
Injected packet length average = 17.972
Accepted packet length average = 17.7082
Total in-flight flits = 51566 (24039 measured)
latency change    = 0.18588
throughput change = 0.0550978
Class 0:
Packet latency average = 2013.08
	minimum = 44
	maximum = 4603
Network latency average = 507.787
	minimum = 27
	maximum = 1903
Slowest packet = 10049
Flit latency average = 1008.67
	minimum = 6
	maximum = 4773
Slowest flit = 18424
Fragmentation average = 181.945
	minimum = 0
	maximum = 1265
Injected packet rate average = 0.0110026
	minimum = 0 (at node 4)
	maximum = 0.0345 (at node 26)
Accepted packet rate average = 0.0116615
	minimum = 0.007 (at node 4)
	maximum = 0.019 (at node 119)
Injected flit rate average = 0.197984
	minimum = 0 (at node 12)
	maximum = 0.621 (at node 26)
Accepted flit rate average= 0.207354
	minimum = 0.1255 (at node 79)
	maximum = 0.321 (at node 119)
Injected packet length average = 17.9943
Accepted packet length average = 17.7812
Total in-flight flits = 50866 (34947 measured)
latency change    = 0.162621
throughput change = 0.0243645
Class 0:
Packet latency average = 2376.89
	minimum = 31
	maximum = 5576
Network latency average = 637.347
	minimum = 27
	maximum = 2813
Slowest packet = 10049
Flit latency average = 1031.37
	minimum = 6
	maximum = 5862
Slowest flit = 3833
Fragmentation average = 200.045
	minimum = 0
	maximum = 2041
Injected packet rate average = 0.0112622
	minimum = 0 (at node 12)
	maximum = 0.0306667 (at node 158)
Accepted packet rate average = 0.0116406
	minimum = 0.00666667 (at node 139)
	maximum = 0.017 (at node 165)
Injected flit rate average = 0.202717
	minimum = 0 (at node 12)
	maximum = 0.554333 (at node 158)
Accepted flit rate average= 0.207694
	minimum = 0.116 (at node 139)
	maximum = 0.297 (at node 136)
Injected packet length average = 17.9998
Accepted packet length average = 17.8422
Total in-flight flits = 51574 (41474 measured)
latency change    = 0.153061
throughput change = 0.00163836
Class 0:
Packet latency average = 2746.44
	minimum = 31
	maximum = 6380
Network latency average = 735.413
	minimum = 27
	maximum = 3862
Slowest packet = 10049
Flit latency average = 1040.85
	minimum = 6
	maximum = 6864
Slowest flit = 9196
Fragmentation average = 212.947
	minimum = 0
	maximum = 3090
Injected packet rate average = 0.011694
	minimum = 0 (at node 34)
	maximum = 0.02925 (at node 9)
Accepted packet rate average = 0.0116081
	minimum = 0.008 (at node 75)
	maximum = 0.01575 (at node 136)
Injected flit rate average = 0.210499
	minimum = 0 (at node 37)
	maximum = 0.52825 (at node 9)
Accepted flit rate average= 0.207432
	minimum = 0.14725 (at node 104)
	maximum = 0.27725 (at node 136)
Injected packet length average = 18.0006
Accepted packet length average = 17.8697
Total in-flight flits = 56916 (49705 measured)
latency change    = 0.134555
throughput change = 0.0012638
Class 0:
Packet latency average = 3111.85
	minimum = 31
	maximum = 7273
Network latency average = 824.111
	minimum = 27
	maximum = 4932
Slowest packet = 10049
Flit latency average = 1077.35
	minimum = 6
	maximum = 7849
Slowest flit = 12802
Fragmentation average = 223.295
	minimum = 0
	maximum = 3580
Injected packet rate average = 0.0115937
	minimum = 0 (at node 34)
	maximum = 0.0246 (at node 9)
Accepted packet rate average = 0.0115802
	minimum = 0.0086 (at node 104)
	maximum = 0.015 (at node 136)
Injected flit rate average = 0.208507
	minimum = 0 (at node 37)
	maximum = 0.4418 (at node 9)
Accepted flit rate average= 0.206848
	minimum = 0.1518 (at node 104)
	maximum = 0.2638 (at node 118)
Injected packet length average = 17.9845
Accepted packet length average = 17.8622
Total in-flight flits = 56242 (51370 measured)
latency change    = 0.117427
throughput change = 0.00282514
Class 0:
Packet latency average = 3450.98
	minimum = 31
	maximum = 8324
Network latency average = 893.159
	minimum = 27
	maximum = 5626
Slowest packet = 10049
Flit latency average = 1097.3
	minimum = 6
	maximum = 8570
Slowest flit = 11357
Fragmentation average = 230.768
	minimum = 0
	maximum = 3930
Injected packet rate average = 0.0115512
	minimum = 0 (at node 34)
	maximum = 0.023 (at node 158)
Accepted packet rate average = 0.0115503
	minimum = 0.00883333 (at node 52)
	maximum = 0.0148333 (at node 95)
Injected flit rate average = 0.207905
	minimum = 0 (at node 37)
	maximum = 0.413333 (at node 158)
Accepted flit rate average= 0.206735
	minimum = 0.155 (at node 42)
	maximum = 0.277833 (at node 95)
Injected packet length average = 17.9985
Accepted packet length average = 17.8986
Total in-flight flits = 55933 (52431 measured)
latency change    = 0.0982688
throughput change = 0.000545014
Class 0:
Packet latency average = 3758.36
	minimum = 31
	maximum = 9595
Network latency average = 953.025
	minimum = 25
	maximum = 6539
Slowest packet = 10049
Flit latency average = 1115.55
	minimum = 6
	maximum = 9639
Slowest flit = 28536
Fragmentation average = 237.154
	minimum = 0
	maximum = 3930
Injected packet rate average = 0.0115885
	minimum = 0 (at node 34)
	maximum = 0.0227143 (at node 163)
Accepted packet rate average = 0.0115037
	minimum = 0.00871429 (at node 52)
	maximum = 0.015 (at node 95)
Injected flit rate average = 0.208575
	minimum = 0 (at node 37)
	maximum = 0.407857 (at node 163)
Accepted flit rate average= 0.205993
	minimum = 0.161429 (at node 52)
	maximum = 0.268857 (at node 95)
Injected packet length average = 17.9984
Accepted packet length average = 17.9067
Total in-flight flits = 58151 (55498 measured)
latency change    = 0.0817873
throughput change = 0.00360177
Draining all recorded packets ...
Class 0:
Remaining flits: 22320 22321 22322 22323 22324 22325 22326 22327 22328 22329 [...] (56354 flits)
Measured flits: 181178 181179 181180 181181 181182 181183 181184 181185 181186 181187 [...] (53636 flits)
Class 0:
Remaining flits: 22320 22321 22322 22323 22324 22325 22326 22327 22328 22329 [...] (61649 flits)
Measured flits: 181908 181909 181910 181911 181912 181913 181914 181915 181916 181917 [...] (58254 flits)
Class 0:
Remaining flits: 24261 24262 24263 35550 35551 35552 35553 35554 35555 35556 [...] (58570 flits)
Measured flits: 181908 181909 181910 181911 181912 181913 181914 181915 181916 181917 [...] (55080 flits)
Class 0:
Remaining flits: 35550 35551 35552 35553 35554 35555 35556 35557 35558 35559 [...] (56762 flits)
Measured flits: 181908 181909 181910 181911 181912 181913 181914 181915 181916 181917 [...] (53338 flits)
Class 0:
Remaining flits: 35550 35551 35552 35553 35554 35555 35556 35557 35558 35559 [...] (58999 flits)
Measured flits: 181908 181909 181910 181911 181912 181913 181914 181915 181916 181917 [...] (54031 flits)
Class 0:
Remaining flits: 35550 35551 35552 35553 35554 35555 35556 35557 35558 35559 [...] (59229 flits)
Measured flits: 181908 181909 181910 181911 181912 181913 181914 181915 181916 181917 [...] (52958 flits)
Class 0:
Remaining flits: 35550 35551 35552 35553 35554 35555 35556 35557 35558 35559 [...] (62583 flits)
Measured flits: 181908 181909 181910 181911 181912 181913 181914 181915 181916 181917 [...] (54079 flits)
Class 0:
Remaining flits: 35550 35551 35552 35553 35554 35555 35556 35557 35558 35559 [...] (64392 flits)
Measured flits: 181908 181909 181910 181911 181912 181913 181914 181915 181916 181917 [...] (53440 flits)
Class 0:
Remaining flits: 35550 35551 35552 35553 35554 35555 35556 35557 35558 35559 [...] (59909 flits)
Measured flits: 181908 181909 181910 181911 181912 181913 181914 181915 181916 181917 [...] (48072 flits)
Class 0:
Remaining flits: 54810 54811 54812 54813 54814 54815 54816 54817 54818 54819 [...] (61268 flits)
Measured flits: 182431 182432 182433 182434 182435 182436 182437 182438 182439 182440 [...] (47646 flits)
Class 0:
Remaining flits: 54810 54811 54812 54813 54814 54815 54816 54817 54818 54819 [...] (62132 flits)
Measured flits: 227304 227305 227306 227307 227308 227309 227310 227311 227312 227313 [...] (45416 flits)
Class 0:
Remaining flits: 54810 54811 54812 54813 54814 54815 54816 54817 54818 54819 [...] (62840 flits)
Measured flits: 227304 227305 227306 227307 227308 227309 227310 227311 227312 227313 [...] (42884 flits)
Class 0:
Remaining flits: 54810 54811 54812 54813 54814 54815 54816 54817 54818 54819 [...] (59784 flits)
Measured flits: 242802 242803 242804 242805 242806 242807 242808 242809 242810 242811 [...] (38926 flits)
Class 0:
Remaining flits: 54810 54811 54812 54813 54814 54815 54816 54817 54818 54819 [...] (61930 flits)
Measured flits: 246042 246043 246044 246045 246046 246047 246048 246049 246050 246051 [...] (36060 flits)
Class 0:
Remaining flits: 54810 54811 54812 54813 54814 54815 54816 54817 54818 54819 [...] (65041 flits)
Measured flits: 246042 246043 246044 246045 246046 246047 246048 246049 246050 246051 [...] (34553 flits)
Class 0:
Remaining flits: 54810 54811 54812 54813 54814 54815 54816 54817 54818 54819 [...] (66883 flits)
Measured flits: 246042 246043 246044 246045 246046 246047 246048 246049 246050 246051 [...] (31063 flits)
Class 0:
Remaining flits: 54810 54811 54812 54813 54814 54815 54816 54817 54818 54819 [...] (67089 flits)
Measured flits: 252954 252955 252956 252957 252958 252959 252960 252961 252962 252963 [...] (29083 flits)
Class 0:
Remaining flits: 54810 54811 54812 54813 54814 54815 54816 54817 54818 54819 [...] (65073 flits)
Measured flits: 252954 252955 252956 252957 252958 252959 252960 252961 252962 252963 [...] (26257 flits)
Class 0:
Remaining flits: 54826 54827 88884 88885 88886 88887 88888 88889 88890 88891 [...] (64728 flits)
Measured flits: 273222 273223 273224 273225 273226 273227 273228 273229 273230 273231 [...] (23992 flits)
Class 0:
Remaining flits: 54826 54827 88884 88885 88886 88887 88888 88889 88890 88891 [...] (65265 flits)
Measured flits: 273222 273223 273224 273225 273226 273227 273228 273229 273230 273231 [...] (22499 flits)
Class 0:
Remaining flits: 54826 54827 88884 88885 88886 88887 88888 88889 88890 88891 [...] (63249 flits)
Measured flits: 273222 273223 273224 273225 273226 273227 273228 273229 273230 273231 [...] (21212 flits)
Class 0:
Remaining flits: 54826 54827 88884 88885 88886 88887 88888 88889 88890 88891 [...] (64037 flits)
Measured flits: 273222 273223 273224 273225 273226 273227 273228 273229 273230 273231 [...] (19743 flits)
Class 0:
Remaining flits: 88884 88885 88886 88887 88888 88889 88890 88891 88892 88893 [...] (65008 flits)
Measured flits: 273222 273223 273224 273225 273226 273227 273228 273229 273230 273231 [...] (18653 flits)
Class 0:
Remaining flits: 88884 88885 88886 88887 88888 88889 88890 88891 88892 88893 [...] (64024 flits)
Measured flits: 500580 500581 500582 500583 500584 500585 500586 500587 500588 500589 [...] (16619 flits)
Class 0:
Remaining flits: 88884 88885 88886 88887 88888 88889 88890 88891 88892 88893 [...] (63951 flits)
Measured flits: 548694 548695 548696 548697 548698 548699 548700 548701 548702 548703 [...] (14440 flits)
Class 0:
Remaining flits: 88886 88887 88888 88889 88890 88891 88892 88893 88894 88895 [...] (65844 flits)
Measured flits: 548694 548695 548696 548697 548698 548699 548700 548701 548702 548703 [...] (12493 flits)
Class 0:
Remaining flits: 548694 548695 548696 548697 548698 548699 548700 548701 548702 548703 [...] (65945 flits)
Measured flits: 548694 548695 548696 548697 548698 548699 548700 548701 548702 548703 [...] (12252 flits)
Class 0:
Remaining flits: 548694 548695 548696 548697 548698 548699 548700 548701 548702 548703 [...] (64464 flits)
Measured flits: 548694 548695 548696 548697 548698 548699 548700 548701 548702 548703 [...] (11308 flits)
Class 0:
Remaining flits: 548694 548695 548696 548697 548698 548699 548700 548701 548702 548703 [...] (66087 flits)
Measured flits: 548694 548695 548696 548697 548698 548699 548700 548701 548702 548703 [...] (10267 flits)
Class 0:
Remaining flits: 548694 548695 548696 548697 548698 548699 548700 548701 548702 548703 [...] (65652 flits)
Measured flits: 548694 548695 548696 548697 548698 548699 548700 548701 548702 548703 [...] (8348 flits)
Class 0:
Remaining flits: 548694 548695 548696 548697 548698 548699 548700 548701 548702 548703 [...] (65132 flits)
Measured flits: 548694 548695 548696 548697 548698 548699 548700 548701 548702 548703 [...] (7009 flits)
Class 0:
Remaining flits: 548694 548695 548696 548697 548698 548699 548700 548701 548702 548703 [...] (63108 flits)
Measured flits: 548694 548695 548696 548697 548698 548699 548700 548701 548702 548703 [...] (6480 flits)
Class 0:
Remaining flits: 548694 548695 548696 548697 548698 548699 548700 548701 548702 548703 [...] (64812 flits)
Measured flits: 548694 548695 548696 548697 548698 548699 548700 548701 548702 548703 [...] (6531 flits)
Class 0:
Remaining flits: 548695 548696 548697 548698 548699 548700 548701 548702 548703 548704 [...] (61888 flits)
Measured flits: 548695 548696 548697 548698 548699 548700 548701 548702 548703 548704 [...] (6168 flits)
Class 0:
Remaining flits: 680706 680707 680708 680709 680710 680711 680712 680713 680714 680715 [...] (61503 flits)
Measured flits: 826524 826525 826526 826527 826528 826529 826530 826531 826532 826533 [...] (5407 flits)
Class 0:
Remaining flits: 826524 826525 826526 826527 826528 826529 826530 826531 826532 826533 [...] (64289 flits)
Measured flits: 826524 826525 826526 826527 826528 826529 826530 826531 826532 826533 [...] (4747 flits)
Class 0:
Remaining flits: 826524 826525 826526 826527 826528 826529 826530 826531 826532 826533 [...] (62081 flits)
Measured flits: 826524 826525 826526 826527 826528 826529 826530 826531 826532 826533 [...] (4284 flits)
Class 0:
Remaining flits: 830574 830575 830576 830577 830578 830579 830580 830581 830582 830583 [...] (63192 flits)
Measured flits: 830574 830575 830576 830577 830578 830579 830580 830581 830582 830583 [...] (4203 flits)
Class 0:
Remaining flits: 830574 830575 830576 830577 830578 830579 830580 830581 830582 830583 [...] (61234 flits)
Measured flits: 830574 830575 830576 830577 830578 830579 830580 830581 830582 830583 [...] (4080 flits)
Class 0:
Remaining flits: 830574 830575 830576 830577 830578 830579 830580 830581 830582 830583 [...] (60721 flits)
Measured flits: 830574 830575 830576 830577 830578 830579 830580 830581 830582 830583 [...] (3702 flits)
Class 0:
Remaining flits: 830574 830575 830576 830577 830578 830579 830580 830581 830582 830583 [...] (60378 flits)
Measured flits: 830574 830575 830576 830577 830578 830579 830580 830581 830582 830583 [...] (3309 flits)
Class 0:
Remaining flits: 830575 830576 830577 830578 830579 830580 830581 830582 830583 830584 [...] (62012 flits)
Measured flits: 830575 830576 830577 830578 830579 830580 830581 830582 830583 830584 [...] (3286 flits)
Class 0:
Remaining flits: 1012503 1012504 1012505 1012506 1012507 1012508 1012509 1012510 1012511 1012512 [...] (62697 flits)
Measured flits: 1299510 1299511 1299512 1299513 1299514 1299515 1299516 1299517 1299518 1299519 [...] (3107 flits)
Class 0:
Remaining flits: 1012503 1012504 1012505 1012506 1012507 1012508 1012509 1012510 1012511 1012512 [...] (62607 flits)
Measured flits: 1299510 1299511 1299512 1299513 1299514 1299515 1299516 1299517 1299518 1299519 [...] (2702 flits)
Class 0:
Remaining flits: 1159776 1159777 1159778 1159779 1159780 1159781 1159782 1159783 1159784 1159785 [...] (61303 flits)
Measured flits: 1299510 1299511 1299512 1299513 1299514 1299515 1299516 1299517 1299518 1299519 [...] (2455 flits)
Class 0:
Remaining flits: 1159776 1159777 1159778 1159779 1159780 1159781 1159782 1159783 1159784 1159785 [...] (61358 flits)
Measured flits: 1299510 1299511 1299512 1299513 1299514 1299515 1299516 1299517 1299518 1299519 [...] (2536 flits)
Class 0:
Remaining flits: 1159776 1159777 1159778 1159779 1159780 1159781 1159782 1159783 1159784 1159785 [...] (62963 flits)
Measured flits: 1299510 1299511 1299512 1299513 1299514 1299515 1299516 1299517 1299518 1299519 [...] (2187 flits)
Class 0:
Remaining flits: 1159776 1159777 1159778 1159779 1159780 1159781 1159782 1159783 1159784 1159785 [...] (62028 flits)
Measured flits: 1299511 1299512 1299513 1299514 1299515 1299516 1299517 1299518 1299519 1299520 [...] (1902 flits)
Class 0:
Remaining flits: 1159776 1159777 1159778 1159779 1159780 1159781 1159782 1159783 1159784 1159785 [...] (63829 flits)
Measured flits: 1299511 1299512 1299513 1299514 1299515 1299516 1299517 1299518 1299519 1299520 [...] (1847 flits)
Class 0:
Remaining flits: 1159776 1159777 1159778 1159779 1159780 1159781 1159782 1159783 1159784 1159785 [...] (63596 flits)
Measured flits: 1299526 1299527 1394244 1394245 1394246 1394247 1394248 1394249 1394250 1394251 [...] (1860 flits)
Class 0:
Remaining flits: 1159776 1159777 1159778 1159779 1159780 1159781 1159782 1159783 1159784 1159785 [...] (65244 flits)
Measured flits: 1394244 1394245 1394246 1394247 1394248 1394249 1394250 1394251 1394252 1394253 [...] (1705 flits)
Class 0:
Remaining flits: 1226808 1226809 1226810 1226811 1226812 1226813 1226814 1226815 1226816 1226817 [...] (65983 flits)
Measured flits: 1394244 1394245 1394246 1394247 1394248 1394249 1394250 1394251 1394252 1394253 [...] (1838 flits)
Class 0:
Remaining flits: 1345208 1345209 1345210 1345211 1351134 1351135 1351136 1351137 1351138 1351139 [...] (64919 flits)
Measured flits: 1394244 1394245 1394246 1394247 1394248 1394249 1394250 1394251 1394252 1394253 [...] (1755 flits)
Class 0:
Remaining flits: 1351134 1351135 1351136 1351137 1351138 1351139 1351140 1351141 1351142 1351143 [...] (64937 flits)
Measured flits: 1394244 1394245 1394246 1394247 1394248 1394249 1394250 1394251 1394252 1394253 [...] (1936 flits)
Class 0:
Remaining flits: 1351134 1351135 1351136 1351137 1351138 1351139 1351140 1351141 1351142 1351143 [...] (66235 flits)
Measured flits: 1394244 1394245 1394246 1394247 1394248 1394249 1394250 1394251 1394252 1394253 [...] (1765 flits)
Class 0:
Remaining flits: 1351134 1351135 1351136 1351137 1351138 1351139 1351140 1351141 1351142 1351143 [...] (65558 flits)
Measured flits: 1394244 1394245 1394246 1394247 1394248 1394249 1394250 1394251 1394252 1394253 [...] (1273 flits)
Class 0:
Remaining flits: 1383552 1383553 1383554 1383555 1383556 1383557 1383558 1383559 1383560 1383561 [...] (64608 flits)
Measured flits: 1394244 1394245 1394246 1394247 1394248 1394249 1394250 1394251 1394252 1394253 [...] (1079 flits)
Class 0:
Remaining flits: 1383552 1383553 1383554 1383555 1383556 1383557 1383558 1383559 1383560 1383561 [...] (63656 flits)
Measured flits: 1394244 1394245 1394246 1394247 1394248 1394249 1394250 1394251 1394252 1394253 [...] (980 flits)
Class 0:
Remaining flits: 1383552 1383553 1383554 1383555 1383556 1383557 1383558 1383559 1383560 1383561 [...] (64276 flits)
Measured flits: 1394244 1394245 1394246 1394247 1394248 1394249 1394250 1394251 1394252 1394253 [...] (813 flits)
Class 0:
Remaining flits: 1394244 1394245 1394246 1394247 1394248 1394249 1394250 1394251 1394252 1394253 [...] (63551 flits)
Measured flits: 1394244 1394245 1394246 1394247 1394248 1394249 1394250 1394251 1394252 1394253 [...] (648 flits)
Class 0:
Remaining flits: 1394244 1394245 1394246 1394247 1394248 1394249 1394250 1394251 1394252 1394253 [...] (61550 flits)
Measured flits: 1394244 1394245 1394246 1394247 1394248 1394249 1394250 1394251 1394252 1394253 [...] (648 flits)
Class 0:
Remaining flits: 1394244 1394245 1394246 1394247 1394248 1394249 1394250 1394251 1394252 1394253 [...] (63425 flits)
Measured flits: 1394244 1394245 1394246 1394247 1394248 1394249 1394250 1394251 1394252 1394253 [...] (604 flits)
Class 0:
Remaining flits: 1394244 1394245 1394246 1394247 1394248 1394249 1394250 1394251 1394252 1394253 [...] (62897 flits)
Measured flits: 1394244 1394245 1394246 1394247 1394248 1394249 1394250 1394251 1394252 1394253 [...] (506 flits)
Class 0:
Remaining flits: 1394244 1394245 1394246 1394247 1394248 1394249 1394250 1394251 1394252 1394253 [...] (62039 flits)
Measured flits: 1394244 1394245 1394246 1394247 1394248 1394249 1394250 1394251 1394252 1394253 [...] (414 flits)
Class 0:
Remaining flits: 1394244 1394245 1394246 1394247 1394248 1394249 1394250 1394251 1394252 1394253 [...] (61887 flits)
Measured flits: 1394244 1394245 1394246 1394247 1394248 1394249 1394250 1394251 1394252 1394253 [...] (360 flits)
Class 0:
Remaining flits: 1602432 1602433 1602434 1602435 1602436 1602437 1602438 1602439 1602440 1602441 [...] (61259 flits)
Measured flits: 2031977 2031978 2031979 2031980 2031981 2031982 2031983 2044440 2044441 2044442 [...] (317 flits)
Class 0:
Remaining flits: 1602449 1609938 1609939 1609940 1609941 1609942 1609943 1609944 1609945 1609946 [...] (64039 flits)
Measured flits: 2044440 2044441 2044442 2044443 2044444 2044445 2044446 2044447 2044448 2044449 [...] (309 flits)
Class 0:
Remaining flits: 1609938 1609939 1609940 1609941 1609942 1609943 1609944 1609945 1609946 1609947 [...] (62275 flits)
Measured flits: 2044440 2044441 2044442 2044443 2044444 2044445 2044446 2044447 2044448 2044449 [...] (318 flits)
Class 0:
Remaining flits: 1609938 1609939 1609940 1609941 1609942 1609943 1609944 1609945 1609946 1609947 [...] (63753 flits)
Measured flits: 2044440 2044441 2044442 2044443 2044444 2044445 2044446 2044447 2044448 2044449 [...] (204 flits)
Class 0:
Remaining flits: 1609938 1609939 1609940 1609941 1609942 1609943 1609944 1609945 1609946 1609947 [...] (65111 flits)
Measured flits: 2044440 2044441 2044442 2044443 2044444 2044445 2044446 2044447 2044448 2044449 [...] (154 flits)
Class 0:
Remaining flits: 1609938 1609939 1609940 1609941 1609942 1609943 1609944 1609945 1609946 1609947 [...] (66443 flits)
Measured flits: 2044440 2044441 2044442 2044443 2044444 2044445 2044446 2044447 2044448 2044449 [...] (239 flits)
Class 0:
Remaining flits: 1609943 1609944 1609945 1609946 1609947 1609948 1609949 1609950 1609951 1609952 [...] (66280 flits)
Measured flits: 2044440 2044441 2044442 2044443 2044444 2044445 2044446 2044447 2044448 2044449 [...] (188 flits)
Class 0:
Remaining flits: 1867770 1867771 1867772 1867773 1867774 1867775 1867776 1867777 1867778 1867779 [...] (66006 flits)
Measured flits: 2044440 2044441 2044442 2044443 2044444 2044445 2044446 2044447 2044448 2044449 [...] (144 flits)
Class 0:
Remaining flits: 1867770 1867771 1867772 1867773 1867774 1867775 1867776 1867777 1867778 1867779 [...] (64420 flits)
Measured flits: 2044440 2044441 2044442 2044443 2044444 2044445 2044446 2044447 2044448 2044449 [...] (103 flits)
Class 0:
Remaining flits: 1867770 1867771 1867772 1867773 1867774 1867775 1867776 1867777 1867778 1867779 [...] (63556 flits)
Measured flits: 2044440 2044441 2044442 2044443 2044444 2044445 2044446 2044447 2044448 2044449 [...] (72 flits)
Class 0:
Remaining flits: 1867770 1867771 1867772 1867773 1867774 1867775 1867776 1867777 1867778 1867779 [...] (65037 flits)
Measured flits: 2100834 2100835 2100836 2100837 2100838 2100839 2100840 2100841 2100842 2100843 [...] (54 flits)
Class 0:
Remaining flits: 1867772 1867773 1867774 1867775 1867776 1867777 1867778 1867779 1867780 1867781 [...] (63491 flits)
Measured flits: 2100834 2100835 2100836 2100837 2100838 2100839 2100840 2100841 2100842 2100843 [...] (54 flits)
Class 0:
Remaining flits: 1958972 1958973 1958974 1958975 1995228 1995229 1995230 1995231 1995232 1995233 [...] (63482 flits)
Measured flits: 2100834 2100835 2100836 2100837 2100838 2100839 2100840 2100841 2100842 2100843 [...] (54 flits)
Class 0:
Remaining flits: 1995228 1995229 1995230 1995231 1995232 1995233 1995234 1995235 1995236 1995237 [...] (62790 flits)
Measured flits: 2100834 2100835 2100836 2100837 2100838 2100839 2100840 2100841 2100842 2100843 [...] (54 flits)
Class 0:
Remaining flits: 1995228 1995229 1995230 1995231 1995232 1995233 1995234 1995235 1995236 1995237 [...] (63043 flits)
Measured flits: 2100834 2100835 2100836 2100837 2100838 2100839 2100840 2100841 2100842 2100843 [...] (54 flits)
Class 0:
Remaining flits: 1995234 1995235 1995236 1995237 1995238 1995239 1995240 1995241 1995242 1995243 [...] (61607 flits)
Measured flits: 2100834 2100835 2100836 2100837 2100838 2100839 2100840 2100841 2100842 2100843 [...] (54 flits)
Class 0:
Remaining flits: 2100834 2100835 2100836 2100837 2100838 2100839 2100840 2100841 2100842 2100843 [...] (63090 flits)
Measured flits: 2100834 2100835 2100836 2100837 2100838 2100839 2100840 2100841 2100842 2100843 [...] (54 flits)
Class 0:
Remaining flits: 2100834 2100835 2100836 2100837 2100838 2100839 2100840 2100841 2100842 2100843 [...] (61094 flits)
Measured flits: 2100834 2100835 2100836 2100837 2100838 2100839 2100840 2100841 2100842 2100843 [...] (54 flits)
Class 0:
Remaining flits: 2100834 2100835 2100836 2100837 2100838 2100839 2100840 2100841 2100842 2100843 [...] (64182 flits)
Measured flits: 2100834 2100835 2100836 2100837 2100838 2100839 2100840 2100841 2100842 2100843 [...] (54 flits)
Class 0:
Remaining flits: 2100842 2100843 2100844 2100845 2100846 2100847 2100848 2100849 2100850 2100851 [...] (64552 flits)
Measured flits: 2100842 2100843 2100844 2100845 2100846 2100847 2100848 2100849 2100850 2100851 [...] (46 flits)
Class 0:
Remaining flits: 2169630 2169631 2169632 2169633 2169634 2169635 2169636 2169637 2169638 2169639 [...] (62223 flits)
Measured flits: 2767068 2767069 2767070 2767071 2767072 2767073 2767074 2767075 2767076 2767077 [...] (36 flits)
Class 0:
Remaining flits: 2169630 2169631 2169632 2169633 2169634 2169635 2169636 2169637 2169638 2169639 [...] (64111 flits)
Measured flits: 2767068 2767069 2767070 2767071 2767072 2767073 2767074 2767075 2767076 2767077 [...] (36 flits)
Class 0:
Remaining flits: 2330010 2330011 2330012 2330013 2330014 2330015 2330016 2330017 2330018 2330019 [...] (64987 flits)
Measured flits: 2767068 2767069 2767070 2767071 2767072 2767073 2767074 2767075 2767076 2767077 [...] (36 flits)
Class 0:
Remaining flits: 2330010 2330011 2330012 2330013 2330014 2330015 2330016 2330017 2330018 2330019 [...] (65222 flits)
Measured flits: 2767078 2767079 2767080 2767081 2767082 2767083 2767084 2767085 2767716 2767717 [...] (26 flits)
Class 0:
Remaining flits: 2364300 2364301 2364302 2364303 2364304 2364305 2364306 2364307 2364308 2364309 [...] (65271 flits)
Measured flits: 2767078 2767079 2767080 2767081 2767082 2767083 2767084 2767085 2767716 2767717 [...] (26 flits)
Class 0:
Remaining flits: 2478265 2478266 2478267 2478268 2478269 2478270 2478271 2478272 2478273 2478274 [...] (64652 flits)
Measured flits: 2767078 2767079 2767080 2767081 2767082 2767083 2767084 2767085 2767716 2767717 [...] (26 flits)
Class 0:
Remaining flits: 2533230 2533231 2533232 2533233 2533234 2533235 2533236 2533237 2533238 2533239 [...] (64272 flits)
Measured flits: 2767078 2767079 2767080 2767081 2767082 2767083 2767084 2767085 2767716 2767717 [...] (26 flits)
Class 0:
Remaining flits: 2610216 2610217 2610218 2610219 2610220 2610221 2610222 2610223 2610224 2610225 [...] (62797 flits)
Measured flits: 2767722 2767723 2767724 2767725 2767726 2767727 2767728 2767729 2767730 2767731 [...] (12 flits)
Draining remaining packets ...
Class 0:
Remaining flits: 2629026 2629027 2629028 2629029 2629030 2629031 2629032 2629033 2629034 2629035 [...] (41384 flits)
Measured flits: (0 flits)
Class 0:
Remaining flits: 2629026 2629027 2629028 2629029 2629030 2629031 2629032 2629033 2629034 2629035 [...] (28206 flits)
Measured flits: (0 flits)
Class 0:
Remaining flits: 2635362 2635363 2635364 2635365 2635366 2635367 2635368 2635369 2635370 2635371 [...] (16239 flits)
Measured flits: (0 flits)
Class 0:
Remaining flits: 2713986 2713987 2713988 2713989 2713990 2713991 2713992 2713993 2713994 2713995 [...] (6935 flits)
Measured flits: (0 flits)
Class 0:
Remaining flits: 3038112 3038113 3038114 3038115 3038116 3038117 3038118 3038119 3038120 3038121 [...] (1891 flits)
Measured flits: (0 flits)
Time taken is 109607 cycles
====== Overall Traffic Statistics ======
====== Traffic class 0 ======
Packet latency average = 13451.8 (1 samples)
	minimum = 31 (1 samples)
	maximum = 94239 (1 samples)
Network latency average = 1703.25 (1 samples)
	minimum = 23 (1 samples)
	maximum = 39893 (1 samples)
Flit latency average = 1895.81 (1 samples)
	minimum = 6 (1 samples)
	maximum = 39876 (1 samples)
Fragmentation average = 258.699 (1 samples)
	minimum = 0 (1 samples)
	maximum = 13095 (1 samples)
Injected packet rate average = 0.0115885 (1 samples)
	minimum = 0 (1 samples)
	maximum = 0.0227143 (1 samples)
Accepted packet rate average = 0.0115037 (1 samples)
	minimum = 0.00871429 (1 samples)
	maximum = 0.015 (1 samples)
Injected flit rate average = 0.208575 (1 samples)
	minimum = 0 (1 samples)
	maximum = 0.407857 (1 samples)
Accepted flit rate average = 0.205993 (1 samples)
	minimum = 0.161429 (1 samples)
	maximum = 0.268857 (1 samples)
Injected packet size average = 17.9984 (1 samples)
Accepted packet size average = 17.9067 (1 samples)
Hops average = 5.04204 (1 samples)
Total run time 171.522
