BEGIN Configuration File: networks/mezzanine_config
topology = mezzanine;
n = 12;

routing_function = multipath;
internal_speedup = 2.0;
latency_thres = 100000.0;
use_read_write = 0;

sample_period = 1000;
injection_rate = 0.5;
packet_size = 18;

noq = 1;
routing_delay = 0;
vc_alloc_delay = 1;
sw_alloc_delay = 1;
st_final_delay = 1;
vc_allocator = islip; 
sw_allocator = islip;
alloc_iters  = 4;
num_vcs     = 12;
buffer_policy = private; // private or shared
buf_size = -1; // -1 for buffer_policy = private;
vc_buf_size = 4096; // size of each VOQ with buffer_policy = private
output_buffer_size = -1;


traffic = uniform;

//mezW = 0.0;
//mezPredefinedPatternType = shift-inter; //shift-qfdb

END Configuration File: networks/mezzanine_config
OVERRIDE Parameter: injection_rate=0.006907
OVERRIDE Parameter: routing_function=min
OVERRIDE Parameter: num_vcs=64
OVERRIDE Parameter: vc_buf_size=18
OVERRIDE Parameter: internal_speedup=1.0
OVERRIDE Parameter: injection_process=bernoulli
OVERRIDE Parameter: sim_type=latency
OVERRIDE Parameter: burst_alpha=0.0038461538
OVERRIDE Parameter: burst_beta=0.1
network: network_0
========================== Routing table  =====================
Number of Subnets: 1
Class 0:
Packet latency average = 73.2025
	minimum = 23
	maximum = 443
Network latency average = 71.9536
	minimum = 23
	maximum = 443
Slowest packet = 619
Flit latency average = 40.0223
	minimum = 6
	maximum = 469
Slowest flit = 11690
Fragmentation average = 30.1789
	minimum = 0
	maximum = 371
Injected packet rate average = 0.00677083
	minimum = 0.001 (at node 176)
	maximum = 0.014 (at node 173)
Accepted packet rate average = 0.00617188
	minimum = 0.001 (at node 41)
	maximum = 0.013 (at node 152)
Injected flit rate average = 0.120698
	minimum = 0.018 (at node 176)
	maximum = 0.252 (at node 173)
Accepted flit rate average= 0.114542
	minimum = 0.018 (at node 41)
	maximum = 0.234 (at node 152)
Injected packet length average = 17.8262
Accepted packet length average = 18.5586
Total in-flight flits = 1408 (0 measured)
latency change    = 1
throughput change = 1
Class 0:
Packet latency average = 75.543
	minimum = 23
	maximum = 696
Network latency average = 74.3025
	minimum = 23
	maximum = 683
Slowest packet = 1021
Flit latency average = 41.405
	minimum = 6
	maximum = 666
Slowest flit = 18395
Fragmentation average = 31.2603
	minimum = 0
	maximum = 522
Injected packet rate average = 0.0066224
	minimum = 0.002 (at node 37)
	maximum = 0.0125 (at node 172)
Accepted packet rate average = 0.00642188
	minimum = 0.0025 (at node 115)
	maximum = 0.0105 (at node 44)
Injected flit rate average = 0.118724
	minimum = 0.036 (at node 37)
	maximum = 0.225 (at node 172)
Accepted flit rate average= 0.116888
	minimum = 0.045 (at node 115)
	maximum = 0.189 (at node 44)
Injected packet length average = 17.9276
Accepted packet length average = 18.2015
Total in-flight flits = 889 (0 measured)
latency change    = 0.0309817
throughput change = 0.0200735
Class 0:
Packet latency average = 74.6284
	minimum = 23
	maximum = 435
Network latency average = 73.4114
	minimum = 23
	maximum = 427
Slowest packet = 2343
Flit latency average = 40.8207
	minimum = 6
	maximum = 410
Slowest flit = 42191
Fragmentation average = 30.3497
	minimum = 0
	maximum = 376
Injected packet rate average = 0.00679167
	minimum = 0.001 (at node 125)
	maximum = 0.016 (at node 34)
Accepted packet rate average = 0.00667187
	minimum = 0.001 (at node 18)
	maximum = 0.018 (at node 22)
Injected flit rate average = 0.122089
	minimum = 0.018 (at node 125)
	maximum = 0.288 (at node 34)
Accepted flit rate average= 0.120786
	minimum = 0.018 (at node 18)
	maximum = 0.318 (at node 22)
Injected packet length average = 17.9762
Accepted packet length average = 18.1038
Total in-flight flits = 1170 (0 measured)
latency change    = 0.012255
throughput change = 0.0322755
Warmed up ...Time used is 3000 cycles
Class 0:
Packet latency average = 74.7317
	minimum = 23
	maximum = 421
Network latency average = 73.5538
	minimum = 23
	maximum = 421
Slowest packet = 4023
Flit latency average = 40.9517
	minimum = 6
	maximum = 404
Slowest flit = 72431
Fragmentation average = 31.2223
	minimum = 0
	maximum = 376
Injected packet rate average = 0.00718229
	minimum = 0.002 (at node 28)
	maximum = 0.018 (at node 115)
Accepted packet rate average = 0.00719792
	minimum = 0.001 (at node 121)
	maximum = 0.015 (at node 6)
Injected flit rate average = 0.129193
	minimum = 0.036 (at node 28)
	maximum = 0.324 (at node 115)
Accepted flit rate average= 0.129229
	minimum = 0.019 (at node 121)
	maximum = 0.258 (at node 6)
Injected packet length average = 17.9877
Accepted packet length average = 17.9537
Total in-flight flits = 1180 (1180 measured)
latency change    = 0.00138166
throughput change = 0.0653313
Class 0:
Packet latency average = 74.7867
	minimum = 23
	maximum = 421
Network latency average = 73.7436
	minimum = 23
	maximum = 421
Slowest packet = 4023
Flit latency average = 41.0796
	minimum = 6
	maximum = 404
Slowest flit = 72431
Fragmentation average = 31.0335
	minimum = 0
	maximum = 376
Injected packet rate average = 0.00692969
	minimum = 0.0025 (at node 2)
	maximum = 0.0115 (at node 5)
Accepted packet rate average = 0.00702344
	minimum = 0.003 (at node 184)
	maximum = 0.0115 (at node 63)
Injected flit rate average = 0.124703
	minimum = 0.045 (at node 2)
	maximum = 0.207 (at node 5)
Accepted flit rate average= 0.125414
	minimum = 0.054 (at node 184)
	maximum = 0.2035 (at node 63)
Injected packet length average = 17.9955
Accepted packet length average = 17.8565
Total in-flight flits = 909 (909 measured)
latency change    = 0.000735528
throughput change = 0.0304201
Class 0:
Packet latency average = 74.6157
	minimum = 23
	maximum = 421
Network latency average = 73.5256
	minimum = 23
	maximum = 421
Slowest packet = 4023
Flit latency average = 40.8826
	minimum = 6
	maximum = 404
Slowest flit = 72431
Fragmentation average = 30.9057
	minimum = 0
	maximum = 376
Injected packet rate average = 0.0068941
	minimum = 0.003 (at node 112)
	maximum = 0.0106667 (at node 191)
Accepted packet rate average = 0.00687847
	minimum = 0.00366667 (at node 91)
	maximum = 0.011 (at node 187)
Injected flit rate average = 0.124269
	minimum = 0.054 (at node 112)
	maximum = 0.195 (at node 191)
Accepted flit rate average= 0.123845
	minimum = 0.0623333 (at node 153)
	maximum = 0.195 (at node 34)
Injected packet length average = 18.0254
Accepted packet length average = 18.0048
Total in-flight flits = 1313 (1313 measured)
latency change    = 0.00229085
throughput change = 0.0126656
Class 0:
Packet latency average = 76.6331
	minimum = 23
	maximum = 421
Network latency average = 75.5376
	minimum = 23
	maximum = 421
Slowest packet = 4023
Flit latency average = 42.092
	minimum = 6
	maximum = 424
Slowest flit = 153608
Fragmentation average = 32.5171
	minimum = 0
	maximum = 376
Injected packet rate average = 0.006875
	minimum = 0.0035 (at node 112)
	maximum = 0.01025 (at node 69)
Accepted packet rate average = 0.00685807
	minimum = 0.00425 (at node 91)
	maximum = 0.0115 (at node 16)
Injected flit rate average = 0.123779
	minimum = 0.063 (at node 112)
	maximum = 0.186 (at node 191)
Accepted flit rate average= 0.123637
	minimum = 0.0765 (at node 91)
	maximum = 0.20875 (at node 16)
Injected packet length average = 18.0042
Accepted packet length average = 18.0279
Total in-flight flits = 1257 (1257 measured)
latency change    = 0.0263243
throughput change = 0.00168855
Draining all recorded packets ...
Draining remaining packets ...
Time taken is 7260 cycles
====== Overall Traffic Statistics ======
====== Traffic class 0 ======
Packet latency average = 77.3772 (1 samples)
	minimum = 23 (1 samples)
	maximum = 503 (1 samples)
Network latency average = 76.2869 (1 samples)
	minimum = 23 (1 samples)
	maximum = 483 (1 samples)
Flit latency average = 42.7534 (1 samples)
	minimum = 6 (1 samples)
	maximum = 466 (1 samples)
Fragmentation average = 33.1187 (1 samples)
	minimum = 0 (1 samples)
	maximum = 440 (1 samples)
Injected packet rate average = 0.006875 (1 samples)
	minimum = 0.0035 (1 samples)
	maximum = 0.01025 (1 samples)
Accepted packet rate average = 0.00685807 (1 samples)
	minimum = 0.00425 (1 samples)
	maximum = 0.0115 (1 samples)
Injected flit rate average = 0.123779 (1 samples)
	minimum = 0.063 (1 samples)
	maximum = 0.186 (1 samples)
Accepted flit rate average = 0.123637 (1 samples)
	minimum = 0.0765 (1 samples)
	maximum = 0.20875 (1 samples)
Injected packet size average = 18.0042 (1 samples)
Accepted packet size average = 18.0279 (1 samples)
Hops average = 5.07574 (1 samples)
Total run time 3.43807
