BEGIN Configuration File: networks/mezzanine_config
topology = mezzanine;
n = 12;

routing_function = multipath;
internal_speedup = 2.0;
latency_thres = 100000.0;
use_read_write = 0;

sample_period = 1000;
injection_rate = 0.5;
packet_size = 18;

noq = 1;
routing_delay = 0;
vc_alloc_delay = 1;
sw_alloc_delay = 1;
st_final_delay = 1;
vc_allocator = islip; 
sw_allocator = islip;
alloc_iters  = 4;
num_vcs     = 12;
buffer_policy = private; // private or shared
buf_size = -1; // -1 for buffer_policy = private;
vc_buf_size = 4096; // size of each VOQ with buffer_policy = private
output_buffer_size = -1;


traffic = uniform;

//mezW = 0.0;
//mezPredefinedPatternType = shift-inter; //shift-qfdb

END Configuration File: networks/mezzanine_config
OVERRIDE Parameter: injection_rate=0.046687
OVERRIDE Parameter: routing_function=multipath
OVERRIDE Parameter: num_vcs=64
OVERRIDE Parameter: vc_buf_size=1024
OVERRIDE Parameter: internal_speedup=1.0
OVERRIDE Parameter: injection_process=bernoulli
OVERRIDE Parameter: sim_type=latency
OVERRIDE Parameter: burst_alpha=0.0038461538
OVERRIDE Parameter: burst_beta=0.1
network: network_0
========================== Routing table  =====================
Number of Subnets: 1
Class 0:
Packet latency average = 337.252
	minimum = 25
	maximum = 951
Network latency average = 318.551
	minimum = 23
	maximum = 941
Slowest packet = 312
Flit latency average = 248.57
	minimum = 6
	maximum = 971
Slowest flit = 1789
Fragmentation average = 191.893
	minimum = 0
	maximum = 834
Injected packet rate average = 0.0446667
	minimum = 0.028 (at node 186)
	maximum = 0.055 (at node 35)
Accepted packet rate average = 0.0110417
	minimum = 0.004 (at node 30)
	maximum = 0.02 (at node 175)
Injected flit rate average = 0.797755
	minimum = 0.504 (at node 186)
	maximum = 0.986 (at node 119)
Accepted flit rate average= 0.237984
	minimum = 0.11 (at node 153)
	maximum = 0.412 (at node 34)
Injected packet length average = 17.8602
Accepted packet length average = 21.5533
Total in-flight flits = 108675 (0 measured)
latency change    = 1
throughput change = 1
Class 0:
Packet latency average = 590.297
	minimum = 25
	maximum = 1921
Network latency average = 564.121
	minimum = 23
	maximum = 1919
Slowest packet = 381
Flit latency average = 480.695
	minimum = 6
	maximum = 1913
Slowest flit = 9087
Fragmentation average = 253.023
	minimum = 0
	maximum = 1723
Injected packet rate average = 0.0457656
	minimum = 0.0315 (at node 10)
	maximum = 0.055 (at node 42)
Accepted packet rate average = 0.0126146
	minimum = 0.007 (at node 10)
	maximum = 0.0195 (at node 76)
Injected flit rate average = 0.820128
	minimum = 0.567 (at node 10)
	maximum = 0.9855 (at node 135)
Accepted flit rate average= 0.253391
	minimum = 0.155 (at node 10)
	maximum = 0.379 (at node 165)
Injected packet length average = 17.9202
Accepted packet length average = 20.0871
Total in-flight flits = 219030 (0 measured)
latency change    = 0.428673
throughput change = 0.0608004
Class 0:
Packet latency average = 1276.86
	minimum = 23
	maximum = 2939
Network latency average = 1241.02
	minimum = 23
	maximum = 2918
Slowest packet = 295
Flit latency average = 1179.02
	minimum = 6
	maximum = 2914
Slowest flit = 8601
Fragmentation average = 337.538
	minimum = 0
	maximum = 2035
Injected packet rate average = 0.0462552
	minimum = 0.029 (at node 100)
	maximum = 0.056 (at node 71)
Accepted packet rate average = 0.0149427
	minimum = 0.007 (at node 79)
	maximum = 0.027 (at node 50)
Injected flit rate average = 0.832729
	minimum = 0.527 (at node 100)
	maximum = 1 (at node 1)
Accepted flit rate average= 0.271646
	minimum = 0.14 (at node 76)
	maximum = 0.473 (at node 15)
Injected packet length average = 18.0029
Accepted packet length average = 18.1792
Total in-flight flits = 326732 (0 measured)
latency change    = 0.537697
throughput change = 0.0672022
Warmed up ...Time used is 3000 cycles
Class 0:
Packet latency average = 101.793
	minimum = 25
	maximum = 808
Network latency average = 55.9687
	minimum = 23
	maximum = 808
Slowest packet = 27922
Flit latency average = 1661.48
	minimum = 6
	maximum = 3872
Slowest flit = 12977
Fragmentation average = 17.9505
	minimum = 0
	maximum = 78
Injected packet rate average = 0.0473802
	minimum = 0.031 (at node 118)
	maximum = 0.056 (at node 3)
Accepted packet rate average = 0.0155625
	minimum = 0.004 (at node 92)
	maximum = 0.027 (at node 83)
Injected flit rate average = 0.85249
	minimum = 0.541 (at node 158)
	maximum = 1 (at node 3)
Accepted flit rate average= 0.282786
	minimum = 0.125 (at node 52)
	maximum = 0.492 (at node 83)
Injected packet length average = 17.9925
Accepted packet length average = 18.171
Total in-flight flits = 436183 (149667 measured)
latency change    = 11.5438
throughput change = 0.0393959
Class 0:
Packet latency average = 103.739
	minimum = 25
	maximum = 1825
Network latency average = 57.431
	minimum = 23
	maximum = 1825
Slowest packet = 27440
Flit latency average = 1951.11
	minimum = 6
	maximum = 4859
Slowest flit = 16566
Fragmentation average = 17.7735
	minimum = 0
	maximum = 290
Injected packet rate average = 0.0469505
	minimum = 0.035 (at node 31)
	maximum = 0.0555 (at node 92)
Accepted packet rate average = 0.0155313
	minimum = 0.0085 (at node 55)
	maximum = 0.022 (at node 182)
Injected flit rate average = 0.845125
	minimum = 0.628 (at node 31)
	maximum = 1 (at node 109)
Accepted flit rate average= 0.279951
	minimum = 0.171 (at node 52)
	maximum = 0.3895 (at node 90)
Injected packet length average = 18.0003
Accepted packet length average = 18.025
Total in-flight flits = 543753 (296383 measured)
latency change    = 0.0187649
throughput change = 0.0101301
Class 0:
Packet latency average = 145.374
	minimum = 23
	maximum = 3000
Network latency average = 100.251
	minimum = 23
	maximum = 2951
Slowest packet = 26753
Flit latency average = 2242.05
	minimum = 6
	maximum = 5844
Slowest flit = 16570
Fragmentation average = 21.7757
	minimum = 0
	maximum = 540
Injected packet rate average = 0.0468837
	minimum = 0.036 (at node 31)
	maximum = 0.0553333 (at node 171)
Accepted packet rate average = 0.0154149
	minimum = 0.0103333 (at node 52)
	maximum = 0.0203333 (at node 182)
Injected flit rate average = 0.843799
	minimum = 0.644 (at node 31)
	maximum = 0.997333 (at node 171)
Accepted flit rate average= 0.277682
	minimum = 0.186333 (at node 52)
	maximum = 0.361667 (at node 47)
Injected packet length average = 17.9977
Accepted packet length average = 18.0139
Total in-flight flits = 652877 (443352 measured)
latency change    = 0.286396
throughput change = 0.00816843
Class 0:
Packet latency average = 271.251
	minimum = 23
	maximum = 4165
Network latency average = 224.831
	minimum = 23
	maximum = 3960
Slowest packet = 26843
Flit latency average = 2528.36
	minimum = 6
	maximum = 6731
Slowest flit = 22962
Fragmentation average = 32.3469
	minimum = 0
	maximum = 1060
Injected packet rate average = 0.0468867
	minimum = 0.03725 (at node 31)
	maximum = 0.0555 (at node 171)
Accepted packet rate average = 0.0153854
	minimum = 0.01025 (at node 52)
	maximum = 0.02 (at node 129)
Injected flit rate average = 0.843893
	minimum = 0.6705 (at node 31)
	maximum = 0.998 (at node 171)
Accepted flit rate average= 0.275831
	minimum = 0.17475 (at node 52)
	maximum = 0.35475 (at node 93)
Injected packet length average = 17.9986
Accepted packet length average = 17.9281
Total in-flight flits = 763056 (588765 measured)
latency change    = 0.464061
throughput change = 0.00671268
Class 0:
Packet latency average = 525.788
	minimum = 23
	maximum = 4965
Network latency average = 478.544
	minimum = 23
	maximum = 4878
Slowest packet = 26583
Flit latency average = 2820.68
	minimum = 6
	maximum = 7815
Slowest flit = 23397
Fragmentation average = 51.7028
	minimum = 0
	maximum = 1703
Injected packet rate average = 0.0469854
	minimum = 0.0372 (at node 31)
	maximum = 0.0542 (at node 23)
Accepted packet rate average = 0.0152823
	minimum = 0.0106 (at node 52)
	maximum = 0.0188 (at node 129)
Injected flit rate average = 0.845727
	minimum = 0.6694 (at node 31)
	maximum = 0.9744 (at node 23)
Accepted flit rate average= 0.27418
	minimum = 0.1886 (at node 52)
	maximum = 0.345 (at node 129)
Injected packet length average = 17.9998
Accepted packet length average = 17.941
Total in-flight flits = 875427 (733456 measured)
latency change    = 0.484106
throughput change = 0.00601984
Class 0:
Packet latency average = 836.226
	minimum = 23
	maximum = 6065
Network latency average = 790.026
	minimum = 23
	maximum = 5981
Slowest packet = 26483
Flit latency average = 3094.19
	minimum = 6
	maximum = 8762
Slowest flit = 30708
Fragmentation average = 70.2012
	minimum = 0
	maximum = 1703
Injected packet rate average = 0.0469505
	minimum = 0.0378333 (at node 31)
	maximum = 0.0541667 (at node 23)
Accepted packet rate average = 0.0152266
	minimum = 0.0118333 (at node 28)
	maximum = 0.0195 (at node 129)
Injected flit rate average = 0.845043
	minimum = 0.6795 (at node 31)
	maximum = 0.973333 (at node 23)
Accepted flit rate average= 0.272785
	minimum = 0.213833 (at node 28)
	maximum = 0.342667 (at node 129)
Injected packet length average = 17.9986
Accepted packet length average = 17.9151
Total in-flight flits = 986050 (872782 measured)
latency change    = 0.371238
throughput change = 0.0051157
Class 0:
Packet latency average = 1235.6
	minimum = 23
	maximum = 7092
Network latency average = 1190.03
	minimum = 23
	maximum = 6961
Slowest packet = 26494
Flit latency average = 3344.61
	minimum = 6
	maximum = 9764
Slowest flit = 30543
Fragmentation average = 93.1433
	minimum = 0
	maximum = 3209
Injected packet rate average = 0.0468333
	minimum = 0.0395714 (at node 31)
	maximum = 0.0537143 (at node 34)
Accepted packet rate average = 0.0151324
	minimum = 0.0121429 (at node 28)
	maximum = 0.019 (at node 114)
Injected flit rate average = 0.84291
	minimum = 0.712143 (at node 31)
	maximum = 0.966286 (at node 34)
Accepted flit rate average= 0.271344
	minimum = 0.217286 (at node 28)
	maximum = 0.342143 (at node 114)
Injected packet length average = 17.9981
Accepted packet length average = 17.9313
Total in-flight flits = 1095038 (1004908 measured)
latency change    = 0.323221
throughput change = 0.0053105
Draining all recorded packets ...
Class 0:
Remaining flits: 21854 21855 21856 21857 21858 21859 21860 21861 21862 21863 [...] (1203025 flits)
Measured flits: 476190 476191 476192 476193 476194 476195 476196 476197 476198 476199 [...] (993775 flits)
Class 0:
Remaining flits: 21854 21855 21856 21857 21858 21859 21860 21861 21862 21863 [...] (1300961 flits)
Measured flits: 476190 476191 476192 476193 476194 476195 476196 476197 476198 476199 [...] (972104 flits)
Class 0:
Remaining flits: 37065 37066 37067 37068 37069 37070 37071 37072 37073 37074 [...] (1394263 flits)
Measured flits: 476190 476191 476192 476193 476194 476195 476196 476197 476198 476199 [...] (947915 flits)
Class 0:
Remaining flits: 37065 37066 37067 37068 37069 37070 37071 37072 37073 37074 [...] (1481734 flits)
Measured flits: 476190 476191 476192 476193 476194 476195 476196 476197 476198 476199 [...] (921336 flits)
Class 0:
Remaining flits: 63360 63361 63362 63363 63364 63365 63366 63367 63368 63369 [...] (1571435 flits)
Measured flits: 476190 476191 476192 476193 476194 476195 476196 476197 476198 476199 [...] (893708 flits)
Class 0:
Remaining flits: 63360 63361 63362 63363 63364 63365 63366 63367 63368 63369 [...] (1658854 flits)
Measured flits: 476190 476191 476192 476193 476194 476195 476196 476197 476198 476199 [...] (864875 flits)
Class 0:
Remaining flits: 63360 63361 63362 63363 63364 63365 63366 63367 63368 63369 [...] (1751119 flits)
Measured flits: 476190 476191 476192 476193 476194 476195 476196 476197 476198 476199 [...] (834708 flits)
Class 0:
Remaining flits: 63360 63361 63362 63363 63364 63365 63366 63367 63368 63369 [...] (1842825 flits)
Measured flits: 476198 476199 476200 476201 476202 476203 476204 476205 476206 476207 [...] (804496 flits)
Class 0:
Remaining flits: 63360 63361 63362 63363 63364 63365 63366 63367 63368 63369 [...] (1934991 flits)
Measured flits: 476460 476461 476462 476463 476464 476465 476466 476467 476468 476469 [...] (773467 flits)
Class 0:
Remaining flits: 63360 63361 63362 63363 63364 63365 63366 63367 63368 63369 [...] (2028883 flits)
Measured flits: 476460 476461 476462 476463 476464 476465 476466 476467 476468 476469 [...] (742495 flits)
Class 0:
Remaining flits: 63360 63361 63362 63363 63364 63365 63366 63367 63368 63369 [...] (2123726 flits)
Measured flits: 476460 476461 476462 476463 476464 476465 476466 476467 476468 476469 [...] (711278 flits)
Class 0:
Remaining flits: 63360 63361 63362 63363 63364 63365 63366 63367 63368 63369 [...] (2218675 flits)
Measured flits: 476460 476461 476462 476463 476464 476465 476466 476467 476468 476469 [...] (679516 flits)
Class 0:
Remaining flits: 89406 89407 89408 89409 89410 89411 89412 89413 89414 89415 [...] (2310449 flits)
Measured flits: 476460 476461 476462 476463 476464 476465 476466 476467 476468 476469 [...] (648162 flits)
Class 0:
Remaining flits: 89406 89407 89408 89409 89410 89411 89412 89413 89414 89415 [...] (2404302 flits)
Measured flits: 476460 476461 476462 476463 476464 476465 476466 476467 476468 476469 [...] (617078 flits)
Class 0:
Remaining flits: 89406 89407 89408 89409 89410 89411 89412 89413 89414 89415 [...] (2497399 flits)
Measured flits: 476460 476461 476462 476463 476464 476465 476466 476467 476468 476469 [...] (586175 flits)
Class 0:
Remaining flits: 89406 89407 89408 89409 89410 89411 89412 89413 89414 89415 [...] (2592648 flits)
Measured flits: 476460 476461 476462 476463 476464 476465 476466 476467 476468 476469 [...] (556013 flits)
Class 0:
Remaining flits: 89406 89407 89408 89409 89410 89411 89412 89413 89414 89415 [...] (2685860 flits)
Measured flits: 476460 476461 476462 476463 476464 476465 476466 476467 476468 476469 [...] (526667 flits)
Class 0:
Remaining flits: 89406 89407 89408 89409 89410 89411 89412 89413 89414 89415 [...] (2781267 flits)
Measured flits: 476460 476461 476462 476463 476464 476465 476466 476467 476468 476469 [...] (498056 flits)
Class 0:
Remaining flits: 89406 89407 89408 89409 89410 89411 89412 89413 89414 89415 [...] (2876141 flits)
Measured flits: 476460 476461 476462 476463 476464 476465 476466 476467 476468 476469 [...] (469636 flits)
Class 0:
Remaining flits: 89406 89407 89408 89409 89410 89411 89412 89413 89414 89415 [...] (2971067 flits)
Measured flits: 476460 476461 476462 476463 476464 476465 476466 476467 476468 476469 [...] (441913 flits)
Class 0:
Remaining flits: 89406 89407 89408 89409 89410 89411 89412 89413 89414 89415 [...] (3066134 flits)
Measured flits: 476460 476461 476462 476463 476464 476465 476466 476467 476468 476469 [...] (415136 flits)
Class 0:
Remaining flits: 89406 89407 89408 89409 89410 89411 89412 89413 89414 89415 [...] (3158408 flits)
Measured flits: 476460 476461 476462 476463 476464 476465 476466 476467 476468 476469 [...] (389086 flits)
Class 0:
Remaining flits: 89406 89407 89408 89409 89410 89411 89412 89413 89414 89415 [...] (3251953 flits)
Measured flits: 476460 476461 476462 476463 476464 476465 476466 476467 476468 476469 [...] (364128 flits)
Class 0:
Remaining flits: 89406 89407 89408 89409 89410 89411 89412 89413 89414 89415 [...] (3345866 flits)
Measured flits: 476460 476461 476462 476463 476464 476465 476466 476467 476468 476469 [...] (339519 flits)
Class 0:
Remaining flits: 89406 89407 89408 89409 89410 89411 89412 89413 89414 89415 [...] (3439582 flits)
Measured flits: 476460 476461 476462 476463 476464 476465 476466 476467 476468 476469 [...] (316388 flits)
Class 0:
Remaining flits: 149598 149599 149600 149601 149602 149603 149604 149605 149606 149607 [...] (3533912 flits)
Measured flits: 476460 476461 476462 476463 476464 476465 476466 476467 476468 476469 [...] (294002 flits)
Class 0:
Remaining flits: 149598 149599 149600 149601 149602 149603 149604 149605 149606 149607 [...] (3625313 flits)
Measured flits: 476460 476461 476462 476463 476464 476465 476466 476467 476468 476469 [...] (274272 flits)
Class 0:
Remaining flits: 149598 149599 149600 149601 149602 149603 149604 149605 149606 149607 [...] (3715498 flits)
Measured flits: 480636 480637 480638 480639 480640 480641 480642 480643 480644 480645 [...] (254692 flits)
Class 0:
Remaining flits: 149598 149599 149600 149601 149602 149603 149604 149605 149606 149607 [...] (3796321 flits)
Measured flits: 480636 480637 480638 480639 480640 480641 480642 480643 480644 480645 [...] (235920 flits)
Class 0:
Remaining flits: 149598 149599 149600 149601 149602 149603 149604 149605 149606 149607 [...] (3862534 flits)
Measured flits: 480636 480637 480638 480639 480640 480641 480642 480643 480644 480645 [...] (218796 flits)
Class 0:
Remaining flits: 149598 149599 149600 149601 149602 149603 149604 149605 149606 149607 [...] (3910208 flits)
Measured flits: 480636 480637 480638 480639 480640 480641 480642 480643 480644 480645 [...] (201647 flits)
Class 0:
Remaining flits: 149598 149599 149600 149601 149602 149603 149604 149605 149606 149607 [...] (3940570 flits)
Measured flits: 492516 492517 492518 492519 492520 492521 492522 492523 492524 492525 [...] (187420 flits)
Class 0:
Remaining flits: 149598 149599 149600 149601 149602 149603 149604 149605 149606 149607 [...] (3961289 flits)
Measured flits: 492516 492517 492518 492519 492520 492521 492522 492523 492524 492525 [...] (174524 flits)
Class 0:
Remaining flits: 149598 149599 149600 149601 149602 149603 149604 149605 149606 149607 [...] (3974107 flits)
Measured flits: 492516 492517 492518 492519 492520 492521 492522 492523 492524 492525 [...] (162026 flits)
Class 0:
Remaining flits: 149598 149599 149600 149601 149602 149603 149604 149605 149606 149607 [...] (3985882 flits)
Measured flits: 492516 492517 492518 492519 492520 492521 492522 492523 492524 492525 [...] (149067 flits)
Class 0:
Remaining flits: 149598 149599 149600 149601 149602 149603 149604 149605 149606 149607 [...] (3996780 flits)
Measured flits: 492516 492517 492518 492519 492520 492521 492522 492523 492524 492525 [...] (137886 flits)
Class 0:
Remaining flits: 149600 149601 149602 149603 149604 149605 149606 149607 149608 149609 [...] (4008163 flits)
Measured flits: 492525 492526 492527 492528 492529 492530 492531 492532 492533 502434 [...] (127722 flits)
Class 0:
Remaining flits: 149600 149601 149602 149603 149604 149605 149606 149607 149608 149609 [...] (4015649 flits)
Measured flits: 492525 492526 492527 492528 492529 492530 492531 492532 492533 502434 [...] (117934 flits)
Class 0:
Remaining flits: 149600 149601 149602 149603 149604 149605 149606 149607 149608 149609 [...] (4027296 flits)
Measured flits: 502434 502435 502436 502437 502438 502439 502440 502441 502442 502443 [...] (108856 flits)
Class 0:
Remaining flits: 149600 149601 149602 149603 149604 149605 149606 149607 149608 149609 [...] (4039879 flits)
Measured flits: 513900 513901 513902 513903 513904 513905 513906 513907 513908 513909 [...] (100093 flits)
Class 0:
Remaining flits: 458226 458227 458228 458229 458230 458231 458232 458233 458234 458235 [...] (4052519 flits)
Measured flits: 513900 513901 513902 513903 513904 513905 513906 513907 513908 513909 [...] (91664 flits)
Class 0:
Remaining flits: 458226 458227 458228 458229 458230 458231 458232 458233 458234 458235 [...] (4063687 flits)
Measured flits: 530424 530425 530426 530427 530428 530429 530430 530431 530432 530433 [...] (84793 flits)
Class 0:
Remaining flits: 458226 458227 458228 458229 458230 458231 458232 458233 458234 458235 [...] (4072170 flits)
Measured flits: 530424 530425 530426 530427 530428 530429 530430 530431 530432 530433 [...] (78446 flits)
Class 0:
Remaining flits: 458226 458227 458228 458229 458230 458231 458232 458233 458234 458235 [...] (4086336 flits)
Measured flits: 530424 530425 530426 530427 530428 530429 530430 530431 530432 530433 [...] (72177 flits)
Class 0:
Remaining flits: 458226 458227 458228 458229 458230 458231 458232 458233 458234 458235 [...] (4097173 flits)
Measured flits: 530424 530425 530426 530427 530428 530429 530430 530431 530432 530433 [...] (65601 flits)
Class 0:
Remaining flits: 530424 530425 530426 530427 530428 530429 530430 530431 530432 530433 [...] (4107480 flits)
Measured flits: 530424 530425 530426 530427 530428 530429 530430 530431 530432 530433 [...] (60648 flits)
Class 0:
Remaining flits: 530424 530425 530426 530427 530428 530429 530430 530431 530432 530433 [...] (4118402 flits)
Measured flits: 530424 530425 530426 530427 530428 530429 530430 530431 530432 530433 [...] (56200 flits)
Class 0:
Remaining flits: 562032 562033 562034 562035 562036 562037 562038 562039 562040 562041 [...] (4129166 flits)
Measured flits: 562032 562033 562034 562035 562036 562037 562038 562039 562040 562041 [...] (51602 flits)
Class 0:
Remaining flits: 562032 562033 562034 562035 562036 562037 562038 562039 562040 562041 [...] (4141280 flits)
Measured flits: 562032 562033 562034 562035 562036 562037 562038 562039 562040 562041 [...] (47259 flits)
Class 0:
Remaining flits: 562032 562033 562034 562035 562036 562037 562038 562039 562040 562041 [...] (4152135 flits)
Measured flits: 562032 562033 562034 562035 562036 562037 562038 562039 562040 562041 [...] (43088 flits)
Class 0:
Remaining flits: 562032 562033 562034 562035 562036 562037 562038 562039 562040 562041 [...] (4161754 flits)
Measured flits: 562032 562033 562034 562035 562036 562037 562038 562039 562040 562041 [...] (38946 flits)
Class 0:
Remaining flits: 562032 562033 562034 562035 562036 562037 562038 562039 562040 562041 [...] (4170326 flits)
Measured flits: 562032 562033 562034 562035 562036 562037 562038 562039 562040 562041 [...] (35082 flits)
Class 0:
Remaining flits: 562032 562033 562034 562035 562036 562037 562038 562039 562040 562041 [...] (4179937 flits)
Measured flits: 562032 562033 562034 562035 562036 562037 562038 562039 562040 562041 [...] (32327 flits)
Class 0:
Remaining flits: 562032 562033 562034 562035 562036 562037 562038 562039 562040 562041 [...] (4193084 flits)
Measured flits: 562032 562033 562034 562035 562036 562037 562038 562039 562040 562041 [...] (29045 flits)
Class 0:
Remaining flits: 562374 562375 562376 562377 562378 562379 562380 562381 562382 562383 [...] (4199870 flits)
Measured flits: 562374 562375 562376 562377 562378 562379 562380 562381 562382 562383 [...] (26231 flits)
Class 0:
Remaining flits: 562374 562375 562376 562377 562378 562379 562380 562381 562382 562383 [...] (4212449 flits)
Measured flits: 562374 562375 562376 562377 562378 562379 562380 562381 562382 562383 [...] (23916 flits)
Class 0:
Remaining flits: 562374 562375 562376 562377 562378 562379 562380 562381 562382 562383 [...] (4222755 flits)
Measured flits: 562374 562375 562376 562377 562378 562379 562380 562381 562382 562383 [...] (21876 flits)
Class 0:
Remaining flits: 655830 655831 655832 655833 655834 655835 655836 655837 655838 655839 [...] (4231125 flits)
Measured flits: 655830 655831 655832 655833 655834 655835 655836 655837 655838 655839 [...] (19926 flits)
Class 0:
Remaining flits: 655830 655831 655832 655833 655834 655835 655836 655837 655838 655839 [...] (4242551 flits)
Measured flits: 655830 655831 655832 655833 655834 655835 655836 655837 655838 655839 [...] (17997 flits)
Class 0:
Remaining flits: 655830 655831 655832 655833 655834 655835 655836 655837 655838 655839 [...] (4250932 flits)
Measured flits: 655830 655831 655832 655833 655834 655835 655836 655837 655838 655839 [...] (16465 flits)
Class 0:
Remaining flits: 655830 655831 655832 655833 655834 655835 655836 655837 655838 655839 [...] (4260620 flits)
Measured flits: 655830 655831 655832 655833 655834 655835 655836 655837 655838 655839 [...] (15001 flits)
Class 0:
Remaining flits: 655830 655831 655832 655833 655834 655835 655836 655837 655838 655839 [...] (4272806 flits)
Measured flits: 655830 655831 655832 655833 655834 655835 655836 655837 655838 655839 [...] (13433 flits)
Class 0:
Remaining flits: 655830 655831 655832 655833 655834 655835 655836 655837 655838 655839 [...] (4282725 flits)
Measured flits: 655830 655831 655832 655833 655834 655835 655836 655837 655838 655839 [...] (12204 flits)
Class 0:
Remaining flits: 824382 824383 824384 824385 824386 824387 824388 824389 824390 824391 [...] (4292046 flits)
Measured flits: 824382 824383 824384 824385 824386 824387 824388 824389 824390 824391 [...] (10994 flits)
Class 0:
Remaining flits: 824382 824383 824384 824385 824386 824387 824388 824389 824390 824391 [...] (4303401 flits)
Measured flits: 824382 824383 824384 824385 824386 824387 824388 824389 824390 824391 [...] (10117 flits)
Class 0:
Remaining flits: 824382 824383 824384 824385 824386 824387 824388 824389 824390 824391 [...] (4311363 flits)
Measured flits: 824382 824383 824384 824385 824386 824387 824388 824389 824390 824391 [...] (8944 flits)
Class 0:
Remaining flits: 892854 892855 892856 892857 892858 892859 892860 892861 892862 892863 [...] (4319980 flits)
Measured flits: 892854 892855 892856 892857 892858 892859 892860 892861 892862 892863 [...] (7882 flits)
Class 0:
Remaining flits: 892854 892855 892856 892857 892858 892859 892860 892861 892862 892863 [...] (4330724 flits)
Measured flits: 892854 892855 892856 892857 892858 892859 892860 892861 892862 892863 [...] (7151 flits)
Class 0:
Remaining flits: 892854 892855 892856 892857 892858 892859 892860 892861 892862 892863 [...] (4342551 flits)
Measured flits: 892854 892855 892856 892857 892858 892859 892860 892861 892862 892863 [...] (6521 flits)
Class 0:
Remaining flits: 892854 892855 892856 892857 892858 892859 892860 892861 892862 892863 [...] (4352674 flits)
Measured flits: 892854 892855 892856 892857 892858 892859 892860 892861 892862 892863 [...] (5912 flits)
Class 0:
Remaining flits: 892854 892855 892856 892857 892858 892859 892860 892861 892862 892863 [...] (4365994 flits)
Measured flits: 892854 892855 892856 892857 892858 892859 892860 892861 892862 892863 [...] (5071 flits)
Class 0:
Remaining flits: 892854 892855 892856 892857 892858 892859 892860 892861 892862 892863 [...] (4374816 flits)
Measured flits: 892854 892855 892856 892857 892858 892859 892860 892861 892862 892863 [...] (4593 flits)
Class 0:
Remaining flits: 892854 892855 892856 892857 892858 892859 892860 892861 892862 892863 [...] (4386454 flits)
Measured flits: 892854 892855 892856 892857 892858 892859 892860 892861 892862 892863 [...] (4074 flits)
Class 0:
Remaining flits: 892854 892855 892856 892857 892858 892859 892860 892861 892862 892863 [...] (4396103 flits)
Measured flits: 892854 892855 892856 892857 892858 892859 892860 892861 892862 892863 [...] (3530 flits)
Class 0:
Remaining flits: 892854 892855 892856 892857 892858 892859 892860 892861 892862 892863 [...] (4404549 flits)
Measured flits: 892854 892855 892856 892857 892858 892859 892860 892861 892862 892863 [...] (2987 flits)
Class 0:
Remaining flits: 892854 892855 892856 892857 892858 892859 892860 892861 892862 892863 [...] (4414174 flits)
Measured flits: 892854 892855 892856 892857 892858 892859 892860 892861 892862 892863 [...] (2483 flits)
Class 0:
Remaining flits: 892854 892855 892856 892857 892858 892859 892860 892861 892862 892863 [...] (4420491 flits)
Measured flits: 892854 892855 892856 892857 892858 892859 892860 892861 892862 892863 [...] (2253 flits)
Class 0:
Remaining flits: 892854 892855 892856 892857 892858 892859 892860 892861 892862 892863 [...] (4431308 flits)
Measured flits: 892854 892855 892856 892857 892858 892859 892860 892861 892862 892863 [...] (2086 flits)
Class 0:
Remaining flits: 892854 892855 892856 892857 892858 892859 892860 892861 892862 892863 [...] (4439643 flits)
Measured flits: 892854 892855 892856 892857 892858 892859 892860 892861 892862 892863 [...] (1982 flits)
Class 0:
Remaining flits: 892854 892855 892856 892857 892858 892859 892860 892861 892862 892863 [...] (4449648 flits)
Measured flits: 892854 892855 892856 892857 892858 892859 892860 892861 892862 892863 [...] (1896 flits)
Class 0:
Remaining flits: 892854 892855 892856 892857 892858 892859 892860 892861 892862 892863 [...] (4455411 flits)
Measured flits: 892854 892855 892856 892857 892858 892859 892860 892861 892862 892863 [...] (1762 flits)
Class 0:
Remaining flits: 1027620 1027621 1027622 1027623 1027624 1027625 1027626 1027627 1027628 1027629 [...] (4467214 flits)
Measured flits: 1027620 1027621 1027622 1027623 1027624 1027625 1027626 1027627 1027628 1027629 [...] (1609 flits)
Class 0:
Remaining flits: 1027620 1027621 1027622 1027623 1027624 1027625 1027626 1027627 1027628 1027629 [...] (4476958 flits)
Measured flits: 1027620 1027621 1027622 1027623 1027624 1027625 1027626 1027627 1027628 1027629 [...] (1350 flits)
Class 0:
Remaining flits: 1027620 1027621 1027622 1027623 1027624 1027625 1027626 1027627 1027628 1027629 [...] (4488280 flits)
Measured flits: 1027620 1027621 1027622 1027623 1027624 1027625 1027626 1027627 1027628 1027629 [...] (1149 flits)
Class 0:
Remaining flits: 1027620 1027621 1027622 1027623 1027624 1027625 1027626 1027627 1027628 1027629 [...] (4499056 flits)
Measured flits: 1027620 1027621 1027622 1027623 1027624 1027625 1027626 1027627 1027628 1027629 [...] (1044 flits)
Class 0:
Remaining flits: 1027620 1027621 1027622 1027623 1027624 1027625 1027626 1027627 1027628 1027629 [...] (4508264 flits)
Measured flits: 1027620 1027621 1027622 1027623 1027624 1027625 1027626 1027627 1027628 1027629 [...] (880 flits)
Class 0:
Remaining flits: 1051437 1051438 1051439 1051440 1051441 1051442 1051443 1051444 1051445 1051446 [...] (4515048 flits)
Measured flits: 1051437 1051438 1051439 1051440 1051441 1051442 1051443 1051444 1051445 1051446 [...] (717 flits)
Class 0:
Remaining flits: 1051437 1051438 1051439 1051440 1051441 1051442 1051443 1051444 1051445 1051446 [...] (4524773 flits)
Measured flits: 1051437 1051438 1051439 1051440 1051441 1051442 1051443 1051444 1051445 1051446 [...] (681 flits)
Class 0:
Remaining flits: 1051437 1051438 1051439 1051440 1051441 1051442 1051443 1051444 1051445 1051446 [...] (4530336 flits)
Measured flits: 1051437 1051438 1051439 1051440 1051441 1051442 1051443 1051444 1051445 1051446 [...] (560 flits)
Class 0:
Remaining flits: 1051437 1051438 1051439 1051440 1051441 1051442 1051443 1051444 1051445 1051446 [...] (4540657 flits)
Measured flits: 1051437 1051438 1051439 1051440 1051441 1051442 1051443 1051444 1051445 1051446 [...] (486 flits)
Class 0:
Remaining flits: 1051437 1051438 1051439 1051440 1051441 1051442 1051443 1051444 1051445 1051446 [...] (4549376 flits)
Measured flits: 1051437 1051438 1051439 1051440 1051441 1051442 1051443 1051444 1051445 1051446 [...] (429 flits)
Class 0:
Remaining flits: 1109052 1109053 1109054 1109055 1109056 1109057 1109058 1109059 1109060 1109061 [...] (4558786 flits)
Measured flits: 1109052 1109053 1109054 1109055 1109056 1109057 1109058 1109059 1109060 1109061 [...] (306 flits)
Class 0:
Remaining flits: 1109052 1109053 1109054 1109055 1109056 1109057 1109058 1109059 1109060 1109061 [...] (4566709 flits)
Measured flits: 1109052 1109053 1109054 1109055 1109056 1109057 1109058 1109059 1109060 1109061 [...] (234 flits)
Class 0:
Remaining flits: 1330794 1330795 1330796 1330797 1330798 1330799 1330800 1330801 1330802 1330803 [...] (4579207 flits)
Measured flits: 1330794 1330795 1330796 1330797 1330798 1330799 1330800 1330801 1330802 1330803 [...] (144 flits)
Class 0:
Remaining flits: 1330794 1330795 1330796 1330797 1330798 1330799 1330800 1330801 1330802 1330803 [...] (4586878 flits)
Measured flits: 1330794 1330795 1330796 1330797 1330798 1330799 1330800 1330801 1330802 1330803 [...] (108 flits)
Class 0:
Remaining flits: 1361358 1361359 1361360 1361361 1361362 1361363 1361364 1361365 1361366 1361367 [...] (4596627 flits)
Measured flits: 1361358 1361359 1361360 1361361 1361362 1361363 1361364 1361365 1361366 1361367 [...] (90 flits)
Class 0:
Remaining flits: 1361358 1361359 1361360 1361361 1361362 1361363 1361364 1361365 1361366 1361367 [...] (4607051 flits)
Measured flits: 1361358 1361359 1361360 1361361 1361362 1361363 1361364 1361365 1361366 1361367 [...] (81 flits)
Class 0:
Remaining flits: 1361358 1361359 1361360 1361361 1361362 1361363 1361364 1361365 1361366 1361367 [...] (4617532 flits)
Measured flits: 1361358 1361359 1361360 1361361 1361362 1361363 1361364 1361365 1361366 1361367 [...] (54 flits)
Class 0:
Remaining flits: 1361358 1361359 1361360 1361361 1361362 1361363 1361364 1361365 1361366 1361367 [...] (4624809 flits)
Measured flits: 1361358 1361359 1361360 1361361 1361362 1361363 1361364 1361365 1361366 1361367 [...] (54 flits)
Class 0:
Remaining flits: 1361358 1361359 1361360 1361361 1361362 1361363 1361364 1361365 1361366 1361367 [...] (4635713 flits)
Measured flits: 1361358 1361359 1361360 1361361 1361362 1361363 1361364 1361365 1361366 1361367 [...] (54 flits)
Class 0:
Remaining flits: 1361358 1361359 1361360 1361361 1361362 1361363 1361364 1361365 1361366 1361367 [...] (4645752 flits)
Measured flits: 1361358 1361359 1361360 1361361 1361362 1361363 1361364 1361365 1361366 1361367 [...] (54 flits)
Class 0:
Remaining flits: 1361358 1361359 1361360 1361361 1361362 1361363 1361364 1361365 1361366 1361367 [...] (4654202 flits)
Measured flits: 1361358 1361359 1361360 1361361 1361362 1361363 1361364 1361365 1361366 1361367 [...] (54 flits)
Class 0:
Remaining flits: 1361358 1361359 1361360 1361361 1361362 1361363 1361364 1361365 1361366 1361367 [...] (4664982 flits)
Measured flits: 1361358 1361359 1361360 1361361 1361362 1361363 1361364 1361365 1361366 1361367 [...] (54 flits)
Class 0:
Remaining flits: 1361358 1361359 1361360 1361361 1361362 1361363 1361364 1361365 1361366 1361367 [...] (4673442 flits)
Measured flits: 1361358 1361359 1361360 1361361 1361362 1361363 1361364 1361365 1361366 1361367 [...] (54 flits)
Class 0:
Remaining flits: 1361358 1361359 1361360 1361361 1361362 1361363 1361364 1361365 1361366 1361367 [...] (4683990 flits)
Measured flits: 1361358 1361359 1361360 1361361 1361362 1361363 1361364 1361365 1361366 1361367 [...] (54 flits)
Class 0:
Remaining flits: 1554516 1554517 1554518 1554519 1554520 1554521 1554522 1554523 1554524 1554525 [...] (4695685 flits)
Measured flits: 1554516 1554517 1554518 1554519 1554520 1554521 1554522 1554523 1554524 1554525 [...] (18 flits)
Class 0:
Remaining flits: 1554519 1554520 1554521 1554522 1554523 1554524 1554525 1554526 1554527 1554528 [...] (4699047 flits)
Measured flits: 1554519 1554520 1554521 1554522 1554523 1554524 1554525 1554526 1554527 1554528 [...] (15 flits)
Draining remaining packets ...
Class 0:
Remaining flits: 1645632 1645633 1645634 1645635 1645636 1645637 1645638 1645639 1645640 1645641 [...] (4665354 flits)
Measured flits: (0 flits)
Class 0:
Remaining flits: 1645632 1645633 1645634 1645635 1645636 1645637 1645638 1645639 1645640 1645641 [...] (4630342 flits)
Measured flits: (0 flits)
Class 0:
Remaining flits: 1645632 1645633 1645634 1645635 1645636 1645637 1645638 1645639 1645640 1645641 [...] (4594526 flits)
Measured flits: (0 flits)
Class 0:
Remaining flits: 1645632 1645633 1645634 1645635 1645636 1645637 1645638 1645639 1645640 1645641 [...] (4559195 flits)
Measured flits: (0 flits)
Class 0:
Remaining flits: 1645632 1645633 1645634 1645635 1645636 1645637 1645638 1645639 1645640 1645641 [...] (4524688 flits)
Measured flits: (0 flits)
Class 0:
Remaining flits: 1645632 1645633 1645634 1645635 1645636 1645637 1645638 1645639 1645640 1645641 [...] (4489624 flits)
Measured flits: (0 flits)
Class 0:
Remaining flits: 1645632 1645633 1645634 1645635 1645636 1645637 1645638 1645639 1645640 1645641 [...] (4454017 flits)
Measured flits: (0 flits)
Class 0:
Remaining flits: 1645632 1645633 1645634 1645635 1645636 1645637 1645638 1645639 1645640 1645641 [...] (4418942 flits)
Measured flits: (0 flits)
Class 0:
Remaining flits: 1645632 1645633 1645634 1645635 1645636 1645637 1645638 1645639 1645640 1645641 [...] (4384657 flits)
Measured flits: (0 flits)
Class 0:
Remaining flits: 1645632 1645633 1645634 1645635 1645636 1645637 1645638 1645639 1645640 1645641 [...] (4350457 flits)
Measured flits: (0 flits)
Class 0:
Remaining flits: 1645632 1645633 1645634 1645635 1645636 1645637 1645638 1645639 1645640 1645641 [...] (4315848 flits)
Measured flits: (0 flits)
Class 0:
Remaining flits: 1645632 1645633 1645634 1645635 1645636 1645637 1645638 1645639 1645640 1645641 [...] (4281953 flits)
Measured flits: (0 flits)
Class 0:
Remaining flits: 1645632 1645633 1645634 1645635 1645636 1645637 1645638 1645639 1645640 1645641 [...] (4247440 flits)
Measured flits: (0 flits)
Class 0:
Remaining flits: 1645632 1645633 1645634 1645635 1645636 1645637 1645638 1645639 1645640 1645641 [...] (4212538 flits)
Measured flits: (0 flits)
Class 0:
Remaining flits: 1645632 1645633 1645634 1645635 1645636 1645637 1645638 1645639 1645640 1645641 [...] (4178375 flits)
Measured flits: (0 flits)
Class 0:
Remaining flits: 1645632 1645633 1645634 1645635 1645636 1645637 1645638 1645639 1645640 1645641 [...] (4144806 flits)
Measured flits: (0 flits)
Class 0:
Remaining flits: 1645632 1645633 1645634 1645635 1645636 1645637 1645638 1645639 1645640 1645641 [...] (4112398 flits)
Measured flits: (0 flits)
Class 0:
Remaining flits: 1645632 1645633 1645634 1645635 1645636 1645637 1645638 1645639 1645640 1645641 [...] (4078144 flits)
Measured flits: (0 flits)
Class 0:
Remaining flits: 1645632 1645633 1645634 1645635 1645636 1645637 1645638 1645639 1645640 1645641 [...] (4043236 flits)
Measured flits: (0 flits)
Class 0:
Remaining flits: 1645632 1645633 1645634 1645635 1645636 1645637 1645638 1645639 1645640 1645641 [...] (4008782 flits)
Measured flits: (0 flits)
Class 0:
Remaining flits: 1645632 1645633 1645634 1645635 1645636 1645637 1645638 1645639 1645640 1645641 [...] (3973822 flits)
Measured flits: (0 flits)
Class 0:
Remaining flits: 1645632 1645633 1645634 1645635 1645636 1645637 1645638 1645639 1645640 1645641 [...] (3939342 flits)
Measured flits: (0 flits)
Class 0:
Remaining flits: 1654110 1654111 1654112 1654113 1654114 1654115 1654116 1654117 1654118 1654119 [...] (3904723 flits)
Measured flits: (0 flits)
Class 0:
Remaining flits: 1654110 1654111 1654112 1654113 1654114 1654115 1654116 1654117 1654118 1654119 [...] (3870262 flits)
Measured flits: (0 flits)
Class 0:
Remaining flits: 1991232 1991233 1991234 1991235 1991236 1991237 1991238 1991239 1991240 1991241 [...] (3835428 flits)
Measured flits: (0 flits)
Class 0:
Remaining flits: 1991232 1991233 1991234 1991235 1991236 1991237 1991238 1991239 1991240 1991241 [...] (3800775 flits)
Measured flits: (0 flits)
Class 0:
Remaining flits: 1991232 1991233 1991234 1991235 1991236 1991237 1991238 1991239 1991240 1991241 [...] (3764734 flits)
Measured flits: (0 flits)
Class 0:
Remaining flits: 1991232 1991233 1991234 1991235 1991236 1991237 1991238 1991239 1991240 1991241 [...] (3730243 flits)
Measured flits: (0 flits)
Class 0:
Remaining flits: 1991232 1991233 1991234 1991235 1991236 1991237 1991238 1991239 1991240 1991241 [...] (3696869 flits)
Measured flits: (0 flits)
Class 0:
Remaining flits: 1991232 1991233 1991234 1991235 1991236 1991237 1991238 1991239 1991240 1991241 [...] (3663042 flits)
Measured flits: (0 flits)
Class 0:
Remaining flits: 1991232 1991233 1991234 1991235 1991236 1991237 1991238 1991239 1991240 1991241 [...] (3629610 flits)
Measured flits: (0 flits)
Class 0:
Remaining flits: 1991232 1991233 1991234 1991235 1991236 1991237 1991238 1991239 1991240 1991241 [...] (3596165 flits)
Measured flits: (0 flits)
Class 0:
Remaining flits: 1991232 1991233 1991234 1991235 1991236 1991237 1991238 1991239 1991240 1991241 [...] (3563416 flits)
Measured flits: (0 flits)
Class 0:
Remaining flits: 1991232 1991233 1991234 1991235 1991236 1991237 1991238 1991239 1991240 1991241 [...] (3531130 flits)
Measured flits: (0 flits)
Class 0:
Remaining flits: 1991232 1991233 1991234 1991235 1991236 1991237 1991238 1991239 1991240 1991241 [...] (3498388 flits)
Measured flits: (0 flits)
Class 0:
Remaining flits: 1991232 1991233 1991234 1991235 1991236 1991237 1991238 1991239 1991240 1991241 [...] (3466439 flits)
Measured flits: (0 flits)
Class 0:
Remaining flits: 1991232 1991233 1991234 1991235 1991236 1991237 1991238 1991239 1991240 1991241 [...] (3433820 flits)
Measured flits: (0 flits)
Class 0:
Remaining flits: 1991232 1991233 1991234 1991235 1991236 1991237 1991238 1991239 1991240 1991241 [...] (3400799 flits)
Measured flits: (0 flits)
Class 0:
Remaining flits: 1991232 1991233 1991234 1991235 1991236 1991237 1991238 1991239 1991240 1991241 [...] (3367947 flits)
Measured flits: (0 flits)
Class 0:
Remaining flits: 1991232 1991233 1991234 1991235 1991236 1991237 1991238 1991239 1991240 1991241 [...] (3335968 flits)
Measured flits: (0 flits)
Class 0:
Remaining flits: 1991232 1991233 1991234 1991235 1991236 1991237 1991238 1991239 1991240 1991241 [...] (3304488 flits)
Measured flits: (0 flits)
Class 0:
Remaining flits: 2363832 2363833 2363834 2363835 2363836 2363837 2363838 2363839 2363840 2363841 [...] (3271948 flits)
Measured flits: (0 flits)
Class 0:
Remaining flits: 2363832 2363833 2363834 2363835 2363836 2363837 2363838 2363839 2363840 2363841 [...] (3238816 flits)
Measured flits: (0 flits)
Class 0:
Remaining flits: 2363832 2363833 2363834 2363835 2363836 2363837 2363838 2363839 2363840 2363841 [...] (3206415 flits)
Measured flits: (0 flits)
Class 0:
Remaining flits: 2363834 2363835 2363836 2363837 2363838 2363839 2363840 2363841 2363842 2363843 [...] (3174405 flits)
Measured flits: (0 flits)
Class 0:
Remaining flits: 2621790 2621791 2621792 2621793 2621794 2621795 2621796 2621797 2621798 2621799 [...] (3142675 flits)
Measured flits: (0 flits)
Class 0:
Remaining flits: 2621790 2621791 2621792 2621793 2621794 2621795 2621796 2621797 2621798 2621799 [...] (3111897 flits)
Measured flits: (0 flits)
Class 0:
Remaining flits: 2621790 2621791 2621792 2621793 2621794 2621795 2621796 2621797 2621798 2621799 [...] (3080871 flits)
Measured flits: (0 flits)
Class 0:
Remaining flits: 2621790 2621791 2621792 2621793 2621794 2621795 2621796 2621797 2621798 2621799 [...] (3049430 flits)
Measured flits: (0 flits)
Class 0:
Remaining flits: 2621790 2621791 2621792 2621793 2621794 2621795 2621796 2621797 2621798 2621799 [...] (3018399 flits)
Measured flits: (0 flits)
Class 0:
Remaining flits: 2621790 2621791 2621792 2621793 2621794 2621795 2621796 2621797 2621798 2621799 [...] (2986669 flits)
Measured flits: (0 flits)
Class 0:
Remaining flits: 2621790 2621791 2621792 2621793 2621794 2621795 2621796 2621797 2621798 2621799 [...] (2953895 flits)
Measured flits: (0 flits)
Class 0:
Remaining flits: 2621790 2621791 2621792 2621793 2621794 2621795 2621796 2621797 2621798 2621799 [...] (2921748 flits)
Measured flits: (0 flits)
Class 0:
Remaining flits: 2799270 2799271 2799272 2799273 2799274 2799275 2799276 2799277 2799278 2799279 [...] (2889800 flits)
Measured flits: (0 flits)
Class 0:
Remaining flits: 2799270 2799271 2799272 2799273 2799274 2799275 2799276 2799277 2799278 2799279 [...] (2858732 flits)
Measured flits: (0 flits)
Class 0:
Remaining flits: 2799270 2799271 2799272 2799273 2799274 2799275 2799276 2799277 2799278 2799279 [...] (2828576 flits)
Measured flits: (0 flits)
Class 0:
Remaining flits: 2835522 2835523 2835524 2835525 2835526 2835527 2835528 2835529 2835530 2835531 [...] (2798568 flits)
Measured flits: (0 flits)
Class 0:
Remaining flits: 2835522 2835523 2835524 2835525 2835526 2835527 2835528 2835529 2835530 2835531 [...] (2767848 flits)
Measured flits: (0 flits)
Class 0:
Remaining flits: 2835522 2835523 2835524 2835525 2835526 2835527 2835528 2835529 2835530 2835531 [...] (2736398 flits)
Measured flits: (0 flits)
Class 0:
Remaining flits: 2835522 2835523 2835524 2835525 2835526 2835527 2835528 2835529 2835530 2835531 [...] (2705023 flits)
Measured flits: (0 flits)
Class 0:
Remaining flits: 2835522 2835523 2835524 2835525 2835526 2835527 2835528 2835529 2835530 2835531 [...] (2673908 flits)
Measured flits: (0 flits)
Class 0:
Remaining flits: 2835522 2835523 2835524 2835525 2835526 2835527 2835528 2835529 2835530 2835531 [...] (2643401 flits)
Measured flits: (0 flits)
Class 0:
Remaining flits: 2835522 2835523 2835524 2835525 2835526 2835527 2835528 2835529 2835530 2835531 [...] (2611312 flits)
Measured flits: (0 flits)
Class 0:
Remaining flits: 2835522 2835523 2835524 2835525 2835526 2835527 2835528 2835529 2835530 2835531 [...] (2578900 flits)
Measured flits: (0 flits)
Class 0:
Remaining flits: 2835522 2835523 2835524 2835525 2835526 2835527 2835528 2835529 2835530 2835531 [...] (2547746 flits)
Measured flits: (0 flits)
Class 0:
Remaining flits: 2835522 2835523 2835524 2835525 2835526 2835527 2835528 2835529 2835530 2835531 [...] (2516980 flits)
Measured flits: (0 flits)
Class 0:
Remaining flits: 2835522 2835523 2835524 2835525 2835526 2835527 2835528 2835529 2835530 2835531 [...] (2486457 flits)
Measured flits: (0 flits)
Class 0:
Remaining flits: 2835522 2835523 2835524 2835525 2835526 2835527 2835528 2835529 2835530 2835531 [...] (2455401 flits)
Measured flits: (0 flits)
Class 0:
Remaining flits: 2835522 2835523 2835524 2835525 2835526 2835527 2835528 2835529 2835530 2835531 [...] (2424370 flits)
Measured flits: (0 flits)
Class 0:
Remaining flits: 2835522 2835523 2835524 2835525 2835526 2835527 2835528 2835529 2835530 2835531 [...] (2393856 flits)
Measured flits: (0 flits)
Class 0:
Remaining flits: 2835522 2835523 2835524 2835525 2835526 2835527 2835528 2835529 2835530 2835531 [...] (2363186 flits)
Measured flits: (0 flits)
Class 0:
Remaining flits: 2916234 2916235 2916236 2916237 2916238 2916239 2916240 2916241 2916242 2916243 [...] (2332031 flits)
Measured flits: (0 flits)
Class 0:
Remaining flits: 2916234 2916235 2916236 2916237 2916238 2916239 2916240 2916241 2916242 2916243 [...] (2301330 flits)
Measured flits: (0 flits)
Class 0:
Remaining flits: 2916234 2916235 2916236 2916237 2916238 2916239 2916240 2916241 2916242 2916243 [...] (2270522 flits)
Measured flits: (0 flits)
Class 0:
Remaining flits: 2916234 2916235 2916236 2916237 2916238 2916239 2916240 2916241 2916242 2916243 [...] (2238952 flits)
Measured flits: (0 flits)
Class 0:
Remaining flits: 2916234 2916235 2916236 2916237 2916238 2916239 2916240 2916241 2916242 2916243 [...] (2208284 flits)
Measured flits: (0 flits)
Class 0:
Remaining flits: 2916234 2916235 2916236 2916237 2916238 2916239 2916240 2916241 2916242 2916243 [...] (2177722 flits)
Measured flits: (0 flits)
Class 0:
Remaining flits: 2916234 2916235 2916236 2916237 2916238 2916239 2916240 2916241 2916242 2916243 [...] (2147984 flits)
Measured flits: (0 flits)
Class 0:
Remaining flits: 2916251 3070818 3070819 3070820 3070821 3070822 3070823 3070824 3070825 3070826 [...] (2118526 flits)
Measured flits: (0 flits)
Class 0:
Remaining flits: 3232602 3232603 3232604 3232605 3232606 3232607 3232608 3232609 3232610 3232611 [...] (2087369 flits)
Measured flits: (0 flits)
Class 0:
Remaining flits: 3232602 3232603 3232604 3232605 3232606 3232607 3232608 3232609 3232610 3232611 [...] (2056227 flits)
Measured flits: (0 flits)
Class 0:
Remaining flits: 3232616 3232617 3232618 3232619 3275838 3275839 3275840 3275841 3275842 3275843 [...] (2024516 flits)
Measured flits: (0 flits)
Class 0:
Remaining flits: 3275838 3275839 3275840 3275841 3275842 3275843 3275844 3275845 3275846 3275847 [...] (1991962 flits)
Measured flits: (0 flits)
Class 0:
Remaining flits: 3275838 3275839 3275840 3275841 3275842 3275843 3275844 3275845 3275846 3275847 [...] (1959923 flits)
Measured flits: (0 flits)
Class 0:
Remaining flits: 3275838 3275839 3275840 3275841 3275842 3275843 3275844 3275845 3275846 3275847 [...] (1927568 flits)
Measured flits: (0 flits)
Class 0:
Remaining flits: 3301020 3301021 3301022 3301023 3301024 3301025 3301026 3301027 3301028 3301029 [...] (1895191 flits)
Measured flits: (0 flits)
Class 0:
Remaining flits: 3301020 3301021 3301022 3301023 3301024 3301025 3301026 3301027 3301028 3301029 [...] (1864037 flits)
Measured flits: (0 flits)
Class 0:
Remaining flits: 3301020 3301021 3301022 3301023 3301024 3301025 3301026 3301027 3301028 3301029 [...] (1833655 flits)
Measured flits: (0 flits)
Class 0:
Remaining flits: 3301020 3301021 3301022 3301023 3301024 3301025 3301026 3301027 3301028 3301029 [...] (1802607 flits)
Measured flits: (0 flits)
Class 0:
Remaining flits: 3301020 3301021 3301022 3301023 3301024 3301025 3301026 3301027 3301028 3301029 [...] (1770712 flits)
Measured flits: (0 flits)
Class 0:
Remaining flits: 3301020 3301021 3301022 3301023 3301024 3301025 3301026 3301027 3301028 3301029 [...] (1738864 flits)
Measured flits: (0 flits)
Class 0:
Remaining flits: 3301020 3301021 3301022 3301023 3301024 3301025 3301026 3301027 3301028 3301029 [...] (1708359 flits)
Measured flits: (0 flits)
Class 0:
Remaining flits: 3301020 3301021 3301022 3301023 3301024 3301025 3301026 3301027 3301028 3301029 [...] (1676682 flits)
Measured flits: (0 flits)
Class 0:
Remaining flits: 3301020 3301021 3301022 3301023 3301024 3301025 3301026 3301027 3301028 3301029 [...] (1646146 flits)
Measured flits: (0 flits)
Class 0:
Remaining flits: 3301020 3301021 3301022 3301023 3301024 3301025 3301026 3301027 3301028 3301029 [...] (1615296 flits)
Measured flits: (0 flits)
Class 0:
Remaining flits: 3301020 3301021 3301022 3301023 3301024 3301025 3301026 3301027 3301028 3301029 [...] (1584293 flits)
Measured flits: (0 flits)
Class 0:
Remaining flits: 3301020 3301021 3301022 3301023 3301024 3301025 3301026 3301027 3301028 3301029 [...] (1553100 flits)
Measured flits: (0 flits)
Class 0:
Remaining flits: 3380490 3380491 3380492 3380493 3380494 3380495 3380496 3380497 3380498 3380499 [...] (1522057 flits)
Measured flits: (0 flits)
Class 0:
Remaining flits: 3380490 3380491 3380492 3380493 3380494 3380495 3380496 3380497 3380498 3380499 [...] (1489997 flits)
Measured flits: (0 flits)
Class 0:
Remaining flits: 3380490 3380491 3380492 3380493 3380494 3380495 3380496 3380497 3380498 3380499 [...] (1458468 flits)
Measured flits: (0 flits)
Class 0:
Remaining flits: 3380490 3380491 3380492 3380493 3380494 3380495 3380496 3380497 3380498 3380499 [...] (1427076 flits)
Measured flits: (0 flits)
Class 0:
Remaining flits: 3380490 3380491 3380492 3380493 3380494 3380495 3380496 3380497 3380498 3380499 [...] (1395279 flits)
Measured flits: (0 flits)
Class 0:
Remaining flits: 3380490 3380491 3380492 3380493 3380494 3380495 3380496 3380497 3380498 3380499 [...] (1363868 flits)
Measured flits: (0 flits)
Class 0:
Remaining flits: 3380490 3380491 3380492 3380493 3380494 3380495 3380496 3380497 3380498 3380499 [...] (1332253 flits)
Measured flits: (0 flits)
Class 0:
Remaining flits: 3380490 3380491 3380492 3380493 3380494 3380495 3380496 3380497 3380498 3380499 [...] (1300508 flits)
Measured flits: (0 flits)
Class 0:
Remaining flits: 3380490 3380491 3380492 3380493 3380494 3380495 3380496 3380497 3380498 3380499 [...] (1270446 flits)
Measured flits: (0 flits)
Class 0:
Remaining flits: 3380490 3380491 3380492 3380493 3380494 3380495 3380496 3380497 3380498 3380499 [...] (1238477 flits)
Measured flits: (0 flits)
Class 0:
Remaining flits: 3380490 3380491 3380492 3380493 3380494 3380495 3380496 3380497 3380498 3380499 [...] (1205832 flits)
Measured flits: (0 flits)
Class 0:
Remaining flits: 3380490 3380491 3380492 3380493 3380494 3380495 3380496 3380497 3380498 3380499 [...] (1172782 flits)
Measured flits: (0 flits)
Class 0:
Remaining flits: 3380490 3380491 3380492 3380493 3380494 3380495 3380496 3380497 3380498 3380499 [...] (1139884 flits)
Measured flits: (0 flits)
Class 0:
Remaining flits: 3380490 3380491 3380492 3380493 3380494 3380495 3380496 3380497 3380498 3380499 [...] (1107803 flits)
Measured flits: (0 flits)
Class 0:
Remaining flits: 3380497 3380498 3380499 3380500 3380501 3380502 3380503 3380504 3380505 3380506 [...] (1075444 flits)
Measured flits: (0 flits)
Class 0:
Remaining flits: 3842118 3842119 3842120 3842121 3842122 3842123 3842124 3842125 3842126 3842127 [...] (1042807 flits)
Measured flits: (0 flits)
Class 0:
Remaining flits: 4036014 4036015 4036016 4036017 4036018 4036019 4036020 4036021 4036022 4036023 [...] (1011195 flits)
Measured flits: (0 flits)
Class 0:
Remaining flits: 4036014 4036015 4036016 4036017 4036018 4036019 4036020 4036021 4036022 4036023 [...] (979438 flits)
Measured flits: (0 flits)
Class 0:
Remaining flits: 4036014 4036015 4036016 4036017 4036018 4036019 4036020 4036021 4036022 4036023 [...] (947389 flits)
Measured flits: (0 flits)
Class 0:
Remaining flits: 4036014 4036015 4036016 4036017 4036018 4036019 4036020 4036021 4036022 4036023 [...] (915473 flits)
Measured flits: (0 flits)
Class 0:
Remaining flits: 4036014 4036015 4036016 4036017 4036018 4036019 4036020 4036021 4036022 4036023 [...] (883835 flits)
Measured flits: (0 flits)
Class 0:
Remaining flits: 4036014 4036015 4036016 4036017 4036018 4036019 4036020 4036021 4036022 4036023 [...] (851198 flits)
Measured flits: (0 flits)
Class 0:
Remaining flits: 4036014 4036015 4036016 4036017 4036018 4036019 4036020 4036021 4036022 4036023 [...] (818390 flits)
Measured flits: (0 flits)
Class 0:
Remaining flits: 4036014 4036015 4036016 4036017 4036018 4036019 4036020 4036021 4036022 4036023 [...] (786544 flits)
Measured flits: (0 flits)
Class 0:
Remaining flits: 4036014 4036015 4036016 4036017 4036018 4036019 4036020 4036021 4036022 4036023 [...] (755658 flits)
Measured flits: (0 flits)
Class 0:
Remaining flits: 4036014 4036015 4036016 4036017 4036018 4036019 4036020 4036021 4036022 4036023 [...] (724276 flits)
Measured flits: (0 flits)
Class 0:
Remaining flits: 4036014 4036015 4036016 4036017 4036018 4036019 4036020 4036021 4036022 4036023 [...] (692740 flits)
Measured flits: (0 flits)
Class 0:
Remaining flits: 4036014 4036015 4036016 4036017 4036018 4036019 4036020 4036021 4036022 4036023 [...] (659990 flits)
Measured flits: (0 flits)
Class 0:
Remaining flits: 4083478 4083479 4225140 4225141 4225142 4225143 4225144 4225145 4225146 4225147 [...] (627037 flits)
Measured flits: (0 flits)
Class 0:
Remaining flits: 4483926 4483927 4483928 4483929 4483930 4483931 4483932 4483933 4483934 4483935 [...] (593797 flits)
Measured flits: (0 flits)
Class 0:
Remaining flits: 4483926 4483927 4483928 4483929 4483930 4483931 4483932 4483933 4483934 4483935 [...] (561162 flits)
Measured flits: (0 flits)
Class 0:
Remaining flits: 4483926 4483927 4483928 4483929 4483930 4483931 4483932 4483933 4483934 4483935 [...] (529117 flits)
Measured flits: (0 flits)
Class 0:
Remaining flits: 4483926 4483927 4483928 4483929 4483930 4483931 4483932 4483933 4483934 4483935 [...] (496698 flits)
Measured flits: (0 flits)
Class 0:
Remaining flits: 4483926 4483927 4483928 4483929 4483930 4483931 4483932 4483933 4483934 4483935 [...] (464091 flits)
Measured flits: (0 flits)
Class 0:
Remaining flits: 4483926 4483927 4483928 4483929 4483930 4483931 4483932 4483933 4483934 4483935 [...] (431253 flits)
Measured flits: (0 flits)
Class 0:
Remaining flits: 4550724 4550725 4550726 4550727 4550728 4550729 4550730 4550731 4550732 4550733 [...] (398101 flits)
Measured flits: (0 flits)
Class 0:
Remaining flits: 4550724 4550725 4550726 4550727 4550728 4550729 4550730 4550731 4550732 4550733 [...] (366527 flits)
Measured flits: (0 flits)
Class 0:
Remaining flits: 4550724 4550725 4550726 4550727 4550728 4550729 4550730 4550731 4550732 4550733 [...] (333829 flits)
Measured flits: (0 flits)
Class 0:
Remaining flits: 4550724 4550725 4550726 4550727 4550728 4550729 4550730 4550731 4550732 4550733 [...] (302092 flits)
Measured flits: (0 flits)
Class 0:
Remaining flits: 4550724 4550725 4550726 4550727 4550728 4550729 4550730 4550731 4550732 4550733 [...] (270783 flits)
Measured flits: (0 flits)
Class 0:
Remaining flits: 4805712 4805713 4805714 4805715 4805716 4805717 4805718 4805719 4805720 4805721 [...] (239744 flits)
Measured flits: (0 flits)
Class 0:
Remaining flits: 4805712 4805713 4805714 4805715 4805716 4805717 4805718 4805719 4805720 4805721 [...] (209432 flits)
Measured flits: (0 flits)
Class 0:
Remaining flits: 4805712 4805713 4805714 4805715 4805716 4805717 4805718 4805719 4805720 4805721 [...] (179925 flits)
Measured flits: (0 flits)
Class 0:
Remaining flits: 4825026 4825027 4825028 4825029 4825030 4825031 4825032 4825033 4825034 4825035 [...] (151561 flits)
Measured flits: (0 flits)
Class 0:
Remaining flits: 4825026 4825027 4825028 4825029 4825030 4825031 4825032 4825033 4825034 4825035 [...] (124770 flits)
Measured flits: (0 flits)
Class 0:
Remaining flits: 4825026 4825027 4825028 4825029 4825030 4825031 4825032 4825033 4825034 4825035 [...] (99856 flits)
Measured flits: (0 flits)
Class 0:
Remaining flits: 4825026 4825027 4825028 4825029 4825030 4825031 4825032 4825033 4825034 4825035 [...] (76877 flits)
Measured flits: (0 flits)
Class 0:
Remaining flits: 5057604 5057605 5057606 5057607 5057608 5057609 5057610 5057611 5057612 5057613 [...] (57182 flits)
Measured flits: (0 flits)
Class 0:
Remaining flits: 5418233 5461452 5461453 5461454 5461455 5461456 5461457 5461458 5461459 5461460 [...] (39857 flits)
Measured flits: (0 flits)
Class 0:
Remaining flits: 5418233 5565816 5565817 5565818 5565819 5565820 5565821 5565822 5565823 5565824 [...] (24653 flits)
Measured flits: (0 flits)
Class 0:
Remaining flits: 5418233 5671134 5671135 5671136 5671137 5671138 5671139 5671140 5671141 5671142 [...] (14852 flits)
Measured flits: (0 flits)
Class 0:
Remaining flits: 5671134 5671135 5671136 5671137 5671138 5671139 5671140 5671141 5671142 5671143 [...] (7640 flits)
Measured flits: (0 flits)
Class 0:
Remaining flits: 5671139 5671140 5671141 5671142 5671143 5671144 5671145 5671146 5671147 5671148 [...] (3555 flits)
Measured flits: (0 flits)
Class 0:
Remaining flits: 6247296 6247297 6247298 6247299 6247300 6247301 6247302 6247303 6247304 6247305 [...] (1696 flits)
Measured flits: (0 flits)
Class 0:
Remaining flits: 6567588 6567589 6567590 6567591 6567592 6567593 6567594 6567595 6567596 6567597 [...] (695 flits)
Measured flits: (0 flits)
Time taken is 269814 cycles
====== Overall Traffic Statistics ======
====== Traffic class 0 ======
Packet latency average = 21405.3 (1 samples)
	minimum = 23 (1 samples)
	maximum = 107484 (1 samples)
Network latency average = 21358.2 (1 samples)
	minimum = 23 (1 samples)
	maximum = 107451 (1 samples)
Flit latency average = 83087 (1 samples)
	minimum = 6 (1 samples)
	maximum = 227430 (1 samples)
Fragmentation average = 256.566 (1 samples)
	minimum = 0 (1 samples)
	maximum = 10782 (1 samples)
Injected packet rate average = 0.0468333 (1 samples)
	minimum = 0.0395714 (1 samples)
	maximum = 0.0537143 (1 samples)
Accepted packet rate average = 0.0151324 (1 samples)
	minimum = 0.0121429 (1 samples)
	maximum = 0.019 (1 samples)
Injected flit rate average = 0.84291 (1 samples)
	minimum = 0.712143 (1 samples)
	maximum = 0.966286 (1 samples)
Accepted flit rate average = 0.271344 (1 samples)
	minimum = 0.217286 (1 samples)
	maximum = 0.342143 (1 samples)
Injected packet size average = 17.9981 (1 samples)
Accepted packet size average = 17.9313 (1 samples)
Hops average = 5.06435 (1 samples)
Total run time 831.43
