BEGIN Configuration File: networks/mezzanine_config
topology = mezzanine;
n = 12;

routing_function = multipath;
internal_speedup = 2.0;
latency_thres = 100000.0;
use_read_write = 0;

sample_period = 1000;
injection_rate = 0.5;
packet_size = 18;

noq = 1;
routing_delay = 0;
vc_alloc_delay = 1;
sw_alloc_delay = 1;
st_final_delay = 1;
vc_allocator = islip; 
sw_allocator = islip;
alloc_iters  = 4;
num_vcs     = 12;
buffer_policy = private; // private or shared
buf_size = -1; // -1 for buffer_policy = private;
vc_buf_size = 4096; // size of each VOQ with buffer_policy = private
output_buffer_size = -1;


traffic = uniform;

//mezW = 0.0;
//mezPredefinedPatternType = shift-inter; //shift-qfdb

END Configuration File: networks/mezzanine_config
OVERRIDE Parameter: injection_rate=0.033427
OVERRIDE Parameter: routing_function=multipath
OVERRIDE Parameter: num_vcs=64
OVERRIDE Parameter: vc_buf_size=144
OVERRIDE Parameter: internal_speedup=1.0
OVERRIDE Parameter: injection_process=on_off
OVERRIDE Parameter: sim_type=latency
OVERRIDE Parameter: burst_alpha=0.0038461538
OVERRIDE Parameter: burst_beta=0.1
network: network_0
========================== Routing table  =====================
Number of Subnets: 1
Class 0:
Packet latency average = 372.702
	minimum = 23
	maximum = 983
Network latency average = 274.59
	minimum = 23
	maximum = 948
Slowest packet = 244
Flit latency average = 202.605
	minimum = 6
	maximum = 954
Slowest flit = 4365
Fragmentation average = 163.076
	minimum = 0
	maximum = 812
Injected packet rate average = 0.0290625
	minimum = 0 (at node 5)
	maximum = 0.056 (at node 0)
Accepted packet rate average = 0.00997396
	minimum = 0.004 (at node 23)
	maximum = 0.019 (at node 152)
Injected flit rate average = 0.517656
	minimum = 0 (at node 5)
	maximum = 1 (at node 6)
Accepted flit rate average= 0.214135
	minimum = 0.089 (at node 68)
	maximum = 0.369 (at node 152)
Injected packet length average = 17.8118
Accepted packet length average = 21.4695
Total in-flight flits = 59326 (0 measured)
latency change    = 1
throughput change = 1
Class 0:
Packet latency average = 629.491
	minimum = 23
	maximum = 1985
Network latency average = 487.545
	minimum = 23
	maximum = 1869
Slowest packet = 114
Flit latency average = 396.389
	minimum = 6
	maximum = 1930
Slowest flit = 2842
Fragmentation average = 230.822
	minimum = 0
	maximum = 1508
Injected packet rate average = 0.0302422
	minimum = 0.0005 (at node 125)
	maximum = 0.056 (at node 6)
Accepted packet rate average = 0.0116198
	minimum = 0.006 (at node 96)
	maximum = 0.019 (at node 152)
Injected flit rate average = 0.541753
	minimum = 0.009 (at node 125)
	maximum = 1 (at node 6)
Accepted flit rate average= 0.231432
	minimum = 0.1345 (at node 135)
	maximum = 0.364 (at node 34)
Injected packet length average = 17.9138
Accepted packet length average = 19.9171
Total in-flight flits = 120164 (0 measured)
latency change    = 0.40793
throughput change = 0.0747384
Class 0:
Packet latency average = 1278.15
	minimum = 29
	maximum = 2917
Network latency average = 1064.78
	minimum = 23
	maximum = 2679
Slowest packet = 1939
Flit latency average = 969.163
	minimum = 6
	maximum = 2877
Slowest flit = 9796
Fragmentation average = 336.066
	minimum = 0
	maximum = 1830
Injected packet rate average = 0.0306875
	minimum = 0 (at node 55)
	maximum = 0.056 (at node 1)
Accepted packet rate average = 0.0134792
	minimum = 0.003 (at node 163)
	maximum = 0.022 (at node 22)
Injected flit rate average = 0.552214
	minimum = 0 (at node 56)
	maximum = 1 (at node 1)
Accepted flit rate average= 0.245464
	minimum = 0.092 (at node 163)
	maximum = 0.403 (at node 22)
Injected packet length average = 17.9947
Accepted packet length average = 18.2106
Total in-flight flits = 179091 (0 measured)
latency change    = 0.5075
throughput change = 0.0571623
Warmed up ...Time used is 3000 cycles
Class 0:
Packet latency average = 435.772
	minimum = 25
	maximum = 2707
Network latency average = 150.416
	minimum = 25
	maximum = 884
Slowest packet = 17538
Flit latency average = 1473
	minimum = 6
	maximum = 3800
Slowest flit = 15583
Fragmentation average = 71.3518
	minimum = 1
	maximum = 740
Injected packet rate average = 0.0308802
	minimum = 0 (at node 90)
	maximum = 0.056 (at node 9)
Accepted packet rate average = 0.0132969
	minimum = 0.005 (at node 18)
	maximum = 0.022 (at node 103)
Injected flit rate average = 0.555599
	minimum = 0 (at node 90)
	maximum = 1 (at node 9)
Accepted flit rate average= 0.243188
	minimum = 0.113 (at node 18)
	maximum = 0.421 (at node 103)
Injected packet length average = 17.9921
Accepted packet length average = 18.2891
Total in-flight flits = 239121 (97550 measured)
latency change    = 1.93308
throughput change = 0.00935921
Class 0:
Packet latency average = 731.112
	minimum = 25
	maximum = 3271
Network latency average = 453.043
	minimum = 25
	maximum = 1965
Slowest packet = 17538
Flit latency average = 1751.49
	minimum = 6
	maximum = 4822
Slowest flit = 14588
Fragmentation average = 144.599
	minimum = 1
	maximum = 1620
Injected packet rate average = 0.0290365
	minimum = 0.003 (at node 5)
	maximum = 0.056 (at node 87)
Accepted packet rate average = 0.0133646
	minimum = 0.0065 (at node 100)
	maximum = 0.0215 (at node 103)
Injected flit rate average = 0.522674
	minimum = 0.054 (at node 5)
	maximum = 1 (at node 23)
Accepted flit rate average= 0.243466
	minimum = 0.1045 (at node 100)
	maximum = 0.381 (at node 181)
Injected packet length average = 18.0006
Accepted packet length average = 18.2173
Total in-flight flits = 286300 (176389 measured)
latency change    = 0.40396
throughput change = 0.0011445
Class 0:
Packet latency average = 1115.73
	minimum = 25
	maximum = 4406
Network latency average = 815.369
	minimum = 25
	maximum = 2975
Slowest packet = 17538
Flit latency average = 2052.82
	minimum = 6
	maximum = 5639
Slowest flit = 30214
Fragmentation average = 192.053
	minimum = 1
	maximum = 1832
Injected packet rate average = 0.0278576
	minimum = 0.009 (at node 53)
	maximum = 0.054 (at node 109)
Accepted packet rate average = 0.013283
	minimum = 0.00833333 (at node 18)
	maximum = 0.018 (at node 87)
Injected flit rate average = 0.501481
	minimum = 0.163333 (at node 53)
	maximum = 0.972 (at node 109)
Accepted flit rate average= 0.240946
	minimum = 0.148667 (at node 110)
	maximum = 0.332333 (at node 128)
Injected packet length average = 18.0016
Accepted packet length average = 18.1395
Total in-flight flits = 329134 (246571 measured)
latency change    = 0.344726
throughput change = 0.0104586
Class 0:
Packet latency average = 1593.2
	minimum = 25
	maximum = 5731
Network latency average = 1256.56
	minimum = 25
	maximum = 3955
Slowest packet = 17538
Flit latency average = 2335.31
	minimum = 6
	maximum = 6686
Slowest flit = 25217
Fragmentation average = 229.59
	minimum = 1
	maximum = 2201
Injected packet rate average = 0.0276901
	minimum = 0.009 (at node 53)
	maximum = 0.05325 (at node 109)
Accepted packet rate average = 0.0132305
	minimum = 0.00875 (at node 46)
	maximum = 0.0175 (at node 128)
Injected flit rate average = 0.498456
	minimum = 0.163 (at node 53)
	maximum = 0.95825 (at node 109)
Accepted flit rate average= 0.238911
	minimum = 0.16325 (at node 153)
	maximum = 0.32175 (at node 128)
Injected packet length average = 18.0012
Accepted packet length average = 18.0577
Total in-flight flits = 378413 (317974 measured)
latency change    = 0.299691
throughput change = 0.00851664
Class 0:
Packet latency average = 2087.68
	minimum = 25
	maximum = 6426
Network latency average = 1698.03
	minimum = 23
	maximum = 4974
Slowest packet = 17538
Flit latency average = 2604.24
	minimum = 6
	maximum = 7517
Slowest flit = 42022
Fragmentation average = 256.596
	minimum = 0
	maximum = 3934
Injected packet rate average = 0.0272219
	minimum = 0.0114 (at node 53)
	maximum = 0.0456 (at node 109)
Accepted packet rate average = 0.0131188
	minimum = 0.0086 (at node 46)
	maximum = 0.017 (at node 103)
Injected flit rate average = 0.489942
	minimum = 0.206 (at node 53)
	maximum = 0.8194 (at node 109)
Accepted flit rate average= 0.23652
	minimum = 0.1644 (at node 46)
	maximum = 0.3098 (at node 181)
Injected packet length average = 17.9981
Accepted packet length average = 18.0291
Total in-flight flits = 422480 (379239 measured)
latency change    = 0.236855
throughput change = 0.0101119
Class 0:
Packet latency average = 2631.64
	minimum = 25
	maximum = 7585
Network latency average = 2177.17
	minimum = 23
	maximum = 5947
Slowest packet = 17538
Flit latency average = 2869.18
	minimum = 6
	maximum = 8718
Slowest flit = 23642
Fragmentation average = 275.142
	minimum = 0
	maximum = 3934
Injected packet rate average = 0.0265738
	minimum = 0.0118333 (at node 53)
	maximum = 0.0448333 (at node 94)
Accepted packet rate average = 0.0130417
	minimum = 0.00933333 (at node 46)
	maximum = 0.0173333 (at node 103)
Injected flit rate average = 0.478247
	minimum = 0.213667 (at node 53)
	maximum = 0.806 (at node 94)
Accepted flit rate average= 0.23476
	minimum = 0.1755 (at node 46)
	maximum = 0.302 (at node 181)
Injected packet length average = 17.9969
Accepted packet length average = 18.0007
Total in-flight flits = 459772 (428751 measured)
latency change    = 0.206701
throughput change = 0.00749807
Class 0:
Packet latency average = 3162.77
	minimum = 25
	maximum = 8598
Network latency average = 2639.29
	minimum = 23
	maximum = 6924
Slowest packet = 17538
Flit latency average = 3121.29
	minimum = 6
	maximum = 9498
Slowest flit = 43880
Fragmentation average = 292.352
	minimum = 0
	maximum = 4879
Injected packet rate average = 0.0258028
	minimum = 0.0118571 (at node 0)
	maximum = 0.0411429 (at node 94)
Accepted packet rate average = 0.0129397
	minimum = 0.00942857 (at node 153)
	maximum = 0.0164286 (at node 103)
Injected flit rate average = 0.464253
	minimum = 0.214 (at node 0)
	maximum = 0.739571 (at node 94)
Accepted flit rate average= 0.232962
	minimum = 0.175857 (at node 153)
	maximum = 0.298 (at node 181)
Injected packet length average = 17.9923
Accepted packet length average = 18.0036
Total in-flight flits = 490248 (467106 measured)
latency change    = 0.167932
throughput change = 0.00771583
Draining all recorded packets ...
Class 0:
Remaining flits: 11970 11971 11972 11973 11974 11975 11976 11977 11978 11979 [...] (518602 flits)
Measured flits: 315227 315228 315229 315230 315231 315232 315233 315288 315289 315290 [...] (473875 flits)
Class 0:
Remaining flits: 35809 35810 35811 35812 35813 35814 35815 35816 35817 35818 [...] (541723 flits)
Measured flits: 315288 315289 315290 315291 315292 315293 315294 315295 315296 315297 [...] (466139 flits)
Class 0:
Remaining flits: 35809 35810 35811 35812 35813 35814 35815 35816 35817 35818 [...] (566058 flits)
Measured flits: 315288 315289 315290 315291 315292 315293 315294 315295 315296 315297 [...] (457759 flits)
Class 0:
Remaining flits: 53232 53233 53234 53235 53236 53237 53238 53239 53240 53241 [...] (583287 flits)
Measured flits: 315289 315290 315291 315292 315293 315294 315295 315296 315297 315298 [...] (446643 flits)
Class 0:
Remaining flits: 53232 53233 53234 53235 53236 53237 53238 53239 53240 53241 [...] (604677 flits)
Measured flits: 315306 315307 315308 315309 315310 315311 315312 315313 315314 315315 [...] (432462 flits)
Class 0:
Remaining flits: 53232 53233 53234 53235 53236 53237 53238 53239 53240 53241 [...] (623818 flits)
Measured flits: 315306 315307 315308 315309 315310 315311 315312 315313 315314 315315 [...] (416233 flits)
Class 0:
Remaining flits: 53232 53233 53234 53235 53236 53237 53238 53239 53240 53241 [...] (640496 flits)
Measured flits: 315306 315307 315308 315309 315310 315311 315312 315313 315314 315315 [...] (397719 flits)
Class 0:
Remaining flits: 53232 53233 53234 53235 53236 53237 53238 53239 53240 53241 [...] (659220 flits)
Measured flits: 316278 316279 316280 316281 316282 316283 316284 316285 316286 316287 [...] (376844 flits)
Class 0:
Remaining flits: 53232 53233 53234 53235 53236 53237 53238 53239 53240 53241 [...] (675912 flits)
Measured flits: 316285 316286 316287 316288 316289 316290 316291 316292 316293 316294 [...] (355500 flits)
Class 0:
Remaining flits: 68418 68419 68420 68421 68422 68423 68424 68425 68426 68427 [...] (695995 flits)
Measured flits: 316944 316945 316946 316947 316948 316949 316950 316951 316952 316953 [...] (332293 flits)
Class 0:
Remaining flits: 70560 70561 70562 70563 70564 70565 70566 70567 70568 70569 [...] (704963 flits)
Measured flits: 316944 316945 316946 316947 316948 316949 316950 316951 316952 316953 [...] (308956 flits)
Class 0:
Remaining flits: 70560 70561 70562 70563 70564 70565 70566 70567 70568 70569 [...] (712913 flits)
Measured flits: 316944 316945 316946 316947 316948 316949 316950 316951 316952 316953 [...] (285363 flits)
Class 0:
Remaining flits: 70560 70561 70562 70563 70564 70565 70566 70567 70568 70569 [...] (721666 flits)
Measured flits: 316944 316945 316946 316947 316948 316949 316950 316951 316952 316953 [...] (264641 flits)
Class 0:
Remaining flits: 70560 70561 70562 70563 70564 70565 70566 70567 70568 70569 [...] (728554 flits)
Measured flits: 316944 316945 316946 316947 316948 316949 316950 316951 316952 316953 [...] (245683 flits)
Class 0:
Remaining flits: 70560 70561 70562 70563 70564 70565 70566 70567 70568 70569 [...] (736031 flits)
Measured flits: 316944 316945 316946 316947 316948 316949 316950 316951 316952 316953 [...] (227584 flits)
Class 0:
Remaining flits: 70560 70561 70562 70563 70564 70565 70566 70567 70568 70569 [...] (740141 flits)
Measured flits: 316944 316945 316946 316947 316948 316949 316950 316951 316952 316953 [...] (211081 flits)
Class 0:
Remaining flits: 70576 70577 96984 96985 96986 96987 96988 96989 96990 96991 [...] (741325 flits)
Measured flits: 316944 316945 316946 316947 316948 316949 316950 316951 316952 316953 [...] (193515 flits)
Class 0:
Remaining flits: 96984 96985 96986 96987 96988 96989 96990 96991 96992 96993 [...] (739105 flits)
Measured flits: 316944 316945 316946 316947 316948 316949 316950 316951 316952 316953 [...] (178392 flits)
Class 0:
Remaining flits: 96984 96985 96986 96987 96988 96989 96990 96991 96992 96993 [...] (734351 flits)
Measured flits: 316944 316945 316946 316947 316948 316949 316950 316951 316952 316953 [...] (164692 flits)
Class 0:
Remaining flits: 96984 96985 96986 96987 96988 96989 96990 96991 96992 96993 [...] (734100 flits)
Measured flits: 321754 321755 321756 321757 321758 321759 321760 321761 321762 321763 [...] (151238 flits)
Class 0:
Remaining flits: 96984 96985 96986 96987 96988 96989 96990 96991 96992 96993 [...] (732131 flits)
Measured flits: 324504 324505 324506 324507 324508 324509 324510 324511 324512 324513 [...] (137882 flits)
Class 0:
Remaining flits: 121860 121861 121862 121863 121864 121865 121866 121867 121868 121869 [...] (727474 flits)
Measured flits: 324504 324505 324506 324507 324508 324509 324510 324511 324512 324513 [...] (125204 flits)
Class 0:
Remaining flits: 121860 121861 121862 121863 121864 121865 121866 121867 121868 121869 [...] (724928 flits)
Measured flits: 324504 324505 324506 324507 324508 324509 324510 324511 324512 324513 [...] (113234 flits)
Class 0:
Remaining flits: 121860 121861 121862 121863 121864 121865 121866 121867 121868 121869 [...] (721884 flits)
Measured flits: 324504 324505 324506 324507 324508 324509 324510 324511 324512 324513 [...] (101887 flits)
Class 0:
Remaining flits: 121860 121861 121862 121863 121864 121865 121866 121867 121868 121869 [...] (716485 flits)
Measured flits: 324504 324505 324506 324507 324508 324509 324510 324511 324512 324513 [...] (91632 flits)
Class 0:
Remaining flits: 121860 121861 121862 121863 121864 121865 121866 121867 121868 121869 [...] (712111 flits)
Measured flits: 324504 324505 324506 324507 324508 324509 324510 324511 324512 324513 [...] (82224 flits)
Class 0:
Remaining flits: 139014 139015 139016 139017 139018 139019 139020 139021 139022 139023 [...] (711480 flits)
Measured flits: 324504 324505 324506 324507 324508 324509 324510 324511 324512 324513 [...] (74542 flits)
Class 0:
Remaining flits: 278532 278533 278534 278535 278536 278537 278538 278539 278540 278541 [...] (709816 flits)
Measured flits: 324504 324505 324506 324507 324508 324509 324510 324511 324512 324513 [...] (66933 flits)
Class 0:
Remaining flits: 278532 278533 278534 278535 278536 278537 278538 278539 278540 278541 [...] (705756 flits)
Measured flits: 324504 324505 324506 324507 324508 324509 324510 324511 324512 324513 [...] (59756 flits)
Class 0:
Remaining flits: 278532 278533 278534 278535 278536 278537 278538 278539 278540 278541 [...] (704927 flits)
Measured flits: 324504 324505 324506 324507 324508 324509 324510 324511 324512 324513 [...] (53052 flits)
Class 0:
Remaining flits: 278532 278533 278534 278535 278536 278537 278538 278539 278540 278541 [...] (709548 flits)
Measured flits: 324504 324505 324506 324507 324508 324509 324510 324511 324512 324513 [...] (47332 flits)
Class 0:
Remaining flits: 278532 278533 278534 278535 278536 278537 278538 278539 278540 278541 [...] (707226 flits)
Measured flits: 324504 324505 324506 324507 324508 324509 324510 324511 324512 324513 [...] (42544 flits)
Class 0:
Remaining flits: 278532 278533 278534 278535 278536 278537 278538 278539 278540 278541 [...] (706136 flits)
Measured flits: 324515 324516 324517 324518 324519 324520 324521 330048 330049 330050 [...] (37504 flits)
Class 0:
Remaining flits: 278532 278533 278534 278535 278536 278537 278538 278539 278540 278541 [...] (706127 flits)
Measured flits: 330048 330049 330050 330051 330052 330053 330054 330055 330056 330057 [...] (33386 flits)
Class 0:
Remaining flits: 278532 278533 278534 278535 278536 278537 278538 278539 278540 278541 [...] (705860 flits)
Measured flits: 330048 330049 330050 330051 330052 330053 330054 330055 330056 330057 [...] (29352 flits)
Class 0:
Remaining flits: 278532 278533 278534 278535 278536 278537 278538 278539 278540 278541 [...] (706389 flits)
Measured flits: 338472 338473 338474 338475 338476 338477 338478 338479 338480 338481 [...] (25992 flits)
Class 0:
Remaining flits: 278533 278534 278535 278536 278537 278538 278539 278540 278541 278542 [...] (710839 flits)
Measured flits: 338472 338473 338474 338475 338476 338477 338478 338479 338480 338481 [...] (22895 flits)
Class 0:
Remaining flits: 292086 292087 292088 292089 292090 292091 292092 292093 292094 292095 [...] (713753 flits)
Measured flits: 338472 338473 338474 338475 338476 338477 338478 338479 338480 338481 [...] (19753 flits)
Class 0:
Remaining flits: 292086 292087 292088 292089 292090 292091 292092 292093 292094 292095 [...] (712350 flits)
Measured flits: 338472 338473 338474 338475 338476 338477 338478 338479 338480 338481 [...] (17442 flits)
Class 0:
Remaining flits: 297846 297847 297848 297849 297850 297851 297852 297853 297854 297855 [...] (713255 flits)
Measured flits: 338472 338473 338474 338475 338476 338477 338478 338479 338480 338481 [...] (15302 flits)
Class 0:
Remaining flits: 297972 297973 297974 297975 297976 297977 297978 297979 297980 297981 [...] (712923 flits)
Measured flits: 452160 452161 452162 452163 452164 452165 452166 452167 452168 452169 [...] (13451 flits)
Class 0:
Remaining flits: 297972 297973 297974 297975 297976 297977 297978 297979 297980 297981 [...] (712063 flits)
Measured flits: 452160 452161 452162 452163 452164 452165 452166 452167 452168 452169 [...] (11397 flits)
Class 0:
Remaining flits: 297972 297973 297974 297975 297976 297977 297978 297979 297980 297981 [...] (712054 flits)
Measured flits: 452160 452161 452162 452163 452164 452165 452166 452167 452168 452169 [...] (10075 flits)
Class 0:
Remaining flits: 297977 297978 297979 297980 297981 297982 297983 297984 297985 297986 [...] (711640 flits)
Measured flits: 452160 452161 452162 452163 452164 452165 452166 452167 452168 452169 [...] (8929 flits)
Class 0:
Remaining flits: 481374 481375 481376 481377 481378 481379 481380 481381 481382 481383 [...] (710043 flits)
Measured flits: 481374 481375 481376 481377 481378 481379 481380 481381 481382 481383 [...] (7868 flits)
Class 0:
Remaining flits: 481374 481375 481376 481377 481378 481379 481380 481381 481382 481383 [...] (707181 flits)
Measured flits: 481374 481375 481376 481377 481378 481379 481380 481381 481382 481383 [...] (7014 flits)
Class 0:
Remaining flits: 481374 481375 481376 481377 481378 481379 481380 481381 481382 481383 [...] (703858 flits)
Measured flits: 481374 481375 481376 481377 481378 481379 481380 481381 481382 481383 [...] (6020 flits)
Class 0:
Remaining flits: 506250 506251 506252 506253 506254 506255 506256 506257 506258 506259 [...] (697518 flits)
Measured flits: 506250 506251 506252 506253 506254 506255 506256 506257 506258 506259 [...] (4970 flits)
Class 0:
Remaining flits: 507564 507565 507566 507567 507568 507569 507570 507571 507572 507573 [...] (692707 flits)
Measured flits: 507564 507565 507566 507567 507568 507569 507570 507571 507572 507573 [...] (4315 flits)
Class 0:
Remaining flits: 507564 507565 507566 507567 507568 507569 507570 507571 507572 507573 [...] (690802 flits)
Measured flits: 507564 507565 507566 507567 507568 507569 507570 507571 507572 507573 [...] (3731 flits)
Class 0:
Remaining flits: 507564 507565 507566 507567 507568 507569 507570 507571 507572 507573 [...] (695287 flits)
Measured flits: 507564 507565 507566 507567 507568 507569 507570 507571 507572 507573 [...] (3350 flits)
Class 0:
Remaining flits: 507564 507565 507566 507567 507568 507569 507570 507571 507572 507573 [...] (694650 flits)
Measured flits: 507564 507565 507566 507567 507568 507569 507570 507571 507572 507573 [...] (2952 flits)
Class 0:
Remaining flits: 507581 528408 528409 528410 528411 528412 528413 528414 528415 528416 [...] (695524 flits)
Measured flits: 507581 528408 528409 528410 528411 528412 528413 528414 528415 528416 [...] (2712 flits)
Class 0:
Remaining flits: 633510 633511 633512 633513 633514 633515 633516 633517 633518 633519 [...] (697197 flits)
Measured flits: 633510 633511 633512 633513 633514 633515 633516 633517 633518 633519 [...] (2400 flits)
Class 0:
Remaining flits: 633510 633511 633512 633513 633514 633515 633516 633517 633518 633519 [...] (695390 flits)
Measured flits: 633510 633511 633512 633513 633514 633515 633516 633517 633518 633519 [...] (2172 flits)
Class 0:
Remaining flits: 633510 633511 633512 633513 633514 633515 633516 633517 633518 633519 [...] (698931 flits)
Measured flits: 633510 633511 633512 633513 633514 633515 633516 633517 633518 633519 [...] (1911 flits)
Class 0:
Remaining flits: 633510 633511 633512 633513 633514 633515 633516 633517 633518 633519 [...] (704338 flits)
Measured flits: 633510 633511 633512 633513 633514 633515 633516 633517 633518 633519 [...] (1596 flits)
Class 0:
Remaining flits: 633510 633511 633512 633513 633514 633515 633516 633517 633518 633519 [...] (703574 flits)
Measured flits: 633510 633511 633512 633513 633514 633515 633516 633517 633518 633519 [...] (1396 flits)
Class 0:
Remaining flits: 721674 721675 721676 721677 721678 721679 721680 721681 721682 721683 [...] (697533 flits)
Measured flits: 721674 721675 721676 721677 721678 721679 721680 721681 721682 721683 [...] (1207 flits)
Class 0:
Remaining flits: 721674 721675 721676 721677 721678 721679 721680 721681 721682 721683 [...] (693822 flits)
Measured flits: 721674 721675 721676 721677 721678 721679 721680 721681 721682 721683 [...] (1013 flits)
Class 0:
Remaining flits: 721674 721675 721676 721677 721678 721679 721680 721681 721682 721683 [...] (697535 flits)
Measured flits: 721674 721675 721676 721677 721678 721679 721680 721681 721682 721683 [...] (931 flits)
Class 0:
Remaining flits: 721674 721675 721676 721677 721678 721679 721680 721681 721682 721683 [...] (697384 flits)
Measured flits: 721674 721675 721676 721677 721678 721679 721680 721681 721682 721683 [...] (879 flits)
Class 0:
Remaining flits: 721674 721675 721676 721677 721678 721679 721680 721681 721682 721683 [...] (694127 flits)
Measured flits: 721674 721675 721676 721677 721678 721679 721680 721681 721682 721683 [...] (772 flits)
Class 0:
Remaining flits: 721675 721676 721677 721678 721679 721680 721681 721682 721683 721684 [...] (692105 flits)
Measured flits: 721675 721676 721677 721678 721679 721680 721681 721682 721683 721684 [...] (613 flits)
Class 0:
Remaining flits: 721675 721676 721677 721678 721679 721680 721681 721682 721683 721684 [...] (690391 flits)
Measured flits: 721675 721676 721677 721678 721679 721680 721681 721682 721683 721684 [...] (525 flits)
Class 0:
Remaining flits: 721690 721691 815724 815725 815726 815727 815728 815729 815730 815731 [...] (687244 flits)
Measured flits: 721690 721691 815724 815725 815726 815727 815728 815729 815730 815731 [...] (468 flits)
Class 0:
Remaining flits: 721690 721691 815724 815725 815726 815727 815728 815729 815730 815731 [...] (684374 flits)
Measured flits: 721690 721691 815724 815725 815726 815727 815728 815729 815730 815731 [...] (371 flits)
Class 0:
Remaining flits: 815724 815725 815726 815727 815728 815729 815730 815731 815732 815733 [...] (681152 flits)
Measured flits: 815724 815725 815726 815727 815728 815729 815730 815731 815732 815733 [...] (360 flits)
Class 0:
Remaining flits: 815724 815725 815726 815727 815728 815729 815730 815731 815732 815733 [...] (680375 flits)
Measured flits: 815724 815725 815726 815727 815728 815729 815730 815731 815732 815733 [...] (337 flits)
Class 0:
Remaining flits: 815724 815725 815726 815727 815728 815729 815730 815731 815732 815733 [...] (680272 flits)
Measured flits: 815724 815725 815726 815727 815728 815729 815730 815731 815732 815733 [...] (252 flits)
Class 0:
Remaining flits: 815724 815725 815726 815727 815728 815729 815730 815731 815732 815733 [...] (677563 flits)
Measured flits: 815724 815725 815726 815727 815728 815729 815730 815731 815732 815733 [...] (198 flits)
Class 0:
Remaining flits: 815724 815725 815726 815727 815728 815729 815730 815731 815732 815733 [...] (679744 flits)
Measured flits: 815724 815725 815726 815727 815728 815729 815730 815731 815732 815733 [...] (180 flits)
Class 0:
Remaining flits: 815724 815725 815726 815727 815728 815729 815730 815731 815732 815733 [...] (684575 flits)
Measured flits: 815724 815725 815726 815727 815728 815729 815730 815731 815732 815733 [...] (162 flits)
Class 0:
Remaining flits: 815724 815725 815726 815727 815728 815729 815730 815731 815732 815733 [...] (687360 flits)
Measured flits: 815724 815725 815726 815727 815728 815729 815730 815731 815732 815733 [...] (158 flits)
Class 0:
Remaining flits: 815724 815725 815726 815727 815728 815729 815730 815731 815732 815733 [...] (694632 flits)
Measured flits: 815724 815725 815726 815727 815728 815729 815730 815731 815732 815733 [...] (131 flits)
Class 0:
Remaining flits: 1055160 1055161 1055162 1055163 1055164 1055165 1055166 1055167 1055168 1055169 [...] (692420 flits)
Measured flits: 1055160 1055161 1055162 1055163 1055164 1055165 1055166 1055167 1055168 1055169 [...] (72 flits)
Class 0:
Remaining flits: 1055160 1055161 1055162 1055163 1055164 1055165 1055166 1055167 1055168 1055169 [...] (691113 flits)
Measured flits: 1055160 1055161 1055162 1055163 1055164 1055165 1055166 1055167 1055168 1055169 [...] (72 flits)
Class 0:
Remaining flits: 1055160 1055161 1055162 1055163 1055164 1055165 1055166 1055167 1055168 1055169 [...] (689394 flits)
Measured flits: 1055160 1055161 1055162 1055163 1055164 1055165 1055166 1055167 1055168 1055169 [...] (72 flits)
Class 0:
Remaining flits: 1055160 1055161 1055162 1055163 1055164 1055165 1055166 1055167 1055168 1055169 [...] (683951 flits)
Measured flits: 1055160 1055161 1055162 1055163 1055164 1055165 1055166 1055167 1055168 1055169 [...] (72 flits)
Class 0:
Remaining flits: 1055160 1055161 1055162 1055163 1055164 1055165 1055166 1055167 1055168 1055169 [...] (683210 flits)
Measured flits: 1055160 1055161 1055162 1055163 1055164 1055165 1055166 1055167 1055168 1055169 [...] (72 flits)
Class 0:
Remaining flits: 1055160 1055161 1055162 1055163 1055164 1055165 1055166 1055167 1055168 1055169 [...] (683888 flits)
Measured flits: 1055160 1055161 1055162 1055163 1055164 1055165 1055166 1055167 1055168 1055169 [...] (54 flits)
Class 0:
Remaining flits: 1055160 1055161 1055162 1055163 1055164 1055165 1055166 1055167 1055168 1055169 [...] (680781 flits)
Measured flits: 1055160 1055161 1055162 1055163 1055164 1055165 1055166 1055167 1055168 1055169 [...] (54 flits)
Class 0:
Remaining flits: 1055160 1055161 1055162 1055163 1055164 1055165 1055166 1055167 1055168 1055169 [...] (678547 flits)
Measured flits: 1055160 1055161 1055162 1055163 1055164 1055165 1055166 1055167 1055168 1055169 [...] (54 flits)
Class 0:
Remaining flits: 1055160 1055161 1055162 1055163 1055164 1055165 1055166 1055167 1055168 1055169 [...] (675023 flits)
Measured flits: 1055160 1055161 1055162 1055163 1055164 1055165 1055166 1055167 1055168 1055169 [...] (54 flits)
Class 0:
Remaining flits: 1055160 1055161 1055162 1055163 1055164 1055165 1055166 1055167 1055168 1055169 [...] (671650 flits)
Measured flits: 1055160 1055161 1055162 1055163 1055164 1055165 1055166 1055167 1055168 1055169 [...] (54 flits)
Class 0:
Remaining flits: 1055160 1055161 1055162 1055163 1055164 1055165 1055166 1055167 1055168 1055169 [...] (670451 flits)
Measured flits: 1055160 1055161 1055162 1055163 1055164 1055165 1055166 1055167 1055168 1055169 [...] (54 flits)
Class 0:
Remaining flits: 1055160 1055161 1055162 1055163 1055164 1055165 1055166 1055167 1055168 1055169 [...] (669335 flits)
Measured flits: 1055160 1055161 1055162 1055163 1055164 1055165 1055166 1055167 1055168 1055169 [...] (54 flits)
Class 0:
Remaining flits: 1055160 1055161 1055162 1055163 1055164 1055165 1055166 1055167 1055168 1055169 [...] (664677 flits)
Measured flits: 1055160 1055161 1055162 1055163 1055164 1055165 1055166 1055167 1055168 1055169 [...] (54 flits)
Class 0:
Remaining flits: 1055160 1055161 1055162 1055163 1055164 1055165 1055166 1055167 1055168 1055169 [...] (660990 flits)
Measured flits: 1055160 1055161 1055162 1055163 1055164 1055165 1055166 1055167 1055168 1055169 [...] (54 flits)
Class 0:
Remaining flits: 1055160 1055161 1055162 1055163 1055164 1055165 1055166 1055167 1055168 1055169 [...] (663144 flits)
Measured flits: 1055160 1055161 1055162 1055163 1055164 1055165 1055166 1055167 1055168 1055169 [...] (54 flits)
Class 0:
Remaining flits: 1055160 1055161 1055162 1055163 1055164 1055165 1055166 1055167 1055168 1055169 [...] (664085 flits)
Measured flits: 1055160 1055161 1055162 1055163 1055164 1055165 1055166 1055167 1055168 1055169 [...] (54 flits)
Class 0:
Remaining flits: 1055160 1055161 1055162 1055163 1055164 1055165 1055166 1055167 1055168 1055169 [...] (659524 flits)
Measured flits: 1055160 1055161 1055162 1055163 1055164 1055165 1055166 1055167 1055168 1055169 [...] (54 flits)
Class 0:
Remaining flits: 1055160 1055161 1055162 1055163 1055164 1055165 1055166 1055167 1055168 1055169 [...] (659428 flits)
Measured flits: 1055160 1055161 1055162 1055163 1055164 1055165 1055166 1055167 1055168 1055169 [...] (54 flits)
Class 0:
Remaining flits: 1055160 1055161 1055162 1055163 1055164 1055165 1055166 1055167 1055168 1055169 [...] (655658 flits)
Measured flits: 1055160 1055161 1055162 1055163 1055164 1055165 1055166 1055167 1055168 1055169 [...] (54 flits)
Class 0:
Remaining flits: 1055160 1055161 1055162 1055163 1055164 1055165 1055166 1055167 1055168 1055169 [...] (652810 flits)
Measured flits: 1055160 1055161 1055162 1055163 1055164 1055165 1055166 1055167 1055168 1055169 [...] (36 flits)
Class 0:
Remaining flits: 1182960 1182961 1182962 1182963 1182964 1182965 1182966 1182967 1182968 1182969 [...] (656217 flits)
Measured flits: 1182960 1182961 1182962 1182963 1182964 1182965 1182966 1182967 1182968 1182969 [...] (18 flits)
Class 0:
Remaining flits: 1182960 1182961 1182962 1182963 1182964 1182965 1182966 1182967 1182968 1182969 [...] (658009 flits)
Measured flits: 1182960 1182961 1182962 1182963 1182964 1182965 1182966 1182967 1182968 1182969 [...] (18 flits)
Class 0:
Remaining flits: 1182960 1182961 1182962 1182963 1182964 1182965 1182966 1182967 1182968 1182969 [...] (661928 flits)
Measured flits: 1182960 1182961 1182962 1182963 1182964 1182965 1182966 1182967 1182968 1182969 [...] (18 flits)
Class 0:
Remaining flits: 1182960 1182961 1182962 1182963 1182964 1182965 1182966 1182967 1182968 1182969 [...] (657724 flits)
Measured flits: 1182960 1182961 1182962 1182963 1182964 1182965 1182966 1182967 1182968 1182969 [...] (18 flits)
Class 0:
Remaining flits: 1182960 1182961 1182962 1182963 1182964 1182965 1182966 1182967 1182968 1182969 [...] (656310 flits)
Measured flits: 1182960 1182961 1182962 1182963 1182964 1182965 1182966 1182967 1182968 1182969 [...] (18 flits)
Class 0:
Remaining flits: 1182960 1182961 1182962 1182963 1182964 1182965 1182966 1182967 1182968 1182969 [...] (654789 flits)
Measured flits: 1182960 1182961 1182962 1182963 1182964 1182965 1182966 1182967 1182968 1182969 [...] (18 flits)
Class 0:
Remaining flits: 1182960 1182961 1182962 1182963 1182964 1182965 1182966 1182967 1182968 1182969 [...] (653819 flits)
Measured flits: 1182960 1182961 1182962 1182963 1182964 1182965 1182966 1182967 1182968 1182969 [...] (18 flits)
Class 0:
Remaining flits: 1182960 1182961 1182962 1182963 1182964 1182965 1182966 1182967 1182968 1182969 [...] (652034 flits)
Measured flits: 1182960 1182961 1182962 1182963 1182964 1182965 1182966 1182967 1182968 1182969 [...] (18 flits)
Class 0:
Remaining flits: 1182960 1182961 1182962 1182963 1182964 1182965 1182966 1182967 1182968 1182969 [...] (643084 flits)
Measured flits: 1182960 1182961 1182962 1182963 1182964 1182965 1182966 1182967 1182968 1182969 [...] (18 flits)
Class 0:
Remaining flits: 1182960 1182961 1182962 1182963 1182964 1182965 1182966 1182967 1182968 1182969 [...] (638373 flits)
Measured flits: 1182960 1182961 1182962 1182963 1182964 1182965 1182966 1182967 1182968 1182969 [...] (18 flits)
Class 0:
Remaining flits: 1182960 1182961 1182962 1182963 1182964 1182965 1182966 1182967 1182968 1182969 [...] (636029 flits)
Measured flits: 1182960 1182961 1182962 1182963 1182964 1182965 1182966 1182967 1182968 1182969 [...] (18 flits)
Class 0:
Remaining flits: 1182960 1182961 1182962 1182963 1182964 1182965 1182966 1182967 1182968 1182969 [...] (636570 flits)
Measured flits: 1182960 1182961 1182962 1182963 1182964 1182965 1182966 1182967 1182968 1182969 [...] (18 flits)
Class 0:
Remaining flits: 1182960 1182961 1182962 1182963 1182964 1182965 1182966 1182967 1182968 1182969 [...] (636356 flits)
Measured flits: 1182960 1182961 1182962 1182963 1182964 1182965 1182966 1182967 1182968 1182969 [...] (18 flits)
Class 0:
Remaining flits: 1182963 1182964 1182965 1182966 1182967 1182968 1182969 1182970 1182971 1182972 [...] (638975 flits)
Measured flits: 1182963 1182964 1182965 1182966 1182967 1182968 1182969 1182970 1182971 1182972 [...] (15 flits)
Draining remaining packets ...
Class 0:
Remaining flits: 1652994 1652995 1652996 1652997 1652998 1652999 1653000 1653001 1653002 1653003 [...] (606388 flits)
Measured flits: (0 flits)
Class 0:
Remaining flits: 1652994 1652995 1652996 1652997 1652998 1652999 1653000 1653001 1653002 1653003 [...] (574706 flits)
Measured flits: (0 flits)
Class 0:
Remaining flits: 1652994 1652995 1652996 1652997 1652998 1652999 1653000 1653001 1653002 1653003 [...] (542458 flits)
Measured flits: (0 flits)
Class 0:
Remaining flits: 1652994 1652995 1652996 1652997 1652998 1652999 1653000 1653001 1653002 1653003 [...] (510605 flits)
Measured flits: (0 flits)
Class 0:
Remaining flits: 1652994 1652995 1652996 1652997 1652998 1652999 1653000 1653001 1653002 1653003 [...] (479117 flits)
Measured flits: (0 flits)
Class 0:
Remaining flits: 1652994 1652995 1652996 1652997 1652998 1652999 1653000 1653001 1653002 1653003 [...] (448542 flits)
Measured flits: (0 flits)
Class 0:
Remaining flits: 1652994 1652995 1652996 1652997 1652998 1652999 1653000 1653001 1653002 1653003 [...] (417747 flits)
Measured flits: (0 flits)
Class 0:
Remaining flits: 1652994 1652995 1652996 1652997 1652998 1652999 1653000 1653001 1653002 1653003 [...] (387620 flits)
Measured flits: (0 flits)
Class 0:
Remaining flits: 1652994 1652995 1652996 1652997 1652998 1652999 1653000 1653001 1653002 1653003 [...] (359234 flits)
Measured flits: (0 flits)
Class 0:
Remaining flits: 1652994 1652995 1652996 1652997 1652998 1652999 1653000 1653001 1653002 1653003 [...] (330260 flits)
Measured flits: (0 flits)
Class 0:
Remaining flits: 1652994 1652995 1652996 1652997 1652998 1652999 1653000 1653001 1653002 1653003 [...] (301203 flits)
Measured flits: (0 flits)
Class 0:
Remaining flits: 2284290 2284291 2284292 2284293 2284294 2284295 2284296 2284297 2284298 2284299 [...] (273056 flits)
Measured flits: (0 flits)
Class 0:
Remaining flits: 2284290 2284291 2284292 2284293 2284294 2284295 2284296 2284297 2284298 2284299 [...] (244651 flits)
Measured flits: (0 flits)
Class 0:
Remaining flits: 2284290 2284291 2284292 2284293 2284294 2284295 2284296 2284297 2284298 2284299 [...] (217745 flits)
Measured flits: (0 flits)
Class 0:
Remaining flits: 2284290 2284291 2284292 2284293 2284294 2284295 2284296 2284297 2284298 2284299 [...] (190906 flits)
Measured flits: (0 flits)
Class 0:
Remaining flits: 2284290 2284291 2284292 2284293 2284294 2284295 2284296 2284297 2284298 2284299 [...] (164305 flits)
Measured flits: (0 flits)
Class 0:
Remaining flits: 2284290 2284291 2284292 2284293 2284294 2284295 2284296 2284297 2284298 2284299 [...] (139414 flits)
Measured flits: (0 flits)
Class 0:
Remaining flits: 2284290 2284291 2284292 2284293 2284294 2284295 2284296 2284297 2284298 2284299 [...] (113881 flits)
Measured flits: (0 flits)
Class 0:
Remaining flits: 2284290 2284291 2284292 2284293 2284294 2284295 2284296 2284297 2284298 2284299 [...] (89498 flits)
Measured flits: (0 flits)
Class 0:
Remaining flits: 2284290 2284291 2284292 2284293 2284294 2284295 2284296 2284297 2284298 2284299 [...] (68129 flits)
Measured flits: (0 flits)
Class 0:
Remaining flits: 2284290 2284291 2284292 2284293 2284294 2284295 2284296 2284297 2284298 2284299 [...] (48368 flits)
Measured flits: (0 flits)
Class 0:
Remaining flits: 2284290 2284291 2284292 2284293 2284294 2284295 2284296 2284297 2284298 2284299 [...] (32804 flits)
Measured flits: (0 flits)
Class 0:
Remaining flits: 2284290 2284291 2284292 2284293 2284294 2284295 2284296 2284297 2284298 2284299 [...] (19846 flits)
Measured flits: (0 flits)
Class 0:
Remaining flits: 2284290 2284291 2284292 2284293 2284294 2284295 2284296 2284297 2284298 2284299 [...] (8895 flits)
Measured flits: (0 flits)
Class 0:
Remaining flits: 3454773 3454774 3454775 3506796 3506797 3506798 3506799 3506800 3506801 3506802 [...] (2431 flits)
Measured flits: (0 flits)
Class 0:
Remaining flits: 3599386 3599387 3612546 3612547 3612548 3612549 3612550 3612551 3612552 3612553 [...] (547 flits)
Measured flits: (0 flits)
Time taken is 145698 cycles
====== Overall Traffic Statistics ======
====== Traffic class 0 ======
Packet latency average = 14022.6 (1 samples)
	minimum = 25 (1 samples)
	maximum = 110469 (1 samples)
Network latency average = 11511.5 (1 samples)
	minimum = 23 (1 samples)
	maximum = 105356 (1 samples)
Flit latency average = 17501.7 (1 samples)
	minimum = 6 (1 samples)
	maximum = 108592 (1 samples)
Fragmentation average = 281.537 (1 samples)
	minimum = 0 (1 samples)
	maximum = 8911 (1 samples)
Injected packet rate average = 0.0258028 (1 samples)
	minimum = 0.0118571 (1 samples)
	maximum = 0.0411429 (1 samples)
Accepted packet rate average = 0.0129397 (1 samples)
	minimum = 0.00942857 (1 samples)
	maximum = 0.0164286 (1 samples)
Injected flit rate average = 0.464253 (1 samples)
	minimum = 0.214 (1 samples)
	maximum = 0.739571 (1 samples)
Accepted flit rate average = 0.232962 (1 samples)
	minimum = 0.175857 (1 samples)
	maximum = 0.298 (1 samples)
Injected packet size average = 17.9923 (1 samples)
Accepted packet size average = 18.0036 (1 samples)
Hops average = 5.051 (1 samples)
Total run time 745.267
