BEGIN Configuration File: networks/mezzanine_config
topology = mezzanine;
n = 12;

routing_function = multipath;
internal_speedup = 2.0;
latency_thres = 100000.0;
use_read_write = 0;

sample_period = 1000;
injection_rate = 0.5;
packet_size = 18;

noq = 1;
routing_delay = 0;
vc_alloc_delay = 1;
sw_alloc_delay = 1;
st_final_delay = 1;
vc_allocator = islip; 
sw_allocator = islip;
alloc_iters  = 4;
num_vcs     = 12;
buffer_policy = private; // private or shared
buf_size = -1; // -1 for buffer_policy = private;
vc_buf_size = 4096; // size of each VOQ with buffer_policy = private
output_buffer_size = -1;


traffic = uniform;

//mezW = 0.0;
//mezPredefinedPatternType = shift-inter; //shift-qfdb

END Configuration File: networks/mezzanine_config
OVERRIDE Parameter: injection_rate=0.006907
OVERRIDE Parameter: routing_function=multipath
OVERRIDE Parameter: num_vcs=64
OVERRIDE Parameter: vc_buf_size=18
OVERRIDE Parameter: internal_speedup=1.0
OVERRIDE Parameter: injection_process=on_off
OVERRIDE Parameter: sim_type=latency
OVERRIDE Parameter: burst_alpha=0.0038461538
OVERRIDE Parameter: burst_beta=0.1
network: network_0
========================== Routing table  =====================
Number of Subnets: 1
Class 0:
Packet latency average = 120.048
	minimum = 23
	maximum = 488
Network latency average = 94.447
	minimum = 23
	maximum = 380
Slowest packet = 70
Flit latency average = 54.0646
	minimum = 6
	maximum = 363
Slowest flit = 10511
Fragmentation average = 45.903
	minimum = 0
	maximum = 283
Injected packet rate average = 0.00716146
	minimum = 0 (at node 5)
	maximum = 0.032 (at node 99)
Accepted packet rate average = 0.00633854
	minimum = 0.001 (at node 41)
	maximum = 0.013 (at node 48)
Injected flit rate average = 0.127411
	minimum = 0 (at node 5)
	maximum = 0.576 (at node 99)
Accepted flit rate average= 0.119089
	minimum = 0.018 (at node 41)
	maximum = 0.235 (at node 70)
Injected packet length average = 17.7913
Accepted packet length average = 18.788
Total in-flight flits = 1885 (0 measured)
latency change    = 1
throughput change = 1
Class 0:
Packet latency average = 137.134
	minimum = 23
	maximum = 638
Network latency average = 110.15
	minimum = 23
	maximum = 613
Slowest packet = 1675
Flit latency average = 64.3905
	minimum = 6
	maximum = 596
Slowest flit = 30167
Fragmentation average = 57.2688
	minimum = 0
	maximum = 447
Injected packet rate average = 0.00692188
	minimum = 0.0005 (at node 177)
	maximum = 0.0205 (at node 51)
Accepted packet rate average = 0.00657812
	minimum = 0.0025 (at node 115)
	maximum = 0.011 (at node 44)
Injected flit rate average = 0.124216
	minimum = 0.009 (at node 177)
	maximum = 0.369 (at node 51)
Accepted flit rate average= 0.120714
	minimum = 0.049 (at node 115)
	maximum = 0.2125 (at node 44)
Injected packet length average = 17.9454
Accepted packet length average = 18.3508
Total in-flight flits = 1490 (0 measured)
latency change    = 0.124597
throughput change = 0.0134616
Class 0:
Packet latency average = 148.617
	minimum = 27
	maximum = 700
Network latency average = 123.143
	minimum = 23
	maximum = 639
Slowest packet = 1987
Flit latency average = 73.5329
	minimum = 6
	maximum = 622
Slowest flit = 53153
Fragmentation average = 66.0024
	minimum = 0
	maximum = 572
Injected packet rate average = 0.00683854
	minimum = 0 (at node 24)
	maximum = 0.02 (at node 25)
Accepted packet rate average = 0.00658333
	minimum = 0 (at node 18)
	maximum = 0.018 (at node 22)
Injected flit rate average = 0.122786
	minimum = 0 (at node 24)
	maximum = 0.36 (at node 135)
Accepted flit rate average= 0.120313
	minimum = 0.004 (at node 18)
	maximum = 0.337 (at node 22)
Injected packet length average = 17.9551
Accepted packet length average = 18.2753
Total in-flight flits = 2024 (0 measured)
latency change    = 0.0772649
throughput change = 0.00333333
Warmed up ...Time used is 3000 cycles
Class 0:
Packet latency average = 176.955
	minimum = 26
	maximum = 763
Network latency average = 147.582
	minimum = 23
	maximum = 700
Slowest packet = 3977
Flit latency average = 93.047
	minimum = 6
	maximum = 683
Slowest flit = 75185
Fragmentation average = 84.5142
	minimum = 0
	maximum = 486
Injected packet rate average = 0.00759896
	minimum = 0 (at node 22)
	maximum = 0.027 (at node 17)
Accepted packet rate average = 0.00755729
	minimum = 0.001 (at node 121)
	maximum = 0.014 (at node 78)
Injected flit rate average = 0.136542
	minimum = 0 (at node 22)
	maximum = 0.486 (at node 17)
Accepted flit rate average= 0.135417
	minimum = 0.018 (at node 121)
	maximum = 0.248 (at node 78)
Injected packet length average = 17.9685
Accepted packet length average = 17.9187
Total in-flight flits = 2286 (2286 measured)
latency change    = 0.160142
throughput change = 0.111538
Class 0:
Packet latency average = 180.074
	minimum = 23
	maximum = 1246
Network latency average = 149.823
	minimum = 23
	maximum = 1158
Slowest packet = 4632
Flit latency average = 92.8252
	minimum = 6
	maximum = 1141
Slowest flit = 83393
Fragmentation average = 83.9092
	minimum = 0
	maximum = 638
Injected packet rate average = 0.00748958
	minimum = 0.0005 (at node 60)
	maximum = 0.0235 (at node 33)
Accepted packet rate average = 0.0074375
	minimum = 0.003 (at node 184)
	maximum = 0.012 (at node 56)
Injected flit rate average = 0.134977
	minimum = 0.009 (at node 60)
	maximum = 0.423 (at node 33)
Accepted flit rate average= 0.133802
	minimum = 0.057 (at node 184)
	maximum = 0.219 (at node 56)
Injected packet length average = 18.0219
Accepted packet length average = 17.9902
Total in-flight flits = 2412 (2412 measured)
latency change    = 0.0173181
throughput change = 0.012067
Class 0:
Packet latency average = 180.895
	minimum = 23
	maximum = 1313
Network latency average = 150.961
	minimum = 23
	maximum = 1300
Slowest packet = 6035
Flit latency average = 93.4709
	minimum = 6
	maximum = 1283
Slowest flit = 108646
Fragmentation average = 84.0419
	minimum = 0
	maximum = 1171
Injected packet rate average = 0.00729861
	minimum = 0.000333333 (at node 185)
	maximum = 0.0193333 (at node 90)
Accepted packet rate average = 0.00732465
	minimum = 0.004 (at node 91)
	maximum = 0.0116667 (at node 34)
Injected flit rate average = 0.131391
	minimum = 0.006 (at node 185)
	maximum = 0.348 (at node 90)
Accepted flit rate average= 0.13137
	minimum = 0.0676667 (at node 153)
	maximum = 0.219 (at node 34)
Injected packet length average = 18.0021
Accepted packet length average = 17.9353
Total in-flight flits = 2027 (2027 measured)
latency change    = 0.00454186
throughput change = 0.0185148
Class 0:
Packet latency average = 175.89
	minimum = 23
	maximum = 1313
Network latency average = 147.032
	minimum = 23
	maximum = 1300
Slowest packet = 6035
Flit latency average = 90.404
	minimum = 6
	maximum = 1283
Slowest flit = 108646
Fragmentation average = 81.889
	minimum = 0
	maximum = 1171
Injected packet rate average = 0.00723698
	minimum = 0.0015 (at node 108)
	maximum = 0.01725 (at node 149)
Accepted packet rate average = 0.00724089
	minimum = 0.0045 (at node 117)
	maximum = 0.0115 (at node 16)
Injected flit rate average = 0.130262
	minimum = 0.027 (at node 108)
	maximum = 0.3115 (at node 149)
Accepted flit rate average= 0.130191
	minimum = 0.081 (at node 163)
	maximum = 0.20875 (at node 16)
Injected packet length average = 17.9995
Accepted packet length average = 17.98
Total in-flight flits = 2081 (2081 measured)
latency change    = 0.0284591
throughput change = 0.00905118
Draining all recorded packets ...
Draining remaining packets ...
Time taken is 7890 cycles
====== Overall Traffic Statistics ======
====== Traffic class 0 ======
Packet latency average = 178.897 (1 samples)
	minimum = 23 (1 samples)
	maximum = 1313 (1 samples)
Network latency average = 149.92 (1 samples)
	minimum = 23 (1 samples)
	maximum = 1300 (1 samples)
Flit latency average = 90.4666 (1 samples)
	minimum = 6 (1 samples)
	maximum = 1283 (1 samples)
Fragmentation average = 83.027 (1 samples)
	minimum = 0 (1 samples)
	maximum = 1171 (1 samples)
Injected packet rate average = 0.00723698 (1 samples)
	minimum = 0.0015 (1 samples)
	maximum = 0.01725 (1 samples)
Accepted packet rate average = 0.00724089 (1 samples)
	minimum = 0.0045 (1 samples)
	maximum = 0.0115 (1 samples)
Injected flit rate average = 0.130262 (1 samples)
	minimum = 0.027 (1 samples)
	maximum = 0.3115 (1 samples)
Accepted flit rate average = 0.130191 (1 samples)
	minimum = 0.081 (1 samples)
	maximum = 0.20875 (1 samples)
Injected packet size average = 17.9995 (1 samples)
Accepted packet size average = 17.98 (1 samples)
Hops average = 5.08578 (1 samples)
Total run time 4.11613
