BEGIN Configuration File: networks/mezzanine_config
topology = mezzanine;
n = 12;

routing_function = multipath;
internal_speedup = 2.0;
latency_thres = 100000.0;
use_read_write = 0;

sample_period = 1000;
injection_rate = 0.5;
packet_size = 18;

noq = 1;
routing_delay = 0;
vc_alloc_delay = 1;
sw_alloc_delay = 1;
st_final_delay = 1;
vc_allocator = islip; 
sw_allocator = islip;
alloc_iters  = 4;
num_vcs     = 12;
buffer_policy = private; // private or shared
buf_size = -1; // -1 for buffer_policy = private;
vc_buf_size = 4096; // size of each VOQ with buffer_policy = private
output_buffer_size = -1;


traffic = uniform;

//mezW = 0.0;
//mezPredefinedPatternType = shift-inter; //shift-qfdb

END Configuration File: networks/mezzanine_config
OVERRIDE Parameter: injection_rate=0.033427
OVERRIDE Parameter: routing_function=min
OVERRIDE Parameter: num_vcs=64
OVERRIDE Parameter: vc_buf_size=1024
OVERRIDE Parameter: internal_speedup=1.0
OVERRIDE Parameter: injection_process=bernoulli
OVERRIDE Parameter: sim_type=latency
OVERRIDE Parameter: burst_alpha=0.0038461538
OVERRIDE Parameter: burst_beta=0.1
network: network_0
========================== Routing table  =====================
Number of Subnets: 1
Class 0:
Packet latency average = 314.042
	minimum = 23
	maximum = 930
Network latency average = 304.688
	minimum = 23
	maximum = 930
Slowest packet = 135
Flit latency average = 228.716
	minimum = 6
	maximum = 934
Slowest flit = 4872
Fragmentation average = 184.072
	minimum = 0
	maximum = 890
Injected packet rate average = 0.0329635
	minimum = 0.017 (at node 97)
	maximum = 0.048 (at node 118)
Accepted packet rate average = 0.0105521
	minimum = 0.004 (at node 30)
	maximum = 0.018 (at node 49)
Injected flit rate average = 0.587724
	minimum = 0.306 (at node 97)
	maximum = 0.862 (at node 118)
Accepted flit rate average= 0.226177
	minimum = 0.096 (at node 174)
	maximum = 0.369 (at node 76)
Injected packet length average = 17.8295
Accepted packet length average = 21.4344
Total in-flight flits = 70496 (0 measured)
latency change    = 1
throughput change = 1
Class 0:
Packet latency average = 554.381
	minimum = 23
	maximum = 1879
Network latency average = 543.225
	minimum = 23
	maximum = 1879
Slowest packet = 653
Flit latency average = 452.103
	minimum = 6
	maximum = 1905
Slowest flit = 8506
Fragmentation average = 246.208
	minimum = 0
	maximum = 1370
Injected packet rate average = 0.03325
	minimum = 0.0205 (at node 62)
	maximum = 0.043 (at node 117)
Accepted packet rate average = 0.0120443
	minimum = 0.0065 (at node 79)
	maximum = 0.0175 (at node 76)
Injected flit rate average = 0.596021
	minimum = 0.369 (at node 62)
	maximum = 0.771 (at node 118)
Accepted flit rate average= 0.240107
	minimum = 0.1345 (at node 153)
	maximum = 0.3365 (at node 136)
Injected packet length average = 17.9254
Accepted packet length average = 19.9354
Total in-flight flits = 137623 (0 measured)
latency change    = 0.433526
throughput change = 0.0580146
Class 0:
Packet latency average = 1182.78
	minimum = 23
	maximum = 2739
Network latency average = 1169.8
	minimum = 23
	maximum = 2717
Slowest packet = 462
Flit latency average = 1074.04
	minimum = 6
	maximum = 2889
Slowest flit = 7535
Fragmentation average = 346.028
	minimum = 0
	maximum = 2400
Injected packet rate average = 0.0330729
	minimum = 0.016 (at node 111)
	maximum = 0.051 (at node 17)
Accepted packet rate average = 0.0140469
	minimum = 0.004 (at node 180)
	maximum = 0.024 (at node 66)
Injected flit rate average = 0.59449
	minimum = 0.283 (at node 111)
	maximum = 0.923 (at node 17)
Accepted flit rate average= 0.256458
	minimum = 0.083 (at node 180)
	maximum = 0.405 (at node 136)
Injected packet length average = 17.9751
Accepted packet length average = 18.2573
Total in-flight flits = 202683 (0 measured)
latency change    = 0.531289
throughput change = 0.0637591
Warmed up ...Time used is 3000 cycles
Class 0:
Packet latency average = 92.5141
	minimum = 26
	maximum = 1010
Network latency average = 78.9364
	minimum = 23
	maximum = 970
Slowest packet = 19203
Flit latency average = 1522.47
	minimum = 6
	maximum = 3837
Slowest flit = 14774
Fragmentation average = 32.8905
	minimum = 0
	maximum = 747
Injected packet rate average = 0.0338698
	minimum = 0.019 (at node 87)
	maximum = 0.05 (at node 98)
Accepted packet rate average = 0.0140729
	minimum = 0.006 (at node 58)
	maximum = 0.026 (at node 19)
Injected flit rate average = 0.609469
	minimum = 0.35 (at node 87)
	maximum = 0.904 (at node 121)
Accepted flit rate average= 0.257005
	minimum = 0.11 (at node 58)
	maximum = 0.459 (at node 19)
Injected packet length average = 17.9945
Accepted packet length average = 18.2624
Total in-flight flits = 270392 (106212 measured)
latency change    = 11.7849
throughput change = 0.00212788
Class 0:
Packet latency average = 281.085
	minimum = 24
	maximum = 1964
Network latency average = 267.94
	minimum = 23
	maximum = 1948
Slowest packet = 19148
Flit latency average = 1794.51
	minimum = 6
	maximum = 4751
Slowest flit = 27216
Fragmentation average = 83.0378
	minimum = 0
	maximum = 1273
Injected packet rate average = 0.033474
	minimum = 0.024 (at node 87)
	maximum = 0.0445 (at node 114)
Accepted packet rate average = 0.0139219
	minimum = 0.0085 (at node 4)
	maximum = 0.0215 (at node 19)
Injected flit rate average = 0.602742
	minimum = 0.4305 (at node 87)
	maximum = 0.801 (at node 114)
Accepted flit rate average= 0.253383
	minimum = 0.1495 (at node 26)
	maximum = 0.367 (at node 19)
Injected packet length average = 18.0063
Accepted packet length average = 18.2003
Total in-flight flits = 336756 (207116 measured)
latency change    = 0.670868
throughput change = 0.0142961
Class 0:
Packet latency average = 584.99
	minimum = 24
	maximum = 2941
Network latency average = 572.201
	minimum = 23
	maximum = 2941
Slowest packet = 19213
Flit latency average = 2058.77
	minimum = 6
	maximum = 5793
Slowest flit = 19522
Fragmentation average = 125.414
	minimum = 0
	maximum = 1940
Injected packet rate average = 0.033474
	minimum = 0.0226667 (at node 87)
	maximum = 0.0423333 (at node 114)
Accepted packet rate average = 0.0140347
	minimum = 0.00933333 (at node 186)
	maximum = 0.019 (at node 39)
Injected flit rate average = 0.602689
	minimum = 0.410667 (at node 87)
	maximum = 0.765333 (at node 114)
Accepted flit rate average= 0.253816
	minimum = 0.164 (at node 186)
	maximum = 0.345333 (at node 39)
Injected packet length average = 18.0047
Accepted packet length average = 18.0849
Total in-flight flits = 403543 (304405 measured)
latency change    = 0.519504
throughput change = 0.00170659
Class 0:
Packet latency average = 961.244
	minimum = 24
	maximum = 3939
Network latency average = 948.402
	minimum = 23
	maximum = 3939
Slowest packet = 19321
Flit latency average = 2330.33
	minimum = 6
	maximum = 6709
Slowest flit = 19223
Fragmentation average = 157.414
	minimum = 0
	maximum = 1940
Injected packet rate average = 0.033487
	minimum = 0.023 (at node 87)
	maximum = 0.04125 (at node 35)
Accepted packet rate average = 0.0140313
	minimum = 0.00925 (at node 80)
	maximum = 0.01975 (at node 119)
Injected flit rate average = 0.602991
	minimum = 0.41175 (at node 87)
	maximum = 0.7445 (at node 114)
Accepted flit rate average= 0.253177
	minimum = 0.17175 (at node 80)
	maximum = 0.354 (at node 119)
Injected packet length average = 18.0067
Accepted packet length average = 18.0438
Total in-flight flits = 471167 (397514 measured)
latency change    = 0.391424
throughput change = 0.00252349
Class 0:
Packet latency average = 1409.74
	minimum = 24
	maximum = 4937
Network latency average = 1396.94
	minimum = 23
	maximum = 4937
Slowest packet = 19138
Flit latency average = 2597.97
	minimum = 6
	maximum = 7730
Slowest flit = 27227
Fragmentation average = 189.507
	minimum = 0
	maximum = 2989
Injected packet rate average = 0.0335615
	minimum = 0.026 (at node 18)
	maximum = 0.0418 (at node 35)
Accepted packet rate average = 0.0140125
	minimum = 0.0092 (at node 4)
	maximum = 0.0186 (at node 39)
Injected flit rate average = 0.60412
	minimum = 0.4672 (at node 18)
	maximum = 0.754 (at node 35)
Accepted flit rate average= 0.25269
	minimum = 0.17 (at node 80)
	maximum = 0.3392 (at node 118)
Injected packet length average = 18.0004
Accepted packet length average = 18.0332
Total in-flight flits = 540043 (487035 measured)
latency change    = 0.318138
throughput change = 0.00192924
Class 0:
Packet latency average = 1896.16
	minimum = 23
	maximum = 5975
Network latency average = 1883.29
	minimum = 23
	maximum = 5961
Slowest packet = 19266
Flit latency average = 2852.45
	minimum = 6
	maximum = 8626
Slowest flit = 27118
Fragmentation average = 215.624
	minimum = 0
	maximum = 2989
Injected packet rate average = 0.0335356
	minimum = 0.0256667 (at node 18)
	maximum = 0.0398333 (at node 97)
Accepted packet rate average = 0.0139818
	minimum = 0.00983333 (at node 4)
	maximum = 0.018 (at node 118)
Injected flit rate average = 0.603856
	minimum = 0.463667 (at node 18)
	maximum = 0.717 (at node 97)
Accepted flit rate average= 0.251913
	minimum = 0.178 (at node 80)
	maximum = 0.336 (at node 118)
Injected packet length average = 18.0064
Accepted packet length average = 18.0173
Total in-flight flits = 607873 (569505 measured)
latency change    = 0.256531
throughput change = 0.00308197
Class 0:
Packet latency average = 2388.34
	minimum = 23
	maximum = 6935
Network latency average = 2375.52
	minimum = 23
	maximum = 6935
Slowest packet = 19365
Flit latency average = 3103.33
	minimum = 6
	maximum = 9441
Slowest flit = 37853
Fragmentation average = 234.377
	minimum = 0
	maximum = 3573
Injected packet rate average = 0.0334628
	minimum = 0.0265714 (at node 18)
	maximum = 0.0387143 (at node 24)
Accepted packet rate average = 0.0139368
	minimum = 0.00957143 (at node 80)
	maximum = 0.0175714 (at node 19)
Injected flit rate average = 0.602362
	minimum = 0.478 (at node 18)
	maximum = 0.697286 (at node 130)
Accepted flit rate average= 0.25108
	minimum = 0.177714 (at node 80)
	maximum = 0.319857 (at node 118)
Injected packet length average = 18.001
Accepted packet length average = 18.0157
Total in-flight flits = 674763 (645945 measured)
latency change    = 0.206076
throughput change = 0.00331701
Draining all recorded packets ...
Class 0:
Remaining flits: 28998 28999 29000 29001 29002 29003 29004 29005 29006 29007 [...] (744677 flits)
Measured flits: 344124 344125 344126 344127 344128 344129 344130 344131 344132 344133 [...] (616603 flits)
Class 0:
Remaining flits: 28998 28999 29000 29001 29002 29003 29004 29005 29006 29007 [...] (811269 flits)
Measured flits: 344160 344161 344162 344163 344164 344165 344166 344167 344168 344169 [...] (584405 flits)
Class 0:
Remaining flits: 37278 37279 37280 37281 37282 37283 37284 37285 37286 37287 [...] (881657 flits)
Measured flits: 344160 344161 344162 344163 344164 344165 344166 344167 344168 344169 [...] (552047 flits)
Class 0:
Remaining flits: 37284 37285 37286 37287 37288 37289 37290 37291 37292 37293 [...] (953206 flits)
Measured flits: 344160 344161 344162 344163 344164 344165 344166 344167 344168 344169 [...] (519330 flits)
Class 0:
Remaining flits: 37287 37288 37289 37290 37291 37292 37293 37294 37295 48492 [...] (1024195 flits)
Measured flits: 344178 344179 344180 344181 344182 344183 344184 344185 344186 344187 [...] (486282 flits)
Class 0:
Remaining flits: 37287 37288 37289 37290 37291 37292 37293 37294 37295 48492 [...] (1098207 flits)
Measured flits: 344178 344179 344180 344181 344182 344183 344184 344185 344186 344187 [...] (453815 flits)
Class 0:
Remaining flits: 37287 37288 37289 37290 37291 37292 37293 37294 37295 48492 [...] (1167791 flits)
Measured flits: 344178 344179 344180 344181 344182 344183 344184 344185 344186 344187 [...] (421652 flits)
Class 0:
Remaining flits: 48492 48493 48494 48495 48496 48497 48498 48499 48500 48501 [...] (1237754 flits)
Measured flits: 344178 344179 344180 344181 344182 344183 344184 344185 344186 344187 [...] (390546 flits)
Class 0:
Remaining flits: 48492 48493 48494 48495 48496 48497 48498 48499 48500 48501 [...] (1304708 flits)
Measured flits: 344178 344179 344180 344181 344182 344183 344184 344185 344186 344187 [...] (360398 flits)
Class 0:
Remaining flits: 48492 48493 48494 48495 48496 48497 48498 48499 48500 48501 [...] (1368478 flits)
Measured flits: 345126 345127 345128 345129 345130 345131 345294 345295 345296 345297 [...] (331202 flits)
Class 0:
Remaining flits: 48492 48493 48494 48495 48496 48497 48498 48499 48500 48501 [...] (1425655 flits)
Measured flits: 345294 345295 345296 345297 345298 345299 345300 345301 345302 345303 [...] (303435 flits)
Class 0:
Remaining flits: 48492 48493 48494 48495 48496 48497 48498 48499 48500 48501 [...] (1483064 flits)
Measured flits: 345294 345295 345296 345297 345298 345299 345300 345301 345302 345303 [...] (276876 flits)
Class 0:
Remaining flits: 48492 48493 48494 48495 48496 48497 48498 48499 48500 48501 [...] (1539013 flits)
Measured flits: 345852 345853 345854 345855 345856 345857 345858 345859 345860 345861 [...] (252049 flits)
Class 0:
Remaining flits: 48492 48493 48494 48495 48496 48497 48498 48499 48500 48501 [...] (1596637 flits)
Measured flits: 345853 345854 345855 345856 345857 345858 345859 345860 345861 345862 [...] (228515 flits)
Class 0:
Remaining flits: 48492 48493 48494 48495 48496 48497 48498 48499 48500 48501 [...] (1653757 flits)
Measured flits: 347022 347023 347024 347025 347026 347027 347028 347029 347030 347031 [...] (206833 flits)
Class 0:
Remaining flits: 48492 48493 48494 48495 48496 48497 48498 48499 48500 48501 [...] (1712509 flits)
Measured flits: 347022 347023 347024 347025 347026 347027 347028 347029 347030 347031 [...] (187991 flits)
Class 0:
Remaining flits: 48492 48493 48494 48495 48496 48497 48498 48499 48500 48501 [...] (1773053 flits)
Measured flits: 347022 347023 347024 347025 347026 347027 347028 347029 347030 347031 [...] (169346 flits)
Class 0:
Remaining flits: 127152 127153 127154 127155 127156 127157 127158 127159 127160 127161 [...] (1833449 flits)
Measured flits: 347022 347023 347024 347025 347026 347027 347028 347029 347030 347031 [...] (153626 flits)
Class 0:
Remaining flits: 127152 127153 127154 127155 127156 127157 127158 127159 127160 127161 [...] (1891776 flits)
Measured flits: 347022 347023 347024 347025 347026 347027 347028 347029 347030 347031 [...] (138165 flits)
Class 0:
Remaining flits: 129042 129043 129044 129045 129046 129047 129048 129049 129050 129051 [...] (1949200 flits)
Measured flits: 347022 347023 347024 347025 347026 347027 347028 347029 347030 347031 [...] (124341 flits)
Class 0:
Remaining flits: 129042 129043 129044 129045 129046 129047 129048 129049 129050 129051 [...] (2008486 flits)
Measured flits: 349344 349345 349346 349347 349348 349349 349350 349351 349352 349353 [...] (111715 flits)
Class 0:
Remaining flits: 129042 129043 129044 129045 129046 129047 129048 129049 129050 129051 [...] (2070324 flits)
Measured flits: 349344 349345 349346 349347 349348 349349 349350 349351 349352 349353 [...] (100709 flits)
Class 0:
Remaining flits: 129042 129043 129044 129045 129046 129047 129048 129049 129050 129051 [...] (2130310 flits)
Measured flits: 349344 349345 349346 349347 349348 349349 349350 349351 349352 349353 [...] (91078 flits)
Class 0:
Remaining flits: 129042 129043 129044 129045 129046 129047 129048 129049 129050 129051 [...] (2189289 flits)
Measured flits: 349344 349345 349346 349347 349348 349349 349350 349351 349352 349353 [...] (82404 flits)
Class 0:
Remaining flits: 129042 129043 129044 129045 129046 129047 129048 129049 129050 129051 [...] (2247699 flits)
Measured flits: 349344 349345 349346 349347 349348 349349 349350 349351 349352 349353 [...] (73680 flits)
Class 0:
Remaining flits: 129042 129043 129044 129045 129046 129047 129048 129049 129050 129051 [...] (2309381 flits)
Measured flits: 349344 349345 349346 349347 349348 349349 349350 349351 349352 349353 [...] (66111 flits)
Class 0:
Remaining flits: 137628 137629 137630 137631 137632 137633 137634 137635 137636 137637 [...] (2370083 flits)
Measured flits: 349344 349345 349346 349347 349348 349349 349350 349351 349352 349353 [...] (59393 flits)
Class 0:
Remaining flits: 137628 137629 137630 137631 137632 137633 137634 137635 137636 137637 [...] (2430130 flits)
Measured flits: 349344 349345 349346 349347 349348 349349 349350 349351 349352 349353 [...] (53220 flits)
Class 0:
Remaining flits: 137628 137629 137630 137631 137632 137633 137634 137635 137636 137637 [...] (2491367 flits)
Measured flits: 349344 349345 349346 349347 349348 349349 349350 349351 349352 349353 [...] (48243 flits)
Class 0:
Remaining flits: 137628 137629 137630 137631 137632 137633 137634 137635 137636 137637 [...] (2551871 flits)
Measured flits: 349344 349345 349346 349347 349348 349349 349350 349351 349352 349353 [...] (42967 flits)
Class 0:
Remaining flits: 137628 137629 137630 137631 137632 137633 137634 137635 137636 137637 [...] (2616980 flits)
Measured flits: 349344 349345 349346 349347 349348 349349 349350 349351 349352 349353 [...] (38155 flits)
Class 0:
Remaining flits: 137628 137629 137630 137631 137632 137633 137634 137635 137636 137637 [...] (2679169 flits)
Measured flits: 349344 349345 349346 349347 349348 349349 349350 349351 349352 349353 [...] (34365 flits)
Class 0:
Remaining flits: 137628 137629 137630 137631 137632 137633 137634 137635 137636 137637 [...] (2742114 flits)
Measured flits: 349344 349345 349346 349347 349348 349349 349350 349351 349352 349353 [...] (30708 flits)
Class 0:
Remaining flits: 137628 137629 137630 137631 137632 137633 137634 137635 137636 137637 [...] (2799954 flits)
Measured flits: 349349 349350 349351 349352 349353 349354 349355 349356 349357 349358 [...] (27289 flits)
Class 0:
Remaining flits: 137639 137640 137641 137642 137643 137644 137645 204732 204733 204734 [...] (2858885 flits)
Measured flits: 349794 349795 349796 349797 349798 349799 349800 349801 349802 349803 [...] (24577 flits)
Class 0:
Remaining flits: 276480 276481 276482 276483 276484 276485 276486 276487 276488 276489 [...] (2920725 flits)
Measured flits: 349794 349795 349796 349797 349798 349799 349800 349801 349802 349803 [...] (22354 flits)
Class 0:
Remaining flits: 400950 400951 400952 400953 400954 400955 400956 400957 400958 400959 [...] (2980521 flits)
Measured flits: 400950 400951 400952 400953 400954 400955 400956 400957 400958 400959 [...] (19743 flits)
Class 0:
Remaining flits: 400950 400951 400952 400953 400954 400955 400956 400957 400958 400959 [...] (3042072 flits)
Measured flits: 400950 400951 400952 400953 400954 400955 400956 400957 400958 400959 [...] (17523 flits)
Class 0:
Remaining flits: 400950 400951 400952 400953 400954 400955 400956 400957 400958 400959 [...] (3105057 flits)
Measured flits: 400950 400951 400952 400953 400954 400955 400956 400957 400958 400959 [...] (15330 flits)
Class 0:
Remaining flits: 400950 400951 400952 400953 400954 400955 400956 400957 400958 400959 [...] (3164947 flits)
Measured flits: 400950 400951 400952 400953 400954 400955 400956 400957 400958 400959 [...] (13634 flits)
Class 0:
Remaining flits: 429210 429211 429212 429213 429214 429215 429216 429217 429218 429219 [...] (3224392 flits)
Measured flits: 429210 429211 429212 429213 429214 429215 429216 429217 429218 429219 [...] (11951 flits)
Class 0:
Remaining flits: 429210 429211 429212 429213 429214 429215 429216 429217 429218 429219 [...] (3284393 flits)
Measured flits: 429210 429211 429212 429213 429214 429215 429216 429217 429218 429219 [...] (10493 flits)
Class 0:
Remaining flits: 429210 429211 429212 429213 429214 429215 429216 429217 429218 429219 [...] (3347435 flits)
Measured flits: 429210 429211 429212 429213 429214 429215 429216 429217 429218 429219 [...] (9635 flits)
Class 0:
Remaining flits: 429210 429211 429212 429213 429214 429215 429216 429217 429218 429219 [...] (3410596 flits)
Measured flits: 429210 429211 429212 429213 429214 429215 429216 429217 429218 429219 [...] (8584 flits)
Class 0:
Remaining flits: 429210 429211 429212 429213 429214 429215 429216 429217 429218 429219 [...] (3472006 flits)
Measured flits: 429210 429211 429212 429213 429214 429215 429216 429217 429218 429219 [...] (7822 flits)
Class 0:
Remaining flits: 429210 429211 429212 429213 429214 429215 429216 429217 429218 429219 [...] (3533094 flits)
Measured flits: 429210 429211 429212 429213 429214 429215 429216 429217 429218 429219 [...] (7198 flits)
Class 0:
Remaining flits: 429210 429211 429212 429213 429214 429215 429216 429217 429218 429219 [...] (3595672 flits)
Measured flits: 429210 429211 429212 429213 429214 429215 429216 429217 429218 429219 [...] (6506 flits)
Class 0:
Remaining flits: 429210 429211 429212 429213 429214 429215 429216 429217 429218 429219 [...] (3657555 flits)
Measured flits: 429210 429211 429212 429213 429214 429215 429216 429217 429218 429219 [...] (6125 flits)
Class 0:
Remaining flits: 429222 429223 429224 429225 429226 429227 448110 448111 448112 448113 [...] (3720618 flits)
Measured flits: 429222 429223 429224 429225 429226 429227 448110 448111 448112 448113 [...] (5450 flits)
Class 0:
Remaining flits: 448110 448111 448112 448113 448114 448115 448116 448117 448118 448119 [...] (3779616 flits)
Measured flits: 448110 448111 448112 448113 448114 448115 448116 448117 448118 448119 [...] (4810 flits)
Class 0:
Remaining flits: 448110 448111 448112 448113 448114 448115 448116 448117 448118 448119 [...] (3841359 flits)
Measured flits: 448110 448111 448112 448113 448114 448115 448116 448117 448118 448119 [...] (4277 flits)
Class 0:
Remaining flits: 448110 448111 448112 448113 448114 448115 448116 448117 448118 448119 [...] (3903708 flits)
Measured flits: 448110 448111 448112 448113 448114 448115 448116 448117 448118 448119 [...] (3803 flits)
Class 0:
Remaining flits: 448110 448111 448112 448113 448114 448115 448116 448117 448118 448119 [...] (3963548 flits)
Measured flits: 448110 448111 448112 448113 448114 448115 448116 448117 448118 448119 [...] (3360 flits)
Class 0:
Remaining flits: 448110 448111 448112 448113 448114 448115 448116 448117 448118 448119 [...] (4020041 flits)
Measured flits: 448110 448111 448112 448113 448114 448115 448116 448117 448118 448119 [...] (3085 flits)
Class 0:
Remaining flits: 448110 448111 448112 448113 448114 448115 448116 448117 448118 448119 [...] (4072862 flits)
Measured flits: 448110 448111 448112 448113 448114 448115 448116 448117 448118 448119 [...] (2690 flits)
Class 0:
Remaining flits: 484326 484327 484328 484329 484330 484331 484332 484333 484334 484335 [...] (4122924 flits)
Measured flits: 484326 484327 484328 484329 484330 484331 484332 484333 484334 484335 [...] (2293 flits)
Class 0:
Remaining flits: 484326 484327 484328 484329 484330 484331 484332 484333 484334 484335 [...] (4170204 flits)
Measured flits: 484326 484327 484328 484329 484330 484331 484332 484333 484334 484335 [...] (1990 flits)
Class 0:
Remaining flits: 484326 484327 484328 484329 484330 484331 484332 484333 484334 484335 [...] (4206875 flits)
Measured flits: 484326 484327 484328 484329 484330 484331 484332 484333 484334 484335 [...] (1799 flits)
Class 0:
Remaining flits: 484326 484327 484328 484329 484330 484331 484332 484333 484334 484335 [...] (4235491 flits)
Measured flits: 484326 484327 484328 484329 484330 484331 484332 484333 484334 484335 [...] (1689 flits)
Class 0:
Remaining flits: 484326 484327 484328 484329 484330 484331 484332 484333 484334 484335 [...] (4260752 flits)
Measured flits: 484326 484327 484328 484329 484330 484331 484332 484333 484334 484335 [...] (1566 flits)
Class 0:
Remaining flits: 484326 484327 484328 484329 484330 484331 484332 484333 484334 484335 [...] (4281538 flits)
Measured flits: 484326 484327 484328 484329 484330 484331 484332 484333 484334 484335 [...] (1386 flits)
Class 0:
Remaining flits: 658098 658099 658100 658101 658102 658103 658104 658105 658106 658107 [...] (4297352 flits)
Measured flits: 658098 658099 658100 658101 658102 658103 658104 658105 658106 658107 [...] (1194 flits)
Class 0:
Remaining flits: 658098 658099 658100 658101 658102 658103 658104 658105 658106 658107 [...] (4310217 flits)
Measured flits: 658098 658099 658100 658101 658102 658103 658104 658105 658106 658107 [...] (1044 flits)
Class 0:
Remaining flits: 658098 658099 658100 658101 658102 658103 658104 658105 658106 658107 [...] (4321272 flits)
Measured flits: 658098 658099 658100 658101 658102 658103 658104 658105 658106 658107 [...] (1025 flits)
Class 0:
Remaining flits: 658098 658099 658100 658101 658102 658103 658104 658105 658106 658107 [...] (4331519 flits)
Measured flits: 658098 658099 658100 658101 658102 658103 658104 658105 658106 658107 [...] (992 flits)
Class 0:
Remaining flits: 766692 766693 766694 766695 766696 766697 766698 766699 766700 766701 [...] (4342229 flits)
Measured flits: 766692 766693 766694 766695 766696 766697 766698 766699 766700 766701 [...] (953 flits)
Class 0:
Remaining flits: 766692 766693 766694 766695 766696 766697 766698 766699 766700 766701 [...] (4350622 flits)
Measured flits: 766692 766693 766694 766695 766696 766697 766698 766699 766700 766701 [...] (833 flits)
Class 0:
Remaining flits: 766692 766693 766694 766695 766696 766697 766698 766699 766700 766701 [...] (4363381 flits)
Measured flits: 766692 766693 766694 766695 766696 766697 766698 766699 766700 766701 [...] (793 flits)
Class 0:
Remaining flits: 766692 766693 766694 766695 766696 766697 766698 766699 766700 766701 [...] (4373952 flits)
Measured flits: 766692 766693 766694 766695 766696 766697 766698 766699 766700 766701 [...] (775 flits)
Class 0:
Remaining flits: 766692 766693 766694 766695 766696 766697 766698 766699 766700 766701 [...] (4383696 flits)
Measured flits: 766692 766693 766694 766695 766696 766697 766698 766699 766700 766701 [...] (755 flits)
Class 0:
Remaining flits: 766692 766693 766694 766695 766696 766697 766698 766699 766700 766701 [...] (4395820 flits)
Measured flits: 766692 766693 766694 766695 766696 766697 766698 766699 766700 766701 [...] (683 flits)
Class 0:
Remaining flits: 772110 772111 772112 772113 772114 772115 772116 772117 772118 772119 [...] (4405617 flits)
Measured flits: 772110 772111 772112 772113 772114 772115 772116 772117 772118 772119 [...] (593 flits)
Class 0:
Remaining flits: 772110 772111 772112 772113 772114 772115 772116 772117 772118 772119 [...] (4413948 flits)
Measured flits: 772110 772111 772112 772113 772114 772115 772116 772117 772118 772119 [...] (518 flits)
Class 0:
Remaining flits: 772110 772111 772112 772113 772114 772115 772116 772117 772118 772119 [...] (4423620 flits)
Measured flits: 772110 772111 772112 772113 772114 772115 772116 772117 772118 772119 [...] (397 flits)
Class 0:
Remaining flits: 783774 783775 783776 783777 783778 783779 783780 783781 783782 783783 [...] (4435261 flits)
Measured flits: 783774 783775 783776 783777 783778 783779 783780 783781 783782 783783 [...] (236 flits)
Class 0:
Remaining flits: 783774 783775 783776 783777 783778 783779 783780 783781 783782 783783 [...] (4446615 flits)
Measured flits: 783774 783775 783776 783777 783778 783779 783780 783781 783782 783783 [...] (162 flits)
Class 0:
Remaining flits: 783774 783775 783776 783777 783778 783779 783780 783781 783782 783783 [...] (4459393 flits)
Measured flits: 783774 783775 783776 783777 783778 783779 783780 783781 783782 783783 [...] (144 flits)
Class 0:
Remaining flits: 783774 783775 783776 783777 783778 783779 783780 783781 783782 783783 [...] (4468281 flits)
Measured flits: 783774 783775 783776 783777 783778 783779 783780 783781 783782 783783 [...] (126 flits)
Class 0:
Remaining flits: 783774 783775 783776 783777 783778 783779 783780 783781 783782 783783 [...] (4480777 flits)
Measured flits: 783774 783775 783776 783777 783778 783779 783780 783781 783782 783783 [...] (126 flits)
Class 0:
Remaining flits: 783774 783775 783776 783777 783778 783779 783780 783781 783782 783783 [...] (4492866 flits)
Measured flits: 783774 783775 783776 783777 783778 783779 783780 783781 783782 783783 [...] (126 flits)
Class 0:
Remaining flits: 984852 984853 984854 984855 984856 984857 984858 984859 984860 984861 [...] (4504053 flits)
Measured flits: 984852 984853 984854 984855 984856 984857 984858 984859 984860 984861 [...] (108 flits)
Class 0:
Remaining flits: 1065438 1065439 1065440 1065441 1065442 1065443 1065444 1065445 1065446 1065447 [...] (4512537 flits)
Measured flits: 1065438 1065439 1065440 1065441 1065442 1065443 1065444 1065445 1065446 1065447 [...] (36 flits)
Class 0:
Remaining flits: 1147266 1147267 1147268 1147269 1147270 1147271 1147272 1147273 1147274 1147275 [...] (4524837 flits)
Measured flits: 1147266 1147267 1147268 1147269 1147270 1147271 1147272 1147273 1147274 1147275 [...] (18 flits)
Class 0:
Remaining flits: 1147266 1147267 1147268 1147269 1147270 1147271 1147272 1147273 1147274 1147275 [...] (4536318 flits)
Measured flits: 1147266 1147267 1147268 1147269 1147270 1147271 1147272 1147273 1147274 1147275 [...] (18 flits)
Class 0:
Remaining flits: 1147266 1147267 1147268 1147269 1147270 1147271 1147272 1147273 1147274 1147275 [...] (4546308 flits)
Measured flits: 1147266 1147267 1147268 1147269 1147270 1147271 1147272 1147273 1147274 1147275 [...] (18 flits)
Class 0:
Remaining flits: 1147266 1147267 1147268 1147269 1147270 1147271 1147272 1147273 1147274 1147275 [...] (4557849 flits)
Measured flits: 1147266 1147267 1147268 1147269 1147270 1147271 1147272 1147273 1147274 1147275 [...] (18 flits)
Draining remaining packets ...
Class 0:
Remaining flits: 1176642 1176643 1176644 1176645 1176646 1176647 1176648 1176649 1176650 1176651 [...] (4528710 flits)
Measured flits: (0 flits)
Class 0:
Remaining flits: 1176642 1176643 1176644 1176645 1176646 1176647 1176648 1176649 1176650 1176651 [...] (4494360 flits)
Measured flits: (0 flits)
Class 0:
Remaining flits: 1176642 1176643 1176644 1176645 1176646 1176647 1176648 1176649 1176650 1176651 [...] (4459716 flits)
Measured flits: (0 flits)
Class 0:
Remaining flits: 1176642 1176643 1176644 1176645 1176646 1176647 1176648 1176649 1176650 1176651 [...] (4424576 flits)
Measured flits: (0 flits)
Class 0:
Remaining flits: 1176642 1176643 1176644 1176645 1176646 1176647 1176648 1176649 1176650 1176651 [...] (4388990 flits)
Measured flits: (0 flits)
Class 0:
Remaining flits: 1176642 1176643 1176644 1176645 1176646 1176647 1176648 1176649 1176650 1176651 [...] (4353853 flits)
Measured flits: (0 flits)
Class 0:
Remaining flits: 1176642 1176643 1176644 1176645 1176646 1176647 1176648 1176649 1176650 1176651 [...] (4318953 flits)
Measured flits: (0 flits)
Class 0:
Remaining flits: 1219486 1219487 1219488 1219489 1219490 1219491 1219492 1219493 1219494 1219495 [...] (4284257 flits)
Measured flits: (0 flits)
Class 0:
Remaining flits: 1296594 1296595 1296596 1296597 1296598 1296599 1296600 1296601 1296602 1296603 [...] (4249163 flits)
Measured flits: (0 flits)
Class 0:
Remaining flits: 1296594 1296595 1296596 1296597 1296598 1296599 1296600 1296601 1296602 1296603 [...] (4214302 flits)
Measured flits: (0 flits)
Class 0:
Remaining flits: 1296594 1296595 1296596 1296597 1296598 1296599 1296600 1296601 1296602 1296603 [...] (4179400 flits)
Measured flits: (0 flits)
Class 0:
Remaining flits: 1296594 1296595 1296596 1296597 1296598 1296599 1296600 1296601 1296602 1296603 [...] (4144135 flits)
Measured flits: (0 flits)
Class 0:
Remaining flits: 1296594 1296595 1296596 1296597 1296598 1296599 1296600 1296601 1296602 1296603 [...] (4110165 flits)
Measured flits: (0 flits)
Class 0:
Remaining flits: 1296594 1296595 1296596 1296597 1296598 1296599 1296600 1296601 1296602 1296603 [...] (4075929 flits)
Measured flits: (0 flits)
Class 0:
Remaining flits: 1296594 1296595 1296596 1296597 1296598 1296599 1296600 1296601 1296602 1296603 [...] (4040536 flits)
Measured flits: (0 flits)
Class 0:
Remaining flits: 1296594 1296595 1296596 1296597 1296598 1296599 1296600 1296601 1296602 1296603 [...] (4006371 flits)
Measured flits: (0 flits)
Class 0:
Remaining flits: 1296594 1296595 1296596 1296597 1296598 1296599 1296600 1296601 1296602 1296603 [...] (3971603 flits)
Measured flits: (0 flits)
Class 0:
Remaining flits: 1296594 1296595 1296596 1296597 1296598 1296599 1296600 1296601 1296602 1296603 [...] (3936299 flits)
Measured flits: (0 flits)
Class 0:
Remaining flits: 1296594 1296595 1296596 1296597 1296598 1296599 1296600 1296601 1296602 1296603 [...] (3901036 flits)
Measured flits: (0 flits)
Class 0:
Remaining flits: 1296594 1296595 1296596 1296597 1296598 1296599 1296600 1296601 1296602 1296603 [...] (3865202 flits)
Measured flits: (0 flits)
Class 0:
Remaining flits: 1296594 1296595 1296596 1296597 1296598 1296599 1296600 1296601 1296602 1296603 [...] (3829575 flits)
Measured flits: (0 flits)
Class 0:
Remaining flits: 1383030 1383031 1383032 1383033 1383034 1383035 1383036 1383037 1383038 1383039 [...] (3793906 flits)
Measured flits: (0 flits)
Class 0:
Remaining flits: 1383030 1383031 1383032 1383033 1383034 1383035 1383036 1383037 1383038 1383039 [...] (3757929 flits)
Measured flits: (0 flits)
Class 0:
Remaining flits: 1383030 1383031 1383032 1383033 1383034 1383035 1383036 1383037 1383038 1383039 [...] (3722435 flits)
Measured flits: (0 flits)
Class 0:
Remaining flits: 1383030 1383031 1383032 1383033 1383034 1383035 1383036 1383037 1383038 1383039 [...] (3686523 flits)
Measured flits: (0 flits)
Class 0:
Remaining flits: 1383030 1383031 1383032 1383033 1383034 1383035 1383036 1383037 1383038 1383039 [...] (3651619 flits)
Measured flits: (0 flits)
Class 0:
Remaining flits: 1383030 1383031 1383032 1383033 1383034 1383035 1383036 1383037 1383038 1383039 [...] (3617265 flits)
Measured flits: (0 flits)
Class 0:
Remaining flits: 1606482 1606483 1606484 1606485 1606486 1606487 1606488 1606489 1606490 1606491 [...] (3581372 flits)
Measured flits: (0 flits)
Class 0:
Remaining flits: 1614582 1614583 1614584 1614585 1614586 1614587 1614588 1614589 1614590 1614591 [...] (3545781 flits)
Measured flits: (0 flits)
Class 0:
Remaining flits: 1614582 1614583 1614584 1614585 1614586 1614587 1614588 1614589 1614590 1614591 [...] (3510852 flits)
Measured flits: (0 flits)
Class 0:
Remaining flits: 1728972 1728973 1728974 1728975 1728976 1728977 1728978 1728979 1728980 1728981 [...] (3475942 flits)
Measured flits: (0 flits)
Class 0:
Remaining flits: 1728972 1728973 1728974 1728975 1728976 1728977 1728978 1728979 1728980 1728981 [...] (3441174 flits)
Measured flits: (0 flits)
Class 0:
Remaining flits: 1728972 1728973 1728974 1728975 1728976 1728977 1728978 1728979 1728980 1728981 [...] (3405756 flits)
Measured flits: (0 flits)
Class 0:
Remaining flits: 1728972 1728973 1728974 1728975 1728976 1728977 1728978 1728979 1728980 1728981 [...] (3369761 flits)
Measured flits: (0 flits)
Class 0:
Remaining flits: 1748718 1748719 1748720 1748721 1748722 1748723 1748724 1748725 1748726 1748727 [...] (3334488 flits)
Measured flits: (0 flits)
Class 0:
Remaining flits: 1748718 1748719 1748720 1748721 1748722 1748723 1748724 1748725 1748726 1748727 [...] (3299825 flits)
Measured flits: (0 flits)
Class 0:
Remaining flits: 1748718 1748719 1748720 1748721 1748722 1748723 1748724 1748725 1748726 1748727 [...] (3266523 flits)
Measured flits: (0 flits)
Class 0:
Remaining flits: 1748718 1748719 1748720 1748721 1748722 1748723 1748724 1748725 1748726 1748727 [...] (3232778 flits)
Measured flits: (0 flits)
Class 0:
Remaining flits: 1748718 1748719 1748720 1748721 1748722 1748723 1748724 1748725 1748726 1748727 [...] (3199557 flits)
Measured flits: (0 flits)
Class 0:
Remaining flits: 1748718 1748719 1748720 1748721 1748722 1748723 1748724 1748725 1748726 1748727 [...] (3166904 flits)
Measured flits: (0 flits)
Class 0:
Remaining flits: 1748718 1748719 1748720 1748721 1748722 1748723 1748724 1748725 1748726 1748727 [...] (3134442 flits)
Measured flits: (0 flits)
Class 0:
Remaining flits: 1748718 1748719 1748720 1748721 1748722 1748723 1748724 1748725 1748726 1748727 [...] (3102687 flits)
Measured flits: (0 flits)
Class 0:
Remaining flits: 1748718 1748719 1748720 1748721 1748722 1748723 1748724 1748725 1748726 1748727 [...] (3070283 flits)
Measured flits: (0 flits)
Class 0:
Remaining flits: 1748718 1748719 1748720 1748721 1748722 1748723 1748724 1748725 1748726 1748727 [...] (3038588 flits)
Measured flits: (0 flits)
Class 0:
Remaining flits: 1748718 1748719 1748720 1748721 1748722 1748723 1748724 1748725 1748726 1748727 [...] (3006165 flits)
Measured flits: (0 flits)
Class 0:
Remaining flits: 1748718 1748719 1748720 1748721 1748722 1748723 1748724 1748725 1748726 1748727 [...] (2974212 flits)
Measured flits: (0 flits)
Class 0:
Remaining flits: 1748718 1748719 1748720 1748721 1748722 1748723 1748724 1748725 1748726 1748727 [...] (2941177 flits)
Measured flits: (0 flits)
Class 0:
Remaining flits: 1748718 1748719 1748720 1748721 1748722 1748723 1748724 1748725 1748726 1748727 [...] (2909764 flits)
Measured flits: (0 flits)
Class 0:
Remaining flits: 1757808 1757809 1757810 1757811 1757812 1757813 1757814 1757815 1757816 1757817 [...] (2878223 flits)
Measured flits: (0 flits)
Class 0:
Remaining flits: 1757808 1757809 1757810 1757811 1757812 1757813 1757814 1757815 1757816 1757817 [...] (2845267 flits)
Measured flits: (0 flits)
Class 0:
Remaining flits: 1757808 1757809 1757810 1757811 1757812 1757813 1757814 1757815 1757816 1757817 [...] (2811958 flits)
Measured flits: (0 flits)
Class 0:
Remaining flits: 1757808 1757809 1757810 1757811 1757812 1757813 1757814 1757815 1757816 1757817 [...] (2779143 flits)
Measured flits: (0 flits)
Class 0:
Remaining flits: 1757808 1757809 1757810 1757811 1757812 1757813 1757814 1757815 1757816 1757817 [...] (2747458 flits)
Measured flits: (0 flits)
Class 0:
Remaining flits: 1757808 1757809 1757810 1757811 1757812 1757813 1757814 1757815 1757816 1757817 [...] (2716374 flits)
Measured flits: (0 flits)
Class 0:
Remaining flits: 1757808 1757809 1757810 1757811 1757812 1757813 1757814 1757815 1757816 1757817 [...] (2685720 flits)
Measured flits: (0 flits)
Class 0:
Remaining flits: 1757808 1757809 1757810 1757811 1757812 1757813 1757814 1757815 1757816 1757817 [...] (2655057 flits)
Measured flits: (0 flits)
Class 0:
Remaining flits: 1757808 1757809 1757810 1757811 1757812 1757813 1757814 1757815 1757816 1757817 [...] (2623614 flits)
Measured flits: (0 flits)
Class 0:
Remaining flits: 1757823 1757824 1757825 2089728 2089729 2089730 2089731 2089732 2089733 2089734 [...] (2593016 flits)
Measured flits: (0 flits)
Class 0:
Remaining flits: 2277216 2277217 2277218 2277219 2277220 2277221 2277222 2277223 2277224 2277225 [...] (2561804 flits)
Measured flits: (0 flits)
Class 0:
Remaining flits: 2277216 2277217 2277218 2277219 2277220 2277221 2277222 2277223 2277224 2277225 [...] (2531329 flits)
Measured flits: (0 flits)
Class 0:
Remaining flits: 2277216 2277217 2277218 2277219 2277220 2277221 2277222 2277223 2277224 2277225 [...] (2499482 flits)
Measured flits: (0 flits)
Class 0:
Remaining flits: 2277216 2277217 2277218 2277219 2277220 2277221 2277222 2277223 2277224 2277225 [...] (2467688 flits)
Measured flits: (0 flits)
Class 0:
Remaining flits: 2277216 2277217 2277218 2277219 2277220 2277221 2277222 2277223 2277224 2277225 [...] (2436301 flits)
Measured flits: (0 flits)
Class 0:
Remaining flits: 2277216 2277217 2277218 2277219 2277220 2277221 2277222 2277223 2277224 2277225 [...] (2404419 flits)
Measured flits: (0 flits)
Class 0:
Remaining flits: 2277216 2277217 2277218 2277219 2277220 2277221 2277222 2277223 2277224 2277225 [...] (2372934 flits)
Measured flits: (0 flits)
Class 0:
Remaining flits: 2277216 2277217 2277218 2277219 2277220 2277221 2277222 2277223 2277224 2277225 [...] (2341680 flits)
Measured flits: (0 flits)
Class 0:
Remaining flits: 2277216 2277217 2277218 2277219 2277220 2277221 2277222 2277223 2277224 2277225 [...] (2311164 flits)
Measured flits: (0 flits)
Class 0:
Remaining flits: 2277216 2277217 2277218 2277219 2277220 2277221 2277222 2277223 2277224 2277225 [...] (2280445 flits)
Measured flits: (0 flits)
Class 0:
Remaining flits: 2415906 2415907 2415908 2415909 2415910 2415911 2415912 2415913 2415914 2415915 [...] (2248489 flits)
Measured flits: (0 flits)
Class 0:
Remaining flits: 2415906 2415907 2415908 2415909 2415910 2415911 2415912 2415913 2415914 2415915 [...] (2217414 flits)
Measured flits: (0 flits)
Class 0:
Remaining flits: 2415906 2415907 2415908 2415909 2415910 2415911 2415912 2415913 2415914 2415915 [...] (2186657 flits)
Measured flits: (0 flits)
Class 0:
Remaining flits: 2415906 2415907 2415908 2415909 2415910 2415911 2415912 2415913 2415914 2415915 [...] (2155846 flits)
Measured flits: (0 flits)
Class 0:
Remaining flits: 2415906 2415907 2415908 2415909 2415910 2415911 2415912 2415913 2415914 2415915 [...] (2126060 flits)
Measured flits: (0 flits)
Class 0:
Remaining flits: 2415906 2415907 2415908 2415909 2415910 2415911 2415912 2415913 2415914 2415915 [...] (2094339 flits)
Measured flits: (0 flits)
Class 0:
Remaining flits: 2415906 2415907 2415908 2415909 2415910 2415911 2415912 2415913 2415914 2415915 [...] (2063075 flits)
Measured flits: (0 flits)
Class 0:
Remaining flits: 2415906 2415907 2415908 2415909 2415910 2415911 2415912 2415913 2415914 2415915 [...] (2031734 flits)
Measured flits: (0 flits)
Class 0:
Remaining flits: 2442726 2442727 2442728 2442729 2442730 2442731 2442732 2442733 2442734 2442735 [...] (1999414 flits)
Measured flits: (0 flits)
Class 0:
Remaining flits: 2848068 2848069 2848070 2848071 2848072 2848073 2848074 2848075 2848076 2848077 [...] (1967163 flits)
Measured flits: (0 flits)
Class 0:
Remaining flits: 2848068 2848069 2848070 2848071 2848072 2848073 2848074 2848075 2848076 2848077 [...] (1934478 flits)
Measured flits: (0 flits)
Class 0:
Remaining flits: 2917836 2917837 2917838 2917839 2917840 2917841 2917842 2917843 2917844 2917845 [...] (1901975 flits)
Measured flits: (0 flits)
Class 0:
Remaining flits: 2917836 2917837 2917838 2917839 2917840 2917841 2917842 2917843 2917844 2917845 [...] (1869929 flits)
Measured flits: (0 flits)
Class 0:
Remaining flits: 2917836 2917837 2917838 2917839 2917840 2917841 2917842 2917843 2917844 2917845 [...] (1837493 flits)
Measured flits: (0 flits)
Class 0:
Remaining flits: 2917836 2917837 2917838 2917839 2917840 2917841 2917842 2917843 2917844 2917845 [...] (1804974 flits)
Measured flits: (0 flits)
Class 0:
Remaining flits: 2917836 2917837 2917838 2917839 2917840 2917841 2917842 2917843 2917844 2917845 [...] (1771998 flits)
Measured flits: (0 flits)
Class 0:
Remaining flits: 2917836 2917837 2917838 2917839 2917840 2917841 2917842 2917843 2917844 2917845 [...] (1740002 flits)
Measured flits: (0 flits)
Class 0:
Remaining flits: 2917838 2917839 2917840 2917841 2917842 2917843 2917844 2917845 2917846 2917847 [...] (1707408 flits)
Measured flits: (0 flits)
Class 0:
Remaining flits: 2917838 2917839 2917840 2917841 2917842 2917843 2917844 2917845 2917846 2917847 [...] (1675668 flits)
Measured flits: (0 flits)
Class 0:
Remaining flits: 3183804 3183805 3183806 3183807 3183808 3183809 3183810 3183811 3183812 3183813 [...] (1643872 flits)
Measured flits: (0 flits)
Class 0:
Remaining flits: 3183804 3183805 3183806 3183807 3183808 3183809 3183810 3183811 3183812 3183813 [...] (1612428 flits)
Measured flits: (0 flits)
Class 0:
Remaining flits: 3183804 3183805 3183806 3183807 3183808 3183809 3183810 3183811 3183812 3183813 [...] (1581075 flits)
Measured flits: (0 flits)
Class 0:
Remaining flits: 3183804 3183805 3183806 3183807 3183808 3183809 3183810 3183811 3183812 3183813 [...] (1550041 flits)
Measured flits: (0 flits)
Class 0:
Remaining flits: 3183810 3183811 3183812 3183813 3183814 3183815 3183816 3183817 3183818 3183819 [...] (1518788 flits)
Measured flits: (0 flits)
Class 0:
Remaining flits: 3339630 3339631 3339632 3339633 3339634 3339635 3339636 3339637 3339638 3339639 [...] (1488626 flits)
Measured flits: (0 flits)
Class 0:
Remaining flits: 3339630 3339631 3339632 3339633 3339634 3339635 3339636 3339637 3339638 3339639 [...] (1458428 flits)
Measured flits: (0 flits)
Class 0:
Remaining flits: 3339630 3339631 3339632 3339633 3339634 3339635 3339636 3339637 3339638 3339639 [...] (1425716 flits)
Measured flits: (0 flits)
Class 0:
Remaining flits: 3339630 3339631 3339632 3339633 3339634 3339635 3339636 3339637 3339638 3339639 [...] (1393154 flits)
Measured flits: (0 flits)
Class 0:
Remaining flits: 3339630 3339631 3339632 3339633 3339634 3339635 3339636 3339637 3339638 3339639 [...] (1362613 flits)
Measured flits: (0 flits)
Class 0:
Remaining flits: 3339630 3339631 3339632 3339633 3339634 3339635 3339636 3339637 3339638 3339639 [...] (1331597 flits)
Measured flits: (0 flits)
Class 0:
Remaining flits: 3339630 3339631 3339632 3339633 3339634 3339635 3339636 3339637 3339638 3339639 [...] (1300978 flits)
Measured flits: (0 flits)
Class 0:
Remaining flits: 3339630 3339631 3339632 3339633 3339634 3339635 3339636 3339637 3339638 3339639 [...] (1269129 flits)
Measured flits: (0 flits)
Class 0:
Remaining flits: 3339630 3339631 3339632 3339633 3339634 3339635 3339636 3339637 3339638 3339639 [...] (1237792 flits)
Measured flits: (0 flits)
Class 0:
Remaining flits: 3339630 3339631 3339632 3339633 3339634 3339635 3339636 3339637 3339638 3339639 [...] (1206295 flits)
Measured flits: (0 flits)
Class 0:
Remaining flits: 3339630 3339631 3339632 3339633 3339634 3339635 3339636 3339637 3339638 3339639 [...] (1175127 flits)
Measured flits: (0 flits)
Class 0:
Remaining flits: 3339630 3339631 3339632 3339633 3339634 3339635 3339636 3339637 3339638 3339639 [...] (1143909 flits)
Measured flits: (0 flits)
Class 0:
Remaining flits: 3339630 3339631 3339632 3339633 3339634 3339635 3339636 3339637 3339638 3339639 [...] (1111909 flits)
Measured flits: (0 flits)
Class 0:
Remaining flits: 3339646 3339647 3430602 3430603 3430604 3430605 3430606 3430607 3430608 3430609 [...] (1079566 flits)
Measured flits: (0 flits)
Class 0:
Remaining flits: 3430602 3430603 3430604 3430605 3430606 3430607 3430608 3430609 3430610 3430611 [...] (1046560 flits)
Measured flits: (0 flits)
Class 0:
Remaining flits: 3430602 3430603 3430604 3430605 3430606 3430607 3430608 3430609 3430610 3430611 [...] (1013468 flits)
Measured flits: (0 flits)
Class 0:
Remaining flits: 3430602 3430603 3430604 3430605 3430606 3430607 3430608 3430609 3430610 3430611 [...] (980649 flits)
Measured flits: (0 flits)
Class 0:
Remaining flits: 3430602 3430603 3430604 3430605 3430606 3430607 3430608 3430609 3430610 3430611 [...] (948560 flits)
Measured flits: (0 flits)
Class 0:
Remaining flits: 3430602 3430603 3430604 3430605 3430606 3430607 3430608 3430609 3430610 3430611 [...] (917045 flits)
Measured flits: (0 flits)
Class 0:
Remaining flits: 3430602 3430603 3430604 3430605 3430606 3430607 3430608 3430609 3430610 3430611 [...] (885149 flits)
Measured flits: (0 flits)
Class 0:
Remaining flits: 3430602 3430603 3430604 3430605 3430606 3430607 3430608 3430609 3430610 3430611 [...] (854107 flits)
Measured flits: (0 flits)
Class 0:
Remaining flits: 3430602 3430603 3430604 3430605 3430606 3430607 3430608 3430609 3430610 3430611 [...] (821189 flits)
Measured flits: (0 flits)
Class 0:
Remaining flits: 3430619 3474036 3474037 3474038 3474039 3474040 3474041 3474042 3474043 3474044 [...] (789041 flits)
Measured flits: (0 flits)
Class 0:
Remaining flits: 3477960 3477961 3477962 3477963 3477964 3477965 3477966 3477967 3477968 3477969 [...] (756191 flits)
Measured flits: (0 flits)
Class 0:
Remaining flits: 3477960 3477961 3477962 3477963 3477964 3477965 3477966 3477967 3477968 3477969 [...] (723025 flits)
Measured flits: (0 flits)
Class 0:
Remaining flits: 3477960 3477961 3477962 3477963 3477964 3477965 3477966 3477967 3477968 3477969 [...] (690280 flits)
Measured flits: (0 flits)
Class 0:
Remaining flits: 3477960 3477961 3477962 3477963 3477964 3477965 3477966 3477967 3477968 3477969 [...] (657045 flits)
Measured flits: (0 flits)
Class 0:
Remaining flits: 3477960 3477961 3477962 3477963 3477964 3477965 3477966 3477967 3477968 3477969 [...] (623480 flits)
Measured flits: (0 flits)
Class 0:
Remaining flits: 3477960 3477961 3477962 3477963 3477964 3477965 3477966 3477967 3477968 3477969 [...] (589795 flits)
Measured flits: (0 flits)
Class 0:
Remaining flits: 3477960 3477961 3477962 3477963 3477964 3477965 3477966 3477967 3477968 3477969 [...] (556679 flits)
Measured flits: (0 flits)
Class 0:
Remaining flits: 3477960 3477961 3477962 3477963 3477964 3477965 3477966 3477967 3477968 3477969 [...] (523559 flits)
Measured flits: (0 flits)
Class 0:
Remaining flits: 3477960 3477961 3477962 3477963 3477964 3477965 3477966 3477967 3477968 3477969 [...] (490533 flits)
Measured flits: (0 flits)
Class 0:
Remaining flits: 3729564 3729565 3729566 3729567 3729568 3729569 3729570 3729571 3729572 3729573 [...] (457195 flits)
Measured flits: (0 flits)
Class 0:
Remaining flits: 3729564 3729565 3729566 3729567 3729568 3729569 3729570 3729571 3729572 3729573 [...] (424134 flits)
Measured flits: (0 flits)
Class 0:
Remaining flits: 3911814 3911815 3911816 3911817 3911818 3911819 3911820 3911821 3911822 3911823 [...] (390652 flits)
Measured flits: (0 flits)
Class 0:
Remaining flits: 3911814 3911815 3911816 3911817 3911818 3911819 3911820 3911821 3911822 3911823 [...] (357089 flits)
Measured flits: (0 flits)
Class 0:
Remaining flits: 3911814 3911815 3911816 3911817 3911818 3911819 3911820 3911821 3911822 3911823 [...] (324398 flits)
Measured flits: (0 flits)
Class 0:
Remaining flits: 3911814 3911815 3911816 3911817 3911818 3911819 3911820 3911821 3911822 3911823 [...] (291878 flits)
Measured flits: (0 flits)
Class 0:
Remaining flits: 3911814 3911815 3911816 3911817 3911818 3911819 3911820 3911821 3911822 3911823 [...] (259219 flits)
Measured flits: (0 flits)
Class 0:
Remaining flits: 3911814 3911815 3911816 3911817 3911818 3911819 3911820 3911821 3911822 3911823 [...] (227489 flits)
Measured flits: (0 flits)
Class 0:
Remaining flits: 3911814 3911815 3911816 3911817 3911818 3911819 3911820 3911821 3911822 3911823 [...] (196664 flits)
Measured flits: (0 flits)
Class 0:
Remaining flits: 3911814 3911815 3911816 3911817 3911818 3911819 3911820 3911821 3911822 3911823 [...] (167863 flits)
Measured flits: (0 flits)
Class 0:
Remaining flits: 3911814 3911815 3911816 3911817 3911818 3911819 3911820 3911821 3911822 3911823 [...] (140437 flits)
Measured flits: (0 flits)
Class 0:
Remaining flits: 3911814 3911815 3911816 3911817 3911818 3911819 3911820 3911821 3911822 3911823 [...] (115489 flits)
Measured flits: (0 flits)
Class 0:
Remaining flits: 3968240 3968241 3968242 3968243 4480092 4480093 4480094 4480095 4480096 4480097 [...] (92657 flits)
Measured flits: (0 flits)
Class 0:
Remaining flits: 4480092 4480093 4480094 4480095 4480096 4480097 4480098 4480099 4480100 4480101 [...] (72830 flits)
Measured flits: (0 flits)
Class 0:
Remaining flits: 4480092 4480093 4480094 4480095 4480096 4480097 4480098 4480099 4480100 4480101 [...] (58367 flits)
Measured flits: (0 flits)
Class 0:
Remaining flits: 4519026 4519027 4519028 4519029 4519030 4519031 4519032 4519033 4519034 4519035 [...] (47654 flits)
Measured flits: (0 flits)
Class 0:
Remaining flits: 4800204 4800205 4800206 4800207 4800208 4800209 4800210 4800211 4800212 4800213 [...] (38642 flits)
Measured flits: (0 flits)
Class 0:
Remaining flits: 4896972 4896973 4896974 4896975 4896976 4896977 4896978 4896979 4896980 4896981 [...] (30695 flits)
Measured flits: (0 flits)
Class 0:
Remaining flits: 4896972 4896973 4896974 4896975 4896976 4896977 4896978 4896979 4896980 4896981 [...] (22822 flits)
Measured flits: (0 flits)
Class 0:
Remaining flits: 4896972 4896973 4896974 4896975 4896976 4896977 4896978 4896979 4896980 4896981 [...] (15182 flits)
Measured flits: (0 flits)
Class 0:
Remaining flits: 5115330 5115331 5115332 5115333 5115334 5115335 5115336 5115337 5115338 5115339 [...] (9102 flits)
Measured flits: (0 flits)
Class 0:
Remaining flits: 5610672 5610673 5610674 5610675 5610676 5610677 5610678 5610679 5610680 5610681 [...] (4703 flits)
Measured flits: (0 flits)
Class 0:
Remaining flits: 5790006 5790007 5790008 5790009 5790010 5790011 5790012 5790013 5790014 5790015 [...] (1827 flits)
Measured flits: (0 flits)
Time taken is 244408 cycles
====== Overall Traffic Statistics ======
====== Traffic class 0 ======
Packet latency average = 13195.5 (1 samples)
	minimum = 23 (1 samples)
	maximum = 86597 (1 samples)
Network latency average = 13182.5 (1 samples)
	minimum = 23 (1 samples)
	maximum = 86597 (1 samples)
Flit latency average = 71622.2 (1 samples)
	minimum = 6 (1 samples)
	maximum = 196542 (1 samples)
Fragmentation average = 306.707 (1 samples)
	minimum = 0 (1 samples)
	maximum = 11043 (1 samples)
Injected packet rate average = 0.0334628 (1 samples)
	minimum = 0.0265714 (1 samples)
	maximum = 0.0387143 (1 samples)
Accepted packet rate average = 0.0139368 (1 samples)
	minimum = 0.00957143 (1 samples)
	maximum = 0.0175714 (1 samples)
Injected flit rate average = 0.602362 (1 samples)
	minimum = 0.478 (1 samples)
	maximum = 0.697286 (1 samples)
Accepted flit rate average = 0.25108 (1 samples)
	minimum = 0.177714 (1 samples)
	maximum = 0.319857 (1 samples)
Injected packet size average = 18.001 (1 samples)
Accepted packet size average = 18.0157 (1 samples)
Hops average = 5.07185 (1 samples)
Total run time 482.826
