BEGIN Configuration File: networks/mezzanine_config
topology = mezzanine;
n = 12;

routing_function = multipath;
internal_speedup = 2.0;
latency_thres = 100000.0;
use_read_write = 0;

sample_period = 1000;
injection_rate = 0.5;
packet_size = 18;

noq = 1;
routing_delay = 0;
vc_alloc_delay = 1;
sw_alloc_delay = 1;
st_final_delay = 1;
vc_allocator = islip; 
sw_allocator = islip;
alloc_iters  = 4;
num_vcs     = 12;
buffer_policy = private; // private or shared
buf_size = -1; // -1 for buffer_policy = private;
vc_buf_size = 4096; // size of each VOQ with buffer_policy = private
output_buffer_size = -1;


traffic = uniform;

//mezW = 0.0;
//mezPredefinedPatternType = shift-inter; //shift-qfdb

END Configuration File: networks/mezzanine_config
OVERRIDE Parameter: injection_rate=0.055556
OVERRIDE Parameter: routing_function=min
OVERRIDE Parameter: num_vcs=64
OVERRIDE Parameter: vc_buf_size=144
OVERRIDE Parameter: internal_speedup=1.0
OVERRIDE Parameter: injection_process=bernoulli
OVERRIDE Parameter: sim_type=latency
OVERRIDE Parameter: burst_alpha=0.0038461538
OVERRIDE Parameter: burst_beta=0.1
network: network_0
========================== Routing table  =====================
Number of Subnets: 1
Class 0:
Packet latency average = 338.814
	minimum = 23
	maximum = 975
Network latency average = 307.802
	minimum = 23
	maximum = 975
Slowest packet = 87
Flit latency average = 237.34
	minimum = 6
	maximum = 958
Slowest flit = 1583
Fragmentation average = 187.218
	minimum = 0
	maximum = 842
Injected packet rate average = 0.0501406
	minimum = 0.035 (at node 20)
	maximum = 0.056 (at node 23)
Accepted packet rate average = 0.0119115
	minimum = 0.005 (at node 45)
	maximum = 0.02 (at node 63)
Injected flit rate average = 0.894479
	minimum = 0.63 (at node 20)
	maximum = 1 (at node 77)
Accepted flit rate average= 0.25474
	minimum = 0.124 (at node 61)
	maximum = 0.413 (at node 63)
Injected packet length average = 17.8394
Accepted packet length average = 21.3861
Total in-flight flits = 124376 (0 measured)
latency change    = 1
throughput change = 1
Class 0:
Packet latency average = 613.48
	minimum = 23
	maximum = 1956
Network latency average = 561.141
	minimum = 23
	maximum = 1942
Slowest packet = 341
Flit latency average = 479.283
	minimum = 6
	maximum = 1931
Slowest flit = 6979
Fragmentation average = 257.979
	minimum = 0
	maximum = 1708
Injected packet rate average = 0.0489766
	minimum = 0.0335 (at node 28)
	maximum = 0.056 (at node 23)
Accepted packet rate average = 0.0131068
	minimum = 0.008 (at node 4)
	maximum = 0.02 (at node 137)
Injected flit rate average = 0.877711
	minimum = 0.5975 (at node 28)
	maximum = 0.9995 (at node 23)
Accepted flit rate average= 0.262003
	minimum = 0.162 (at node 116)
	maximum = 0.4015 (at node 137)
Injected packet length average = 17.921
Accepted packet length average = 19.9899
Total in-flight flits = 237935 (0 measured)
latency change    = 0.447718
throughput change = 0.0277212
Class 0:
Packet latency average = 1553.11
	minimum = 31
	maximum = 2865
Network latency average = 1456.17
	minimum = 28
	maximum = 2835
Slowest packet = 941
Flit latency average = 1414.85
	minimum = 6
	maximum = 2949
Slowest flit = 4640
Fragmentation average = 374.991
	minimum = 3
	maximum = 2545
Injected packet rate average = 0.0435052
	minimum = 0.006 (at node 12)
	maximum = 0.056 (at node 1)
Accepted packet rate average = 0.0135625
	minimum = 0.005 (at node 79)
	maximum = 0.021 (at node 144)
Injected flit rate average = 0.782583
	minimum = 0.11 (at node 12)
	maximum = 1 (at node 1)
Accepted flit rate average= 0.246047
	minimum = 0.119 (at node 96)
	maximum = 0.416 (at node 43)
Injected packet length average = 17.9883
Accepted packet length average = 18.1417
Total in-flight flits = 341030 (0 measured)
latency change    = 0.604998
throughput change = 0.0648483
Warmed up ...Time used is 3000 cycles
Class 0:
Packet latency average = 648.553
	minimum = 32
	maximum = 2354
Network latency average = 65.5094
	minimum = 29
	maximum = 801
Slowest packet = 27252
Flit latency average = 2254.85
	minimum = 6
	maximum = 3828
Slowest flit = 10683
Fragmentation average = 12.9937
	minimum = 4
	maximum = 281
Injected packet rate average = 0.0437135
	minimum = 0.006 (at node 108)
	maximum = 0.056 (at node 5)
Accepted packet rate average = 0.0128281
	minimum = 0.004 (at node 185)
	maximum = 0.024 (at node 191)
Injected flit rate average = 0.787432
	minimum = 0.118 (at node 108)
	maximum = 1 (at node 1)
Accepted flit rate average= 0.231813
	minimum = 0.077 (at node 185)
	maximum = 0.419 (at node 191)
Injected packet length average = 18.0135
Accepted packet length average = 18.0706
Total in-flight flits = 447632 (148158 measured)
latency change    = 1.39472
throughput change = 0.0614047
Class 0:
Packet latency average = 1065.91
	minimum = 32
	maximum = 3433
Network latency average = 316.136
	minimum = 29
	maximum = 1900
Slowest packet = 27252
Flit latency average = 2637.67
	minimum = 6
	maximum = 4850
Slowest flit = 19652
Fragmentation average = 37.7131
	minimum = 4
	maximum = 649
Injected packet rate average = 0.038276
	minimum = 0.0085 (at node 140)
	maximum = 0.056 (at node 18)
Accepted packet rate average = 0.0128542
	minimum = 0.0065 (at node 155)
	maximum = 0.019 (at node 129)
Injected flit rate average = 0.689635
	minimum = 0.1545 (at node 140)
	maximum = 1 (at node 18)
Accepted flit rate average= 0.23075
	minimum = 0.1175 (at node 36)
	maximum = 0.3385 (at node 0)
Injected packet length average = 18.0174
Accepted packet length average = 17.9514
Total in-flight flits = 517166 (258004 measured)
latency change    = 0.391547
throughput change = 0.00460455
Class 0:
Packet latency average = 1760.36
	minimum = 32
	maximum = 4410
Network latency average = 772.04
	minimum = 29
	maximum = 2960
Slowest packet = 27252
Flit latency average = 3008.68
	minimum = 6
	maximum = 5837
Slowest flit = 20803
Fragmentation average = 73.9396
	minimum = 3
	maximum = 1205
Injected packet rate average = 0.0310625
	minimum = 0.0106667 (at node 68)
	maximum = 0.048 (at node 58)
Accepted packet rate average = 0.0127049
	minimum = 0.008 (at node 155)
	maximum = 0.0186667 (at node 0)
Injected flit rate average = 0.559736
	minimum = 0.193 (at node 68)
	maximum = 0.867667 (at node 58)
Accepted flit rate average= 0.228066
	minimum = 0.129 (at node 36)
	maximum = 0.339 (at node 103)
Injected packet length average = 18.0197
Accepted packet length average = 17.9511
Total in-flight flits = 531900 (310378 measured)
latency change    = 0.394495
throughput change = 0.0117686
Class 0:
Packet latency average = 2556.08
	minimum = 32
	maximum = 5488
Network latency average = 1285.76
	minimum = 29
	maximum = 3929
Slowest packet = 27252
Flit latency average = 3350.77
	minimum = 6
	maximum = 6719
Slowest flit = 43240
Fragmentation average = 115.874
	minimum = 3
	maximum = 1627
Injected packet rate average = 0.0270534
	minimum = 0.01175 (at node 68)
	maximum = 0.0405 (at node 155)
Accepted packet rate average = 0.0127005
	minimum = 0.00825 (at node 36)
	maximum = 0.0185 (at node 103)
Injected flit rate average = 0.487436
	minimum = 0.20975 (at node 140)
	maximum = 0.73025 (at node 155)
Accepted flit rate average= 0.227724
	minimum = 0.146 (at node 36)
	maximum = 0.34225 (at node 103)
Injected packet length average = 18.0176
Accepted packet length average = 17.9303
Total in-flight flits = 540268 (354153 measured)
latency change    = 0.311305
throughput change = 0.00150188
Class 0:
Packet latency average = 3291.32
	minimum = 32
	maximum = 6479
Network latency average = 1716.31
	minimum = 29
	maximum = 4980
Slowest packet = 27252
Flit latency average = 3660.01
	minimum = 6
	maximum = 7745
Slowest flit = 39390
Fragmentation average = 149.741
	minimum = 1
	maximum = 1627
Injected packet rate average = 0.0246719
	minimum = 0.0114 (at node 140)
	maximum = 0.0358 (at node 155)
Accepted packet rate average = 0.0126323
	minimum = 0.0086 (at node 155)
	maximum = 0.0186 (at node 103)
Injected flit rate average = 0.444414
	minimum = 0.205 (at node 140)
	maximum = 0.6442 (at node 155)
Accepted flit rate average= 0.226941
	minimum = 0.153 (at node 155)
	maximum = 0.3292 (at node 103)
Injected packet length average = 18.013
Accepted packet length average = 17.9651
Total in-flight flits = 549569 (396496 measured)
latency change    = 0.223387
throughput change = 0.00345171
Class 0:
Packet latency average = 3989.91
	minimum = 32
	maximum = 7386
Network latency average = 2148.66
	minimum = 29
	maximum = 5913
Slowest packet = 27252
Flit latency average = 3960.5
	minimum = 6
	maximum = 8743
Slowest flit = 37526
Fragmentation average = 181.212
	minimum = 1
	maximum = 2131
Injected packet rate average = 0.0230243
	minimum = 0.0121667 (at node 32)
	maximum = 0.0323333 (at node 155)
Accepted packet rate average = 0.0125851
	minimum = 0.00933333 (at node 104)
	maximum = 0.0176667 (at node 103)
Injected flit rate average = 0.414725
	minimum = 0.219667 (at node 32)
	maximum = 0.584 (at node 155)
Accepted flit rate average= 0.225752
	minimum = 0.167833 (at node 155)
	maximum = 0.314667 (at node 103)
Injected packet length average = 18.0125
Accepted packet length average = 17.9381
Total in-flight flits = 558468 (435655 measured)
latency change    = 0.17509
throughput change = 0.00526636
Class 0:
Packet latency average = 4672.97
	minimum = 32
	maximum = 8548
Network latency average = 2671.46
	minimum = 29
	maximum = 6919
Slowest packet = 27252
Flit latency average = 4250.01
	minimum = 6
	maximum = 9790
Slowest flit = 24495
Fragmentation average = 210.532
	minimum = 1
	maximum = 3216
Injected packet rate average = 0.0219018
	minimum = 0.0114286 (at node 176)
	maximum = 0.0302857 (at node 155)
Accepted packet rate average = 0.0125007
	minimum = 0.00942857 (at node 104)
	maximum = 0.0161429 (at node 103)
Injected flit rate average = 0.394455
	minimum = 0.206714 (at node 176)
	maximum = 0.546143 (at node 155)
Accepted flit rate average= 0.224224
	minimum = 0.166571 (at node 137)
	maximum = 0.295714 (at node 103)
Injected packet length average = 18.0102
Accepted packet length average = 17.9368
Total in-flight flits = 569665 (473002 measured)
latency change    = 0.146173
throughput change = 0.00681362
Draining all recorded packets ...
Class 0:
Remaining flits: 31286 31287 31288 31289 31290 31291 31292 31293 31294 31295 [...] (579388 flits)
Measured flits: 488880 488881 488882 488883 488884 488885 488886 488887 488888 488889 [...] (503273 flits)
Class 0:
Remaining flits: 31286 31287 31288 31289 31290 31291 31292 31293 31294 31295 [...] (588088 flits)
Measured flits: 488880 488881 488882 488883 488884 488885 488886 488887 488888 488889 [...] (527008 flits)
Class 0:
Remaining flits: 31286 31287 31288 31289 31290 31291 31292 31293 31294 31295 [...] (597894 flits)
Measured flits: 488916 488917 488918 488919 488920 488921 488922 488923 488924 488925 [...] (548330 flits)
Class 0:
Remaining flits: 31286 31287 31288 31289 31290 31291 31292 31293 31294 31295 [...] (610971 flits)
Measured flits: 488916 488917 488918 488919 488920 488921 488922 488923 488924 488925 [...] (570037 flits)
Class 0:
Remaining flits: 32344 32345 48806 48807 48808 48809 48810 48811 48812 48813 [...] (623252 flits)
Measured flits: 488916 488917 488918 488919 488920 488921 488922 488923 488924 488925 [...] (589288 flits)
Class 0:
Remaining flits: 51102 51103 51104 51105 51106 51107 51108 51109 51110 51111 [...] (636719 flits)
Measured flits: 488916 488917 488918 488919 488920 488921 488922 488923 488924 488925 [...] (608676 flits)
Class 0:
Remaining flits: 51102 51103 51104 51105 51106 51107 51108 51109 51110 51111 [...] (656399 flits)
Measured flits: 488916 488917 488918 488919 488920 488921 488922 488923 488924 488925 [...] (632853 flits)
Class 0:
Remaining flits: 51102 51103 51104 51105 51106 51107 51108 51109 51110 51111 [...] (670863 flits)
Measured flits: 488916 488917 488918 488919 488920 488921 488922 488923 488924 488925 [...] (650611 flits)
Class 0:
Remaining flits: 51104 51105 51106 51107 51108 51109 51110 51111 51112 51113 [...] (684561 flits)
Measured flits: 488916 488917 488918 488919 488920 488921 488922 488923 488924 488925 [...] (667321 flits)
Class 0:
Remaining flits: 51104 51105 51106 51107 51108 51109 51110 51111 51112 51113 [...] (699063 flits)
Measured flits: 488916 488917 488918 488919 488920 488921 488922 488923 488924 488925 [...] (684173 flits)
Class 0:
Remaining flits: 51104 51105 51106 51107 51108 51109 51110 51111 51112 51113 [...] (712602 flits)
Measured flits: 488916 488917 488918 488919 488920 488921 488922 488923 488924 488925 [...] (699341 flits)
Class 0:
Remaining flits: 51112 51113 51114 51115 51116 51117 51118 51119 69318 69319 [...] (723820 flits)
Measured flits: 488916 488917 488918 488919 488920 488921 488922 488923 488924 488925 [...] (710775 flits)
Class 0:
Remaining flits: 51112 51113 51114 51115 51116 51117 51118 51119 69318 69319 [...] (732285 flits)
Measured flits: 488916 488917 488918 488919 488920 488921 488922 488923 488924 488925 [...] (714025 flits)
Class 0:
Remaining flits: 51112 51113 51114 51115 51116 51117 51118 51119 69318 69319 [...] (738562 flits)
Measured flits: 488916 488917 488918 488919 488920 488921 488922 488923 488924 488925 [...] (711444 flits)
Class 0:
Remaining flits: 51112 51113 51114 51115 51116 51117 51118 51119 69318 69319 [...] (738479 flits)
Measured flits: 488916 488917 488918 488919 488920 488921 488922 488923 488924 488925 [...] (698489 flits)
Class 0:
Remaining flits: 69318 69319 69320 69321 69322 69323 69324 69325 69326 69327 [...] (737404 flits)
Measured flits: 488916 488917 488918 488919 488920 488921 488922 488923 488924 488925 [...] (684414 flits)
Class 0:
Remaining flits: 69318 69319 69320 69321 69322 69323 69324 69325 69326 69327 [...] (736422 flits)
Measured flits: 488916 488917 488918 488919 488920 488921 488922 488923 488924 488925 [...] (669907 flits)
Class 0:
Remaining flits: 69318 69319 69320 69321 69322 69323 69324 69325 69326 69327 [...] (735967 flits)
Measured flits: 488916 488917 488918 488919 488920 488921 488922 488923 488924 488925 [...] (650794 flits)
Class 0:
Remaining flits: 69318 69319 69320 69321 69322 69323 69324 69325 69326 69327 [...] (734650 flits)
Measured flits: 488916 488917 488918 488919 488920 488921 488922 488923 488924 488925 [...] (628391 flits)
Class 0:
Remaining flits: 69318 69319 69320 69321 69322 69323 69324 69325 69326 69327 [...] (728112 flits)
Measured flits: 488916 488917 488918 488919 488920 488921 488922 488923 488924 488925 [...] (604291 flits)
Class 0:
Remaining flits: 69318 69319 69320 69321 69322 69323 69324 69325 69326 69327 [...] (724158 flits)
Measured flits: 488916 488917 488918 488919 488920 488921 488922 488923 488924 488925 [...] (578159 flits)
Class 0:
Remaining flits: 69318 69319 69320 69321 69322 69323 69324 69325 69326 69327 [...] (721139 flits)
Measured flits: 488916 488917 488918 488919 488920 488921 488922 488923 488924 488925 [...] (552781 flits)
Class 0:
Remaining flits: 69318 69319 69320 69321 69322 69323 69324 69325 69326 69327 [...] (720025 flits)
Measured flits: 488916 488917 488918 488919 488920 488921 488922 488923 488924 488925 [...] (527566 flits)
Class 0:
Remaining flits: 69318 69319 69320 69321 69322 69323 69324 69325 69326 69327 [...] (718168 flits)
Measured flits: 488916 488917 488918 488919 488920 488921 488922 488923 488924 488925 [...] (501008 flits)
Class 0:
Remaining flits: 69318 69319 69320 69321 69322 69323 69324 69325 69326 69327 [...] (713254 flits)
Measured flits: 490734 490735 490736 490737 490738 490739 490740 490741 490742 490743 [...] (472952 flits)
Class 0:
Remaining flits: 169511 169512 169513 169514 169515 169516 169517 169518 169519 169520 [...] (710068 flits)
Measured flits: 490734 490735 490736 490737 490738 490739 490740 490741 490742 490743 [...] (448700 flits)
Class 0:
Remaining flits: 178650 178651 178652 178653 178654 178655 178656 178657 178658 178659 [...] (708583 flits)
Measured flits: 490734 490735 490736 490737 490738 490739 490740 490741 490742 490743 [...] (423250 flits)
Class 0:
Remaining flits: 178650 178651 178652 178653 178654 178655 178656 178657 178658 178659 [...] (709221 flits)
Measured flits: 492876 492877 492878 492879 492880 492881 492882 492883 492884 492885 [...] (399445 flits)
Class 0:
Remaining flits: 178650 178651 178652 178653 178654 178655 178656 178657 178658 178659 [...] (707123 flits)
Measured flits: 492876 492877 492878 492879 492880 492881 492882 492883 492884 492885 [...] (374357 flits)
Class 0:
Remaining flits: 178650 178651 178652 178653 178654 178655 178656 178657 178658 178659 [...] (705507 flits)
Measured flits: 492876 492877 492878 492879 492880 492881 492882 492883 492884 492885 [...] (350382 flits)
Class 0:
Remaining flits: 178650 178651 178652 178653 178654 178655 178656 178657 178658 178659 [...] (703563 flits)
Measured flits: 492876 492877 492878 492879 492880 492881 492882 492883 492884 492885 [...] (327684 flits)
Class 0:
Remaining flits: 178650 178651 178652 178653 178654 178655 178656 178657 178658 178659 [...] (697857 flits)
Measured flits: 492876 492877 492878 492879 492880 492881 492882 492883 492884 492885 [...] (305420 flits)
Class 0:
Remaining flits: 311216 311217 311218 311219 361188 361189 361190 361191 361192 361193 [...] (695828 flits)
Measured flits: 492876 492877 492878 492879 492880 492881 492882 492883 492884 492885 [...] (285576 flits)
Class 0:
Remaining flits: 361188 361189 361190 361191 361192 361193 361194 361195 361196 361197 [...] (690323 flits)
Measured flits: 492890 492891 492892 492893 506685 506686 506687 506688 506689 506690 [...] (265693 flits)
Class 0:
Remaining flits: 361188 361189 361190 361191 361192 361193 361194 361195 361196 361197 [...] (684477 flits)
Measured flits: 492890 492891 492892 492893 506685 506686 506687 506688 506689 506690 [...] (246109 flits)
Class 0:
Remaining flits: 361188 361189 361190 361191 361192 361193 361194 361195 361196 361197 [...] (684277 flits)
Measured flits: 515268 515269 515270 515271 515272 515273 515274 515275 515276 515277 [...] (228595 flits)
Class 0:
Remaining flits: 361188 361189 361190 361191 361192 361193 361194 361195 361196 361197 [...] (686130 flits)
Measured flits: 525138 525139 525140 525141 525142 525143 525144 525145 525146 525147 [...] (210291 flits)
Class 0:
Remaining flits: 361188 361189 361190 361191 361192 361193 361194 361195 361196 361197 [...] (689086 flits)
Measured flits: 525138 525139 525140 525141 525142 525143 525144 525145 525146 525147 [...] (192360 flits)
Class 0:
Remaining flits: 361188 361189 361190 361191 361192 361193 361194 361195 361196 361197 [...] (690605 flits)
Measured flits: 534150 534151 534152 534153 534154 534155 534156 534157 534158 534159 [...] (175641 flits)
Class 0:
Remaining flits: 361188 361189 361190 361191 361192 361193 361194 361195 361196 361197 [...] (688921 flits)
Measured flits: 534150 534151 534152 534153 534154 534155 534156 534157 534158 534159 [...] (160582 flits)
Class 0:
Remaining flits: 410958 410959 410960 410961 410962 410963 410964 410965 410966 410967 [...] (687055 flits)
Measured flits: 534150 534151 534152 534153 534154 534155 534156 534157 534158 534159 [...] (146253 flits)
Class 0:
Remaining flits: 410958 410959 410960 410961 410962 410963 410964 410965 410966 410967 [...] (687106 flits)
Measured flits: 534150 534151 534152 534153 534154 534155 534156 534157 534158 534159 [...] (132774 flits)
Class 0:
Remaining flits: 410958 410959 410960 410961 410962 410963 410964 410965 410966 410967 [...] (684446 flits)
Measured flits: 536256 536257 536258 536259 536260 536261 536262 536263 536264 536265 [...] (119399 flits)
Class 0:
Remaining flits: 410958 410959 410960 410961 410962 410963 410964 410965 410966 410967 [...] (683520 flits)
Measured flits: 536256 536257 536258 536259 536260 536261 536262 536263 536264 536265 [...] (107116 flits)
Class 0:
Remaining flits: 410958 410959 410960 410961 410962 410963 410964 410965 410966 410967 [...] (681068 flits)
Measured flits: 536256 536257 536258 536259 536260 536261 536262 536263 536264 536265 [...] (96007 flits)
Class 0:
Remaining flits: 410958 410959 410960 410961 410962 410963 410964 410965 410966 410967 [...] (680169 flits)
Measured flits: 536256 536257 536258 536259 536260 536261 536262 536263 536264 536265 [...] (85462 flits)
Class 0:
Remaining flits: 481279 481280 481281 481282 481283 578556 578557 578558 578559 578560 [...] (682966 flits)
Measured flits: 578556 578557 578558 578559 578560 578561 578562 578563 578564 578565 [...] (76921 flits)
Class 0:
Remaining flits: 578556 578557 578558 578559 578560 578561 578562 578563 578564 578565 [...] (686206 flits)
Measured flits: 578556 578557 578558 578559 578560 578561 578562 578563 578564 578565 [...] (67763 flits)
Class 0:
Remaining flits: 578556 578557 578558 578559 578560 578561 578562 578563 578564 578565 [...] (689529 flits)
Measured flits: 578556 578557 578558 578559 578560 578561 578562 578563 578564 578565 [...] (60439 flits)
Class 0:
Remaining flits: 578556 578557 578558 578559 578560 578561 578562 578563 578564 578565 [...] (691317 flits)
Measured flits: 578556 578557 578558 578559 578560 578561 578562 578563 578564 578565 [...] (53693 flits)
Class 0:
Remaining flits: 578556 578557 578558 578559 578560 578561 578562 578563 578564 578565 [...] (697703 flits)
Measured flits: 578556 578557 578558 578559 578560 578561 578562 578563 578564 578565 [...] (47298 flits)
Class 0:
Remaining flits: 664812 664813 664814 664815 664816 664817 664818 664819 664820 664821 [...] (697158 flits)
Measured flits: 664812 664813 664814 664815 664816 664817 664818 664819 664820 664821 [...] (41834 flits)
Class 0:
Remaining flits: 664812 664813 664814 664815 664816 664817 664818 664819 664820 664821 [...] (696972 flits)
Measured flits: 664812 664813 664814 664815 664816 664817 664818 664819 664820 664821 [...] (36515 flits)
Class 0:
Remaining flits: 664812 664813 664814 664815 664816 664817 664818 664819 664820 664821 [...] (694289 flits)
Measured flits: 664812 664813 664814 664815 664816 664817 664818 664819 664820 664821 [...] (32254 flits)
Class 0:
Remaining flits: 664812 664813 664814 664815 664816 664817 664818 664819 664820 664821 [...] (689211 flits)
Measured flits: 664812 664813 664814 664815 664816 664817 664818 664819 664820 664821 [...] (28529 flits)
Class 0:
Remaining flits: 691110 691111 691112 691113 691114 691115 691116 691117 691118 691119 [...] (686691 flits)
Measured flits: 691110 691111 691112 691113 691114 691115 691116 691117 691118 691119 [...] (24711 flits)
Class 0:
Remaining flits: 691110 691111 691112 691113 691114 691115 691116 691117 691118 691119 [...] (683863 flits)
Measured flits: 691110 691111 691112 691113 691114 691115 691116 691117 691118 691119 [...] (21608 flits)
Class 0:
Remaining flits: 691110 691111 691112 691113 691114 691115 691116 691117 691118 691119 [...] (677385 flits)
Measured flits: 691110 691111 691112 691113 691114 691115 691116 691117 691118 691119 [...] (18830 flits)
Class 0:
Remaining flits: 721458 721459 721460 721461 721462 721463 721464 721465 721466 721467 [...] (675117 flits)
Measured flits: 721458 721459 721460 721461 721462 721463 721464 721465 721466 721467 [...] (16178 flits)
Class 0:
Remaining flits: 721458 721459 721460 721461 721462 721463 721464 721465 721466 721467 [...] (676632 flits)
Measured flits: 721458 721459 721460 721461 721462 721463 721464 721465 721466 721467 [...] (14151 flits)
Class 0:
Remaining flits: 721458 721459 721460 721461 721462 721463 721464 721465 721466 721467 [...] (674768 flits)
Measured flits: 721458 721459 721460 721461 721462 721463 721464 721465 721466 721467 [...] (12673 flits)
Class 0:
Remaining flits: 721458 721459 721460 721461 721462 721463 721464 721465 721466 721467 [...] (668811 flits)
Measured flits: 721458 721459 721460 721461 721462 721463 721464 721465 721466 721467 [...] (11322 flits)
Class 0:
Remaining flits: 721458 721459 721460 721461 721462 721463 721464 721465 721466 721467 [...] (663343 flits)
Measured flits: 721458 721459 721460 721461 721462 721463 721464 721465 721466 721467 [...] (10127 flits)
Class 0:
Remaining flits: 721458 721459 721460 721461 721462 721463 721464 721465 721466 721467 [...] (665335 flits)
Measured flits: 721458 721459 721460 721461 721462 721463 721464 721465 721466 721467 [...] (9099 flits)
Class 0:
Remaining flits: 721458 721459 721460 721461 721462 721463 721464 721465 721466 721467 [...] (662842 flits)
Measured flits: 721458 721459 721460 721461 721462 721463 721464 721465 721466 721467 [...] (8032 flits)
Class 0:
Remaining flits: 721458 721459 721460 721461 721462 721463 721464 721465 721466 721467 [...] (657756 flits)
Measured flits: 721458 721459 721460 721461 721462 721463 721464 721465 721466 721467 [...] (7399 flits)
Class 0:
Remaining flits: 721458 721459 721460 721461 721462 721463 721464 721465 721466 721467 [...] (656731 flits)
Measured flits: 721458 721459 721460 721461 721462 721463 721464 721465 721466 721467 [...] (6474 flits)
Class 0:
Remaining flits: 721458 721459 721460 721461 721462 721463 721464 721465 721466 721467 [...] (660055 flits)
Measured flits: 721458 721459 721460 721461 721462 721463 721464 721465 721466 721467 [...] (5708 flits)
Class 0:
Remaining flits: 721458 721459 721460 721461 721462 721463 721464 721465 721466 721467 [...] (665993 flits)
Measured flits: 721458 721459 721460 721461 721462 721463 721464 721465 721466 721467 [...] (5147 flits)
Class 0:
Remaining flits: 721458 721459 721460 721461 721462 721463 721464 721465 721466 721467 [...] (668125 flits)
Measured flits: 721458 721459 721460 721461 721462 721463 721464 721465 721466 721467 [...] (4539 flits)
Class 0:
Remaining flits: 721458 721459 721460 721461 721462 721463 721464 721465 721466 721467 [...] (667591 flits)
Measured flits: 721458 721459 721460 721461 721462 721463 721464 721465 721466 721467 [...] (4197 flits)
Class 0:
Remaining flits: 721458 721459 721460 721461 721462 721463 721464 721465 721466 721467 [...] (665410 flits)
Measured flits: 721458 721459 721460 721461 721462 721463 721464 721465 721466 721467 [...] (3664 flits)
Class 0:
Remaining flits: 721458 721459 721460 721461 721462 721463 721464 721465 721466 721467 [...] (660352 flits)
Measured flits: 721458 721459 721460 721461 721462 721463 721464 721465 721466 721467 [...] (3560 flits)
Class 0:
Remaining flits: 721458 721459 721460 721461 721462 721463 721464 721465 721466 721467 [...] (654526 flits)
Measured flits: 721458 721459 721460 721461 721462 721463 721464 721465 721466 721467 [...] (3145 flits)
Class 0:
Remaining flits: 721458 721459 721460 721461 721462 721463 721464 721465 721466 721467 [...] (649644 flits)
Measured flits: 721458 721459 721460 721461 721462 721463 721464 721465 721466 721467 [...] (2767 flits)
Class 0:
Remaining flits: 906840 906841 906842 906843 906844 906845 906846 906847 906848 906849 [...] (648345 flits)
Measured flits: 906840 906841 906842 906843 906844 906845 906846 906847 906848 906849 [...] (2294 flits)
Class 0:
Remaining flits: 906840 906841 906842 906843 906844 906845 906846 906847 906848 906849 [...] (647787 flits)
Measured flits: 906840 906841 906842 906843 906844 906845 906846 906847 906848 906849 [...] (2062 flits)
Class 0:
Remaining flits: 906840 906841 906842 906843 906844 906845 906846 906847 906848 906849 [...] (650154 flits)
Measured flits: 906840 906841 906842 906843 906844 906845 906846 906847 906848 906849 [...] (1772 flits)
Class 0:
Remaining flits: 910944 910945 910946 910947 910948 910949 910950 910951 910952 910953 [...] (646376 flits)
Measured flits: 910944 910945 910946 910947 910948 910949 910950 910951 910952 910953 [...] (1386 flits)
Class 0:
Remaining flits: 910944 910945 910946 910947 910948 910949 910950 910951 910952 910953 [...] (646729 flits)
Measured flits: 910944 910945 910946 910947 910948 910949 910950 910951 910952 910953 [...] (1114 flits)
Class 0:
Remaining flits: 910944 910945 910946 910947 910948 910949 910950 910951 910952 910953 [...] (646722 flits)
Measured flits: 910944 910945 910946 910947 910948 910949 910950 910951 910952 910953 [...] (933 flits)
Class 0:
Remaining flits: 910944 910945 910946 910947 910948 910949 910950 910951 910952 910953 [...] (647763 flits)
Measured flits: 910944 910945 910946 910947 910948 910949 910950 910951 910952 910953 [...] (819 flits)
Class 0:
Remaining flits: 910944 910945 910946 910947 910948 910949 910950 910951 910952 910953 [...] (652056 flits)
Measured flits: 910944 910945 910946 910947 910948 910949 910950 910951 910952 910953 [...] (761 flits)
Class 0:
Remaining flits: 910944 910945 910946 910947 910948 910949 910950 910951 910952 910953 [...] (649092 flits)
Measured flits: 910944 910945 910946 910947 910948 910949 910950 910951 910952 910953 [...] (617 flits)
Class 0:
Remaining flits: 910944 910945 910946 910947 910948 910949 910950 910951 910952 910953 [...] (648521 flits)
Measured flits: 910944 910945 910946 910947 910948 910949 910950 910951 910952 910953 [...] (576 flits)
Class 0:
Remaining flits: 910944 910945 910946 910947 910948 910949 910950 910951 910952 910953 [...] (646451 flits)
Measured flits: 910944 910945 910946 910947 910948 910949 910950 910951 910952 910953 [...] (521 flits)
Class 0:
Remaining flits: 910944 910945 910946 910947 910948 910949 910950 910951 910952 910953 [...] (640984 flits)
Measured flits: 910944 910945 910946 910947 910948 910949 910950 910951 910952 910953 [...] (485 flits)
Class 0:
Remaining flits: 910944 910945 910946 910947 910948 910949 910950 910951 910952 910953 [...] (637149 flits)
Measured flits: 910944 910945 910946 910947 910948 910949 910950 910951 910952 910953 [...] (453 flits)
Class 0:
Remaining flits: 910944 910945 910946 910947 910948 910949 910950 910951 910952 910953 [...] (635328 flits)
Measured flits: 910944 910945 910946 910947 910948 910949 910950 910951 910952 910953 [...] (393 flits)
Class 0:
Remaining flits: 1021266 1021267 1021268 1021269 1021270 1021271 1021272 1021273 1021274 1021275 [...] (633357 flits)
Measured flits: 1021266 1021267 1021268 1021269 1021270 1021271 1021272 1021273 1021274 1021275 [...] (275 flits)
Class 0:
Remaining flits: 1021266 1021267 1021268 1021269 1021270 1021271 1021272 1021273 1021274 1021275 [...] (632843 flits)
Measured flits: 1021266 1021267 1021268 1021269 1021270 1021271 1021272 1021273 1021274 1021275 [...] (236 flits)
Class 0:
Remaining flits: 1021266 1021267 1021268 1021269 1021270 1021271 1021272 1021273 1021274 1021275 [...] (632379 flits)
Measured flits: 1021266 1021267 1021268 1021269 1021270 1021271 1021272 1021273 1021274 1021275 [...] (181 flits)
Class 0:
Remaining flits: 1021266 1021267 1021268 1021269 1021270 1021271 1021272 1021273 1021274 1021275 [...] (633809 flits)
Measured flits: 1021266 1021267 1021268 1021269 1021270 1021271 1021272 1021273 1021274 1021275 [...] (161 flits)
Class 0:
Remaining flits: 1021266 1021267 1021268 1021269 1021270 1021271 1021272 1021273 1021274 1021275 [...] (631572 flits)
Measured flits: 1021266 1021267 1021268 1021269 1021270 1021271 1021272 1021273 1021274 1021275 [...] (143 flits)
Class 0:
Remaining flits: 1021266 1021267 1021268 1021269 1021270 1021271 1021272 1021273 1021274 1021275 [...] (630629 flits)
Measured flits: 1021266 1021267 1021268 1021269 1021270 1021271 1021272 1021273 1021274 1021275 [...] (143 flits)
Class 0:
Remaining flits: 1273752 1273753 1273754 1273755 1273756 1273757 1273758 1273759 1273760 1273761 [...] (629844 flits)
Measured flits: 1273752 1273753 1273754 1273755 1273756 1273757 1273758 1273759 1273760 1273761 [...] (89 flits)
Class 0:
Remaining flits: 1273752 1273753 1273754 1273755 1273756 1273757 1273758 1273759 1273760 1273761 [...] (632036 flits)
Measured flits: 1273752 1273753 1273754 1273755 1273756 1273757 1273758 1273759 1273760 1273761 [...] (71 flits)
Class 0:
Remaining flits: 1273752 1273753 1273754 1273755 1273756 1273757 1273758 1273759 1273760 1273761 [...] (631975 flits)
Measured flits: 1273752 1273753 1273754 1273755 1273756 1273757 1273758 1273759 1273760 1273761 [...] (53 flits)
Class 0:
Remaining flits: 1273752 1273753 1273754 1273755 1273756 1273757 1273758 1273759 1273760 1273761 [...] (627802 flits)
Measured flits: 1273752 1273753 1273754 1273755 1273756 1273757 1273758 1273759 1273760 1273761 [...] (35 flits)
Class 0:
Remaining flits: 1273752 1273753 1273754 1273755 1273756 1273757 1273758 1273759 1273760 1273761 [...] (627890 flits)
Measured flits: 1273752 1273753 1273754 1273755 1273756 1273757 1273758 1273759 1273760 1273761 [...] (35 flits)
Class 0:
Remaining flits: 1273752 1273753 1273754 1273755 1273756 1273757 1273758 1273759 1273760 1273761 [...] (627841 flits)
Measured flits: 1273752 1273753 1273754 1273755 1273756 1273757 1273758 1273759 1273760 1273761 [...] (18 flits)
Class 0:
Remaining flits: 1273752 1273753 1273754 1273755 1273756 1273757 1273758 1273759 1273760 1273761 [...] (627580 flits)
Measured flits: 1273752 1273753 1273754 1273755 1273756 1273757 1273758 1273759 1273760 1273761 [...] (18 flits)
Class 0:
Remaining flits: 1273752 1273753 1273754 1273755 1273756 1273757 1273758 1273759 1273760 1273761 [...] (628608 flits)
Measured flits: 1273752 1273753 1273754 1273755 1273756 1273757 1273758 1273759 1273760 1273761 [...] (18 flits)
Class 0:
Remaining flits: 1273752 1273753 1273754 1273755 1273756 1273757 1273758 1273759 1273760 1273761 [...] (627731 flits)
Measured flits: 1273752 1273753 1273754 1273755 1273756 1273757 1273758 1273759 1273760 1273761 [...] (18 flits)
Class 0:
Remaining flits: 1273752 1273753 1273754 1273755 1273756 1273757 1273758 1273759 1273760 1273761 [...] (626439 flits)
Measured flits: 1273752 1273753 1273754 1273755 1273756 1273757 1273758 1273759 1273760 1273761 [...] (18 flits)
Draining remaining packets ...
Class 0:
Remaining flits: 1931544 1931545 1931546 1931547 1931548 1931549 1931550 1931551 1931552 1931553 [...] (595426 flits)
Measured flits: (0 flits)
Class 0:
Remaining flits: 1931544 1931545 1931546 1931547 1931548 1931549 1931550 1931551 1931552 1931553 [...] (563999 flits)
Measured flits: (0 flits)
Class 0:
Remaining flits: 1969092 1969093 1969094 1969095 1969096 1969097 1969098 1969099 1969100 1969101 [...] (532463 flits)
Measured flits: (0 flits)
Class 0:
Remaining flits: 1969092 1969093 1969094 1969095 1969096 1969097 1969098 1969099 1969100 1969101 [...] (500250 flits)
Measured flits: (0 flits)
Class 0:
Remaining flits: 1969092 1969093 1969094 1969095 1969096 1969097 1969098 1969099 1969100 1969101 [...] (467153 flits)
Measured flits: (0 flits)
Class 0:
Remaining flits: 2233494 2233495 2233496 2233497 2233498 2233499 2233500 2233501 2233502 2233503 [...] (435115 flits)
Measured flits: (0 flits)
Class 0:
Remaining flits: 2367396 2367397 2367398 2367399 2367400 2367401 2367402 2367403 2367404 2367405 [...] (404317 flits)
Measured flits: (0 flits)
Class 0:
Remaining flits: 2367396 2367397 2367398 2367399 2367400 2367401 2367402 2367403 2367404 2367405 [...] (372606 flits)
Measured flits: (0 flits)
Class 0:
Remaining flits: 2367396 2367397 2367398 2367399 2367400 2367401 2367402 2367403 2367404 2367405 [...] (343166 flits)
Measured flits: (0 flits)
Class 0:
Remaining flits: 2367396 2367397 2367398 2367399 2367400 2367401 2367402 2367403 2367404 2367405 [...] (314826 flits)
Measured flits: (0 flits)
Class 0:
Remaining flits: 2367396 2367397 2367398 2367399 2367400 2367401 2367402 2367403 2367404 2367405 [...] (285895 flits)
Measured flits: (0 flits)
Class 0:
Remaining flits: 2367396 2367397 2367398 2367399 2367400 2367401 2367402 2367403 2367404 2367405 [...] (258472 flits)
Measured flits: (0 flits)
Class 0:
Remaining flits: 2389464 2389465 2389466 2389467 2389468 2389469 2389470 2389471 2389472 2389473 [...] (231846 flits)
Measured flits: (0 flits)
Class 0:
Remaining flits: 2508534 2508535 2508536 2508537 2508538 2508539 2508540 2508541 2508542 2508543 [...] (205855 flits)
Measured flits: (0 flits)
Class 0:
Remaining flits: 2508534 2508535 2508536 2508537 2508538 2508539 2508540 2508541 2508542 2508543 [...] (180398 flits)
Measured flits: (0 flits)
Class 0:
Remaining flits: 2508536 2508537 2508538 2508539 2508540 2508541 2508542 2508543 2508544 2508545 [...] (156603 flits)
Measured flits: (0 flits)
Class 0:
Remaining flits: 2586222 2586223 2586224 2586225 2586226 2586227 2586228 2586229 2586230 2586231 [...] (133645 flits)
Measured flits: (0 flits)
Class 0:
Remaining flits: 2586222 2586223 2586224 2586225 2586226 2586227 2586228 2586229 2586230 2586231 [...] (110151 flits)
Measured flits: (0 flits)
Class 0:
Remaining flits: 2586222 2586223 2586224 2586225 2586226 2586227 2586228 2586229 2586230 2586231 [...] (87397 flits)
Measured flits: (0 flits)
Class 0:
Remaining flits: 2586222 2586223 2586224 2586225 2586226 2586227 2586228 2586229 2586230 2586231 [...] (66547 flits)
Measured flits: (0 flits)
Class 0:
Remaining flits: 2586222 2586223 2586224 2586225 2586226 2586227 2586228 2586229 2586230 2586231 [...] (48509 flits)
Measured flits: (0 flits)
Class 0:
Remaining flits: 2586222 2586223 2586224 2586225 2586226 2586227 2586228 2586229 2586230 2586231 [...] (33913 flits)
Measured flits: (0 flits)
Class 0:
Remaining flits: 2586222 2586223 2586224 2586225 2586226 2586227 2586228 2586229 2586230 2586231 [...] (22705 flits)
Measured flits: (0 flits)
Class 0:
Remaining flits: 2586222 2586223 2586224 2586225 2586226 2586227 2586228 2586229 2586230 2586231 [...] (13039 flits)
Measured flits: (0 flits)
Class 0:
Remaining flits: 3123922 3123923 3123924 3123925 3123926 3123927 3123928 3123929 3123930 3123931 [...] (5090 flits)
Measured flits: (0 flits)
Class 0:
Remaining flits: 3335652 3335653 3335654 3335655 3335656 3335657 3335658 3335659 3335660 3335661 [...] (1586 flits)
Measured flits: (0 flits)
Time taken is 142769 cycles
====== Overall Traffic Statistics ======
====== Traffic class 0 ======
Packet latency average = 25581.1 (1 samples)
	minimum = 32 (1 samples)
	maximum = 108099 (1 samples)
Network latency average = 16453.4 (1 samples)
	minimum = 23 (1 samples)
	maximum = 100924 (1 samples)
Flit latency average = 17587.5 (1 samples)
	minimum = 6 (1 samples)
	maximum = 100907 (1 samples)
Fragmentation average = 228.18 (1 samples)
	minimum = 0 (1 samples)
	maximum = 13690 (1 samples)
Injected packet rate average = 0.0219018 (1 samples)
	minimum = 0.0114286 (1 samples)
	maximum = 0.0302857 (1 samples)
Accepted packet rate average = 0.0125007 (1 samples)
	minimum = 0.00942857 (1 samples)
	maximum = 0.0161429 (1 samples)
Injected flit rate average = 0.394455 (1 samples)
	minimum = 0.206714 (1 samples)
	maximum = 0.546143 (1 samples)
Accepted flit rate average = 0.224224 (1 samples)
	minimum = 0.166571 (1 samples)
	maximum = 0.295714 (1 samples)
Injected packet size average = 18.0102 (1 samples)
Accepted packet size average = 17.9368 (1 samples)
Hops average = 5.04302 (1 samples)
Total run time 293.476
