BEGIN Configuration File: networks/mezzanine_config
topology = mezzanine;
n = 12;

routing_function = multipath;
internal_speedup = 2.0;
latency_thres = 100000.0;
use_read_write = 0;

sample_period = 1000;
injection_rate = 0.5;
packet_size = 18;

noq = 1;
routing_delay = 0;
vc_alloc_delay = 1;
sw_alloc_delay = 1;
st_final_delay = 1;
vc_allocator = islip; 
sw_allocator = islip;
alloc_iters  = 4;
num_vcs     = 12;
buffer_policy = private; // private or shared
buf_size = -1; // -1 for buffer_policy = private;
vc_buf_size = 4096; // size of each VOQ with buffer_policy = private
output_buffer_size = -1;


traffic = uniform;

//mezW = 0.0;
//mezPredefinedPatternType = shift-inter; //shift-qfdb

END Configuration File: networks/mezzanine_config
OVERRIDE Parameter: injection_rate=0.055556
OVERRIDE Parameter: routing_function=multipath
OVERRIDE Parameter: num_vcs=64
OVERRIDE Parameter: vc_buf_size=18
OVERRIDE Parameter: internal_speedup=1.0
OVERRIDE Parameter: injection_process=on_off
OVERRIDE Parameter: sim_type=latency
OVERRIDE Parameter: burst_alpha=0.0038461538
OVERRIDE Parameter: burst_beta=0.1
network: network_0
========================== Routing table  =====================
Number of Subnets: 1
Class 0:
Packet latency average = 395.93
	minimum = 23
	maximum = 990
Network latency average = 297.755
	minimum = 23
	maximum = 904
Slowest packet = 46
Flit latency average = 210.354
	minimum = 6
	maximum = 950
Slowest flit = 3625
Fragmentation average = 200.415
	minimum = 0
	maximum = 787
Injected packet rate average = 0.0237604
	minimum = 0 (at node 17)
	maximum = 0.046 (at node 38)
Accepted packet rate average = 0.00951042
	minimum = 0.002 (at node 174)
	maximum = 0.018 (at node 44)
Injected flit rate average = 0.422917
	minimum = 0 (at node 17)
	maximum = 0.827 (at node 38)
Accepted flit rate average= 0.20887
	minimum = 0.047 (at node 174)
	maximum = 0.352 (at node 44)
Injected packet length average = 17.7992
Accepted packet length average = 21.9622
Total in-flight flits = 42067 (0 measured)
latency change    = 1
throughput change = 1
Class 0:
Packet latency average = 694.487
	minimum = 23
	maximum = 1969
Network latency average = 515.712
	minimum = 23
	maximum = 1892
Slowest packet = 160
Flit latency average = 400.391
	minimum = 6
	maximum = 1929
Slowest flit = 4979
Fragmentation average = 268.346
	minimum = 0
	maximum = 1677
Injected packet rate average = 0.0205
	minimum = 0.0025 (at node 82)
	maximum = 0.0385 (at node 83)
Accepted packet rate average = 0.0110078
	minimum = 0.0055 (at node 116)
	maximum = 0.0165 (at node 22)
Injected flit rate average = 0.365648
	minimum = 0.045 (at node 82)
	maximum = 0.6875 (at node 83)
Accepted flit rate average= 0.219208
	minimum = 0.1155 (at node 116)
	maximum = 0.3225 (at node 119)
Injected packet length average = 17.8365
Accepted packet length average = 19.9139
Total in-flight flits = 57754 (0 measured)
latency change    = 0.429895
throughput change = 0.0471631
Class 0:
Packet latency average = 1520.17
	minimum = 42
	maximum = 2975
Network latency average = 992.289
	minimum = 28
	maximum = 2867
Slowest packet = 392
Flit latency average = 867.079
	minimum = 6
	maximum = 2903
Slowest flit = 6639
Fragmentation average = 312.969
	minimum = 1
	maximum = 2474
Injected packet rate average = 0.0116458
	minimum = 0 (at node 9)
	maximum = 0.042 (at node 5)
Accepted packet rate average = 0.0124271
	minimum = 0.003 (at node 96)
	maximum = 0.021 (at node 78)
Injected flit rate average = 0.20849
	minimum = 0 (at node 14)
	maximum = 0.749 (at node 5)
Accepted flit rate average= 0.219911
	minimum = 0.087 (at node 96)
	maximum = 0.366 (at node 78)
Injected packet length average = 17.9025
Accepted packet length average = 17.6961
Total in-flight flits = 55743 (0 measured)
latency change    = 0.543151
throughput change = 0.00319731
Warmed up ...Time used is 3000 cycles
Class 0:
Packet latency average = 1841.79
	minimum = 39
	maximum = 3770
Network latency average = 295.592
	minimum = 29
	maximum = 948
Slowest packet = 10122
Flit latency average = 1028.91
	minimum = 6
	maximum = 3866
Slowest flit = 10367
Fragmentation average = 142.593
	minimum = 2
	maximum = 628
Injected packet rate average = 0.0118125
	minimum = 0 (at node 1)
	maximum = 0.039 (at node 43)
Accepted packet rate average = 0.0120729
	minimum = 0.004 (at node 54)
	maximum = 0.024 (at node 182)
Injected flit rate average = 0.212641
	minimum = 0 (at node 1)
	maximum = 0.699 (at node 43)
Accepted flit rate average= 0.215714
	minimum = 0.087 (at node 74)
	maximum = 0.396 (at node 129)
Injected packet length average = 18.0013
Accepted packet length average = 17.8676
Total in-flight flits = 55204 (27090 measured)
latency change    = 0.174626
throughput change = 0.0194606
Class 0:
Packet latency average = 2306.57
	minimum = 39
	maximum = 4765
Network latency average = 529.443
	minimum = 25
	maximum = 1963
Slowest packet = 10122
Flit latency average = 1054.67
	minimum = 6
	maximum = 4742
Slowest flit = 17567
Fragmentation average = 185.134
	minimum = 2
	maximum = 1503
Injected packet rate average = 0.0111354
	minimum = 0 (at node 14)
	maximum = 0.031 (at node 34)
Accepted packet rate average = 0.0118594
	minimum = 0.0065 (at node 7)
	maximum = 0.0205 (at node 129)
Injected flit rate average = 0.200513
	minimum = 0 (at node 16)
	maximum = 0.5585 (at node 34)
Accepted flit rate average= 0.210958
	minimum = 0.101 (at node 74)
	maximum = 0.365 (at node 129)
Injected packet length average = 18.0068
Accepted packet length average = 17.7883
Total in-flight flits = 51811 (35040 measured)
latency change    = 0.201504
throughput change = 0.022541
Class 0:
Packet latency average = 2779.36
	minimum = 39
	maximum = 5600
Network latency average = 672.511
	minimum = 25
	maximum = 2930
Slowest packet = 10122
Flit latency average = 1076.71
	minimum = 6
	maximum = 5755
Slowest flit = 21357
Fragmentation average = 200.455
	minimum = 0
	maximum = 2225
Injected packet rate average = 0.0113056
	minimum = 0 (at node 14)
	maximum = 0.0276667 (at node 145)
Accepted packet rate average = 0.0117986
	minimum = 0.007 (at node 141)
	maximum = 0.018 (at node 128)
Injected flit rate average = 0.203498
	minimum = 0 (at node 20)
	maximum = 0.495333 (at node 145)
Accepted flit rate average= 0.210573
	minimum = 0.127 (at node 141)
	maximum = 0.309667 (at node 128)
Injected packet length average = 17.9998
Accepted packet length average = 17.8473
Total in-flight flits = 51849 (40996 measured)
latency change    = 0.170106
throughput change = 0.00183032
Class 0:
Packet latency average = 3167.32
	minimum = 39
	maximum = 6668
Network latency average = 761.291
	minimum = 23
	maximum = 3904
Slowest packet = 10122
Flit latency average = 1098.49
	minimum = 6
	maximum = 6806
Slowest flit = 15443
Fragmentation average = 210.435
	minimum = 0
	maximum = 2763
Injected packet rate average = 0.0113737
	minimum = 0 (at node 20)
	maximum = 0.03 (at node 145)
Accepted packet rate average = 0.011737
	minimum = 0.00725 (at node 2)
	maximum = 0.01725 (at node 128)
Injected flit rate average = 0.204773
	minimum = 0 (at node 20)
	maximum = 0.53725 (at node 145)
Accepted flit rate average= 0.209139
	minimum = 0.137 (at node 2)
	maximum = 0.30475 (at node 128)
Injected packet length average = 18.0041
Accepted packet length average = 17.8188
Total in-flight flits = 52498 (45342 measured)
latency change    = 0.12249
throughput change = 0.00685473
Class 0:
Packet latency average = 3549.51
	minimum = 39
	maximum = 7656
Network latency average = 844.999
	minimum = 23
	maximum = 4907
Slowest packet = 10122
Flit latency average = 1117.29
	minimum = 6
	maximum = 7599
Slowest flit = 13765
Fragmentation average = 220.565
	minimum = 0
	maximum = 3376
Injected packet rate average = 0.0114729
	minimum = 0 (at node 20)
	maximum = 0.0274 (at node 145)
Accepted packet rate average = 0.0116906
	minimum = 0.0072 (at node 2)
	maximum = 0.016 (at node 103)
Injected flit rate average = 0.206557
	minimum = 0 (at node 20)
	maximum = 0.4926 (at node 145)
Accepted flit rate average= 0.209041
	minimum = 0.1364 (at node 2)
	maximum = 0.287 (at node 123)
Injected packet length average = 18.0039
Accepted packet length average = 17.881
Total in-flight flits = 53406 (48291 measured)
latency change    = 0.107674
throughput change = 0.000472147
Class 0:
Packet latency average = 3891.45
	minimum = 39
	maximum = 8360
Network latency average = 904.351
	minimum = 23
	maximum = 5714
Slowest packet = 10122
Flit latency average = 1128.48
	minimum = 6
	maximum = 8736
Slowest flit = 9359
Fragmentation average = 227.723
	minimum = 0
	maximum = 3915
Injected packet rate average = 0.0114818
	minimum = 0 (at node 20)
	maximum = 0.0253333 (at node 145)
Accepted packet rate average = 0.0116137
	minimum = 0.0085 (at node 2)
	maximum = 0.0155 (at node 103)
Injected flit rate average = 0.20669
	minimum = 0 (at node 20)
	maximum = 0.453667 (at node 145)
Accepted flit rate average= 0.208126
	minimum = 0.156 (at node 2)
	maximum = 0.273 (at node 128)
Injected packet length average = 18.0016
Accepted packet length average = 17.9207
Total in-flight flits = 54248 (50445 measured)
latency change    = 0.0878698
throughput change = 0.00439521
Class 0:
Packet latency average = 4247.96
	minimum = 39
	maximum = 9584
Network latency average = 951.306
	minimum = 23
	maximum = 6511
Slowest packet = 10122
Flit latency average = 1134.28
	minimum = 6
	maximum = 9471
Slowest flit = 43790
Fragmentation average = 233.76
	minimum = 0
	maximum = 5336
Injected packet rate average = 0.0115551
	minimum = 0 (at node 20)
	maximum = 0.0251429 (at node 61)
Accepted packet rate average = 0.0115707
	minimum = 0.00857143 (at node 64)
	maximum = 0.0151429 (at node 103)
Injected flit rate average = 0.208094
	minimum = 0 (at node 32)
	maximum = 0.452143 (at node 94)
Accepted flit rate average= 0.207763
	minimum = 0.155571 (at node 126)
	maximum = 0.267143 (at node 123)
Injected packet length average = 18.009
Accepted packet length average = 17.956
Total in-flight flits = 56049 (53244 measured)
latency change    = 0.0839237
throughput change = 0.00174465
Draining all recorded packets ...
Class 0:
Remaining flits: 14904 14905 14906 14907 14908 14909 14910 14911 14912 14913 [...] (57921 flits)
Measured flits: 185202 185203 185204 185205 185206 185207 185208 185209 185210 185211 [...] (55819 flits)
Class 0:
Remaining flits: 14904 14905 14906 14907 14908 14909 14910 14911 14912 14913 [...] (56718 flits)
Measured flits: 185202 185203 185204 185205 185206 185207 185208 185209 185210 185211 [...] (55038 flits)
Class 0:
Remaining flits: 14904 14905 14906 14907 14908 14909 14910 14911 14912 14913 [...] (55348 flits)
Measured flits: 185202 185203 185204 185205 185206 185207 185208 185209 185210 185211 [...] (54174 flits)
Class 0:
Remaining flits: 14904 14905 14906 14907 14908 14909 14910 14911 14912 14913 [...] (56825 flits)
Measured flits: 185202 185203 185204 185205 185206 185207 185208 185209 185210 185211 [...] (55884 flits)
Class 0:
Remaining flits: 14904 14905 14906 14907 14908 14909 14910 14911 14912 14913 [...] (58303 flits)
Measured flits: 187506 187507 187508 187509 187510 187511 187512 187513 187514 187515 [...] (57040 flits)
Class 0:
Remaining flits: 14904 14905 14906 14907 14908 14909 14910 14911 14912 14913 [...] (60637 flits)
Measured flits: 187884 187885 187886 187887 187888 187889 187890 187891 187892 187893 [...] (59243 flits)
Class 0:
Remaining flits: 29083 29084 29085 29086 29087 62117 62622 62623 62624 62625 [...] (58826 flits)
Measured flits: 190260 190261 190262 190263 190264 190265 190266 190267 190268 190269 [...] (56712 flits)
Class 0:
Remaining flits: 29083 29084 29085 29086 29087 82370 82371 82372 82373 82374 [...] (56387 flits)
Measured flits: 190260 190261 190262 190263 190264 190265 190266 190267 190268 190269 [...] (53902 flits)
Class 0:
Remaining flits: 82370 82371 82372 82373 82374 82375 82376 82377 82378 82379 [...] (57460 flits)
Measured flits: 190260 190261 190262 190263 190264 190265 190266 190267 190268 190269 [...] (53869 flits)
Class 0:
Remaining flits: 82370 82371 82372 82373 82374 82375 82376 82377 82378 82379 [...] (59320 flits)
Measured flits: 190260 190261 190262 190263 190264 190265 190266 190267 190268 190269 [...] (53578 flits)
Class 0:
Remaining flits: 82370 82371 82372 82373 82374 82375 82376 82377 82378 82379 [...] (59592 flits)
Measured flits: 190260 190261 190262 190263 190264 190265 190266 190267 190268 190269 [...] (50250 flits)
Class 0:
Remaining flits: 82370 82371 82372 82373 82374 82375 82376 82377 82378 82379 [...] (60669 flits)
Measured flits: 190260 190261 190262 190263 190264 190265 190266 190267 190268 190269 [...] (50922 flits)
Class 0:
Remaining flits: 190262 190263 190264 190265 190266 190267 190268 190269 190270 190271 [...] (64754 flits)
Measured flits: 190262 190263 190264 190265 190266 190267 190268 190269 190270 190271 [...] (52877 flits)
Class 0:
Remaining flits: 190262 190263 190264 190265 190266 190267 190268 190269 190270 190271 [...] (64080 flits)
Measured flits: 190262 190263 190264 190265 190266 190267 190268 190269 190270 190271 [...] (50270 flits)
Class 0:
Remaining flits: 190262 190263 190264 190265 190266 190267 190268 190269 190270 190271 [...] (62069 flits)
Measured flits: 190262 190263 190264 190265 190266 190267 190268 190269 190270 190271 [...] (47590 flits)
Class 0:
Remaining flits: 190262 190263 190264 190265 190266 190267 190268 190269 190270 190271 [...] (63094 flits)
Measured flits: 190262 190263 190264 190265 190266 190267 190268 190269 190270 190271 [...] (47418 flits)
Class 0:
Remaining flits: 190262 190263 190264 190265 190266 190267 190268 190269 190270 190271 [...] (61818 flits)
Measured flits: 190262 190263 190264 190265 190266 190267 190268 190269 190270 190271 [...] (44480 flits)
Class 0:
Remaining flits: 190262 190263 190264 190265 190266 190267 190268 190269 190270 190271 [...] (61050 flits)
Measured flits: 190262 190263 190264 190265 190266 190267 190268 190269 190270 190271 [...] (42501 flits)
Class 0:
Remaining flits: 190264 190265 190266 190267 190268 190269 190270 190271 190272 190273 [...] (59155 flits)
Measured flits: 190264 190265 190266 190267 190268 190269 190270 190271 190272 190273 [...] (39278 flits)
Class 0:
Remaining flits: 190264 190265 190266 190267 190268 190269 190270 190271 190272 190273 [...] (59238 flits)
Measured flits: 190264 190265 190266 190267 190268 190269 190270 190271 190272 190273 [...] (36800 flits)
Class 0:
Remaining flits: 190264 190265 190266 190267 190268 190269 190270 190271 190272 190273 [...] (60271 flits)
Measured flits: 190264 190265 190266 190267 190268 190269 190270 190271 190272 190273 [...] (34795 flits)
Class 0:
Remaining flits: 517914 517915 517916 517917 517918 517919 517920 517921 517922 517923 [...] (62113 flits)
Measured flits: 517914 517915 517916 517917 517918 517919 517920 517921 517922 517923 [...] (33311 flits)
Class 0:
Remaining flits: 517914 517915 517916 517917 517918 517919 517920 517921 517922 517923 [...] (64165 flits)
Measured flits: 517914 517915 517916 517917 517918 517919 517920 517921 517922 517923 [...] (31922 flits)
Class 0:
Remaining flits: 517914 517915 517916 517917 517918 517919 517920 517921 517922 517923 [...] (62012 flits)
Measured flits: 517914 517915 517916 517917 517918 517919 517920 517921 517922 517923 [...] (28643 flits)
Class 0:
Remaining flits: 517914 517915 517916 517917 517918 517919 517920 517921 517922 517923 [...] (63631 flits)
Measured flits: 517914 517915 517916 517917 517918 517919 517920 517921 517922 517923 [...] (27477 flits)
Class 0:
Remaining flits: 517914 517915 517916 517917 517918 517919 517920 517921 517922 517923 [...] (65453 flits)
Measured flits: 517914 517915 517916 517917 517918 517919 517920 517921 517922 517923 [...] (26351 flits)
Class 0:
Remaining flits: 517914 517915 517916 517917 517918 517919 517920 517921 517922 517923 [...] (63747 flits)
Measured flits: 517914 517915 517916 517917 517918 517919 517920 517921 517922 517923 [...] (23669 flits)
Class 0:
Remaining flits: 517914 517915 517916 517917 517918 517919 517920 517921 517922 517923 [...] (64508 flits)
Measured flits: 517914 517915 517916 517917 517918 517919 517920 517921 517922 517923 [...] (22563 flits)
Class 0:
Remaining flits: 558252 558253 558254 558255 558256 558257 558258 558259 558260 558261 [...] (64319 flits)
Measured flits: 558252 558253 558254 558255 558256 558257 558258 558259 558260 558261 [...] (21925 flits)
Class 0:
Remaining flits: 558252 558253 558254 558255 558256 558257 558258 558259 558260 558261 [...] (62727 flits)
Measured flits: 558252 558253 558254 558255 558256 558257 558258 558259 558260 558261 [...] (20451 flits)
Class 0:
Remaining flits: 558252 558253 558254 558255 558256 558257 558258 558259 558260 558261 [...] (62476 flits)
Measured flits: 558252 558253 558254 558255 558256 558257 558258 558259 558260 558261 [...] (18693 flits)
Class 0:
Remaining flits: 558252 558253 558254 558255 558256 558257 558258 558259 558260 558261 [...] (62188 flits)
Measured flits: 558252 558253 558254 558255 558256 558257 558258 558259 558260 558261 [...] (17584 flits)
Class 0:
Remaining flits: 558252 558253 558254 558255 558256 558257 558258 558259 558260 558261 [...] (62720 flits)
Measured flits: 558252 558253 558254 558255 558256 558257 558258 558259 558260 558261 [...] (16961 flits)
Class 0:
Remaining flits: 558252 558253 558254 558255 558256 558257 558258 558259 558260 558261 [...] (61861 flits)
Measured flits: 558252 558253 558254 558255 558256 558257 558258 558259 558260 558261 [...] (15754 flits)
Class 0:
Remaining flits: 558252 558253 558254 558255 558256 558257 558258 558259 558260 558261 [...] (60897 flits)
Measured flits: 558252 558253 558254 558255 558256 558257 558258 558259 558260 558261 [...] (14754 flits)
Class 0:
Remaining flits: 565830 565831 565832 565833 565834 565835 565836 565837 565838 565839 [...] (60903 flits)
Measured flits: 565830 565831 565832 565833 565834 565835 565836 565837 565838 565839 [...] (13407 flits)
Class 0:
Remaining flits: 565830 565831 565832 565833 565834 565835 565836 565837 565838 565839 [...] (61167 flits)
Measured flits: 565830 565831 565832 565833 565834 565835 565836 565837 565838 565839 [...] (12270 flits)
Class 0:
Remaining flits: 565830 565831 565832 565833 565834 565835 565836 565837 565838 565839 [...] (61190 flits)
Measured flits: 565830 565831 565832 565833 565834 565835 565836 565837 565838 565839 [...] (11995 flits)
Class 0:
Remaining flits: 565830 565831 565832 565833 565834 565835 565836 565837 565838 565839 [...] (62348 flits)
Measured flits: 565830 565831 565832 565833 565834 565835 565836 565837 565838 565839 [...] (10979 flits)
Class 0:
Remaining flits: 565830 565831 565832 565833 565834 565835 565836 565837 565838 565839 [...] (62355 flits)
Measured flits: 565830 565831 565832 565833 565834 565835 565836 565837 565838 565839 [...] (10209 flits)
Class 0:
Remaining flits: 565830 565831 565832 565833 565834 565835 565836 565837 565838 565839 [...] (60810 flits)
Measured flits: 565830 565831 565832 565833 565834 565835 565836 565837 565838 565839 [...] (8652 flits)
Class 0:
Remaining flits: 635328 635329 635330 635331 635332 635333 635334 635335 635336 635337 [...] (62651 flits)
Measured flits: 635328 635329 635330 635331 635332 635333 635334 635335 635336 635337 [...] (8280 flits)
Class 0:
Remaining flits: 708550 708551 793368 793369 793370 793371 793372 793373 793374 793375 [...] (62398 flits)
Measured flits: 708550 708551 793368 793369 793370 793371 793372 793373 793374 793375 [...] (7291 flits)
Class 0:
Remaining flits: 708550 708551 793368 793369 793370 793371 793372 793373 793374 793375 [...] (63055 flits)
Measured flits: 708550 708551 793368 793369 793370 793371 793372 793373 793374 793375 [...] (7341 flits)
Class 0:
Remaining flits: 708550 708551 793369 793370 793371 793372 793373 793374 793375 793376 [...] (62983 flits)
Measured flits: 708550 708551 793369 793370 793371 793372 793373 793374 793375 793376 [...] (6874 flits)
Class 0:
Remaining flits: 708550 708551 793369 793370 793371 793372 793373 793374 793375 793376 [...] (62013 flits)
Measured flits: 708550 708551 793369 793370 793371 793372 793373 793374 793375 793376 [...] (6361 flits)
Class 0:
Remaining flits: 794394 794395 794396 794397 794398 794399 794400 794401 794402 794403 [...] (60605 flits)
Measured flits: 794394 794395 794396 794397 794398 794399 794400 794401 794402 794403 [...] (5895 flits)
Class 0:
Remaining flits: 794394 794395 794396 794397 794398 794399 794400 794401 794402 794403 [...] (61574 flits)
Measured flits: 794394 794395 794396 794397 794398 794399 794400 794401 794402 794403 [...] (5512 flits)
Class 0:
Remaining flits: 794394 794395 794396 794397 794398 794399 794400 794401 794402 794403 [...] (62025 flits)
Measured flits: 794394 794395 794396 794397 794398 794399 794400 794401 794402 794403 [...] (5441 flits)
Class 0:
Remaining flits: 800208 800209 800210 800211 800212 800213 800214 800215 800216 800217 [...] (61064 flits)
Measured flits: 800208 800209 800210 800211 800212 800213 800214 800215 800216 800217 [...] (5193 flits)
Class 0:
Remaining flits: 800208 800209 800210 800211 800212 800213 800214 800215 800216 800217 [...] (60190 flits)
Measured flits: 800208 800209 800210 800211 800212 800213 800214 800215 800216 800217 [...] (4148 flits)
Class 0:
Remaining flits: 800208 800209 800210 800211 800212 800213 800214 800215 800216 800217 [...] (58455 flits)
Measured flits: 800208 800209 800210 800211 800212 800213 800214 800215 800216 800217 [...] (3620 flits)
Class 0:
Remaining flits: 800208 800209 800210 800211 800212 800213 800214 800215 800216 800217 [...] (60298 flits)
Measured flits: 800208 800209 800210 800211 800212 800213 800214 800215 800216 800217 [...] (3279 flits)
Class 0:
Remaining flits: 800208 800209 800210 800211 800212 800213 800214 800215 800216 800217 [...] (60915 flits)
Measured flits: 800208 800209 800210 800211 800212 800213 800214 800215 800216 800217 [...] (3178 flits)
Class 0:
Remaining flits: 800208 800209 800210 800211 800212 800213 800214 800215 800216 800217 [...] (61112 flits)
Measured flits: 800208 800209 800210 800211 800212 800213 800214 800215 800216 800217 [...] (2948 flits)
Class 0:
Remaining flits: 800208 800209 800210 800211 800212 800213 800214 800215 800216 800217 [...] (60636 flits)
Measured flits: 800208 800209 800210 800211 800212 800213 800214 800215 800216 800217 [...] (2780 flits)
Class 0:
Remaining flits: 800208 800209 800210 800211 800212 800213 800214 800215 800216 800217 [...] (60869 flits)
Measured flits: 800208 800209 800210 800211 800212 800213 800214 800215 800216 800217 [...] (2495 flits)
Class 0:
Remaining flits: 800208 800209 800210 800211 800212 800213 800214 800215 800216 800217 [...] (62024 flits)
Measured flits: 800208 800209 800210 800211 800212 800213 800214 800215 800216 800217 [...] (2286 flits)
Class 0:
Remaining flits: 1320921 1320922 1320923 1320924 1320925 1320926 1320927 1320928 1320929 1349568 [...] (61691 flits)
Measured flits: 1349568 1349569 1349570 1349571 1349572 1349573 1349574 1349575 1349576 1349577 [...] (2051 flits)
Class 0:
Remaining flits: 1349568 1349569 1349570 1349571 1349572 1349573 1349574 1349575 1349576 1349577 [...] (61479 flits)
Measured flits: 1349568 1349569 1349570 1349571 1349572 1349573 1349574 1349575 1349576 1349577 [...] (1814 flits)
Class 0:
Remaining flits: 1349568 1349569 1349570 1349571 1349572 1349573 1349574 1349575 1349576 1349577 [...] (61498 flits)
Measured flits: 1349568 1349569 1349570 1349571 1349572 1349573 1349574 1349575 1349576 1349577 [...] (1915 flits)
Class 0:
Remaining flits: 1349568 1349569 1349570 1349571 1349572 1349573 1349574 1349575 1349576 1349577 [...] (63825 flits)
Measured flits: 1349568 1349569 1349570 1349571 1349572 1349573 1349574 1349575 1349576 1349577 [...] (1768 flits)
Class 0:
Remaining flits: 1370268 1370269 1370270 1370271 1370272 1370273 1370274 1370275 1370276 1370277 [...] (62825 flits)
Measured flits: 1381032 1381033 1381034 1381035 1381036 1381037 1381038 1381039 1381040 1381041 [...] (1770 flits)
Class 0:
Remaining flits: 1371474 1371475 1371476 1371477 1371478 1371479 1371480 1371481 1371482 1371483 [...] (61491 flits)
Measured flits: 1458846 1458847 1458848 1458849 1458850 1458851 1458852 1458853 1458854 1458855 [...] (1781 flits)
Class 0:
Remaining flits: 1371474 1371475 1371476 1371477 1371478 1371479 1371480 1371481 1371482 1371483 [...] (62709 flits)
Measured flits: 1458846 1458847 1458848 1458849 1458850 1458851 1458852 1458853 1458854 1458855 [...] (1809 flits)
Class 0:
Remaining flits: 1371474 1371475 1371476 1371477 1371478 1371479 1371480 1371481 1371482 1371483 [...] (64781 flits)
Measured flits: 1458846 1458847 1458848 1458849 1458850 1458851 1458852 1458853 1458854 1458855 [...] (1661 flits)
Class 0:
Remaining flits: 1458846 1458847 1458848 1458849 1458850 1458851 1458852 1458853 1458854 1458855 [...] (65070 flits)
Measured flits: 1458846 1458847 1458848 1458849 1458850 1458851 1458852 1458853 1458854 1458855 [...] (1167 flits)
Class 0:
Remaining flits: 1458846 1458847 1458848 1458849 1458850 1458851 1458852 1458853 1458854 1458855 [...] (61427 flits)
Measured flits: 1458846 1458847 1458848 1458849 1458850 1458851 1458852 1458853 1458854 1458855 [...] (1074 flits)
Class 0:
Remaining flits: 1458846 1458847 1458848 1458849 1458850 1458851 1458852 1458853 1458854 1458855 [...] (63418 flits)
Measured flits: 1458846 1458847 1458848 1458849 1458850 1458851 1458852 1458853 1458854 1458855 [...] (1169 flits)
Class 0:
Remaining flits: 1458846 1458847 1458848 1458849 1458850 1458851 1458852 1458853 1458854 1458855 [...] (63466 flits)
Measured flits: 1458846 1458847 1458848 1458849 1458850 1458851 1458852 1458853 1458854 1458855 [...] (1234 flits)
Class 0:
Remaining flits: 1458846 1458847 1458848 1458849 1458850 1458851 1458852 1458853 1458854 1458855 [...] (62439 flits)
Measured flits: 1458846 1458847 1458848 1458849 1458850 1458851 1458852 1458853 1458854 1458855 [...] (1070 flits)
Class 0:
Remaining flits: 1458846 1458847 1458848 1458849 1458850 1458851 1458852 1458853 1458854 1458855 [...] (60167 flits)
Measured flits: 1458846 1458847 1458848 1458849 1458850 1458851 1458852 1458853 1458854 1458855 [...] (870 flits)
Class 0:
Remaining flits: 1680426 1680427 1680428 1680429 1680430 1680431 1680432 1680433 1680434 1680435 [...] (61373 flits)
Measured flits: 2151234 2151235 2151236 2151237 2151238 2151239 2151240 2151241 2151242 2151243 [...] (684 flits)
Class 0:
Remaining flits: 1680426 1680427 1680428 1680429 1680430 1680431 1680432 1680433 1680434 1680435 [...] (62948 flits)
Measured flits: 2374686 2374687 2374688 2374689 2374690 2374691 2374692 2374693 2374694 2374695 [...] (567 flits)
Class 0:
Remaining flits: 1796094 1796095 1796096 1796097 1796098 1796099 1796100 1796101 1796102 1796103 [...] (65483 flits)
Measured flits: 2374686 2374687 2374688 2374689 2374690 2374691 2374692 2374693 2374694 2374695 [...] (639 flits)
Class 0:
Remaining flits: 1821978 1821979 1821980 1821981 1821982 1821983 1821984 1821985 1821986 1821987 [...] (63609 flits)
Measured flits: 2374686 2374687 2374688 2374689 2374690 2374691 2374692 2374693 2374694 2374695 [...] (504 flits)
Class 0:
Remaining flits: 1875456 1875457 1875458 1875459 1875460 1875461 1875462 1875463 1875464 1875465 [...] (61096 flits)
Measured flits: 2374686 2374687 2374688 2374689 2374690 2374691 2374692 2374693 2374694 2374695 [...] (504 flits)
Class 0:
Remaining flits: 1875456 1875457 1875458 1875459 1875460 1875461 1875462 1875463 1875464 1875465 [...] (61728 flits)
Measured flits: 2374686 2374687 2374688 2374689 2374690 2374691 2374692 2374693 2374694 2374695 [...] (497 flits)
Class 0:
Remaining flits: 1875456 1875457 1875458 1875459 1875460 1875461 1875462 1875463 1875464 1875465 [...] (60587 flits)
Measured flits: 2374686 2374687 2374688 2374689 2374690 2374691 2374692 2374693 2374694 2374695 [...] (486 flits)
Class 0:
Remaining flits: 1875456 1875457 1875458 1875459 1875460 1875461 1875462 1875463 1875464 1875465 [...] (60912 flits)
Measured flits: 2374686 2374687 2374688 2374689 2374690 2374691 2374692 2374693 2374694 2374695 [...] (468 flits)
Class 0:
Remaining flits: 1875460 1875461 1875462 1875463 1875464 1875465 1875466 1875467 1875468 1875469 [...] (60618 flits)
Measured flits: 2374686 2374687 2374688 2374689 2374690 2374691 2374692 2374693 2374694 2374695 [...] (416 flits)
Class 0:
Remaining flits: 2044206 2044207 2044208 2044209 2044210 2044211 2044212 2044213 2044214 2044215 [...] (59480 flits)
Measured flits: 2374686 2374687 2374688 2374689 2374690 2374691 2374692 2374693 2374694 2374695 [...] (342 flits)
Class 0:
Remaining flits: 2044206 2044207 2044208 2044209 2044210 2044211 2044212 2044213 2044214 2044215 [...] (58437 flits)
Measured flits: 2374691 2374692 2374693 2374694 2374695 2374696 2374697 2374698 2374699 2374700 [...] (269 flits)
Class 0:
Remaining flits: 2044206 2044207 2044208 2044209 2044210 2044211 2044212 2044213 2044214 2044215 [...] (59148 flits)
Measured flits: 2485404 2485405 2485406 2485407 2485408 2485409 2485410 2485411 2485412 2485413 [...] (252 flits)
Class 0:
Remaining flits: 2044206 2044207 2044208 2044209 2044210 2044211 2044212 2044213 2044214 2044215 [...] (60996 flits)
Measured flits: 2489490 2489491 2489492 2489493 2489494 2489495 2489496 2489497 2489498 2489499 [...] (317 flits)
Class 0:
Remaining flits: 2044206 2044207 2044208 2044209 2044210 2044211 2044212 2044213 2044214 2044215 [...] (61747 flits)
Measured flits: 2489490 2489491 2489492 2489493 2489494 2489495 2489496 2489497 2489498 2489499 [...] (375 flits)
Class 0:
Remaining flits: 2044206 2044207 2044208 2044209 2044210 2044211 2044212 2044213 2044214 2044215 [...] (61038 flits)
Measured flits: 2489490 2489491 2489492 2489493 2489494 2489495 2489496 2489497 2489498 2489499 [...] (360 flits)
Class 0:
Remaining flits: 2086758 2086759 2086760 2086761 2086762 2086763 2086764 2086765 2086766 2086767 [...] (62834 flits)
Measured flits: 2489490 2489491 2489492 2489493 2489494 2489495 2489496 2489497 2489498 2489499 [...] (314 flits)
Class 0:
Remaining flits: 2146518 2146519 2146520 2146521 2146522 2146523 2146524 2146525 2146526 2146527 [...] (62695 flits)
Measured flits: 2489490 2489491 2489492 2489493 2489494 2489495 2489496 2489497 2489498 2489499 [...] (362 flits)
Class 0:
Remaining flits: 2146518 2146519 2146520 2146521 2146522 2146523 2146524 2146525 2146526 2146527 [...] (63281 flits)
Measured flits: 2489490 2489491 2489492 2489493 2489494 2489495 2489496 2489497 2489498 2489499 [...] (372 flits)
Class 0:
Remaining flits: 2146518 2146519 2146520 2146521 2146522 2146523 2146524 2146525 2146526 2146527 [...] (65045 flits)
Measured flits: 2489490 2489491 2489492 2489493 2489494 2489495 2489496 2489497 2489498 2489499 [...] (360 flits)
Class 0:
Remaining flits: 2146518 2146519 2146520 2146521 2146522 2146523 2146524 2146525 2146526 2146527 [...] (64504 flits)
Measured flits: 2507490 2507491 2507492 2507493 2507494 2507495 2507496 2507497 2507498 2507499 [...] (250 flits)
Class 0:
Remaining flits: 2146518 2146519 2146520 2146521 2146522 2146523 2146524 2146525 2146526 2146527 [...] (61461 flits)
Measured flits: 2507490 2507491 2507492 2507493 2507494 2507495 2507496 2507497 2507498 2507499 [...] (187 flits)
Class 0:
Remaining flits: 2146531 2146532 2146533 2146534 2146535 2157120 2157121 2157122 2157123 2157124 [...] (59838 flits)
Measured flits: 2674566 2674567 2674568 2674569 2674570 2674571 2674572 2674573 2674574 2674575 [...] (225 flits)
Class 0:
Remaining flits: 2204678 2204679 2204680 2204681 2204682 2204683 2204684 2204685 2204686 2204687 [...] (62847 flits)
Measured flits: 2675937 2675938 2675939 2675940 2675941 2675942 2675943 2675944 2675945 2675946 [...] (370 flits)
Class 0:
Remaining flits: 2457360 2457361 2457362 2457363 2457364 2457365 2457366 2457367 2457368 2457369 [...] (61545 flits)
Measured flits: 3222845 3368448 3368449 3368450 3368451 3368452 3368453 3368454 3368455 3368456 [...] (320 flits)
Class 0:
Remaining flits: 2457360 2457361 2457362 2457363 2457364 2457365 2457366 2457367 2457368 2457369 [...] (60434 flits)
Measured flits: 3222845 3368448 3368449 3368450 3368451 3368452 3368453 3368454 3368455 3368456 [...] (255 flits)
Class 0:
Remaining flits: 2457360 2457361 2457362 2457363 2457364 2457365 2457366 2457367 2457368 2457369 [...] (59843 flits)
Measured flits: 3222845 3368448 3368449 3368450 3368451 3368452 3368453 3368454 3368455 3368456 [...] (201 flits)
Class 0:
Remaining flits: 2457360 2457361 2457362 2457363 2457364 2457365 2457366 2457367 2457368 2457369 [...] (60227 flits)
Measured flits: 3368448 3368449 3368450 3368451 3368452 3368453 3368454 3368455 3368456 3368457 [...] (180 flits)
Class 0:
Remaining flits: 2529288 2529289 2529290 2529291 2529292 2529293 2529294 2529295 2529296 2529297 [...] (63229 flits)
Measured flits: 3368448 3368449 3368450 3368451 3368452 3368453 3368454 3368455 3368456 3368457 [...] (180 flits)
Class 0:
Remaining flits: 2529288 2529289 2529290 2529291 2529292 2529293 2529294 2529295 2529296 2529297 [...] (62358 flits)
Measured flits: 3368448 3368449 3368450 3368451 3368452 3368453 3368454 3368455 3368456 3368457 [...] (180 flits)
Class 0:
Remaining flits: 2529288 2529289 2529290 2529291 2529292 2529293 2529294 2529295 2529296 2529297 [...] (62226 flits)
Measured flits: 3368448 3368449 3368450 3368451 3368452 3368453 3368454 3368455 3368456 3368457 [...] (144 flits)
Class 0:
Remaining flits: 2529288 2529289 2529290 2529291 2529292 2529293 2529294 2529295 2529296 2529297 [...] (62745 flits)
Measured flits: 3368448 3368449 3368450 3368451 3368452 3368453 3368454 3368455 3368456 3368457 [...] (144 flits)
Class 0:
Remaining flits: 2656476 2656477 2656478 2656479 2656480 2656481 2656482 2656483 2656484 2656485 [...] (62544 flits)
Measured flits: 3368448 3368449 3368450 3368451 3368452 3368453 3368454 3368455 3368456 3368457 [...] (144 flits)
Class 0:
Remaining flits: 2656476 2656477 2656478 2656479 2656480 2656481 2656482 2656483 2656484 2656485 [...] (60593 flits)
Measured flits: 3368448 3368449 3368450 3368451 3368452 3368453 3368454 3368455 3368456 3368457 [...] (144 flits)
Class 0:
Remaining flits: 2690514 2690515 2690516 2690517 2690518 2690519 2690520 2690521 2690522 2690523 [...] (60933 flits)
Measured flits: 3368448 3368449 3368450 3368451 3368452 3368453 3368454 3368455 3368456 3368457 [...] (126 flits)
Class 0:
Remaining flits: 2690514 2690515 2690516 2690517 2690518 2690519 2690520 2690521 2690522 2690523 [...] (62366 flits)
Measured flits: 3368448 3368449 3368450 3368451 3368452 3368453 3368454 3368455 3368456 3368457 [...] (126 flits)
Class 0:
Remaining flits: 2690514 2690515 2690516 2690517 2690518 2690519 2690520 2690521 2690522 2690523 [...] (62527 flits)
Measured flits: 3368448 3368449 3368450 3368451 3368452 3368453 3368454 3368455 3368456 3368457 [...] (252 flits)
Class 0:
Remaining flits: 2690526 2690527 2690528 2690529 2690530 2690531 2696796 2696797 2696798 2696799 [...] (62380 flits)
Measured flits: 3368448 3368449 3368450 3368451 3368452 3368453 3368454 3368455 3368456 3368457 [...] (162 flits)
Class 0:
Remaining flits: 2696796 2696797 2696798 2696799 2696800 2696801 2696802 2696803 2696804 2696805 [...] (63302 flits)
Measured flits: 3368448 3368449 3368450 3368451 3368452 3368453 3368454 3368455 3368456 3368457 [...] (137 flits)
Class 0:
Remaining flits: 2696796 2696797 2696798 2696799 2696800 2696801 2696802 2696803 2696804 2696805 [...] (63594 flits)
Measured flits: 3368448 3368449 3368450 3368451 3368452 3368453 3368454 3368455 3368456 3368457 [...] (108 flits)
Class 0:
Remaining flits: 2696796 2696797 2696798 2696799 2696800 2696801 2696802 2696803 2696804 2696805 [...] (63346 flits)
Measured flits: 3368448 3368449 3368450 3368451 3368452 3368453 3368454 3368455 3368456 3368457 [...] (108 flits)
Class 0:
Remaining flits: 2696796 2696797 2696798 2696799 2696800 2696801 2696802 2696803 2696804 2696805 [...] (61964 flits)
Measured flits: 3368448 3368449 3368450 3368451 3368452 3368453 3368454 3368455 3368456 3368457 [...] (108 flits)
Class 0:
Remaining flits: 2696796 2696797 2696798 2696799 2696800 2696801 2696802 2696803 2696804 2696805 [...] (62796 flits)
Measured flits: 3368448 3368449 3368450 3368451 3368452 3368453 3368454 3368455 3368456 3368457 [...] (108 flits)
Class 0:
Remaining flits: 2696799 2696800 2696801 2696802 2696803 2696804 2696805 2696806 2696807 2696808 [...] (63472 flits)
Measured flits: 3368448 3368449 3368450 3368451 3368452 3368453 3368454 3368455 3368456 3368457 [...] (108 flits)
Class 0:
Remaining flits: 2696799 2696800 2696801 2696802 2696803 2696804 2696805 2696806 2696807 2696808 [...] (65275 flits)
Measured flits: 3368448 3368449 3368450 3368451 3368452 3368453 3368454 3368455 3368456 3368457 [...] (108 flits)
Class 0:
Remaining flits: 2897028 2897029 2897030 2897031 2897032 2897033 2897034 2897035 2897036 2897037 [...] (63188 flits)
Measured flits: 3368448 3368449 3368450 3368451 3368452 3368453 3368454 3368455 3368456 3368457 [...] (90 flits)
Class 0:
Remaining flits: 2897028 2897029 2897030 2897031 2897032 2897033 2897034 2897035 2897036 2897037 [...] (62405 flits)
Measured flits: 3368448 3368449 3368450 3368451 3368452 3368453 3368454 3368455 3368456 3368457 [...] (90 flits)
Class 0:
Remaining flits: 2897029 2897030 2897031 2897032 2897033 2897034 2897035 2897036 2897037 2897038 [...] (63886 flits)
Measured flits: 3368448 3368449 3368450 3368451 3368452 3368453 3368454 3368455 3368456 3368457 [...] (90 flits)
Class 0:
Remaining flits: 2939130 2939131 2939132 2939133 2939134 2939135 2939136 2939137 2939138 2939139 [...] (65792 flits)
Measured flits: 3368448 3368449 3368450 3368451 3368452 3368453 3368454 3368455 3368456 3368457 [...] (90 flits)
Class 0:
Remaining flits: 2939130 2939131 2939132 2939133 2939134 2939135 2939136 2939137 2939138 2939139 [...] (64144 flits)
Measured flits: 3752982 3752983 3752984 3752985 3752986 3752987 3752988 3752989 3752990 3752991 [...] (54 flits)
Class 0:
Remaining flits: 2939130 2939131 2939132 2939133 2939134 2939135 2939136 2939137 2939138 2939139 [...] (62891 flits)
Measured flits: 3752982 3752983 3752984 3752985 3752986 3752987 3752988 3752989 3752990 3752991 [...] (54 flits)
Class 0:
Remaining flits: 2939130 2939131 2939132 2939133 2939134 2939135 2939136 2939137 2939138 2939139 [...] (63065 flits)
Measured flits: 3770532 3770533 3770534 3770535 3770536 3770537 3770538 3770539 3770540 3770541 [...] (36 flits)
Class 0:
Remaining flits: 2939130 2939131 2939132 2939133 2939134 2939135 2939136 2939137 2939138 2939139 [...] (64366 flits)
Measured flits: 3770532 3770533 3770534 3770535 3770536 3770537 3770538 3770539 3770540 3770541 [...] (36 flits)
Class 0:
Remaining flits: 2939130 2939131 2939132 2939133 2939134 2939135 2939136 2939137 2939138 2939139 [...] (61955 flits)
Measured flits: 3770532 3770533 3770534 3770535 3770536 3770537 3770538 3770539 3770540 3770541 [...] (36 flits)
Class 0:
Remaining flits: 2939130 2939131 2939132 2939133 2939134 2939135 2939136 2939137 2939138 2939139 [...] (59696 flits)
Measured flits: 3770532 3770533 3770534 3770535 3770536 3770537 3770538 3770539 3770540 3770541 [...] (36 flits)
Class 0:
Remaining flits: 3094237 3094238 3094239 3094240 3094241 3094242 3094243 3094244 3094245 3094246 [...] (60961 flits)
Measured flits: 3770532 3770533 3770534 3770535 3770536 3770537 3770538 3770539 3770540 3770541 [...] (36 flits)
Class 0:
Remaining flits: 3094237 3094238 3094239 3094240 3094241 3094242 3094243 3094244 3094245 3094246 [...] (59726 flits)
Measured flits: 3770532 3770533 3770534 3770535 3770536 3770537 3770538 3770539 3770540 3770541 [...] (36 flits)
Class 0:
Remaining flits: 3094237 3094238 3094239 3094240 3094241 3094242 3094243 3094244 3094245 3094246 [...] (59006 flits)
Measured flits: 3770532 3770533 3770534 3770535 3770536 3770537 3770538 3770539 3770540 3770541 [...] (36 flits)
Class 0:
Remaining flits: 3345804 3345805 3345806 3345807 3345808 3345809 3345810 3345811 3345812 3345813 [...] (58954 flits)
Measured flits: 3770532 3770533 3770534 3770535 3770536 3770537 3770538 3770539 3770540 3770541 [...] (36 flits)
Class 0:
Remaining flits: 3400200 3400201 3400202 3400203 3400204 3400205 3400206 3400207 3400208 3400209 [...] (60313 flits)
Measured flits: 3770532 3770533 3770534 3770535 3770536 3770537 3770538 3770539 3770540 3770541 [...] (36 flits)
Class 0:
Remaining flits: 3400200 3400201 3400202 3400203 3400204 3400205 3400206 3400207 3400208 3400209 [...] (61523 flits)
Measured flits: 3770532 3770533 3770534 3770535 3770536 3770537 3770538 3770539 3770540 3770541 [...] (36 flits)
Class 0:
Remaining flits: 3400200 3400201 3400202 3400203 3400204 3400205 3400206 3400207 3400208 3400209 [...] (64459 flits)
Measured flits: 3770532 3770533 3770534 3770535 3770536 3770537 3770538 3770539 3770540 3770541 [...] (54 flits)
Class 0:
Remaining flits: 3400200 3400201 3400202 3400203 3400204 3400205 3400206 3400207 3400208 3400209 [...] (62667 flits)
Measured flits: 4527253 4527254 4527255 4527256 4527257 4527258 4527259 4527260 4527261 4527262 [...] (145 flits)
Class 0:
Remaining flits: 3400200 3400201 3400202 3400203 3400204 3400205 3400206 3400207 3400208 3400209 [...] (61649 flits)
Measured flits: 4543776 4543777 4543778 4543779 4543780 4543781 4543782 4543783 4543784 4543785 [...] (57 flits)
Class 0:
Remaining flits: 3400200 3400201 3400202 3400203 3400204 3400205 3400206 3400207 3400208 3400209 [...] (63172 flits)
Measured flits: 4569444 4569445 4569446 4569447 4569448 4569449 4569450 4569451 4569452 4569453 [...] (18 flits)
Draining remaining packets ...
Class 0:
Remaining flits: 3414354 3414355 3414356 3414357 3414358 3414359 3414360 3414361 3414362 3414363 [...] (39628 flits)
Measured flits: (0 flits)
Class 0:
Remaining flits: 3570588 3570589 3570590 3570591 3570592 3570593 3570594 3570595 3570596 3570597 [...] (28922 flits)
Measured flits: (0 flits)
Class 0:
Remaining flits: 3570588 3570589 3570590 3570591 3570592 3570593 3570594 3570595 3570596 3570597 [...] (20863 flits)
Measured flits: (0 flits)
Class 0:
Remaining flits: 3638952 3638953 3638954 3638955 3638956 3638957 3638958 3638959 3638960 3638961 [...] (13321 flits)
Measured flits: (0 flits)
Class 0:
Remaining flits: 3724668 3724669 3724670 3724671 3724672 3724673 3724674 3724675 3724676 3724677 [...] (6834 flits)
Measured flits: (0 flits)
Class 0:
Remaining flits: 4098919 4098920 4098921 4098922 4098923 4100040 4100041 4100042 4100043 4100044 [...] (1050 flits)
Measured flits: (0 flits)
Time taken is 152720 cycles
====== Overall Traffic Statistics ======
====== Traffic class 0 ======
Packet latency average = 16702.9 (1 samples)
	minimum = 39 (1 samples)
	maximum = 137365 (1 samples)
Network latency average = 1806.39 (1 samples)
	minimum = 23 (1 samples)
	maximum = 49737 (1 samples)
Flit latency average = 1920.55 (1 samples)
	minimum = 6 (1 samples)
	maximum = 49603 (1 samples)
Fragmentation average = 255.793 (1 samples)
	minimum = 0 (1 samples)
	maximum = 19189 (1 samples)
Injected packet rate average = 0.0115551 (1 samples)
	minimum = 0 (1 samples)
	maximum = 0.0251429 (1 samples)
Accepted packet rate average = 0.0115707 (1 samples)
	minimum = 0.00857143 (1 samples)
	maximum = 0.0151429 (1 samples)
Injected flit rate average = 0.208094 (1 samples)
	minimum = 0 (1 samples)
	maximum = 0.452143 (1 samples)
Accepted flit rate average = 0.207763 (1 samples)
	minimum = 0.155571 (1 samples)
	maximum = 0.267143 (1 samples)
Injected packet size average = 18.009 (1 samples)
Accepted packet size average = 17.956 (1 samples)
Hops average = 5.06094 (1 samples)
Total run time 237.577
