BEGIN Configuration File: networks/mezzanine_config
topology = mezzanine;
n = 12;

routing_function = multipath;
internal_speedup = 2.0;
latency_thres = 100000.0;
use_read_write = 0;

sample_period = 1000;
injection_rate = 0.5;
packet_size = 18;

noq = 1;
routing_delay = 0;
vc_alloc_delay = 1;
sw_alloc_delay = 1;
st_final_delay = 1;
vc_allocator = islip; 
sw_allocator = islip;
alloc_iters  = 4;
num_vcs     = 12;
buffer_policy = private; // private or shared
buf_size = -1; // -1 for buffer_policy = private;
vc_buf_size = 4096; // size of each VOQ with buffer_policy = private
output_buffer_size = -1;


traffic = uniform;

//mezW = 0.0;
//mezPredefinedPatternType = shift-inter; //shift-qfdb

END Configuration File: networks/mezzanine_config
OVERRIDE Parameter: injection_rate=0.026797
OVERRIDE Parameter: routing_function=min
OVERRIDE Parameter: num_vcs=64
OVERRIDE Parameter: vc_buf_size=1024
OVERRIDE Parameter: internal_speedup=1.0
OVERRIDE Parameter: injection_process=bernoulli
OVERRIDE Parameter: sim_type=latency
OVERRIDE Parameter: burst_alpha=0.0038461538
OVERRIDE Parameter: burst_beta=0.1
network: network_0
========================== Routing table  =====================
Number of Subnets: 1
Class 0:
Packet latency average = 298.856
	minimum = 24
	maximum = 934
Network latency average = 292.372
	minimum = 23
	maximum = 924
Slowest packet = 342
Flit latency average = 212.659
	minimum = 6
	maximum = 907
Slowest flit = 6173
Fragmentation average = 177.397
	minimum = 0
	maximum = 871
Injected packet rate average = 0.0267969
	minimum = 0.012 (at node 79)
	maximum = 0.042 (at node 126)
Accepted packet rate average = 0.0100781
	minimum = 0.004 (at node 45)
	maximum = 0.019 (at node 91)
Injected flit rate average = 0.478594
	minimum = 0.216 (at node 79)
	maximum = 0.756 (at node 126)
Accepted flit rate average= 0.21574
	minimum = 0.103 (at node 185)
	maximum = 0.358 (at node 91)
Injected packet length average = 17.8601
Accepted packet length average = 21.4067
Total in-flight flits = 51188 (0 measured)
latency change    = 1
throughput change = 1
Class 0:
Packet latency average = 524.575
	minimum = 24
	maximum = 1841
Network latency average = 517.317
	minimum = 23
	maximum = 1832
Slowest packet = 228
Flit latency average = 417.161
	minimum = 6
	maximum = 1926
Slowest flit = 3945
Fragmentation average = 239.703
	minimum = 0
	maximum = 1574
Injected packet rate average = 0.0266823
	minimum = 0.017 (at node 24)
	maximum = 0.036 (at node 191)
Accepted packet rate average = 0.0114609
	minimum = 0.006 (at node 174)
	maximum = 0.0175 (at node 67)
Injected flit rate average = 0.478349
	minimum = 0.305 (at node 24)
	maximum = 0.644 (at node 191)
Accepted flit rate average= 0.226792
	minimum = 0.122 (at node 96)
	maximum = 0.3255 (at node 67)
Injected packet length average = 17.9276
Accepted packet length average = 19.7882
Total in-flight flits = 97340 (0 measured)
latency change    = 0.430289
throughput change = 0.0487323
Class 0:
Packet latency average = 1082.26
	minimum = 23
	maximum = 2667
Network latency average = 1074.18
	minimum = 23
	maximum = 2667
Slowest packet = 1372
Flit latency average = 971.416
	minimum = 6
	maximum = 2827
Slowest flit = 13327
Fragmentation average = 335.11
	minimum = 0
	maximum = 2355
Injected packet rate average = 0.0267031
	minimum = 0.013 (at node 139)
	maximum = 0.039 (at node 34)
Accepted packet rate average = 0.0131927
	minimum = 0.003 (at node 135)
	maximum = 0.023 (at node 129)
Injected flit rate average = 0.480292
	minimum = 0.229 (at node 139)
	maximum = 0.702 (at node 34)
Accepted flit rate average= 0.243344
	minimum = 0.07 (at node 135)
	maximum = 0.472 (at node 129)
Injected packet length average = 17.9863
Accepted packet length average = 18.4453
Total in-flight flits = 142904 (0 measured)
latency change    = 0.515298
throughput change = 0.0680193
Warmed up ...Time used is 3000 cycles
Class 0:
Packet latency average = 175.197
	minimum = 24
	maximum = 964
Network latency average = 167.381
	minimum = 24
	maximum = 949
Slowest packet = 15422
Flit latency average = 1356.98
	minimum = 6
	maximum = 3823
Slowest flit = 12662
Fragmentation average = 90.2263
	minimum = 1
	maximum = 698
Injected packet rate average = 0.0271719
	minimum = 0.013 (at node 159)
	maximum = 0.046 (at node 26)
Accepted packet rate average = 0.0134427
	minimum = 0.004 (at node 64)
	maximum = 0.023 (at node 33)
Injected flit rate average = 0.488312
	minimum = 0.25 (at node 159)
	maximum = 0.822 (at node 26)
Accepted flit rate average= 0.245214
	minimum = 0.11 (at node 150)
	maximum = 0.401 (at node 51)
Injected packet length average = 17.9712
Accepted packet length average = 18.2414
Total in-flight flits = 189729 (83030 measured)
latency change    = 5.17739
throughput change = 0.00762516
Class 0:
Packet latency average = 456.378
	minimum = 23
	maximum = 1961
Network latency average = 448.178
	minimum = 23
	maximum = 1961
Slowest packet = 15450
Flit latency average = 1571.42
	minimum = 6
	maximum = 4725
Slowest flit = 12851
Fragmentation average = 167.224
	minimum = 0
	maximum = 1551
Injected packet rate average = 0.02675
	minimum = 0.0185 (at node 28)
	maximum = 0.038 (at node 87)
Accepted packet rate average = 0.0134271
	minimum = 0.005 (at node 150)
	maximum = 0.019 (at node 16)
Injected flit rate average = 0.481448
	minimum = 0.333 (at node 28)
	maximum = 0.692 (at node 87)
Accepted flit rate average= 0.244448
	minimum = 0.107 (at node 150)
	maximum = 0.355 (at node 177)
Injected packet length average = 17.9981
Accepted packet length average = 18.2056
Total in-flight flits = 233932 (156392 measured)
latency change    = 0.616113
throughput change = 0.00313206
Class 0:
Packet latency average = 819.523
	minimum = 23
	maximum = 2927
Network latency average = 811.427
	minimum = 23
	maximum = 2927
Slowest packet = 15675
Flit latency average = 1797.6
	minimum = 6
	maximum = 5705
Slowest flit = 16065
Fragmentation average = 207.615
	minimum = 0
	maximum = 2347
Injected packet rate average = 0.0267986
	minimum = 0.0193333 (at node 28)
	maximum = 0.034 (at node 26)
Accepted packet rate average = 0.0134045
	minimum = 0.00666667 (at node 35)
	maximum = 0.0176667 (at node 119)
Injected flit rate average = 0.48247
	minimum = 0.348 (at node 28)
	maximum = 0.611667 (at node 26)
Accepted flit rate average= 0.243946
	minimum = 0.123 (at node 35)
	maximum = 0.332333 (at node 177)
Injected packet length average = 18.0036
Accepted packet length average = 18.1988
Total in-flight flits = 280239 (225222 measured)
latency change    = 0.443118
throughput change = 0.00205675
Class 0:
Packet latency average = 1249.71
	minimum = 23
	maximum = 3955
Network latency average = 1241.57
	minimum = 23
	maximum = 3935
Slowest packet = 15552
Flit latency average = 2047.88
	minimum = 6
	maximum = 6395
Slowest flit = 54692
Fragmentation average = 241.234
	minimum = 0
	maximum = 2555
Injected packet rate average = 0.0268294
	minimum = 0.02025 (at node 28)
	maximum = 0.03325 (at node 46)
Accepted packet rate average = 0.0134232
	minimum = 0.0085 (at node 35)
	maximum = 0.0185 (at node 142)
Injected flit rate average = 0.482862
	minimum = 0.3645 (at node 28)
	maximum = 0.60125 (at node 46)
Accepted flit rate average= 0.242699
	minimum = 0.15925 (at node 35)
	maximum = 0.32925 (at node 142)
Injected packet length average = 17.9975
Accepted packet length average = 18.0806
Total in-flight flits = 327401 (289185 measured)
latency change    = 0.344228
throughput change = 0.00513789
Class 0:
Packet latency average = 1660.51
	minimum = 23
	maximum = 4922
Network latency average = 1652.38
	minimum = 23
	maximum = 4919
Slowest packet = 15493
Flit latency average = 2283.06
	minimum = 6
	maximum = 7600
Slowest flit = 35752
Fragmentation average = 260.711
	minimum = 0
	maximum = 4102
Injected packet rate average = 0.0268885
	minimum = 0.0214 (at node 92)
	maximum = 0.0342 (at node 46)
Accepted packet rate average = 0.0134333
	minimum = 0.0096 (at node 149)
	maximum = 0.0178 (at node 54)
Injected flit rate average = 0.48402
	minimum = 0.3822 (at node 92)
	maximum = 0.6178 (at node 46)
Accepted flit rate average= 0.242672
	minimum = 0.1768 (at node 67)
	maximum = 0.3194 (at node 54)
Injected packet length average = 18.001
Accepted packet length average = 18.0649
Total in-flight flits = 374573 (348131 measured)
latency change    = 0.247394
throughput change = 0.000112678
Class 0:
Packet latency average = 2060.08
	minimum = 23
	maximum = 5981
Network latency average = 2052.04
	minimum = 23
	maximum = 5973
Slowest packet = 15427
Flit latency average = 2511.77
	minimum = 6
	maximum = 8532
Slowest flit = 31607
Fragmentation average = 275.943
	minimum = 0
	maximum = 4102
Injected packet rate average = 0.026849
	minimum = 0.0213333 (at node 31)
	maximum = 0.0343333 (at node 137)
Accepted packet rate average = 0.0133828
	minimum = 0.0103333 (at node 149)
	maximum = 0.0178333 (at node 50)
Injected flit rate average = 0.483389
	minimum = 0.384 (at node 31)
	maximum = 0.618667 (at node 137)
Accepted flit rate average= 0.241319
	minimum = 0.184833 (at node 67)
	maximum = 0.322833 (at node 50)
Injected packet length average = 18.004
Accepted packet length average = 18.032
Total in-flight flits = 421645 (402597 measured)
latency change    = 0.19396
throughput change = 0.00560793
Class 0:
Packet latency average = 2440.2
	minimum = 23
	maximum = 6912
Network latency average = 2432.2
	minimum = 23
	maximum = 6912
Slowest packet = 15435
Flit latency average = 2736.39
	minimum = 6
	maximum = 9370
Slowest flit = 42748
Fragmentation average = 290.205
	minimum = 0
	maximum = 4461
Injected packet rate average = 0.0267954
	minimum = 0.0214286 (at node 28)
	maximum = 0.0332857 (at node 137)
Accepted packet rate average = 0.013317
	minimum = 0.0101429 (at node 190)
	maximum = 0.0171429 (at node 103)
Injected flit rate average = 0.482255
	minimum = 0.385714 (at node 28)
	maximum = 0.600286 (at node 137)
Accepted flit rate average= 0.239632
	minimum = 0.180571 (at node 190)
	maximum = 0.303714 (at node 103)
Injected packet length average = 17.9977
Accepted packet length average = 17.9945
Total in-flight flits = 469073 (454971 measured)
latency change    = 0.155774
throughput change = 0.00703947
Draining all recorded packets ...
Class 0:
Remaining flits: 39937 39938 39939 39940 39941 52001 61848 61849 61850 61851 [...] (518941 flits)
Measured flits: 276984 276985 276986 276987 276988 276989 276990 276991 276992 276993 [...] (423264 flits)
Class 0:
Remaining flits: 39937 39938 39939 39940 39941 61848 61849 61850 61851 61852 [...] (565901 flits)
Measured flits: 276984 276985 276986 276987 276988 276989 276990 276991 276992 276993 [...] (389887 flits)
Class 0:
Remaining flits: 39937 39938 39939 39940 39941 61848 61849 61850 61851 61852 [...] (615426 flits)
Measured flits: 276984 276985 276986 276987 276988 276989 276990 276991 276992 276993 [...] (356377 flits)
Class 0:
Remaining flits: 39937 39938 39939 39940 39941 65664 65665 65666 65667 65668 [...] (665188 flits)
Measured flits: 276984 276985 276986 276987 276988 276989 276990 276991 276992 276993 [...] (322494 flits)
Class 0:
Remaining flits: 65664 65665 65666 65667 65668 65669 65670 65671 65672 65673 [...] (714484 flits)
Measured flits: 276984 276985 276986 276987 276988 276989 276990 276991 276992 276993 [...] (289873 flits)
Class 0:
Remaining flits: 65664 65665 65666 65667 65668 65669 65670 65671 65672 65673 [...] (767578 flits)
Measured flits: 276984 276985 276986 276987 276988 276989 276990 276991 276992 276993 [...] (259072 flits)
Class 0:
Remaining flits: 65664 65665 65666 65667 65668 65669 65670 65671 65672 65673 [...] (816721 flits)
Measured flits: 276984 276985 276986 276987 276988 276989 276990 276991 276992 276993 [...] (230379 flits)
Class 0:
Remaining flits: 65664 65665 65666 65667 65668 65669 65670 65671 65672 65673 [...] (867252 flits)
Measured flits: 276984 276985 276986 276987 276988 276989 276990 276991 276992 276993 [...] (204098 flits)
Class 0:
Remaining flits: 98640 98641 98642 98643 98644 98645 98646 98647 98648 98649 [...] (918706 flits)
Measured flits: 276984 276985 276986 276987 276988 276989 276990 276991 276992 276993 [...] (179836 flits)
Class 0:
Remaining flits: 98640 98641 98642 98643 98644 98645 98646 98647 98648 98649 [...] (971963 flits)
Measured flits: 276989 276990 276991 276992 276993 276994 276995 276996 276997 276998 [...] (157783 flits)
Class 0:
Remaining flits: 98640 98641 98642 98643 98644 98645 98646 98647 98648 98649 [...] (1021466 flits)
Measured flits: 277164 277165 277166 277167 277168 277169 277170 277171 277172 277173 [...] (138256 flits)
Class 0:
Remaining flits: 105048 105049 105050 105051 105052 105053 105054 105055 105056 105057 [...] (1073802 flits)
Measured flits: 280998 280999 281000 281001 281002 281003 281004 281005 281006 281007 [...] (122061 flits)
Class 0:
Remaining flits: 105048 105049 105050 105051 105052 105053 105054 105055 105056 105057 [...] (1126821 flits)
Measured flits: 280998 280999 281000 281001 281002 281003 281004 281005 281006 281007 [...] (108607 flits)
Class 0:
Remaining flits: 155682 155683 155684 155685 155686 155687 155688 155689 155690 155691 [...] (1177452 flits)
Measured flits: 283488 283489 283490 283491 283492 283493 283494 283495 283496 283497 [...] (95828 flits)
Class 0:
Remaining flits: 155682 155683 155684 155685 155686 155687 155688 155689 155690 155691 [...] (1228912 flits)
Measured flits: 283499 284274 284275 284276 284277 284278 284279 284280 284281 284282 [...] (84138 flits)
Class 0:
Remaining flits: 155682 155683 155684 155685 155686 155687 155688 155689 155690 155691 [...] (1281932 flits)
Measured flits: 284274 284275 284276 284277 284278 284279 284280 284281 284282 284283 [...] (74006 flits)
Class 0:
Remaining flits: 155682 155683 155684 155685 155686 155687 155688 155689 155690 155691 [...] (1332249 flits)
Measured flits: 286704 286705 286706 286707 286708 286709 286710 286711 286712 286713 [...] (65346 flits)
Class 0:
Remaining flits: 155682 155683 155684 155685 155686 155687 155688 155689 155690 155691 [...] (1380373 flits)
Measured flits: 286704 286705 286706 286707 286708 286709 286710 286711 286712 286713 [...] (57716 flits)
Class 0:
Remaining flits: 155682 155683 155684 155685 155686 155687 155688 155689 155690 155691 [...] (1425348 flits)
Measured flits: 286704 286705 286706 286707 286708 286709 286710 286711 286712 286713 [...] (51132 flits)
Class 0:
Remaining flits: 211500 211501 211502 211503 211504 211505 211506 211507 211508 211509 [...] (1471925 flits)
Measured flits: 287586 287587 287588 287589 287590 287591 287592 287593 287594 287595 [...] (44625 flits)
Class 0:
Remaining flits: 211500 211501 211502 211503 211504 211505 211506 211507 211508 211509 [...] (1514362 flits)
Measured flits: 287603 299754 299755 299756 299757 299758 299759 299760 299761 299762 [...] (39816 flits)
Class 0:
Remaining flits: 215478 215479 215480 215481 215482 215483 215484 215485 215486 215487 [...] (1556963 flits)
Measured flits: 303552 303553 303554 303555 303556 303557 303558 303559 303560 303561 [...] (35048 flits)
Class 0:
Remaining flits: 229068 229069 229070 229071 229072 229073 229074 229075 229076 229077 [...] (1599213 flits)
Measured flits: 303552 303553 303554 303555 303556 303557 303558 303559 303560 303561 [...] (30760 flits)
Class 0:
Remaining flits: 229068 229069 229070 229071 229072 229073 229074 229075 229076 229077 [...] (1641579 flits)
Measured flits: 306864 306865 306866 306867 306868 306869 306870 306871 306872 306873 [...] (27807 flits)
Class 0:
Remaining flits: 229068 229069 229070 229071 229072 229073 229074 229075 229076 229077 [...] (1682162 flits)
Measured flits: 306864 306865 306866 306867 306868 306869 306870 306871 306872 306873 [...] (24698 flits)
Class 0:
Remaining flits: 229068 229069 229070 229071 229072 229073 229074 229075 229076 229077 [...] (1723845 flits)
Measured flits: 310068 310069 310070 310071 310072 310073 310074 310075 310076 310077 [...] (21962 flits)
Class 0:
Remaining flits: 229068 229069 229070 229071 229072 229073 229074 229075 229076 229077 [...] (1764585 flits)
Measured flits: 310068 310069 310070 310071 310072 310073 310074 310075 310076 310077 [...] (19285 flits)
Class 0:
Remaining flits: 229068 229069 229070 229071 229072 229073 229074 229075 229076 229077 [...] (1805917 flits)
Measured flits: 310068 310069 310070 310071 310072 310073 310074 310075 310076 310077 [...] (16932 flits)
Class 0:
Remaining flits: 229068 229069 229070 229071 229072 229073 229074 229075 229076 229077 [...] (1849315 flits)
Measured flits: 310068 310069 310070 310071 310072 310073 310074 310075 310076 310077 [...] (15016 flits)
Class 0:
Remaining flits: 229068 229069 229070 229071 229072 229073 229074 229075 229076 229077 [...] (1892048 flits)
Measured flits: 310068 310069 310070 310071 310072 310073 310074 310075 310076 310077 [...] (13137 flits)
Class 0:
Remaining flits: 229068 229069 229070 229071 229072 229073 229074 229075 229076 229077 [...] (1934978 flits)
Measured flits: 310068 310069 310070 310071 310072 310073 310074 310075 310076 310077 [...] (11824 flits)
Class 0:
Remaining flits: 229068 229069 229070 229071 229072 229073 229074 229075 229076 229077 [...] (1975443 flits)
Measured flits: 337518 337519 337520 337521 337522 337523 337524 337525 337526 337527 [...] (10436 flits)
Class 0:
Remaining flits: 229068 229069 229070 229071 229072 229073 229074 229075 229076 229077 [...] (2016318 flits)
Measured flits: 337518 337519 337520 337521 337522 337523 337524 337525 337526 337527 [...] (9362 flits)
Class 0:
Remaining flits: 229068 229069 229070 229071 229072 229073 229074 229075 229076 229077 [...] (2061177 flits)
Measured flits: 337518 337519 337520 337521 337522 337523 337524 337525 337526 337527 [...] (8585 flits)
Class 0:
Remaining flits: 229068 229069 229070 229071 229072 229073 229074 229075 229076 229077 [...] (2105633 flits)
Measured flits: 337524 337525 337526 337527 337528 337529 337530 337531 337532 337533 [...] (7497 flits)
Class 0:
Remaining flits: 229085 262872 262873 262874 262875 262876 262877 262878 262879 262880 [...] (2148670 flits)
Measured flits: 382320 382321 382322 382323 382324 382325 382326 382327 382328 382329 [...] (6662 flits)
Class 0:
Remaining flits: 262872 262873 262874 262875 262876 262877 262878 262879 262880 262881 [...] (2190430 flits)
Measured flits: 382320 382321 382322 382323 382324 382325 382326 382327 382328 382329 [...] (5836 flits)
Class 0:
Remaining flits: 262872 262873 262874 262875 262876 262877 262878 262879 262880 262881 [...] (2234476 flits)
Measured flits: 387972 387973 387974 387975 387976 387977 387978 387979 387980 387981 [...] (5342 flits)
Class 0:
Remaining flits: 262872 262873 262874 262875 262876 262877 262878 262879 262880 262881 [...] (2277602 flits)
Measured flits: 387972 387973 387974 387975 387976 387977 387978 387979 387980 387981 [...] (4744 flits)
Class 0:
Remaining flits: 262885 262886 262887 262888 262889 387972 387973 387974 387975 387976 [...] (2322062 flits)
Measured flits: 387972 387973 387974 387975 387976 387977 387978 387979 387980 387981 [...] (4207 flits)
Class 0:
Remaining flits: 262885 262886 262887 262888 262889 387972 387973 387974 387975 387976 [...] (2366249 flits)
Measured flits: 387972 387973 387974 387975 387976 387977 387978 387979 387980 387981 [...] (3710 flits)
Class 0:
Remaining flits: 387972 387973 387974 387975 387976 387977 387978 387979 387980 387981 [...] (2409520 flits)
Measured flits: 387972 387973 387974 387975 387976 387977 387978 387979 387980 387981 [...] (3213 flits)
Class 0:
Remaining flits: 492797 492798 492799 492800 492801 492802 492803 494586 494587 494588 [...] (2452467 flits)
Measured flits: 492797 492798 492799 492800 492801 492802 492803 494586 494587 494588 [...] (2696 flits)
Class 0:
Remaining flits: 528138 528139 528140 528141 528142 528143 528144 528145 528146 528147 [...] (2496879 flits)
Measured flits: 528138 528139 528140 528141 528142 528143 528144 528145 528146 528147 [...] (2486 flits)
Class 0:
Remaining flits: 528138 528139 528140 528141 528142 528143 528144 528145 528146 528147 [...] (2543059 flits)
Measured flits: 528138 528139 528140 528141 528142 528143 528144 528145 528146 528147 [...] (2172 flits)
Class 0:
Remaining flits: 528138 528139 528140 528141 528142 528143 528144 528145 528146 528147 [...] (2588086 flits)
Measured flits: 528138 528139 528140 528141 528142 528143 528144 528145 528146 528147 [...] (1987 flits)
Class 0:
Remaining flits: 528138 528139 528140 528141 528142 528143 528144 528145 528146 528147 [...] (2631145 flits)
Measured flits: 528138 528139 528140 528141 528142 528143 528144 528145 528146 528147 [...] (1665 flits)
Class 0:
Remaining flits: 528138 528139 528140 528141 528142 528143 528144 528145 528146 528147 [...] (2673825 flits)
Measured flits: 528138 528139 528140 528141 528142 528143 528144 528145 528146 528147 [...] (1437 flits)
Class 0:
Remaining flits: 528138 528139 528140 528141 528142 528143 528144 528145 528146 528147 [...] (2720240 flits)
Measured flits: 528138 528139 528140 528141 528142 528143 528144 528145 528146 528147 [...] (1302 flits)
Class 0:
Remaining flits: 528138 528139 528140 528141 528142 528143 528144 528145 528146 528147 [...] (2765081 flits)
Measured flits: 528138 528139 528140 528141 528142 528143 528144 528145 528146 528147 [...] (1145 flits)
Class 0:
Remaining flits: 528138 528139 528140 528141 528142 528143 528144 528145 528146 528147 [...] (2809818 flits)
Measured flits: 528138 528139 528140 528141 528142 528143 528144 528145 528146 528147 [...] (972 flits)
Class 0:
Remaining flits: 528138 528139 528140 528141 528142 528143 528144 528145 528146 528147 [...] (2854527 flits)
Measured flits: 528138 528139 528140 528141 528142 528143 528144 528145 528146 528147 [...] (900 flits)
Class 0:
Remaining flits: 528138 528139 528140 528141 528142 528143 528144 528145 528146 528147 [...] (2898249 flits)
Measured flits: 528138 528139 528140 528141 528142 528143 528144 528145 528146 528147 [...] (817 flits)
Class 0:
Remaining flits: 528138 528139 528140 528141 528142 528143 528144 528145 528146 528147 [...] (2944528 flits)
Measured flits: 528138 528139 528140 528141 528142 528143 528144 528145 528146 528147 [...] (737 flits)
Class 0:
Remaining flits: 528138 528139 528140 528141 528142 528143 528144 528145 528146 528147 [...] (2990318 flits)
Measured flits: 528138 528139 528140 528141 528142 528143 528144 528145 528146 528147 [...] (605 flits)
Class 0:
Remaining flits: 528138 528139 528140 528141 528142 528143 528144 528145 528146 528147 [...] (3035536 flits)
Measured flits: 528138 528139 528140 528141 528142 528143 528144 528145 528146 528147 [...] (430 flits)
Class 0:
Remaining flits: 528140 528141 528142 528143 528144 528145 528146 528147 528148 528149 [...] (3077409 flits)
Measured flits: 528140 528141 528142 528143 528144 528145 528146 528147 528148 528149 [...] (259 flits)
Class 0:
Remaining flits: 689940 689941 689942 689943 689944 689945 689946 689947 689948 689949 [...] (3121526 flits)
Measured flits: 689940 689941 689942 689943 689944 689945 689946 689947 689948 689949 [...] (181 flits)
Class 0:
Remaining flits: 689940 689941 689942 689943 689944 689945 689946 689947 689948 689949 [...] (3165585 flits)
Measured flits: 689940 689941 689942 689943 689944 689945 689946 689947 689948 689949 [...] (163 flits)
Class 0:
Remaining flits: 689940 689941 689942 689943 689944 689945 689946 689947 689948 689949 [...] (3208684 flits)
Measured flits: 689940 689941 689942 689943 689944 689945 689946 689947 689948 689949 [...] (162 flits)
Class 0:
Remaining flits: 689940 689941 689942 689943 689944 689945 689946 689947 689948 689949 [...] (3253685 flits)
Measured flits: 689940 689941 689942 689943 689944 689945 689946 689947 689948 689949 [...] (144 flits)
Class 0:
Remaining flits: 689940 689941 689942 689943 689944 689945 689946 689947 689948 689949 [...] (3299138 flits)
Measured flits: 689940 689941 689942 689943 689944 689945 689946 689947 689948 689949 [...] (144 flits)
Class 0:
Remaining flits: 689940 689941 689942 689943 689944 689945 689946 689947 689948 689949 [...] (3345104 flits)
Measured flits: 689940 689941 689942 689943 689944 689945 689946 689947 689948 689949 [...] (144 flits)
Class 0:
Remaining flits: 689940 689941 689942 689943 689944 689945 689946 689947 689948 689949 [...] (3388869 flits)
Measured flits: 689940 689941 689942 689943 689944 689945 689946 689947 689948 689949 [...] (108 flits)
Class 0:
Remaining flits: 689940 689941 689942 689943 689944 689945 689946 689947 689948 689949 [...] (3432283 flits)
Measured flits: 689940 689941 689942 689943 689944 689945 689946 689947 689948 689949 [...] (108 flits)
Class 0:
Remaining flits: 689940 689941 689942 689943 689944 689945 689946 689947 689948 689949 [...] (3475492 flits)
Measured flits: 689940 689941 689942 689943 689944 689945 689946 689947 689948 689949 [...] (72 flits)
Class 0:
Remaining flits: 689940 689941 689942 689943 689944 689945 689946 689947 689948 689949 [...] (3521515 flits)
Measured flits: 689940 689941 689942 689943 689944 689945 689946 689947 689948 689949 [...] (72 flits)
Class 0:
Remaining flits: 689940 689941 689942 689943 689944 689945 689946 689947 689948 689949 [...] (3566710 flits)
Measured flits: 689940 689941 689942 689943 689944 689945 689946 689947 689948 689949 [...] (72 flits)
Class 0:
Remaining flits: 689940 689941 689942 689943 689944 689945 689946 689947 689948 689949 [...] (3612143 flits)
Measured flits: 689940 689941 689942 689943 689944 689945 689946 689947 689948 689949 [...] (54 flits)
Class 0:
Remaining flits: 689940 689941 689942 689943 689944 689945 689946 689947 689948 689949 [...] (3656586 flits)
Measured flits: 689940 689941 689942 689943 689944 689945 689946 689947 689948 689949 [...] (54 flits)
Class 0:
Remaining flits: 864702 864703 864704 864705 864706 864707 864708 864709 864710 864711 [...] (3701745 flits)
Measured flits: 864702 864703 864704 864705 864706 864707 864708 864709 864710 864711 [...] (36 flits)
Class 0:
Remaining flits: 864702 864703 864704 864705 864706 864707 864708 864709 864710 864711 [...] (3747918 flits)
Measured flits: 864702 864703 864704 864705 864706 864707 864708 864709 864710 864711 [...] (36 flits)
Class 0:
Remaining flits: 864702 864703 864704 864705 864706 864707 864708 864709 864710 864711 [...] (3791883 flits)
Measured flits: 864702 864703 864704 864705 864706 864707 864708 864709 864710 864711 [...] (36 flits)
Class 0:
Remaining flits: 864702 864703 864704 864705 864706 864707 864708 864709 864710 864711 [...] (3835873 flits)
Measured flits: 864702 864703 864704 864705 864706 864707 864708 864709 864710 864711 [...] (33 flits)
Class 0:
Remaining flits: 864702 864703 864704 864705 864706 864707 864708 864709 864710 864711 [...] (3881448 flits)
Measured flits: 864702 864703 864704 864705 864706 864707 864708 864709 864710 864711 [...] (33 flits)
Class 0:
Remaining flits: 864702 864703 864704 864705 864706 864707 864708 864709 864710 864711 [...] (3926124 flits)
Measured flits: 864702 864703 864704 864705 864706 864707 864708 864709 864710 864711 [...] (33 flits)
Class 0:
Remaining flits: 864702 864703 864704 864705 864706 864707 864708 864709 864710 864711 [...] (3969971 flits)
Measured flits: 864702 864703 864704 864705 864706 864707 864708 864709 864710 864711 [...] (29 flits)
Draining remaining packets ...
Class 0:
Remaining flits: 1046304 1046305 1046306 1046307 1046308 1046309 1046310 1046311 1046312 1046313 [...] (3961132 flits)
Measured flits: (0 flits)
Class 0:
Remaining flits: 1046304 1046305 1046306 1046307 1046308 1046309 1046310 1046311 1046312 1046313 [...] (3926364 flits)
Measured flits: (0 flits)
Class 0:
Remaining flits: 1046304 1046305 1046306 1046307 1046308 1046309 1046310 1046311 1046312 1046313 [...] (3892371 flits)
Measured flits: (0 flits)
Class 0:
Remaining flits: 1046304 1046305 1046306 1046307 1046308 1046309 1046310 1046311 1046312 1046313 [...] (3859199 flits)
Measured flits: (0 flits)
Class 0:
Remaining flits: 1046304 1046305 1046306 1046307 1046308 1046309 1046310 1046311 1046312 1046313 [...] (3825670 flits)
Measured flits: (0 flits)
Class 0:
Remaining flits: 1046304 1046305 1046306 1046307 1046308 1046309 1046310 1046311 1046312 1046313 [...] (3791531 flits)
Measured flits: (0 flits)
Class 0:
Remaining flits: 1072584 1072585 1072586 1072587 1072588 1072589 1072590 1072591 1072592 1072593 [...] (3757525 flits)
Measured flits: (0 flits)
Class 0:
Remaining flits: 1208682 1208683 1208684 1208685 1208686 1208687 1208688 1208689 1208690 1208691 [...] (3723512 flits)
Measured flits: (0 flits)
Class 0:
Remaining flits: 1208682 1208683 1208684 1208685 1208686 1208687 1208688 1208689 1208690 1208691 [...] (3691487 flits)
Measured flits: (0 flits)
Class 0:
Remaining flits: 1208682 1208683 1208684 1208685 1208686 1208687 1208688 1208689 1208690 1208691 [...] (3657843 flits)
Measured flits: (0 flits)
Class 0:
Remaining flits: 1208682 1208683 1208684 1208685 1208686 1208687 1208688 1208689 1208690 1208691 [...] (3624077 flits)
Measured flits: (0 flits)
Class 0:
Remaining flits: 1208682 1208683 1208684 1208685 1208686 1208687 1208688 1208689 1208690 1208691 [...] (3590204 flits)
Measured flits: (0 flits)
Class 0:
Remaining flits: 1208682 1208683 1208684 1208685 1208686 1208687 1208688 1208689 1208690 1208691 [...] (3555937 flits)
Measured flits: (0 flits)
Class 0:
Remaining flits: 1208682 1208683 1208684 1208685 1208686 1208687 1208688 1208689 1208690 1208691 [...] (3521491 flits)
Measured flits: (0 flits)
Class 0:
Remaining flits: 1208682 1208683 1208684 1208685 1208686 1208687 1208688 1208689 1208690 1208691 [...] (3487399 flits)
Measured flits: (0 flits)
Class 0:
Remaining flits: 1208682 1208683 1208684 1208685 1208686 1208687 1208688 1208689 1208690 1208691 [...] (3452098 flits)
Measured flits: (0 flits)
Class 0:
Remaining flits: 1208682 1208683 1208684 1208685 1208686 1208687 1208688 1208689 1208690 1208691 [...] (3418842 flits)
Measured flits: (0 flits)
Class 0:
Remaining flits: 1208682 1208683 1208684 1208685 1208686 1208687 1208688 1208689 1208690 1208691 [...] (3384181 flits)
Measured flits: (0 flits)
Class 0:
Remaining flits: 1208934 1208935 1208936 1208937 1208938 1208939 1208940 1208941 1208942 1208943 [...] (3347875 flits)
Measured flits: (0 flits)
Class 0:
Remaining flits: 1208934 1208935 1208936 1208937 1208938 1208939 1208940 1208941 1208942 1208943 [...] (3311614 flits)
Measured flits: (0 flits)
Class 0:
Remaining flits: 1208934 1208935 1208936 1208937 1208938 1208939 1208940 1208941 1208942 1208943 [...] (3275572 flits)
Measured flits: (0 flits)
Class 0:
Remaining flits: 1208934 1208935 1208936 1208937 1208938 1208939 1208940 1208941 1208942 1208943 [...] (3239814 flits)
Measured flits: (0 flits)
Class 0:
Remaining flits: 1208934 1208935 1208936 1208937 1208938 1208939 1208940 1208941 1208942 1208943 [...] (3205263 flits)
Measured flits: (0 flits)
Class 0:
Remaining flits: 1208934 1208935 1208936 1208937 1208938 1208939 1208940 1208941 1208942 1208943 [...] (3169876 flits)
Measured flits: (0 flits)
Class 0:
Remaining flits: 1208934 1208935 1208936 1208937 1208938 1208939 1208940 1208941 1208942 1208943 [...] (3135890 flits)
Measured flits: (0 flits)
Class 0:
Remaining flits: 1208934 1208935 1208936 1208937 1208938 1208939 1208940 1208941 1208942 1208943 [...] (3100715 flits)
Measured flits: (0 flits)
Class 0:
Remaining flits: 1343484 1343485 1343486 1343487 1343488 1343489 1343490 1343491 1343492 1343493 [...] (3067048 flits)
Measured flits: (0 flits)
Class 0:
Remaining flits: 1343484 1343485 1343486 1343487 1343488 1343489 1343490 1343491 1343492 1343493 [...] (3032483 flits)
Measured flits: (0 flits)
Class 0:
Remaining flits: 1343484 1343485 1343486 1343487 1343488 1343489 1343490 1343491 1343492 1343493 [...] (2999164 flits)
Measured flits: (0 flits)
Class 0:
Remaining flits: 1343484 1343485 1343486 1343487 1343488 1343489 1343490 1343491 1343492 1343493 [...] (2965816 flits)
Measured flits: (0 flits)
Class 0:
Remaining flits: 1343484 1343485 1343486 1343487 1343488 1343489 1343490 1343491 1343492 1343493 [...] (2933846 flits)
Measured flits: (0 flits)
Class 0:
Remaining flits: 1343484 1343485 1343486 1343487 1343488 1343489 1343490 1343491 1343492 1343493 [...] (2901639 flits)
Measured flits: (0 flits)
Class 0:
Remaining flits: 1343484 1343485 1343486 1343487 1343488 1343489 1343490 1343491 1343492 1343493 [...] (2868733 flits)
Measured flits: (0 flits)
Class 0:
Remaining flits: 1343486 1343487 1343488 1343489 1343490 1343491 1343492 1343493 1343494 1343495 [...] (2836043 flits)
Measured flits: (0 flits)
Class 0:
Remaining flits: 1732878 1732879 1732880 1732881 1732882 1732883 1732884 1732885 1732886 1732887 [...] (2802659 flits)
Measured flits: (0 flits)
Class 0:
Remaining flits: 1732878 1732879 1732880 1732881 1732882 1732883 1732884 1732885 1732886 1732887 [...] (2769671 flits)
Measured flits: (0 flits)
Class 0:
Remaining flits: 1732878 1732879 1732880 1732881 1732882 1732883 1732884 1732885 1732886 1732887 [...] (2737839 flits)
Measured flits: (0 flits)
Class 0:
Remaining flits: 1732878 1732879 1732880 1732881 1732882 1732883 1732884 1732885 1732886 1732887 [...] (2705506 flits)
Measured flits: (0 flits)
Class 0:
Remaining flits: 1732878 1732879 1732880 1732881 1732882 1732883 1732884 1732885 1732886 1732887 [...] (2673598 flits)
Measured flits: (0 flits)
Class 0:
Remaining flits: 1732878 1732879 1732880 1732881 1732882 1732883 1732884 1732885 1732886 1732887 [...] (2641816 flits)
Measured flits: (0 flits)
Class 0:
Remaining flits: 1732878 1732879 1732880 1732881 1732882 1732883 1732884 1732885 1732886 1732887 [...] (2609623 flits)
Measured flits: (0 flits)
Class 0:
Remaining flits: 1732878 1732879 1732880 1732881 1732882 1732883 1732884 1732885 1732886 1732887 [...] (2578481 flits)
Measured flits: (0 flits)
Class 0:
Remaining flits: 1732878 1732879 1732880 1732881 1732882 1732883 1732884 1732885 1732886 1732887 [...] (2547184 flits)
Measured flits: (0 flits)
Class 0:
Remaining flits: 1732878 1732879 1732880 1732881 1732882 1732883 1732884 1732885 1732886 1732887 [...] (2514879 flits)
Measured flits: (0 flits)
Class 0:
Remaining flits: 1732878 1732879 1732880 1732881 1732882 1732883 1732884 1732885 1732886 1732887 [...] (2484353 flits)
Measured flits: (0 flits)
Class 0:
Remaining flits: 1732878 1732879 1732880 1732881 1732882 1732883 1732884 1732885 1732886 1732887 [...] (2453374 flits)
Measured flits: (0 flits)
Class 0:
Remaining flits: 1732878 1732879 1732880 1732881 1732882 1732883 1732884 1732885 1732886 1732887 [...] (2421560 flits)
Measured flits: (0 flits)
Class 0:
Remaining flits: 1769472 1769473 1769474 1769475 1769476 1769477 1769478 1769479 1769480 1769481 [...] (2390200 flits)
Measured flits: (0 flits)
Class 0:
Remaining flits: 1769472 1769473 1769474 1769475 1769476 1769477 1769478 1769479 1769480 1769481 [...] (2358661 flits)
Measured flits: (0 flits)
Class 0:
Remaining flits: 1769478 1769479 1769480 1769481 1769482 1769483 1769484 1769485 1769486 1769487 [...] (2327749 flits)
Measured flits: (0 flits)
Class 0:
Remaining flits: 2030850 2030851 2030852 2030853 2030854 2030855 2030856 2030857 2030858 2030859 [...] (2296150 flits)
Measured flits: (0 flits)
Class 0:
Remaining flits: 2030850 2030851 2030852 2030853 2030854 2030855 2030856 2030857 2030858 2030859 [...] (2264665 flits)
Measured flits: (0 flits)
Class 0:
Remaining flits: 2030850 2030851 2030852 2030853 2030854 2030855 2030856 2030857 2030858 2030859 [...] (2232235 flits)
Measured flits: (0 flits)
Class 0:
Remaining flits: 2069910 2069911 2069912 2069913 2069914 2069915 2069916 2069917 2069918 2069919 [...] (2200279 flits)
Measured flits: (0 flits)
Class 0:
Remaining flits: 2069910 2069911 2069912 2069913 2069914 2069915 2069916 2069917 2069918 2069919 [...] (2169003 flits)
Measured flits: (0 flits)
Class 0:
Remaining flits: 2069910 2069911 2069912 2069913 2069914 2069915 2069916 2069917 2069918 2069919 [...] (2137817 flits)
Measured flits: (0 flits)
Class 0:
Remaining flits: 2069910 2069911 2069912 2069913 2069914 2069915 2069916 2069917 2069918 2069919 [...] (2105938 flits)
Measured flits: (0 flits)
Class 0:
Remaining flits: 2277072 2277073 2277074 2277075 2277076 2277077 2277078 2277079 2277080 2277081 [...] (2074011 flits)
Measured flits: (0 flits)
Class 0:
Remaining flits: 2277072 2277073 2277074 2277075 2277076 2277077 2277078 2277079 2277080 2277081 [...] (2043223 flits)
Measured flits: (0 flits)
Class 0:
Remaining flits: 2277072 2277073 2277074 2277075 2277076 2277077 2277078 2277079 2277080 2277081 [...] (2010868 flits)
Measured flits: (0 flits)
Class 0:
Remaining flits: 2277072 2277073 2277074 2277075 2277076 2277077 2277078 2277079 2277080 2277081 [...] (1978621 flits)
Measured flits: (0 flits)
Class 0:
Remaining flits: 2277072 2277073 2277074 2277075 2277076 2277077 2277078 2277079 2277080 2277081 [...] (1946293 flits)
Measured flits: (0 flits)
Class 0:
Remaining flits: 2277072 2277073 2277074 2277075 2277076 2277077 2277078 2277079 2277080 2277081 [...] (1914075 flits)
Measured flits: (0 flits)
Class 0:
Remaining flits: 2277084 2277085 2277086 2277087 2277088 2277089 2401243 2401244 2401245 2401246 [...] (1881473 flits)
Measured flits: (0 flits)
Class 0:
Remaining flits: 2414340 2414341 2414342 2414343 2414344 2414345 2414346 2414347 2414348 2414349 [...] (1848368 flits)
Measured flits: (0 flits)
Class 0:
Remaining flits: 2414340 2414341 2414342 2414343 2414344 2414345 2414346 2414347 2414348 2414349 [...] (1815564 flits)
Measured flits: (0 flits)
Class 0:
Remaining flits: 2478240 2478241 2478242 2478243 2478244 2478245 2478246 2478247 2478248 2478249 [...] (1783632 flits)
Measured flits: (0 flits)
Class 0:
Remaining flits: 2478240 2478241 2478242 2478243 2478244 2478245 2478246 2478247 2478248 2478249 [...] (1751535 flits)
Measured flits: (0 flits)
Class 0:
Remaining flits: 2478240 2478241 2478242 2478243 2478244 2478245 2478246 2478247 2478248 2478249 [...] (1719407 flits)
Measured flits: (0 flits)
Class 0:
Remaining flits: 2478240 2478241 2478242 2478243 2478244 2478245 2478246 2478247 2478248 2478249 [...] (1686633 flits)
Measured flits: (0 flits)
Class 0:
Remaining flits: 2478240 2478241 2478242 2478243 2478244 2478245 2478246 2478247 2478248 2478249 [...] (1654089 flits)
Measured flits: (0 flits)
Class 0:
Remaining flits: 2478240 2478241 2478242 2478243 2478244 2478245 2478246 2478247 2478248 2478249 [...] (1622433 flits)
Measured flits: (0 flits)
Class 0:
Remaining flits: 2478240 2478241 2478242 2478243 2478244 2478245 2478246 2478247 2478248 2478249 [...] (1590611 flits)
Measured flits: (0 flits)
Class 0:
Remaining flits: 2478240 2478241 2478242 2478243 2478244 2478245 2478246 2478247 2478248 2478249 [...] (1558677 flits)
Measured flits: (0 flits)
Class 0:
Remaining flits: 2478240 2478241 2478242 2478243 2478244 2478245 2478246 2478247 2478248 2478249 [...] (1526606 flits)
Measured flits: (0 flits)
Class 0:
Remaining flits: 2478240 2478241 2478242 2478243 2478244 2478245 2478246 2478247 2478248 2478249 [...] (1494878 flits)
Measured flits: (0 flits)
Class 0:
Remaining flits: 2478240 2478241 2478242 2478243 2478244 2478245 2478246 2478247 2478248 2478249 [...] (1462936 flits)
Measured flits: (0 flits)
Class 0:
Remaining flits: 2478240 2478241 2478242 2478243 2478244 2478245 2478246 2478247 2478248 2478249 [...] (1430830 flits)
Measured flits: (0 flits)
Class 0:
Remaining flits: 2519910 2519911 2519912 2519913 2519914 2519915 2519916 2519917 2519918 2519919 [...] (1401864 flits)
Measured flits: (0 flits)
Class 0:
Remaining flits: 2519910 2519911 2519912 2519913 2519914 2519915 2519916 2519917 2519918 2519919 [...] (1372369 flits)
Measured flits: (0 flits)
Class 0:
Remaining flits: 2598210 2598211 2598212 2598213 2598214 2598215 2598216 2598217 2598218 2598219 [...] (1341031 flits)
Measured flits: (0 flits)
Class 0:
Remaining flits: 2598210 2598211 2598212 2598213 2598214 2598215 2598216 2598217 2598218 2598219 [...] (1309895 flits)
Measured flits: (0 flits)
Class 0:
Remaining flits: 2598210 2598211 2598212 2598213 2598214 2598215 2598216 2598217 2598218 2598219 [...] (1277216 flits)
Measured flits: (0 flits)
Class 0:
Remaining flits: 2598210 2598211 2598212 2598213 2598214 2598215 2598216 2598217 2598218 2598219 [...] (1245380 flits)
Measured flits: (0 flits)
Class 0:
Remaining flits: 2598210 2598211 2598212 2598213 2598214 2598215 2598216 2598217 2598218 2598219 [...] (1213820 flits)
Measured flits: (0 flits)
Class 0:
Remaining flits: 2598210 2598211 2598212 2598213 2598214 2598215 2598216 2598217 2598218 2598219 [...] (1182453 flits)
Measured flits: (0 flits)
Class 0:
Remaining flits: 2598210 2598211 2598212 2598213 2598214 2598215 2598216 2598217 2598218 2598219 [...] (1149917 flits)
Measured flits: (0 flits)
Class 0:
Remaining flits: 2598210 2598211 2598212 2598213 2598214 2598215 2598216 2598217 2598218 2598219 [...] (1117429 flits)
Measured flits: (0 flits)
Class 0:
Remaining flits: 2598210 2598211 2598212 2598213 2598214 2598215 2598216 2598217 2598218 2598219 [...] (1085370 flits)
Measured flits: (0 flits)
Class 0:
Remaining flits: 2598210 2598211 2598212 2598213 2598214 2598215 2598216 2598217 2598218 2598219 [...] (1054404 flits)
Measured flits: (0 flits)
Class 0:
Remaining flits: 2598210 2598211 2598212 2598213 2598214 2598215 2598216 2598217 2598218 2598219 [...] (1023451 flits)
Measured flits: (0 flits)
Class 0:
Remaining flits: 2598210 2598211 2598212 2598213 2598214 2598215 2598216 2598217 2598218 2598219 [...] (991797 flits)
Measured flits: (0 flits)
Class 0:
Remaining flits: 2598210 2598211 2598212 2598213 2598214 2598215 2598216 2598217 2598218 2598219 [...] (961227 flits)
Measured flits: (0 flits)
Class 0:
Remaining flits: 2598210 2598211 2598212 2598213 2598214 2598215 2598216 2598217 2598218 2598219 [...] (930538 flits)
Measured flits: (0 flits)
Class 0:
Remaining flits: 2598210 2598211 2598212 2598213 2598214 2598215 2598216 2598217 2598218 2598219 [...] (898733 flits)
Measured flits: (0 flits)
Class 0:
Remaining flits: 2598210 2598211 2598212 2598213 2598214 2598215 2598216 2598217 2598218 2598219 [...] (866578 flits)
Measured flits: (0 flits)
Class 0:
Remaining flits: 2598210 2598211 2598212 2598213 2598214 2598215 2598216 2598217 2598218 2598219 [...] (835380 flits)
Measured flits: (0 flits)
Class 0:
Remaining flits: 2598210 2598211 2598212 2598213 2598214 2598215 2598216 2598217 2598218 2598219 [...] (803622 flits)
Measured flits: (0 flits)
Class 0:
Remaining flits: 2598210 2598211 2598212 2598213 2598214 2598215 2598216 2598217 2598218 2598219 [...] (771686 flits)
Measured flits: (0 flits)
Class 0:
Remaining flits: 2598210 2598211 2598212 2598213 2598214 2598215 2598216 2598217 2598218 2598219 [...] (739486 flits)
Measured flits: (0 flits)
Class 0:
Remaining flits: 2598219 2598220 2598221 2598222 2598223 2598224 2598225 2598226 2598227 2804058 [...] (707233 flits)
Measured flits: (0 flits)
Class 0:
Remaining flits: 2912649 2912650 2912651 2952270 2952271 2952272 2952273 2952274 2952275 2952276 [...] (674722 flits)
Measured flits: (0 flits)
Class 0:
Remaining flits: 2912649 2912650 2912651 2952270 2952271 2952272 2952273 2952274 2952275 2952276 [...] (642023 flits)
Measured flits: (0 flits)
Class 0:
Remaining flits: 2912649 2912650 2912651 2952270 2952271 2952272 2952273 2952274 2952275 2952276 [...] (610004 flits)
Measured flits: (0 flits)
Class 0:
Remaining flits: 2912649 2912650 2912651 2952270 2952271 2952272 2952273 2952274 2952275 2952276 [...] (577764 flits)
Measured flits: (0 flits)
Class 0:
Remaining flits: 2952270 2952271 2952272 2952273 2952274 2952275 2952276 2952277 2952278 2952279 [...] (546430 flits)
Measured flits: (0 flits)
Class 0:
Remaining flits: 2952270 2952271 2952272 2952273 2952274 2952275 2952276 2952277 2952278 2952279 [...] (514652 flits)
Measured flits: (0 flits)
Class 0:
Remaining flits: 2952270 2952271 2952272 2952273 2952274 2952275 2952276 2952277 2952278 2952279 [...] (481937 flits)
Measured flits: (0 flits)
Class 0:
Remaining flits: 2952270 2952271 2952272 2952273 2952274 2952275 2952276 2952277 2952278 2952279 [...] (448803 flits)
Measured flits: (0 flits)
Class 0:
Remaining flits: 2952270 2952271 2952272 2952273 2952274 2952275 2952276 2952277 2952278 2952279 [...] (415136 flits)
Measured flits: (0 flits)
Class 0:
Remaining flits: 2952270 2952271 2952272 2952273 2952274 2952275 2952276 2952277 2952278 2952279 [...] (381404 flits)
Measured flits: (0 flits)
Class 0:
Remaining flits: 2952270 2952271 2952272 2952273 2952274 2952275 2952276 2952277 2952278 2952279 [...] (347409 flits)
Measured flits: (0 flits)
Class 0:
Remaining flits: 2952270 2952271 2952272 2952273 2952274 2952275 2952276 2952277 2952278 2952279 [...] (313918 flits)
Measured flits: (0 flits)
Class 0:
Remaining flits: 2952275 2952276 2952277 2952278 2952279 2952280 2952281 2952282 2952283 2952284 [...] (281508 flits)
Measured flits: (0 flits)
Class 0:
Remaining flits: 3344040 3344041 3344042 3344043 3344044 3344045 3344046 3344047 3344048 3344049 [...] (249310 flits)
Measured flits: (0 flits)
Class 0:
Remaining flits: 3344040 3344041 3344042 3344043 3344044 3344045 3344046 3344047 3344048 3344049 [...] (218168 flits)
Measured flits: (0 flits)
Class 0:
Remaining flits: 3626658 3626659 3626660 3626661 3626662 3626663 3626664 3626665 3626666 3626667 [...] (187450 flits)
Measured flits: (0 flits)
Class 0:
Remaining flits: 3626658 3626659 3626660 3626661 3626662 3626663 3626664 3626665 3626666 3626667 [...] (158223 flits)
Measured flits: (0 flits)
Class 0:
Remaining flits: 3768498 3768499 3768500 3768501 3768502 3768503 3768504 3768505 3768506 3768507 [...] (129775 flits)
Measured flits: (0 flits)
Class 0:
Remaining flits: 3768498 3768499 3768500 3768501 3768502 3768503 3768504 3768505 3768506 3768507 [...] (102900 flits)
Measured flits: (0 flits)
Class 0:
Remaining flits: 3768498 3768499 3768500 3768501 3768502 3768503 3768504 3768505 3768506 3768507 [...] (79383 flits)
Measured flits: (0 flits)
Class 0:
Remaining flits: 3768501 3768502 3768503 3768504 3768505 3768506 3768507 3768508 3768509 3768510 [...] (58694 flits)
Measured flits: (0 flits)
Class 0:
Remaining flits: 3832182 3832183 3832184 3832185 3832186 3832187 3832188 3832189 3832190 3832191 [...] (41016 flits)
Measured flits: (0 flits)
Class 0:
Remaining flits: 3832182 3832183 3832184 3832185 3832186 3832187 3832188 3832189 3832190 3832191 [...] (25982 flits)
Measured flits: (0 flits)
Class 0:
Remaining flits: 3832182 3832183 3832184 3832185 3832186 3832187 3832188 3832189 3832190 3832191 [...] (16999 flits)
Measured flits: (0 flits)
Class 0:
Remaining flits: 3896100 3896101 3896102 3896103 3896104 3896105 3896106 3896107 3896108 3896109 [...] (11277 flits)
Measured flits: (0 flits)
Class 0:
Remaining flits: 4135140 4135141 4135142 4135143 4135144 4135145 4135146 4135147 4135148 4135149 [...] (6266 flits)
Measured flits: (0 flits)
Class 0:
Remaining flits: 4135149 4135150 4135151 4135152 4135153 4135154 4135155 4135156 4135157 4244868 [...] (3377 flits)
Measured flits: (0 flits)
Class 0:
Remaining flits: 4244884 4244885 4494780 4494781 4494782 4494783 4494784 4494785 4494786 4494787 [...] (2190 flits)
Measured flits: (0 flits)
Class 0:
Remaining flits: 4766988 4766989 4766990 4766991 4766992 4766993 4820472 4820473 4820474 4820475 [...] (1191 flits)
Measured flits: (0 flits)
Class 0:
Remaining flits: 5999904 5999905 5999906 5999907 5999908 5999909 5999910 5999911 5999912 5999913 [...] (192 flits)
Measured flits: (0 flits)
Time taken is 218755 cycles
====== Overall Traffic Statistics ======
====== Traffic class 0 ======
Packet latency average = 9368.38 (1 samples)
	minimum = 23 (1 samples)
	maximum = 78214 (1 samples)
Network latency average = 9360.26 (1 samples)
	minimum = 23 (1 samples)
	maximum = 78214 (1 samples)
Flit latency average = 57691.5 (1 samples)
	minimum = 6 (1 samples)
	maximum = 170042 (1 samples)
Fragmentation average = 341.25 (1 samples)
	minimum = 0 (1 samples)
	maximum = 11754 (1 samples)
Injected packet rate average = 0.0267954 (1 samples)
	minimum = 0.0214286 (1 samples)
	maximum = 0.0332857 (1 samples)
Accepted packet rate average = 0.013317 (1 samples)
	minimum = 0.0101429 (1 samples)
	maximum = 0.0171429 (1 samples)
Injected flit rate average = 0.482255 (1 samples)
	minimum = 0.385714 (1 samples)
	maximum = 0.600286 (1 samples)
Accepted flit rate average = 0.239632 (1 samples)
	minimum = 0.180571 (1 samples)
	maximum = 0.303714 (1 samples)
Injected packet size average = 17.9977 (1 samples)
Accepted packet size average = 17.9945 (1 samples)
Hops average = 5.07704 (1 samples)
Total run time 410.875
