BEGIN Configuration File: networks/mezzanine_config
topology = mezzanine;
n = 12;

routing_function = multipath;
internal_speedup = 2.0;
latency_thres = 100000.0;
use_read_write = 0;

sample_period = 1000;
injection_rate = 0.5;
packet_size = 18;

noq = 1;
routing_delay = 0;
vc_alloc_delay = 1;
sw_alloc_delay = 1;
st_final_delay = 1;
vc_allocator = islip; 
sw_allocator = islip;
alloc_iters  = 4;
num_vcs     = 12;
buffer_policy = private; // private or shared
buf_size = -1; // -1 for buffer_policy = private;
vc_buf_size = 4096; // size of each VOQ with buffer_policy = private
output_buffer_size = -1;


traffic = uniform;

//mezW = 0.0;
//mezPredefinedPatternType = shift-inter; //shift-qfdb

END Configuration File: networks/mezzanine_config
OVERRIDE Parameter: injection_rate=0.006907
OVERRIDE Parameter: routing_function=multipath
OVERRIDE Parameter: num_vcs=64
OVERRIDE Parameter: vc_buf_size=144
OVERRIDE Parameter: internal_speedup=1.0
OVERRIDE Parameter: injection_process=bernoulli
OVERRIDE Parameter: sim_type=latency
OVERRIDE Parameter: burst_alpha=0.0038461538
OVERRIDE Parameter: burst_beta=0.1
network: network_0
========================== Routing table  =====================
Number of Subnets: 1
Class 0:
Packet latency average = 72.82
	minimum = 23
	maximum = 433
Network latency average = 71.5576
	minimum = 23
	maximum = 433
Slowest packet = 619
Flit latency average = 39.8761
	minimum = 6
	maximum = 463
Slowest flit = 11692
Fragmentation average = 29.6737
	minimum = 0
	maximum = 361
Injected packet rate average = 0.00677083
	minimum = 0.001 (at node 176)
	maximum = 0.014 (at node 173)
Accepted packet rate average = 0.00619271
	minimum = 0.001 (at node 41)
	maximum = 0.013 (at node 48)
Injected flit rate average = 0.120698
	minimum = 0.018 (at node 176)
	maximum = 0.252 (at node 173)
Accepted flit rate average= 0.114844
	minimum = 0.018 (at node 41)
	maximum = 0.234 (at node 48)
Injected packet length average = 17.8262
Accepted packet length average = 18.545
Total in-flight flits = 1350 (0 measured)
latency change    = 1
throughput change = 1
Class 0:
Packet latency average = 74.1869
	minimum = 23
	maximum = 637
Network latency average = 72.9465
	minimum = 23
	maximum = 624
Slowest packet = 1021
Flit latency average = 40.4892
	minimum = 6
	maximum = 607
Slowest flit = 18395
Fragmentation average = 30.2672
	minimum = 0
	maximum = 475
Injected packet rate average = 0.0066224
	minimum = 0.002 (at node 37)
	maximum = 0.0125 (at node 172)
Accepted packet rate average = 0.00642188
	minimum = 0.0025 (at node 115)
	maximum = 0.0105 (at node 44)
Injected flit rate average = 0.118724
	minimum = 0.036 (at node 37)
	maximum = 0.225 (at node 172)
Accepted flit rate average= 0.116888
	minimum = 0.045 (at node 115)
	maximum = 0.189 (at node 44)
Injected packet length average = 17.9276
Accepted packet length average = 18.2015
Total in-flight flits = 889 (0 measured)
latency change    = 0.0184254
throughput change = 0.0174891
Class 0:
Packet latency average = 74.5563
	minimum = 23
	maximum = 422
Network latency average = 73.3383
	minimum = 23
	maximum = 414
Slowest packet = 2343
Flit latency average = 40.8842
	minimum = 6
	maximum = 397
Slowest flit = 42191
Fragmentation average = 30.3359
	minimum = 0
	maximum = 363
Injected packet rate average = 0.00679167
	minimum = 0.001 (at node 125)
	maximum = 0.016 (at node 34)
Accepted packet rate average = 0.00666667
	minimum = 0.001 (at node 18)
	maximum = 0.018 (at node 22)
Injected flit rate average = 0.122089
	minimum = 0.018 (at node 125)
	maximum = 0.288 (at node 34)
Accepted flit rate average= 0.120776
	minimum = 0.018 (at node 18)
	maximum = 0.318 (at node 22)
Injected packet length average = 17.9762
Accepted packet length average = 18.1164
Total in-flight flits = 1172 (0 measured)
latency change    = 0.00495341
throughput change = 0.032192
Warmed up ...Time used is 3000 cycles
Class 0:
Packet latency average = 74.8612
	minimum = 23
	maximum = 423
Network latency average = 73.6864
	minimum = 23
	maximum = 423
Slowest packet = 4023
Flit latency average = 41.1159
	minimum = 6
	maximum = 406
Slowest flit = 72431
Fragmentation average = 31.3877
	minimum = 0
	maximum = 378
Injected packet rate average = 0.00718229
	minimum = 0.002 (at node 28)
	maximum = 0.018 (at node 115)
Accepted packet rate average = 0.00720313
	minimum = 0.001 (at node 121)
	maximum = 0.015 (at node 6)
Injected flit rate average = 0.129193
	minimum = 0.036 (at node 28)
	maximum = 0.324 (at node 115)
Accepted flit rate average= 0.129234
	minimum = 0.019 (at node 121)
	maximum = 0.258 (at node 6)
Injected packet length average = 17.9877
Accepted packet length average = 17.9414
Total in-flight flits = 1181 (1181 measured)
latency change    = 0.00407293
throughput change = 0.0654496
Class 0:
Packet latency average = 74.893
	minimum = 23
	maximum = 423
Network latency average = 73.8498
	minimum = 23
	maximum = 423
Slowest packet = 4023
Flit latency average = 41.1648
	minimum = 6
	maximum = 406
Slowest flit = 72431
Fragmentation average = 31.1363
	minimum = 0
	maximum = 378
Injected packet rate average = 0.00692969
	minimum = 0.0025 (at node 2)
	maximum = 0.0115 (at node 5)
Accepted packet rate average = 0.00702604
	minimum = 0.003 (at node 184)
	maximum = 0.0115 (at node 63)
Injected flit rate average = 0.124703
	minimum = 0.045 (at node 2)
	maximum = 0.207 (at node 5)
Accepted flit rate average= 0.125419
	minimum = 0.054 (at node 184)
	maximum = 0.2035 (at node 63)
Injected packet length average = 17.9955
Accepted packet length average = 17.8506
Total in-flight flits = 909 (909 measured)
latency change    = 0.000424592
throughput change = 0.0304188
Class 0:
Packet latency average = 74.6346
	minimum = 23
	maximum = 423
Network latency average = 73.5448
	minimum = 23
	maximum = 423
Slowest packet = 4023
Flit latency average = 40.8991
	minimum = 6
	maximum = 406
Slowest flit = 72431
Fragmentation average = 30.9353
	minimum = 0
	maximum = 378
Injected packet rate average = 0.0068941
	minimum = 0.003 (at node 112)
	maximum = 0.0106667 (at node 191)
Accepted packet rate average = 0.00688021
	minimum = 0.00366667 (at node 91)
	maximum = 0.011 (at node 187)
Injected flit rate average = 0.124269
	minimum = 0.054 (at node 112)
	maximum = 0.195 (at node 191)
Accepted flit rate average= 0.123866
	minimum = 0.0623333 (at node 153)
	maximum = 0.195333 (at node 34)
Injected packet length average = 18.0254
Accepted packet length average = 18.0033
Total in-flight flits = 1303 (1303 measured)
latency change    = 0.00346097
throughput change = 0.0125373
Class 0:
Packet latency average = 76.6888
	minimum = 23
	maximum = 423
Network latency average = 75.5969
	minimum = 23
	maximum = 423
Slowest packet = 4023
Flit latency average = 42.1178
	minimum = 6
	maximum = 430
Slowest flit = 153607
Fragmentation average = 32.5749
	minimum = 0
	maximum = 378
Injected packet rate average = 0.006875
	minimum = 0.0035 (at node 112)
	maximum = 0.01025 (at node 69)
Accepted packet rate average = 0.00686328
	minimum = 0.00425 (at node 91)
	maximum = 0.0115 (at node 16)
Injected flit rate average = 0.123779
	minimum = 0.063 (at node 112)
	maximum = 0.186 (at node 191)
Accepted flit rate average= 0.123659
	minimum = 0.0765 (at node 91)
	maximum = 0.20875 (at node 16)
Injected packet length average = 18.0042
Accepted packet length average = 18.0175
Total in-flight flits = 1242 (1242 measured)
latency change    = 0.0267854
throughput change = 0.00167772
Draining all recorded packets ...
Draining remaining packets ...
Time taken is 7261 cycles
====== Overall Traffic Statistics ======
====== Traffic class 0 ======
Packet latency average = 77.3473 (1 samples)
	minimum = 23 (1 samples)
	maximum = 483 (1 samples)
Network latency average = 76.257 (1 samples)
	minimum = 23 (1 samples)
	maximum = 463 (1 samples)
Flit latency average = 42.7754 (1 samples)
	minimum = 6 (1 samples)
	maximum = 446 (1 samples)
Fragmentation average = 32.989 (1 samples)
	minimum = 0 (1 samples)
	maximum = 378 (1 samples)
Injected packet rate average = 0.006875 (1 samples)
	minimum = 0.0035 (1 samples)
	maximum = 0.01025 (1 samples)
Accepted packet rate average = 0.00686328 (1 samples)
	minimum = 0.00425 (1 samples)
	maximum = 0.0115 (1 samples)
Injected flit rate average = 0.123779 (1 samples)
	minimum = 0.063 (1 samples)
	maximum = 0.186 (1 samples)
Accepted flit rate average = 0.123659 (1 samples)
	minimum = 0.0765 (1 samples)
	maximum = 0.20875 (1 samples)
Injected packet size average = 18.0042 (1 samples)
Accepted packet size average = 18.0175 (1 samples)
Hops average = 5.07574 (1 samples)
Total run time 3.4154
