BEGIN Configuration File: networks/mezzanine_config
topology = mezzanine;
n = 12;

routing_function = multipath;
internal_speedup = 2.0;
latency_thres = 100000.0;
use_read_write = 0;

sample_period = 1000;
injection_rate = 0.5;
packet_size = 18;

noq = 1;
routing_delay = 0;
vc_alloc_delay = 1;
sw_alloc_delay = 1;
st_final_delay = 1;
vc_allocator = islip; 
sw_allocator = islip;
alloc_iters  = 4;
num_vcs     = 12;
buffer_policy = private; // private or shared
buf_size = -1; // -1 for buffer_policy = private;
vc_buf_size = 4096; // size of each VOQ with buffer_policy = private
output_buffer_size = -1;


traffic = uniform;

//mezW = 0.0;
//mezPredefinedPatternType = shift-inter; //shift-qfdb

END Configuration File: networks/mezzanine_config
OVERRIDE Parameter: injection_rate=0.013537
OVERRIDE Parameter: routing_function=min
OVERRIDE Parameter: num_vcs=12
OVERRIDE Parameter: vc_buf_size=1024
OVERRIDE Parameter: internal_speedup=2.0
OVERRIDE Parameter: injection_process=on_off
OVERRIDE Parameter: sim_type=latency
OVERRIDE Parameter: burst_alpha=0.0038461538
OVERRIDE Parameter: burst_beta=0.1
network: network_0
========================== Routing table  =====================
Number of Subnets: 1
Class 0:
Packet latency average = 202.766
	minimum = 22
	maximum = 794
Network latency average = 147.543
	minimum = 22
	maximum = 549
Slowest packet = 61
Flit latency average = 123.169
	minimum = 5
	maximum = 532
Slowest flit = 17387
Fragmentation average = 14.3549
	minimum = 0
	maximum = 69
Injected packet rate average = 0.0139323
	minimum = 0 (at node 30)
	maximum = 0.048 (at node 31)
Accepted packet rate average = 0.0115208
	minimum = 0.004 (at node 174)
	maximum = 0.02 (at node 44)
Injected flit rate average = 0.248964
	minimum = 0 (at node 30)
	maximum = 0.859 (at node 31)
Accepted flit rate average= 0.2105
	minimum = 0.089 (at node 174)
	maximum = 0.376 (at node 44)
Injected packet length average = 17.8695
Accepted packet length average = 18.2712
Total in-flight flits = 7734 (0 measured)
latency change    = 1
throughput change = 1
Class 0:
Packet latency average = 234.856
	minimum = 22
	maximum = 1168
Network latency average = 175.51
	minimum = 22
	maximum = 1021
Slowest packet = 61
Flit latency average = 151.25
	minimum = 5
	maximum = 1004
Slowest flit = 45701
Fragmentation average = 14.4205
	minimum = 0
	maximum = 90
Injected packet rate average = 0.0131771
	minimum = 0.001 (at node 107)
	maximum = 0.033 (at node 173)
Accepted packet rate average = 0.0116615
	minimum = 0.0065 (at node 79)
	maximum = 0.0175 (at node 152)
Injected flit rate average = 0.235995
	minimum = 0.018 (at node 107)
	maximum = 0.594 (at node 173)
Accepted flit rate average= 0.211708
	minimum = 0.119 (at node 135)
	maximum = 0.3165 (at node 152)
Injected packet length average = 17.9095
Accepted packet length average = 18.1545
Total in-flight flits = 9784 (0 measured)
latency change    = 0.136634
throughput change = 0.00570754
Class 0:
Packet latency average = 316.789
	minimum = 25
	maximum = 1491
Network latency average = 253.727
	minimum = 22
	maximum = 1274
Slowest packet = 2888
Flit latency average = 229.597
	minimum = 5
	maximum = 1257
Slowest flit = 52001
Fragmentation average = 14.3687
	minimum = 0
	maximum = 83
Injected packet rate average = 0.013
	minimum = 0 (at node 76)
	maximum = 0.046 (at node 108)
Accepted packet rate average = 0.012599
	minimum = 0.006 (at node 118)
	maximum = 0.022 (at node 24)
Injected flit rate average = 0.23474
	minimum = 0 (at node 76)
	maximum = 0.84 (at node 138)
Accepted flit rate average= 0.227141
	minimum = 0.108 (at node 118)
	maximum = 0.405 (at node 34)
Injected packet length average = 18.0569
Accepted packet length average = 18.0285
Total in-flight flits = 11101 (0 measured)
latency change    = 0.258637
throughput change = 0.0679416
Warmed up ...Time used is 3000 cycles
Class 0:
Packet latency average = 274.468
	minimum = 22
	maximum = 973
Network latency average = 211.945
	minimum = 22
	maximum = 765
Slowest packet = 7572
Flit latency average = 243.197
	minimum = 5
	maximum = 1275
Slowest flit = 122901
Fragmentation average = 14.816
	minimum = 0
	maximum = 93
Injected packet rate average = 0.0134167
	minimum = 0 (at node 21)
	maximum = 0.046 (at node 97)
Accepted packet rate average = 0.0128385
	minimum = 0.003 (at node 68)
	maximum = 0.024 (at node 16)
Injected flit rate average = 0.241245
	minimum = 0 (at node 21)
	maximum = 0.831 (at node 97)
Accepted flit rate average= 0.231328
	minimum = 0.054 (at node 68)
	maximum = 0.432 (at node 16)
Injected packet length average = 17.981
Accepted packet length average = 18.0183
Total in-flight flits = 13054 (12371 measured)
latency change    = 0.154194
throughput change = 0.018102
Class 0:
Packet latency average = 326.173
	minimum = 22
	maximum = 2067
Network latency average = 259.895
	minimum = 22
	maximum = 1842
Slowest packet = 7559
Flit latency average = 266.508
	minimum = 5
	maximum = 1918
Slowest flit = 139266
Fragmentation average = 15.2927
	minimum = 0
	maximum = 93
Injected packet rate average = 0.013651
	minimum = 0.0005 (at node 121)
	maximum = 0.036 (at node 97)
Accepted packet rate average = 0.0129453
	minimum = 0.0055 (at node 4)
	maximum = 0.0195 (at node 16)
Injected flit rate average = 0.245234
	minimum = 0.009 (at node 121)
	maximum = 0.6465 (at node 97)
Accepted flit rate average= 0.233336
	minimum = 0.099 (at node 4)
	maximum = 0.356 (at node 16)
Injected packet length average = 17.9645
Accepted packet length average = 18.0247
Total in-flight flits = 15856 (15856 measured)
latency change    = 0.158521
throughput change = 0.00860481
Class 0:
Packet latency average = 366.312
	minimum = 22
	maximum = 2194
Network latency average = 298.42
	minimum = 22
	maximum = 1985
Slowest packet = 7559
Flit latency average = 290.901
	minimum = 5
	maximum = 1968
Slowest flit = 153828
Fragmentation average = 15.0129
	minimum = 0
	maximum = 93
Injected packet rate average = 0.0131684
	minimum = 0.00133333 (at node 78)
	maximum = 0.0286667 (at node 97)
Accepted packet rate average = 0.0129479
	minimum = 0.008 (at node 4)
	maximum = 0.0186667 (at node 128)
Injected flit rate average = 0.236917
	minimum = 0.024 (at node 78)
	maximum = 0.517 (at node 97)
Accepted flit rate average= 0.232799
	minimum = 0.144 (at node 4)
	maximum = 0.34 (at node 128)
Injected packet length average = 17.9913
Accepted packet length average = 17.9796
Total in-flight flits = 13539 (13539 measured)
latency change    = 0.109578
throughput change = 0.00230812
Class 0:
Packet latency average = 377.162
	minimum = 22
	maximum = 2194
Network latency average = 309.955
	minimum = 22
	maximum = 1985
Slowest packet = 7559
Flit latency average = 297.327
	minimum = 5
	maximum = 1968
Slowest flit = 153828
Fragmentation average = 15.1097
	minimum = 0
	maximum = 96
Injected packet rate average = 0.0133529
	minimum = 0.00175 (at node 78)
	maximum = 0.02675 (at node 97)
Accepted packet rate average = 0.0128919
	minimum = 0.009 (at node 36)
	maximum = 0.01775 (at node 128)
Injected flit rate average = 0.24025
	minimum = 0.0315 (at node 78)
	maximum = 0.48225 (at node 97)
Accepted flit rate average= 0.232258
	minimum = 0.16425 (at node 36)
	maximum = 0.3185 (at node 128)
Injected packet length average = 17.9924
Accepted packet length average = 18.0158
Total in-flight flits = 17317 (17317 measured)
latency change    = 0.0287664
throughput change = 0.00232844
Class 0:
Packet latency average = 386.971
	minimum = 22
	maximum = 2194
Network latency average = 319.893
	minimum = 22
	maximum = 1985
Slowest packet = 7559
Flit latency average = 304.528
	minimum = 5
	maximum = 1968
Slowest flit = 153828
Fragmentation average = 15.1383
	minimum = 0
	maximum = 96
Injected packet rate average = 0.0133448
	minimum = 0.004 (at node 78)
	maximum = 0.0256 (at node 109)
Accepted packet rate average = 0.012899
	minimum = 0.0088 (at node 162)
	maximum = 0.0174 (at node 128)
Injected flit rate average = 0.240096
	minimum = 0.0712 (at node 119)
	maximum = 0.4608 (at node 109)
Accepted flit rate average= 0.2324
	minimum = 0.1584 (at node 162)
	maximum = 0.3122 (at node 128)
Injected packet length average = 17.9917
Accepted packet length average = 18.017
Total in-flight flits = 18595 (18595 measured)
latency change    = 0.0253478
throughput change = 0.000611822
Class 0:
Packet latency average = 403.488
	minimum = 22
	maximum = 2194
Network latency average = 336.789
	minimum = 22
	maximum = 1985
Slowest packet = 7559
Flit latency average = 318.836
	minimum = 5
	maximum = 1968
Slowest flit = 153828
Fragmentation average = 15.4009
	minimum = 0
	maximum = 96
Injected packet rate average = 0.013237
	minimum = 0.00566667 (at node 80)
	maximum = 0.0251667 (at node 28)
Accepted packet rate average = 0.0129314
	minimum = 0.009 (at node 86)
	maximum = 0.0171667 (at node 128)
Injected flit rate average = 0.238133
	minimum = 0.102 (at node 80)
	maximum = 0.450333 (at node 28)
Accepted flit rate average= 0.232799
	minimum = 0.162 (at node 86)
	maximum = 0.309 (at node 128)
Injected packet length average = 17.99
Accepted packet length average = 18.0026
Total in-flight flits = 17399 (17399 measured)
latency change    = 0.0409366
throughput change = 0.00171226
Draining all recorded packets ...
Class 0:
Remaining flits: 377021 377022 377023 377024 377025 377026 377027 382896 382897 382898 [...] (22741 flits)
Measured flits: 377021 377022 377023 377024 377025 377026 377027 382896 382897 382898 [...] (1456 flits)
Draining remaining packets ...
Class 0:
Remaining flits: 471540 471541 471542 471543 471544 471545 471631 471632 471633 471634 [...] (2419 flits)
Measured flits: (0 flits)
Time taken is 12701 cycles
====== Overall Traffic Statistics ======
====== Traffic class 0 ======
Packet latency average = 432.168 (1 samples)
	minimum = 22 (1 samples)
	maximum = 2194 (1 samples)
Network latency average = 364.081 (1 samples)
	minimum = 22 (1 samples)
	maximum = 1985 (1 samples)
Flit latency average = 374.846 (1 samples)
	minimum = 5 (1 samples)
	maximum = 1995 (1 samples)
Fragmentation average = 15.5936 (1 samples)
	minimum = 0 (1 samples)
	maximum = 96 (1 samples)
Injected packet rate average = 0.013237 (1 samples)
	minimum = 0.00566667 (1 samples)
	maximum = 0.0251667 (1 samples)
Accepted packet rate average = 0.0129314 (1 samples)
	minimum = 0.009 (1 samples)
	maximum = 0.0171667 (1 samples)
Injected flit rate average = 0.238133 (1 samples)
	minimum = 0.102 (1 samples)
	maximum = 0.450333 (1 samples)
Accepted flit rate average = 0.232799 (1 samples)
	minimum = 0.162 (1 samples)
	maximum = 0.309 (1 samples)
Injected packet size average = 17.99 (1 samples)
Accepted packet size average = 18.0026 (1 samples)
Hops average = 5.07657 (1 samples)
Total run time 6.15877
