BEGIN Configuration File: networks/mezzanine_config
topology = mezzanine;
n = 12;

routing_function = multipath;
internal_speedup = 2.0;
latency_thres = 100000.0;
use_read_write = 0;

sample_period = 1000;
injection_rate = 0.5;
packet_size = 18;

noq = 1;
routing_delay = 0;
vc_alloc_delay = 1;
sw_alloc_delay = 1;
st_final_delay = 1;
vc_allocator = islip; 
sw_allocator = islip;
alloc_iters  = 4;
num_vcs     = 12;
buffer_policy = private; // private or shared
buf_size = -1; // -1 for buffer_policy = private;
vc_buf_size = 4096; // size of each VOQ with buffer_policy = private
output_buffer_size = -1;


traffic = uniform;

//mezW = 0.0;
//mezPredefinedPatternType = shift-inter; //shift-qfdb

END Configuration File: networks/mezzanine_config
OVERRIDE Parameter: injection_rate=0.009117
OVERRIDE Parameter: routing_function=min
OVERRIDE Parameter: num_vcs=64
OVERRIDE Parameter: vc_buf_size=144
OVERRIDE Parameter: internal_speedup=2.0
OVERRIDE Parameter: injection_process=bernoulli
OVERRIDE Parameter: sim_type=latency
OVERRIDE Parameter: burst_alpha=0.0038461538
OVERRIDE Parameter: burst_beta=0.1
network: network_0
========================== Routing table  =====================
Number of Subnets: 1
Class 0:
Packet latency average = 61.0494
	minimum = 22
	maximum = 173
Network latency average = 59.4627
	minimum = 22
	maximum = 163
Slowest packet = 235
Flit latency average = 34.881
	minimum = 5
	maximum = 146
Slowest flit = 12059
Fragmentation average = 14.388
	minimum = 0
	maximum = 78
Injected packet rate average = 0.00905729
	minimum = 0.002 (at node 135)
	maximum = 0.02 (at node 10)
Accepted packet rate average = 0.00844271
	minimum = 0.001 (at node 41)
	maximum = 0.016 (at node 48)
Injected flit rate average = 0.161458
	minimum = 0.036 (at node 135)
	maximum = 0.343 (at node 10)
Accepted flit rate average= 0.154932
	minimum = 0.018 (at node 41)
	maximum = 0.288 (at node 48)
Injected packet length average = 17.8263
Accepted packet length average = 18.351
Total in-flight flits = 1555 (0 measured)
latency change    = 1
throughput change = 1
Class 0:
Packet latency average = 63.9763
	minimum = 22
	maximum = 250
Network latency average = 62.4235
	minimum = 22
	maximum = 235
Slowest packet = 2692
Flit latency average = 37.6679
	minimum = 5
	maximum = 218
Slowest flit = 48705
Fragmentation average = 14.4655
	minimum = 0
	maximum = 113
Injected packet rate average = 0.00891927
	minimum = 0.0035 (at node 122)
	maximum = 0.017 (at node 10)
Accepted packet rate average = 0.00868229
	minimum = 0.005 (at node 30)
	maximum = 0.0135 (at node 22)
Injected flit rate average = 0.159792
	minimum = 0.063 (at node 122)
	maximum = 0.306 (at node 10)
Accepted flit rate average= 0.157448
	minimum = 0.09 (at node 30)
	maximum = 0.243 (at node 22)
Injected packet length average = 17.9153
Accepted packet length average = 18.1344
Total in-flight flits = 1190 (0 measured)
latency change    = 0.0457506
throughput change = 0.0159775
Class 0:
Packet latency average = 66.495
	minimum = 22
	maximum = 228
Network latency average = 64.7914
	minimum = 22
	maximum = 221
Slowest packet = 4327
Flit latency average = 39.8792
	minimum = 5
	maximum = 204
Slowest flit = 77903
Fragmentation average = 15.0286
	minimum = 0
	maximum = 93
Injected packet rate average = 0.00898958
	minimum = 0.002 (at node 94)
	maximum = 0.018 (at node 52)
Accepted packet rate average = 0.00891146
	minimum = 0.001 (at node 121)
	maximum = 0.017 (at node 179)
Injected flit rate average = 0.162042
	minimum = 0.036 (at node 94)
	maximum = 0.308 (at node 52)
Accepted flit rate average= 0.160703
	minimum = 0.018 (at node 121)
	maximum = 0.305 (at node 179)
Injected packet length average = 18.0255
Accepted packet length average = 18.0333
Total in-flight flits = 1403 (0 measured)
latency change    = 0.0378784
throughput change = 0.020256
Warmed up ...Time used is 3000 cycles
Class 0:
Packet latency average = 64.08
	minimum = 22
	maximum = 195
Network latency average = 62.6778
	minimum = 22
	maximum = 181
Slowest packet = 5185
Flit latency average = 38.3598
	minimum = 5
	maximum = 170
Slowest flit = 88037
Fragmentation average = 14.3374
	minimum = 0
	maximum = 80
Injected packet rate average = 0.00943229
	minimum = 0.003 (at node 131)
	maximum = 0.018 (at node 0)
Accepted packet rate average = 0.00941146
	minimum = 0.001 (at node 184)
	maximum = 0.019 (at node 16)
Injected flit rate average = 0.169318
	minimum = 0.054 (at node 131)
	maximum = 0.324 (at node 0)
Accepted flit rate average= 0.16925
	minimum = 0.018 (at node 184)
	maximum = 0.349 (at node 56)
Injected packet length average = 17.9509
Accepted packet length average = 17.9834
Total in-flight flits = 1505 (1505 measured)
latency change    = 0.0376885
throughput change = 0.0504985
Class 0:
Packet latency average = 62.1888
	minimum = 22
	maximum = 195
Network latency average = 60.8136
	minimum = 22
	maximum = 181
Slowest packet = 5185
Flit latency average = 36.5076
	minimum = 5
	maximum = 170
Slowest flit = 88037
Fragmentation average = 14.0211
	minimum = 0
	maximum = 94
Injected packet rate average = 0.00911979
	minimum = 0.0035 (at node 178)
	maximum = 0.015 (at node 149)
Accepted packet rate average = 0.00917448
	minimum = 0.0045 (at node 190)
	maximum = 0.0185 (at node 16)
Injected flit rate average = 0.164026
	minimum = 0.063 (at node 178)
	maximum = 0.27 (at node 149)
Accepted flit rate average= 0.164961
	minimum = 0.081 (at node 190)
	maximum = 0.333 (at node 16)
Injected packet length average = 17.9857
Accepted packet length average = 17.9804
Total in-flight flits = 1094 (1094 measured)
latency change    = 0.0304105
throughput change = 0.0260005
Class 0:
Packet latency average = 61.9463
	minimum = 22
	maximum = 197
Network latency average = 60.4722
	minimum = 22
	maximum = 187
Slowest packet = 5185
Flit latency average = 36.1106
	minimum = 5
	maximum = 170
Slowest flit = 88037
Fragmentation average = 14.0946
	minimum = 0
	maximum = 94
Injected packet rate average = 0.00910764
	minimum = 0.00466667 (at node 153)
	maximum = 0.0136667 (at node 38)
Accepted packet rate average = 0.00910417
	minimum = 0.00566667 (at node 134)
	maximum = 0.0163333 (at node 16)
Injected flit rate average = 0.164038
	minimum = 0.084 (at node 153)
	maximum = 0.247333 (at node 106)
Accepted flit rate average= 0.164007
	minimum = 0.102 (at node 134)
	maximum = 0.299333 (at node 16)
Injected packet length average = 18.0111
Accepted packet length average = 18.0145
Total in-flight flits = 1363 (1363 measured)
latency change    = 0.00391435
throughput change = 0.00581678
Class 0:
Packet latency average = 62.3595
	minimum = 22
	maximum = 197
Network latency average = 60.8902
	minimum = 22
	maximum = 190
Slowest packet = 5185
Flit latency average = 36.3363
	minimum = 5
	maximum = 173
Slowest flit = 198647
Fragmentation average = 14.3487
	minimum = 0
	maximum = 94
Injected packet rate average = 0.00910156
	minimum = 0.00525 (at node 178)
	maximum = 0.0145 (at node 58)
Accepted packet rate average = 0.00909505
	minimum = 0.00475 (at node 4)
	maximum = 0.0145 (at node 16)
Injected flit rate average = 0.163794
	minimum = 0.0905 (at node 178)
	maximum = 0.261 (at node 58)
Accepted flit rate average= 0.163788
	minimum = 0.0855 (at node 4)
	maximum = 0.261 (at node 16)
Injected packet length average = 17.9963
Accepted packet length average = 18.0084
Total in-flight flits = 1434 (1434 measured)
latency change    = 0.00662637
throughput change = 0.00133822
Draining all recorded packets ...
Draining remaining packets ...
Time taken is 7231 cycles
====== Overall Traffic Statistics ======
====== Traffic class 0 ======
Packet latency average = 62.5966 (1 samples)
	minimum = 22 (1 samples)
	maximum = 197 (1 samples)
Network latency average = 61.1164 (1 samples)
	minimum = 22 (1 samples)
	maximum = 190 (1 samples)
Flit latency average = 36.4825 (1 samples)
	minimum = 5 (1 samples)
	maximum = 173 (1 samples)
Fragmentation average = 14.4739 (1 samples)
	minimum = 0 (1 samples)
	maximum = 98 (1 samples)
Injected packet rate average = 0.00910156 (1 samples)
	minimum = 0.00525 (1 samples)
	maximum = 0.0145 (1 samples)
Accepted packet rate average = 0.00909505 (1 samples)
	minimum = 0.00475 (1 samples)
	maximum = 0.0145 (1 samples)
Injected flit rate average = 0.163794 (1 samples)
	minimum = 0.0905 (1 samples)
	maximum = 0.261 (1 samples)
Accepted flit rate average = 0.163788 (1 samples)
	minimum = 0.0855 (1 samples)
	maximum = 0.261 (1 samples)
Injected packet size average = 17.9963 (1 samples)
Accepted packet size average = 18.0084 (1 samples)
Hops average = 5.06805 (1 samples)
Total run time 4.2446
