BEGIN Configuration File: networks/mezzanine_config
topology = mezzanine;
n = 12;

routing_function = multipath;
internal_speedup = 2.0;
latency_thres = 100000.0;
use_read_write = 0;

sample_period = 1000;
injection_rate = 0.5;
packet_size = 18;

noq = 1;
routing_delay = 0;
vc_alloc_delay = 1;
sw_alloc_delay = 1;
st_final_delay = 1;
vc_allocator = islip; 
sw_allocator = islip;
alloc_iters  = 4;
num_vcs     = 12;
buffer_policy = private; // private or shared
buf_size = -1; // -1 for buffer_policy = private;
vc_buf_size = 4096; // size of each VOQ with buffer_policy = private
output_buffer_size = -1;


traffic = uniform;

//mezW = 0.0;
//mezPredefinedPatternType = shift-inter; //shift-qfdb

END Configuration File: networks/mezzanine_config
OVERRIDE Parameter: injection_rate=0.024587
OVERRIDE Parameter: routing_function=multipath
OVERRIDE Parameter: num_vcs=64
OVERRIDE Parameter: vc_buf_size=1024
OVERRIDE Parameter: internal_speedup=1.0
OVERRIDE Parameter: injection_process=bernoulli
OVERRIDE Parameter: sim_type=latency
OVERRIDE Parameter: burst_alpha=0.0038461538
OVERRIDE Parameter: burst_beta=0.1
network: network_0
========================== Routing table  =====================
Number of Subnets: 1
Class 0:
Packet latency average = 286.034
	minimum = 24
	maximum = 876
Network latency average = 280.254
	minimum = 24
	maximum = 861
Slowest packet = 308
Flit latency average = 205.428
	minimum = 6
	maximum = 942
Slowest flit = 3323
Fragmentation average = 167.469
	minimum = 0
	maximum = 714
Injected packet rate average = 0.0246823
	minimum = 0.014 (at node 179)
	maximum = 0.039 (at node 160)
Accepted packet rate average = 0.0099375
	minimum = 0.002 (at node 174)
	maximum = 0.018 (at node 95)
Injected flit rate average = 0.440411
	minimum = 0.237 (at node 179)
	maximum = 0.695 (at node 160)
Accepted flit rate average= 0.212693
	minimum = 0.09 (at node 30)
	maximum = 0.346 (at node 91)
Injected packet length average = 17.8432
Accepted packet length average = 21.403
Total in-flight flits = 44465 (0 measured)
latency change    = 1
throughput change = 1
Class 0:
Packet latency average = 504.012
	minimum = 23
	maximum = 1762
Network latency average = 497.692
	minimum = 23
	maximum = 1762
Slowest packet = 849
Flit latency average = 398.166
	minimum = 6
	maximum = 1851
Slowest flit = 11308
Fragmentation average = 234.017
	minimum = 0
	maximum = 1279
Injected packet rate average = 0.0244792
	minimum = 0.016 (at node 17)
	maximum = 0.034 (at node 160)
Accepted packet rate average = 0.0112266
	minimum = 0.006 (at node 96)
	maximum = 0.017 (at node 44)
Injected flit rate average = 0.438792
	minimum = 0.288 (at node 17)
	maximum = 0.606 (at node 160)
Accepted flit rate average= 0.223698
	minimum = 0.1245 (at node 164)
	maximum = 0.3355 (at node 154)
Injected packet length average = 17.9251
Accepted packet length average = 19.9258
Total in-flight flits = 83300 (0 measured)
latency change    = 0.432486
throughput change = 0.0491967
Class 0:
Packet latency average = 1032.81
	minimum = 24
	maximum = 2696
Network latency average = 1026.26
	minimum = 23
	maximum = 2696
Slowest packet = 1178
Flit latency average = 922.789
	minimum = 6
	maximum = 2920
Slowest flit = 4670
Fragmentation average = 339.187
	minimum = 0
	maximum = 2051
Injected packet rate average = 0.024599
	minimum = 0.014 (at node 8)
	maximum = 0.037 (at node 48)
Accepted packet rate average = 0.0131042
	minimum = 0.006 (at node 18)
	maximum = 0.023 (at node 51)
Injected flit rate average = 0.442599
	minimum = 0.252 (at node 8)
	maximum = 0.649 (at node 48)
Accepted flit rate average= 0.240156
	minimum = 0.111 (at node 180)
	maximum = 0.415 (at node 182)
Injected packet length average = 17.9926
Accepted packet length average = 18.3267
Total in-flight flits = 122204 (0 measured)
latency change    = 0.512
throughput change = 0.0685318
Warmed up ...Time used is 3000 cycles
Class 0:
Packet latency average = 195.944
	minimum = 23
	maximum = 971
Network latency average = 189.291
	minimum = 23
	maximum = 954
Slowest packet = 14254
Flit latency average = 1268.18
	minimum = 6
	maximum = 3771
Slowest flit = 8729
Fragmentation average = 101.056
	minimum = 0
	maximum = 684
Injected packet rate average = 0.0249896
	minimum = 0.011 (at node 14)
	maximum = 0.041 (at node 91)
Accepted packet rate average = 0.0134271
	minimum = 0.005 (at node 72)
	maximum = 0.025 (at node 61)
Injected flit rate average = 0.449177
	minimum = 0.183 (at node 14)
	maximum = 0.741 (at node 91)
Accepted flit rate average= 0.244474
	minimum = 0.118 (at node 36)
	maximum = 0.398 (at node 61)
Injected packet length average = 17.9746
Accepted packet length average = 18.2075
Total in-flight flits = 161629 (75282 measured)
latency change    = 4.27096
throughput change = 0.0176612
Class 0:
Packet latency average = 494.942
	minimum = 23
	maximum = 1998
Network latency average = 488.338
	minimum = 23
	maximum = 1972
Slowest packet = 14154
Flit latency average = 1458.85
	minimum = 6
	maximum = 4697
Slowest flit = 10205
Fragmentation average = 181.575
	minimum = 0
	maximum = 1176
Injected packet rate average = 0.0245599
	minimum = 0.0175 (at node 14)
	maximum = 0.035 (at node 91)
Accepted packet rate average = 0.0133151
	minimum = 0.008 (at node 6)
	maximum = 0.021 (at node 8)
Injected flit rate average = 0.442172
	minimum = 0.3075 (at node 14)
	maximum = 0.6255 (at node 91)
Accepted flit rate average= 0.243034
	minimum = 0.1435 (at node 36)
	maximum = 0.3745 (at node 34)
Injected packet length average = 18.0038
Accepted packet length average = 18.2525
Total in-flight flits = 198637 (138651 measured)
latency change    = 0.604107
throughput change = 0.00592553
Class 0:
Packet latency average = 876.079
	minimum = 23
	maximum = 2936
Network latency average = 869.318
	minimum = 23
	maximum = 2928
Slowest packet = 14149
Flit latency average = 1661.66
	minimum = 6
	maximum = 5561
Slowest flit = 28814
Fragmentation average = 234.41
	minimum = 0
	maximum = 1697
Injected packet rate average = 0.0246302
	minimum = 0.0183333 (at node 191)
	maximum = 0.0313333 (at node 123)
Accepted packet rate average = 0.0133403
	minimum = 0.00866667 (at node 113)
	maximum = 0.019 (at node 187)
Injected flit rate average = 0.443411
	minimum = 0.324333 (at node 191)
	maximum = 0.566667 (at node 123)
Accepted flit rate average= 0.242354
	minimum = 0.161333 (at node 113)
	maximum = 0.335333 (at node 187)
Injected packet length average = 18.0027
Accepted packet length average = 18.1671
Total in-flight flits = 237974 (196575 measured)
latency change    = 0.435049
throughput change = 0.00280452
Class 0:
Packet latency average = 1276.34
	minimum = 23
	maximum = 3930
Network latency average = 1269.52
	minimum = 23
	maximum = 3920
Slowest packet = 14273
Flit latency average = 1883.74
	minimum = 6
	maximum = 6708
Slowest flit = 23872
Fragmentation average = 270.436
	minimum = 0
	maximum = 3285
Injected packet rate average = 0.0246263
	minimum = 0.0195 (at node 7)
	maximum = 0.02975 (at node 94)
Accepted packet rate average = 0.0133112
	minimum = 0.0095 (at node 190)
	maximum = 0.01925 (at node 129)
Injected flit rate average = 0.443243
	minimum = 0.34825 (at node 7)
	maximum = 0.53525 (at node 94)
Accepted flit rate average= 0.240505
	minimum = 0.164 (at node 190)
	maximum = 0.33925 (at node 129)
Injected packet length average = 17.9988
Accepted packet length average = 18.0679
Total in-flight flits = 277930 (249663 measured)
latency change    = 0.313602
throughput change = 0.00768781
Class 0:
Packet latency average = 1642.92
	minimum = 23
	maximum = 4953
Network latency average = 1636.19
	minimum = 23
	maximum = 4941
Slowest packet = 14293
Flit latency average = 2099.84
	minimum = 6
	maximum = 7736
Slowest flit = 20921
Fragmentation average = 285.563
	minimum = 0
	maximum = 3424
Injected packet rate average = 0.024674
	minimum = 0.019 (at node 128)
	maximum = 0.0304 (at node 94)
Accepted packet rate average = 0.0132823
	minimum = 0.0094 (at node 36)
	maximum = 0.019 (at node 129)
Injected flit rate average = 0.444141
	minimum = 0.3426 (at node 128)
	maximum = 0.5454 (at node 94)
Accepted flit rate average= 0.239823
	minimum = 0.162 (at node 36)
	maximum = 0.3356 (at node 129)
Injected packet length average = 18.0004
Accepted packet length average = 18.0558
Total in-flight flits = 318340 (298624 measured)
latency change    = 0.223125
throughput change = 0.00284498
Class 0:
Packet latency average = 2011.1
	minimum = 23
	maximum = 5930
Network latency average = 2004.32
	minimum = 23
	maximum = 5914
Slowest packet = 14151
Flit latency average = 2314.77
	minimum = 6
	maximum = 8607
Slowest flit = 20933
Fragmentation average = 302.165
	minimum = 0
	maximum = 4020
Injected packet rate average = 0.024651
	minimum = 0.0198333 (at node 29)
	maximum = 0.0296667 (at node 94)
Accepted packet rate average = 0.0132769
	minimum = 0.00966667 (at node 126)
	maximum = 0.0171667 (at node 129)
Injected flit rate average = 0.443805
	minimum = 0.357 (at node 29)
	maximum = 0.534 (at node 94)
Accepted flit rate average= 0.239549
	minimum = 0.1765 (at node 36)
	maximum = 0.303333 (at node 129)
Injected packet length average = 18.0035
Accepted packet length average = 18.0425
Total in-flight flits = 357408 (342874 measured)
latency change    = 0.183073
throughput change = 0.00114509
Class 0:
Packet latency average = 2345.95
	minimum = 23
	maximum = 6956
Network latency average = 2339.18
	minimum = 23
	maximum = 6956
Slowest packet = 14148
Flit latency average = 2529.49
	minimum = 6
	maximum = 9237
Slowest flit = 44774
Fragmentation average = 314.023
	minimum = 0
	maximum = 5042
Injected packet rate average = 0.0246265
	minimum = 0.0205714 (at node 7)
	maximum = 0.03 (at node 94)
Accepted packet rate average = 0.0132701
	minimum = 0.0102857 (at node 36)
	maximum = 0.017 (at node 95)
Injected flit rate average = 0.443225
	minimum = 0.370143 (at node 29)
	maximum = 0.538571 (at node 94)
Accepted flit rate average= 0.239089
	minimum = 0.180571 (at node 126)
	maximum = 0.308429 (at node 95)
Injected packet length average = 17.9979
Accepted packet length average = 18.0171
Total in-flight flits = 396633 (385989 measured)
latency change    = 0.142737
throughput change = 0.00192426
Draining all recorded packets ...
Class 0:
Remaining flits: 24624 24625 24626 24627 24628 24629 24630 24631 24632 24633 [...] (437835 flits)
Measured flits: 254271 254272 254273 254274 254275 254276 254277 254278 254279 254280 [...] (351909 flits)
Class 0:
Remaining flits: 24629 24630 24631 24632 24633 24634 24635 24636 24637 24638 [...] (477046 flits)
Measured flits: 254466 254467 254468 254469 254470 254471 254472 254473 254474 254475 [...] (317326 flits)
Class 0:
Remaining flits: 24633 24634 24635 24636 24637 24638 24639 24640 24641 44141 [...] (518344 flits)
Measured flits: 254466 254467 254468 254469 254470 254471 254472 254473 254474 254475 [...] (283079 flits)
Class 0:
Remaining flits: 44141 44142 44143 44144 44145 44146 44147 44148 44149 44150 [...] (560417 flits)
Measured flits: 254466 254467 254468 254469 254470 254471 254472 254473 254474 254475 [...] (250036 flits)
Class 0:
Remaining flits: 44141 44142 44143 44144 44145 44146 44147 44148 44149 44150 [...] (603011 flits)
Measured flits: 254466 254467 254468 254469 254470 254471 254472 254473 254474 254475 [...] (219778 flits)
Class 0:
Remaining flits: 44141 44142 44143 44144 44145 44146 44147 44148 44149 44150 [...] (648730 flits)
Measured flits: 254466 254467 254468 254469 254470 254471 254472 254473 254474 254475 [...] (192721 flits)
Class 0:
Remaining flits: 44141 44142 44143 44144 44145 44146 44147 44148 44149 44150 [...] (690724 flits)
Measured flits: 254466 254467 254468 254469 254470 254471 254472 254473 254474 254475 [...] (167498 flits)
Class 0:
Remaining flits: 44148 44149 44150 44151 44152 44153 107190 107191 107192 107193 [...] (735013 flits)
Measured flits: 254466 254467 254468 254469 254470 254471 254472 254473 254474 254475 [...] (145569 flits)
Class 0:
Remaining flits: 108180 108181 108182 108183 108184 108185 108186 108187 108188 108189 [...] (778318 flits)
Measured flits: 254466 254467 254468 254469 254470 254471 254472 254473 254474 254475 [...] (127098 flits)
Class 0:
Remaining flits: 108180 108181 108182 108183 108184 108185 108186 108187 108188 108189 [...] (823125 flits)
Measured flits: 254466 254467 254468 254469 254470 254471 254472 254473 254474 254475 [...] (110478 flits)
Class 0:
Remaining flits: 108180 108181 108182 108183 108184 108185 108186 108187 108188 108189 [...] (866472 flits)
Measured flits: 254466 254467 254468 254469 254470 254471 254472 254473 254474 254475 [...] (96469 flits)
Class 0:
Remaining flits: 108180 108181 108182 108183 108184 108185 108186 108187 108188 108189 [...] (910725 flits)
Measured flits: 258444 258445 258446 258447 258448 258449 258450 258451 258452 258453 [...] (83929 flits)
Class 0:
Remaining flits: 108180 108181 108182 108183 108184 108185 108186 108187 108188 108189 [...] (956443 flits)
Measured flits: 258444 258445 258446 258447 258448 258449 258450 258451 258452 258453 [...] (72772 flits)
Class 0:
Remaining flits: 108180 108181 108182 108183 108184 108185 108186 108187 108188 108189 [...] (1001369 flits)
Measured flits: 258444 258445 258446 258447 258448 258449 258450 258451 258452 258453 [...] (64009 flits)
Class 0:
Remaining flits: 108180 108181 108182 108183 108184 108185 108186 108187 108188 108189 [...] (1046562 flits)
Measured flits: 272826 272827 272828 272829 272830 272831 272832 272833 272834 272835 [...] (56172 flits)
Class 0:
Remaining flits: 108180 108181 108182 108183 108184 108185 108186 108187 108188 108189 [...] (1092870 flits)
Measured flits: 272826 272827 272828 272829 272830 272831 272832 272833 272834 272835 [...] (49088 flits)
Class 0:
Remaining flits: 108180 108181 108182 108183 108184 108185 108186 108187 108188 108189 [...] (1137164 flits)
Measured flits: 272826 272827 272828 272829 272830 272831 272832 272833 272834 272835 [...] (42202 flits)
Class 0:
Remaining flits: 108180 108181 108182 108183 108184 108185 108186 108187 108188 108189 [...] (1181912 flits)
Measured flits: 272826 272827 272828 272829 272830 272831 272832 272833 272834 272835 [...] (36912 flits)
Class 0:
Remaining flits: 108180 108181 108182 108183 108184 108185 108186 108187 108188 108189 [...] (1226706 flits)
Measured flits: 272826 272827 272828 272829 272830 272831 272832 272833 272834 272835 [...] (32178 flits)
Class 0:
Remaining flits: 108180 108181 108182 108183 108184 108185 108186 108187 108188 108189 [...] (1273306 flits)
Measured flits: 272826 272827 272828 272829 272830 272831 272832 272833 272834 272835 [...] (27955 flits)
Class 0:
Remaining flits: 108180 108181 108182 108183 108184 108185 108186 108187 108188 108189 [...] (1315410 flits)
Measured flits: 272826 272827 272828 272829 272830 272831 272832 272833 272834 272835 [...] (24845 flits)
Class 0:
Remaining flits: 167634 167635 167636 167637 167638 167639 167640 167641 167642 167643 [...] (1358470 flits)
Measured flits: 272826 272827 272828 272829 272830 272831 272832 272833 272834 272835 [...] (21358 flits)
Class 0:
Remaining flits: 167634 167635 167636 167637 167638 167639 167640 167641 167642 167643 [...] (1399816 flits)
Measured flits: 272826 272827 272828 272829 272830 272831 272832 272833 272834 272835 [...] (18827 flits)
Class 0:
Remaining flits: 167634 167635 167636 167637 167638 167639 167640 167641 167642 167643 [...] (1441955 flits)
Measured flits: 272826 272827 272828 272829 272830 272831 272832 272833 272834 272835 [...] (16506 flits)
Class 0:
Remaining flits: 203994 203995 203996 203997 203998 203999 204000 204001 204002 204003 [...] (1482803 flits)
Measured flits: 292122 292123 292124 292125 292126 292127 292128 292129 292130 292131 [...] (14561 flits)
Class 0:
Remaining flits: 203994 203995 203996 203997 203998 203999 204000 204001 204002 204003 [...] (1523158 flits)
Measured flits: 292122 292123 292124 292125 292126 292127 292128 292129 292130 292131 [...] (12707 flits)
Class 0:
Remaining flits: 203994 203995 203996 203997 203998 203999 204000 204001 204002 204003 [...] (1561623 flits)
Measured flits: 292122 292123 292124 292125 292126 292127 292128 292129 292130 292131 [...] (11379 flits)
Class 0:
Remaining flits: 203994 203995 203996 203997 203998 203999 204000 204001 204002 204003 [...] (1599966 flits)
Measured flits: 292122 292123 292124 292125 292126 292127 292128 292129 292130 292131 [...] (10092 flits)
Class 0:
Remaining flits: 203994 203995 203996 203997 203998 203999 204000 204001 204002 204003 [...] (1639396 flits)
Measured flits: 292122 292123 292124 292125 292126 292127 292128 292129 292130 292131 [...] (8524 flits)
Class 0:
Remaining flits: 203994 203995 203996 203997 203998 203999 204000 204001 204002 204003 [...] (1678458 flits)
Measured flits: 292122 292123 292124 292125 292126 292127 292128 292129 292130 292131 [...] (7612 flits)
Class 0:
Remaining flits: 203994 203995 203996 203997 203998 203999 204000 204001 204002 204003 [...] (1713618 flits)
Measured flits: 292122 292123 292124 292125 292126 292127 292128 292129 292130 292131 [...] (7116 flits)
Class 0:
Remaining flits: 203994 203995 203996 203997 203998 203999 204000 204001 204002 204003 [...] (1749100 flits)
Measured flits: 292122 292123 292124 292125 292126 292127 292128 292129 292130 292131 [...] (6167 flits)
Class 0:
Remaining flits: 203994 203995 203996 203997 203998 203999 204000 204001 204002 204003 [...] (1786220 flits)
Measured flits: 292122 292123 292124 292125 292126 292127 292128 292129 292130 292131 [...] (5502 flits)
Class 0:
Remaining flits: 203994 203995 203996 203997 203998 203999 204000 204001 204002 204003 [...] (1821405 flits)
Measured flits: 292122 292123 292124 292125 292126 292127 292128 292129 292130 292131 [...] (4806 flits)
Class 0:
Remaining flits: 203994 203995 203996 203997 203998 203999 204000 204001 204002 204003 [...] (1857673 flits)
Measured flits: 336726 336727 336728 336729 336730 336731 336732 336733 336734 336735 [...] (4158 flits)
Class 0:
Remaining flits: 203994 203995 203996 203997 203998 203999 204000 204001 204002 204003 [...] (1895590 flits)
Measured flits: 336726 336727 336728 336729 336730 336731 336732 336733 336734 336735 [...] (3674 flits)
Class 0:
Remaining flits: 203994 203995 203996 203997 203998 203999 204000 204001 204002 204003 [...] (1932380 flits)
Measured flits: 336726 336727 336728 336729 336730 336731 336732 336733 336734 336735 [...] (3149 flits)
Class 0:
Remaining flits: 203994 203995 203996 203997 203998 203999 204000 204001 204002 204003 [...] (1968439 flits)
Measured flits: 336726 336727 336728 336729 336730 336731 336732 336733 336734 336735 [...] (2753 flits)
Class 0:
Remaining flits: 203994 203995 203996 203997 203998 203999 204000 204001 204002 204003 [...] (2003453 flits)
Measured flits: 336726 336727 336728 336729 336730 336731 336732 336733 336734 336735 [...] (2439 flits)
Class 0:
Remaining flits: 203994 203995 203996 203997 203998 203999 204000 204001 204002 204003 [...] (2040606 flits)
Measured flits: 336726 336727 336728 336729 336730 336731 336732 336733 336734 336735 [...] (2230 flits)
Class 0:
Remaining flits: 203994 203995 203996 203997 203998 203999 204000 204001 204002 204003 [...] (2076083 flits)
Measured flits: 336726 336727 336728 336729 336730 336731 336732 336733 336734 336735 [...] (2067 flits)
Class 0:
Remaining flits: 203994 203995 203996 203997 203998 203999 204000 204001 204002 204003 [...] (2113788 flits)
Measured flits: 336726 336727 336728 336729 336730 336731 336732 336733 336734 336735 [...] (1733 flits)
Class 0:
Remaining flits: 203994 203995 203996 203997 203998 203999 204000 204001 204002 204003 [...] (2154005 flits)
Measured flits: 336726 336727 336728 336729 336730 336731 336732 336733 336734 336735 [...] (1644 flits)
Class 0:
Remaining flits: 203994 203995 203996 203997 203998 203999 204000 204001 204002 204003 [...] (2193657 flits)
Measured flits: 336726 336727 336728 336729 336730 336731 336732 336733 336734 336735 [...] (1510 flits)
Class 0:
Remaining flits: 203994 203995 203996 203997 203998 203999 204000 204001 204002 204003 [...] (2233833 flits)
Measured flits: 336726 336727 336728 336729 336730 336731 336732 336733 336734 336735 [...] (1294 flits)
Class 0:
Remaining flits: 203994 203995 203996 203997 203998 203999 204000 204001 204002 204003 [...] (2272121 flits)
Measured flits: 336734 336735 336736 336737 336738 336739 336740 336741 336742 336743 [...] (1212 flits)
Class 0:
Remaining flits: 537192 537193 537194 537195 537196 537197 537198 537199 537200 537201 [...] (2311711 flits)
Measured flits: 537192 537193 537194 537195 537196 537197 537198 537199 537200 537201 [...] (1066 flits)
Class 0:
Remaining flits: 537192 537193 537194 537195 537196 537197 537198 537199 537200 537201 [...] (2354907 flits)
Measured flits: 537192 537193 537194 537195 537196 537197 537198 537199 537200 537201 [...] (988 flits)
Class 0:
Remaining flits: 562932 562933 562934 562935 562936 562937 562938 562939 562940 562941 [...] (2395128 flits)
Measured flits: 562932 562933 562934 562935 562936 562937 562938 562939 562940 562941 [...] (844 flits)
Class 0:
Remaining flits: 562932 562933 562934 562935 562936 562937 562938 562939 562940 562941 [...] (2434015 flits)
Measured flits: 562932 562933 562934 562935 562936 562937 562938 562939 562940 562941 [...] (801 flits)
Class 0:
Remaining flits: 598662 598663 598664 598665 598666 598667 598668 598669 598670 598671 [...] (2474566 flits)
Measured flits: 598662 598663 598664 598665 598666 598667 598668 598669 598670 598671 [...] (579 flits)
Class 0:
Remaining flits: 598662 598663 598664 598665 598666 598667 598668 598669 598670 598671 [...] (2514086 flits)
Measured flits: 598662 598663 598664 598665 598666 598667 598668 598669 598670 598671 [...] (504 flits)
Class 0:
Remaining flits: 598662 598663 598664 598665 598666 598667 598668 598669 598670 598671 [...] (2555717 flits)
Measured flits: 598662 598663 598664 598665 598666 598667 598668 598669 598670 598671 [...] (450 flits)
Class 0:
Remaining flits: 598662 598663 598664 598665 598666 598667 598668 598669 598670 598671 [...] (2597045 flits)
Measured flits: 598662 598663 598664 598665 598666 598667 598668 598669 598670 598671 [...] (342 flits)
Class 0:
Remaining flits: 598662 598663 598664 598665 598666 598667 598668 598669 598670 598671 [...] (2639258 flits)
Measured flits: 598662 598663 598664 598665 598666 598667 598668 598669 598670 598671 [...] (306 flits)
Class 0:
Remaining flits: 598662 598663 598664 598665 598666 598667 598668 598669 598670 598671 [...] (2679399 flits)
Measured flits: 598662 598663 598664 598665 598666 598667 598668 598669 598670 598671 [...] (283 flits)
Class 0:
Remaining flits: 598678 598679 613080 613081 613082 613083 613084 613085 613086 613087 [...] (2717070 flits)
Measured flits: 598678 598679 613080 613081 613082 613083 613084 613085 613086 613087 [...] (249 flits)
Class 0:
Remaining flits: 598678 598679 613080 613081 613082 613083 613084 613085 613086 613087 [...] (2758488 flits)
Measured flits: 598678 598679 613080 613081 613082 613083 613084 613085 613086 613087 [...] (249 flits)
Class 0:
Remaining flits: 598678 598679 613080 613081 613082 613083 613084 613085 613086 613087 [...] (2796596 flits)
Measured flits: 598678 598679 613080 613081 613082 613083 613084 613085 613086 613087 [...] (242 flits)
Class 0:
Remaining flits: 598678 598679 613080 613081 613082 613083 613084 613085 613086 613087 [...] (2835440 flits)
Measured flits: 598678 598679 613080 613081 613082 613083 613084 613085 613086 613087 [...] (103 flits)
Class 0:
Remaining flits: 598678 598679 613080 613081 613082 613083 613084 613085 613086 613087 [...] (2873830 flits)
Measured flits: 598678 598679 613080 613081 613082 613083 613084 613085 613086 613087 [...] (92 flits)
Class 0:
Remaining flits: 598678 598679 613080 613081 613082 613083 613084 613085 613086 613087 [...] (2914540 flits)
Measured flits: 598678 598679 613080 613081 613082 613083 613084 613085 613086 613087 [...] (74 flits)
Class 0:
Remaining flits: 598678 598679 613080 613081 613082 613083 613084 613085 613086 613087 [...] (2955086 flits)
Measured flits: 598678 598679 613080 613081 613082 613083 613084 613085 613086 613087 [...] (74 flits)
Class 0:
Remaining flits: 598678 598679 613080 613081 613082 613083 613084 613085 613086 613087 [...] (2995313 flits)
Measured flits: 598678 598679 613080 613081 613082 613083 613084 613085 613086 613087 [...] (74 flits)
Class 0:
Remaining flits: 613080 613081 613082 613083 613084 613085 613086 613087 613088 613089 [...] (3035231 flits)
Measured flits: 613080 613081 613082 613083 613084 613085 613086 613087 613088 613089 [...] (72 flits)
Class 0:
Remaining flits: 773802 773803 773804 773805 773806 773807 773808 773809 773810 773811 [...] (3076154 flits)
Measured flits: 773802 773803 773804 773805 773806 773807 773808 773809 773810 773811 [...] (18 flits)
Class 0:
Remaining flits: 773802 773803 773804 773805 773806 773807 773808 773809 773810 773811 [...] (3115113 flits)
Measured flits: 773802 773803 773804 773805 773806 773807 773808 773809 773810 773811 [...] (18 flits)
Draining remaining packets ...
Class 0:
Remaining flits: 909072 909073 909074 909075 909076 909077 909078 909079 909080 909081 [...] (3115371 flits)
Measured flits: (0 flits)
Class 0:
Remaining flits: 909072 909073 909074 909075 909076 909077 909078 909079 909080 909081 [...] (3083219 flits)
Measured flits: (0 flits)
Class 0:
Remaining flits: 909072 909073 909074 909075 909076 909077 909078 909079 909080 909081 [...] (3050861 flits)
Measured flits: (0 flits)
Class 0:
Remaining flits: 909072 909073 909074 909075 909076 909077 909078 909079 909080 909081 [...] (3018257 flits)
Measured flits: (0 flits)
Class 0:
Remaining flits: 1021806 1021807 1021808 1021809 1021810 1021811 1021812 1021813 1021814 1021815 [...] (2985520 flits)
Measured flits: (0 flits)
Class 0:
Remaining flits: 1021806 1021807 1021808 1021809 1021810 1021811 1021812 1021813 1021814 1021815 [...] (2953258 flits)
Measured flits: (0 flits)
Class 0:
Remaining flits: 1047996 1047997 1047998 1047999 1048000 1048001 1048002 1048003 1048004 1048005 [...] (2919022 flits)
Measured flits: (0 flits)
Class 0:
Remaining flits: 1047996 1047997 1047998 1047999 1048000 1048001 1048002 1048003 1048004 1048005 [...] (2885923 flits)
Measured flits: (0 flits)
Class 0:
Remaining flits: 1047996 1047997 1047998 1047999 1048000 1048001 1048002 1048003 1048004 1048005 [...] (2851783 flits)
Measured flits: (0 flits)
Class 0:
Remaining flits: 1047996 1047997 1047998 1047999 1048000 1048001 1048002 1048003 1048004 1048005 [...] (2818790 flits)
Measured flits: (0 flits)
Class 0:
Remaining flits: 1047996 1047997 1047998 1047999 1048000 1048001 1048002 1048003 1048004 1048005 [...] (2785233 flits)
Measured flits: (0 flits)
Class 0:
Remaining flits: 1051699 1051700 1051701 1051702 1051703 1059660 1059661 1059662 1059663 1059664 [...] (2751246 flits)
Measured flits: (0 flits)
Class 0:
Remaining flits: 1051699 1051700 1051701 1051702 1051703 1059660 1059661 1059662 1059663 1059664 [...] (2718195 flits)
Measured flits: (0 flits)
Class 0:
Remaining flits: 1051699 1051700 1051701 1051702 1051703 1059660 1059661 1059662 1059663 1059664 [...] (2685733 flits)
Measured flits: (0 flits)
Class 0:
Remaining flits: 1051699 1051700 1051701 1051702 1051703 1059660 1059661 1059662 1059663 1059664 [...] (2652702 flits)
Measured flits: (0 flits)
Class 0:
Remaining flits: 1051699 1051700 1051701 1051702 1051703 1059660 1059661 1059662 1059663 1059664 [...] (2620689 flits)
Measured flits: (0 flits)
Class 0:
Remaining flits: 1051699 1051700 1051701 1051702 1051703 1059660 1059661 1059662 1059663 1059664 [...] (2589130 flits)
Measured flits: (0 flits)
Class 0:
Remaining flits: 1051699 1051700 1051701 1051702 1051703 1059660 1059661 1059662 1059663 1059664 [...] (2557782 flits)
Measured flits: (0 flits)
Class 0:
Remaining flits: 1051699 1051700 1051701 1051702 1051703 1059660 1059661 1059662 1059663 1059664 [...] (2527762 flits)
Measured flits: (0 flits)
Class 0:
Remaining flits: 1051699 1051700 1051701 1051702 1051703 1059660 1059661 1059662 1059663 1059664 [...] (2497478 flits)
Measured flits: (0 flits)
Class 0:
Remaining flits: 1051699 1051700 1051701 1051702 1051703 1059660 1059661 1059662 1059663 1059664 [...] (2466936 flits)
Measured flits: (0 flits)
Class 0:
Remaining flits: 1051699 1051700 1051701 1051702 1051703 1059660 1059661 1059662 1059663 1059664 [...] (2435514 flits)
Measured flits: (0 flits)
Class 0:
Remaining flits: 1059660 1059661 1059662 1059663 1059664 1059665 1059666 1059667 1059668 1059669 [...] (2402805 flits)
Measured flits: (0 flits)
Class 0:
Remaining flits: 1059660 1059661 1059662 1059663 1059664 1059665 1059666 1059667 1059668 1059669 [...] (2370726 flits)
Measured flits: (0 flits)
Class 0:
Remaining flits: 1059660 1059661 1059662 1059663 1059664 1059665 1059666 1059667 1059668 1059669 [...] (2339601 flits)
Measured flits: (0 flits)
Class 0:
Remaining flits: 1059660 1059661 1059662 1059663 1059664 1059665 1059666 1059667 1059668 1059669 [...] (2308650 flits)
Measured flits: (0 flits)
Class 0:
Remaining flits: 1144782 1144783 1144784 1144785 1144786 1144787 1144788 1144789 1144790 1144791 [...] (2275762 flits)
Measured flits: (0 flits)
Class 0:
Remaining flits: 1144782 1144783 1144784 1144785 1144786 1144787 1144788 1144789 1144790 1144791 [...] (2245250 flits)
Measured flits: (0 flits)
Class 0:
Remaining flits: 1144782 1144783 1144784 1144785 1144786 1144787 1144788 1144789 1144790 1144791 [...] (2214443 flits)
Measured flits: (0 flits)
Class 0:
Remaining flits: 1144782 1144783 1144784 1144785 1144786 1144787 1144788 1144789 1144790 1144791 [...] (2183998 flits)
Measured flits: (0 flits)
Class 0:
Remaining flits: 1144782 1144783 1144784 1144785 1144786 1144787 1144788 1144789 1144790 1144791 [...] (2153650 flits)
Measured flits: (0 flits)
Class 0:
Remaining flits: 1144782 1144783 1144784 1144785 1144786 1144787 1144788 1144789 1144790 1144791 [...] (2123598 flits)
Measured flits: (0 flits)
Class 0:
Remaining flits: 1144782 1144783 1144784 1144785 1144786 1144787 1144788 1144789 1144790 1144791 [...] (2092343 flits)
Measured flits: (0 flits)
Class 0:
Remaining flits: 1144782 1144783 1144784 1144785 1144786 1144787 1144788 1144789 1144790 1144791 [...] (2060831 flits)
Measured flits: (0 flits)
Class 0:
Remaining flits: 1144782 1144783 1144784 1144785 1144786 1144787 1144788 1144789 1144790 1144791 [...] (2028864 flits)
Measured flits: (0 flits)
Class 0:
Remaining flits: 1503684 1503685 1503686 1503687 1503688 1503689 1503690 1503691 1503692 1503693 [...] (1997448 flits)
Measured flits: (0 flits)
Class 0:
Remaining flits: 1503684 1503685 1503686 1503687 1503688 1503689 1503690 1503691 1503692 1503693 [...] (1966694 flits)
Measured flits: (0 flits)
Class 0:
Remaining flits: 1503684 1503685 1503686 1503687 1503688 1503689 1503690 1503691 1503692 1503693 [...] (1934659 flits)
Measured flits: (0 flits)
Class 0:
Remaining flits: 1503684 1503685 1503686 1503687 1503688 1503689 1503690 1503691 1503692 1503693 [...] (1902894 flits)
Measured flits: (0 flits)
Class 0:
Remaining flits: 1503684 1503685 1503686 1503687 1503688 1503689 1503690 1503691 1503692 1503693 [...] (1871969 flits)
Measured flits: (0 flits)
Class 0:
Remaining flits: 1518104 1518105 1518106 1518107 1518108 1518109 1518110 1518111 1518112 1518113 [...] (1840910 flits)
Measured flits: (0 flits)
Class 0:
Remaining flits: 1592910 1592911 1592912 1592913 1592914 1592915 1592916 1592917 1592918 1592919 [...] (1810094 flits)
Measured flits: (0 flits)
Class 0:
Remaining flits: 1592910 1592911 1592912 1592913 1592914 1592915 1592916 1592917 1592918 1592919 [...] (1778337 flits)
Measured flits: (0 flits)
Class 0:
Remaining flits: 1592910 1592911 1592912 1592913 1592914 1592915 1592916 1592917 1592918 1592919 [...] (1746727 flits)
Measured flits: (0 flits)
Class 0:
Remaining flits: 1636506 1636507 1636508 1636509 1636510 1636511 1636512 1636513 1636514 1636515 [...] (1714648 flits)
Measured flits: (0 flits)
Class 0:
Remaining flits: 1653462 1653463 1653464 1653465 1653466 1653467 1653468 1653469 1653470 1653471 [...] (1682109 flits)
Measured flits: (0 flits)
Class 0:
Remaining flits: 1653462 1653463 1653464 1653465 1653466 1653467 1653468 1653469 1653470 1653471 [...] (1649887 flits)
Measured flits: (0 flits)
Class 0:
Remaining flits: 1653462 1653463 1653464 1653465 1653466 1653467 1653468 1653469 1653470 1653471 [...] (1617451 flits)
Measured flits: (0 flits)
Class 0:
Remaining flits: 1653462 1653463 1653464 1653465 1653466 1653467 1653468 1653469 1653470 1653471 [...] (1584416 flits)
Measured flits: (0 flits)
Class 0:
Remaining flits: 1653462 1653463 1653464 1653465 1653466 1653467 1653468 1653469 1653470 1653471 [...] (1552057 flits)
Measured flits: (0 flits)
Class 0:
Remaining flits: 1653462 1653463 1653464 1653465 1653466 1653467 1653468 1653469 1653470 1653471 [...] (1519657 flits)
Measured flits: (0 flits)
Class 0:
Remaining flits: 1653462 1653463 1653464 1653465 1653466 1653467 1653468 1653469 1653470 1653471 [...] (1487834 flits)
Measured flits: (0 flits)
Class 0:
Remaining flits: 1653466 1653467 1653468 1653469 1653470 1653471 1653472 1653473 1653474 1653475 [...] (1457229 flits)
Measured flits: (0 flits)
Class 0:
Remaining flits: 1903122 1903123 1903124 1903125 1903126 1903127 1903128 1903129 1903130 1903131 [...] (1426477 flits)
Measured flits: (0 flits)
Class 0:
Remaining flits: 2050326 2050327 2050328 2050329 2050330 2050331 2050332 2050333 2050334 2050335 [...] (1395634 flits)
Measured flits: (0 flits)
Class 0:
Remaining flits: 2050326 2050327 2050328 2050329 2050330 2050331 2050332 2050333 2050334 2050335 [...] (1363408 flits)
Measured flits: (0 flits)
Class 0:
Remaining flits: 2050326 2050327 2050328 2050329 2050330 2050331 2050332 2050333 2050334 2050335 [...] (1332681 flits)
Measured flits: (0 flits)
Class 0:
Remaining flits: 2068218 2068219 2068220 2068221 2068222 2068223 2068224 2068225 2068226 2068227 [...] (1301075 flits)
Measured flits: (0 flits)
Class 0:
Remaining flits: 2068218 2068219 2068220 2068221 2068222 2068223 2068224 2068225 2068226 2068227 [...] (1270802 flits)
Measured flits: (0 flits)
Class 0:
Remaining flits: 2068218 2068219 2068220 2068221 2068222 2068223 2068224 2068225 2068226 2068227 [...] (1240496 flits)
Measured flits: (0 flits)
Class 0:
Remaining flits: 2068218 2068219 2068220 2068221 2068222 2068223 2068224 2068225 2068226 2068227 [...] (1210115 flits)
Measured flits: (0 flits)
Class 0:
Remaining flits: 2068218 2068219 2068220 2068221 2068222 2068223 2068224 2068225 2068226 2068227 [...] (1179967 flits)
Measured flits: (0 flits)
Class 0:
Remaining flits: 2068218 2068219 2068220 2068221 2068222 2068223 2068224 2068225 2068226 2068227 [...] (1149126 flits)
Measured flits: (0 flits)
Class 0:
Remaining flits: 2068218 2068219 2068220 2068221 2068222 2068223 2068224 2068225 2068226 2068227 [...] (1117690 flits)
Measured flits: (0 flits)
Class 0:
Remaining flits: 2068218 2068219 2068220 2068221 2068222 2068223 2068224 2068225 2068226 2068227 [...] (1086804 flits)
Measured flits: (0 flits)
Class 0:
Remaining flits: 2068218 2068219 2068220 2068221 2068222 2068223 2068224 2068225 2068226 2068227 [...] (1055629 flits)
Measured flits: (0 flits)
Class 0:
Remaining flits: 2122074 2122075 2122076 2122077 2122078 2122079 2122080 2122081 2122082 2122083 [...] (1025746 flits)
Measured flits: (0 flits)
Class 0:
Remaining flits: 2122074 2122075 2122076 2122077 2122078 2122079 2122080 2122081 2122082 2122083 [...] (994391 flits)
Measured flits: (0 flits)
Class 0:
Remaining flits: 2122074 2122075 2122076 2122077 2122078 2122079 2122080 2122081 2122082 2122083 [...] (963424 flits)
Measured flits: (0 flits)
Class 0:
Remaining flits: 2122074 2122075 2122076 2122077 2122078 2122079 2122080 2122081 2122082 2122083 [...] (932703 flits)
Measured flits: (0 flits)
Class 0:
Remaining flits: 2122074 2122075 2122076 2122077 2122078 2122079 2122080 2122081 2122082 2122083 [...] (900816 flits)
Measured flits: (0 flits)
Class 0:
Remaining flits: 2122074 2122075 2122076 2122077 2122078 2122079 2122080 2122081 2122082 2122083 [...] (868600 flits)
Measured flits: (0 flits)
Class 0:
Remaining flits: 2122074 2122075 2122076 2122077 2122078 2122079 2122080 2122081 2122082 2122083 [...] (836691 flits)
Measured flits: (0 flits)
Class 0:
Remaining flits: 2122074 2122075 2122076 2122077 2122078 2122079 2122080 2122081 2122082 2122083 [...] (803855 flits)
Measured flits: (0 flits)
Class 0:
Remaining flits: 2163834 2163835 2163836 2163837 2163838 2163839 2163840 2163841 2163842 2163843 [...] (771239 flits)
Measured flits: (0 flits)
Class 0:
Remaining flits: 2163834 2163835 2163836 2163837 2163838 2163839 2163840 2163841 2163842 2163843 [...] (739738 flits)
Measured flits: (0 flits)
Class 0:
Remaining flits: 2163834 2163835 2163836 2163837 2163838 2163839 2163840 2163841 2163842 2163843 [...] (707609 flits)
Measured flits: (0 flits)
Class 0:
Remaining flits: 2163834 2163835 2163836 2163837 2163838 2163839 2163840 2163841 2163842 2163843 [...] (675601 flits)
Measured flits: (0 flits)
Class 0:
Remaining flits: 2163834 2163835 2163836 2163837 2163838 2163839 2163840 2163841 2163842 2163843 [...] (642853 flits)
Measured flits: (0 flits)
Class 0:
Remaining flits: 2163834 2163835 2163836 2163837 2163838 2163839 2163840 2163841 2163842 2163843 [...] (610053 flits)
Measured flits: (0 flits)
Class 0:
Remaining flits: 2163834 2163835 2163836 2163837 2163838 2163839 2163840 2163841 2163842 2163843 [...] (577106 flits)
Measured flits: (0 flits)
Class 0:
Remaining flits: 2163834 2163835 2163836 2163837 2163838 2163839 2163840 2163841 2163842 2163843 [...] (544021 flits)
Measured flits: (0 flits)
Class 0:
Remaining flits: 2250972 2250973 2250974 2250975 2250976 2250977 2250978 2250979 2250980 2250981 [...] (510826 flits)
Measured flits: (0 flits)
Class 0:
Remaining flits: 2250972 2250973 2250974 2250975 2250976 2250977 2250978 2250979 2250980 2250981 [...] (478242 flits)
Measured flits: (0 flits)
Class 0:
Remaining flits: 2250972 2250973 2250974 2250975 2250976 2250977 2250978 2250979 2250980 2250981 [...] (445353 flits)
Measured flits: (0 flits)
Class 0:
Remaining flits: 2250972 2250973 2250974 2250975 2250976 2250977 2250978 2250979 2250980 2250981 [...] (412579 flits)
Measured flits: (0 flits)
Class 0:
Remaining flits: 2250972 2250973 2250974 2250975 2250976 2250977 2250978 2250979 2250980 2250981 [...] (380232 flits)
Measured flits: (0 flits)
Class 0:
Remaining flits: 2459461 2459462 2459463 2459464 2459465 2716974 2716975 2716976 2716977 2716978 [...] (347666 flits)
Measured flits: (0 flits)
Class 0:
Remaining flits: 2716974 2716975 2716976 2716977 2716978 2716979 2716980 2716981 2716982 2716983 [...] (314669 flits)
Measured flits: (0 flits)
Class 0:
Remaining flits: 2716974 2716975 2716976 2716977 2716978 2716979 2716980 2716981 2716982 2716983 [...] (282198 flits)
Measured flits: (0 flits)
Class 0:
Remaining flits: 2716977 2716978 2716979 2716980 2716981 2716982 2716983 2716984 2716985 2716986 [...] (250748 flits)
Measured flits: (0 flits)
Class 0:
Remaining flits: 2729682 2729683 2729684 2729685 2729686 2729687 2729688 2729689 2729690 2729691 [...] (219880 flits)
Measured flits: (0 flits)
Class 0:
Remaining flits: 2729682 2729683 2729684 2729685 2729686 2729687 2729688 2729689 2729690 2729691 [...] (189839 flits)
Measured flits: (0 flits)
Class 0:
Remaining flits: 2729682 2729683 2729684 2729685 2729686 2729687 2729688 2729689 2729690 2729691 [...] (160355 flits)
Measured flits: (0 flits)
Class 0:
Remaining flits: 2729682 2729683 2729684 2729685 2729686 2729687 2729688 2729689 2729690 2729691 [...] (131961 flits)
Measured flits: (0 flits)
Class 0:
Remaining flits: 2729682 2729683 2729684 2729685 2729686 2729687 2729688 2729689 2729690 2729691 [...] (106486 flits)
Measured flits: (0 flits)
Class 0:
Remaining flits: 2796300 2796301 2796302 2796303 2796304 2796305 2796306 2796307 2796308 2796309 [...] (83155 flits)
Measured flits: (0 flits)
Class 0:
Remaining flits: 2796300 2796301 2796302 2796303 2796304 2796305 2796306 2796307 2796308 2796309 [...] (63811 flits)
Measured flits: (0 flits)
Class 0:
Remaining flits: 2796300 2796301 2796302 2796303 2796304 2796305 2796306 2796307 2796308 2796309 [...] (48849 flits)
Measured flits: (0 flits)
Class 0:
Remaining flits: 2796300 2796301 2796302 2796303 2796304 2796305 2796306 2796307 2796308 2796309 [...] (36526 flits)
Measured flits: (0 flits)
Class 0:
Remaining flits: 2796300 2796301 2796302 2796303 2796304 2796305 2796306 2796307 2796308 2796309 [...] (26612 flits)
Measured flits: (0 flits)
Class 0:
Remaining flits: 3065130 3065131 3065132 3065133 3065134 3065135 3065136 3065137 3065138 3065139 [...] (19590 flits)
Measured flits: (0 flits)
Class 0:
Remaining flits: 3124188 3124189 3124190 3124191 3124192 3124193 3124194 3124195 3124196 3124197 [...] (14318 flits)
Measured flits: (0 flits)
Class 0:
Remaining flits: 3124188 3124189 3124190 3124191 3124192 3124193 3124194 3124195 3124196 3124197 [...] (9738 flits)
Measured flits: (0 flits)
Class 0:
Remaining flits: 4192632 4192633 4192634 4192635 4192636 4192637 4192638 4192639 4192640 4192641 [...] (5521 flits)
Measured flits: (0 flits)
Class 0:
Remaining flits: 4214106 4214107 4214108 4214109 4214110 4214111 4214112 4214113 4214114 4214115 [...] (2754 flits)
Measured flits: (0 flits)
Class 0:
Remaining flits: 4770018 4770019 4770020 4770021 4770022 4770023 4770024 4770025 4770026 4770027 [...] (1265 flits)
Measured flits: (0 flits)
Class 0:
Remaining flits: 5628690 5628691 5628692 5628693 5628694 5628695 5628696 5628697 5628698 5628699 [...] (264 flits)
Measured flits: (0 flits)
Time taken is 186058 cycles
====== Overall Traffic Statistics ======
====== Traffic class 0 ======
Packet latency average = 7937.77 (1 samples)
	minimum = 23 (1 samples)
	maximum = 68680 (1 samples)
Network latency average = 7930.85 (1 samples)
	minimum = 23 (1 samples)
	maximum = 68680 (1 samples)
Flit latency average = 46239.8 (1 samples)
	minimum = 6 (1 samples)
	maximum = 145843 (1 samples)
Fragmentation average = 362.001 (1 samples)
	minimum = 0 (1 samples)
	maximum = 10788 (1 samples)
Injected packet rate average = 0.0246265 (1 samples)
	minimum = 0.0205714 (1 samples)
	maximum = 0.03 (1 samples)
Accepted packet rate average = 0.0132701 (1 samples)
	minimum = 0.0102857 (1 samples)
	maximum = 0.017 (1 samples)
Injected flit rate average = 0.443225 (1 samples)
	minimum = 0.370143 (1 samples)
	maximum = 0.538571 (1 samples)
Accepted flit rate average = 0.239089 (1 samples)
	minimum = 0.180571 (1 samples)
	maximum = 0.308429 (1 samples)
Injected packet size average = 17.9979 (1 samples)
Accepted packet size average = 18.0171 (1 samples)
Hops average = 5.06218 (1 samples)
Total run time 329.679
