BEGIN Configuration File: networks/mezzanine_config
topology = mezzanine;
n = 12;

routing_function = multipath;
internal_speedup = 2.0;
latency_thres = 100000.0;
use_read_write = 0;

sample_period = 1000;
injection_rate = 0.5;
packet_size = 18;

noq = 1;
routing_delay = 0;
vc_alloc_delay = 1;
sw_alloc_delay = 1;
st_final_delay = 1;
vc_allocator = islip; 
sw_allocator = islip;
alloc_iters  = 4;
num_vcs     = 12;
buffer_policy = private; // private or shared
buf_size = -1; // -1 for buffer_policy = private;
vc_buf_size = 4096; // size of each VOQ with buffer_policy = private
output_buffer_size = -1;


traffic = uniform;

//mezW = 0.0;
//mezPredefinedPatternType = shift-inter; //shift-qfdb

END Configuration File: networks/mezzanine_config
OVERRIDE Parameter: injection_rate=0.046687
OVERRIDE Parameter: routing_function=min
OVERRIDE Parameter: num_vcs=64
OVERRIDE Parameter: vc_buf_size=18
OVERRIDE Parameter: internal_speedup=1.0
OVERRIDE Parameter: injection_process=bernoulli
OVERRIDE Parameter: sim_type=latency
OVERRIDE Parameter: burst_alpha=0.0038461538
OVERRIDE Parameter: burst_beta=0.1
network: network_0
========================== Routing table  =====================
Number of Subnets: 1
Class 0:
Packet latency average = 396.642
	minimum = 27
	maximum = 938
Network latency average = 365.26
	minimum = 23
	maximum = 935
Slowest packet = 278
Flit latency average = 267.98
	minimum = 6
	maximum = 976
Slowest flit = 1790
Fragmentation average = 255.804
	minimum = 0
	maximum = 777
Injected packet rate average = 0.030474
	minimum = 0.012 (at node 156)
	maximum = 0.04 (at node 46)
Accepted packet rate average = 0.01
	minimum = 0.003 (at node 25)
	maximum = 0.019 (at node 114)
Injected flit rate average = 0.543151
	minimum = 0.203 (at node 156)
	maximum = 0.714 (at node 135)
Accepted flit rate average= 0.225661
	minimum = 0.083 (at node 25)
	maximum = 0.392 (at node 152)
Injected packet length average = 17.8234
Accepted packet length average = 22.5661
Total in-flight flits = 62027 (0 measured)
latency change    = 1
throughput change = 1
Class 0:
Packet latency average = 772.46
	minimum = 27
	maximum = 1918
Network latency average = 659.486
	minimum = 23
	maximum = 1885
Slowest packet = 801
Flit latency average = 529.017
	minimum = 6
	maximum = 1908
Slowest flit = 9090
Fragmentation average = 316.833
	minimum = 0
	maximum = 1471
Injected packet rate average = 0.0220964
	minimum = 0.006 (at node 156)
	maximum = 0.03 (at node 159)
Accepted packet rate average = 0.0112161
	minimum = 0.006 (at node 25)
	maximum = 0.0165 (at node 152)
Injected flit rate average = 0.39432
	minimum = 0.102 (at node 156)
	maximum = 0.5335 (at node 159)
Accepted flit rate average= 0.22557
	minimum = 0.1305 (at node 164)
	maximum = 0.3285 (at node 63)
Injected packet length average = 17.8455
Accepted packet length average = 20.1112
Total in-flight flits = 66309 (0 measured)
latency change    = 0.486521
throughput change = 0.000404068
Class 0:
Packet latency average = 1748.71
	minimum = 327
	maximum = 2888
Network latency average = 1220.86
	minimum = 25
	maximum = 2851
Slowest packet = 1078
Flit latency average = 1081.64
	minimum = 6
	maximum = 2899
Slowest flit = 10379
Fragmentation average = 341.82
	minimum = 2
	maximum = 2476
Injected packet rate average = 0.00961979
	minimum = 0 (at node 0)
	maximum = 0.036 (at node 35)
Accepted packet rate average = 0.012526
	minimum = 0.004 (at node 10)
	maximum = 0.027 (at node 16)
Injected flit rate average = 0.171937
	minimum = 0 (at node 0)
	maximum = 0.644 (at node 35)
Accepted flit rate average= 0.220161
	minimum = 0.095 (at node 10)
	maximum = 0.453 (at node 16)
Injected packet length average = 17.8733
Accepted packet length average = 17.5763
Total in-flight flits = 57212 (0 measured)
latency change    = 0.558268
throughput change = 0.0245677
Warmed up ...Time used is 3000 cycles
Class 0:
Packet latency average = 2387.73
	minimum = 1313
	maximum = 3473
Network latency average = 333.617
	minimum = 29
	maximum = 930
Slowest packet = 10352
Flit latency average = 1151.43
	minimum = 6
	maximum = 3899
Slowest flit = 10645
Fragmentation average = 145.383
	minimum = 2
	maximum = 639
Injected packet rate average = 0.00992188
	minimum = 0 (at node 0)
	maximum = 0.041 (at node 43)
Accepted packet rate average = 0.0119115
	minimum = 0.004 (at node 79)
	maximum = 0.025 (at node 129)
Injected flit rate average = 0.178932
	minimum = 0 (at node 0)
	maximum = 0.748 (at node 43)
Accepted flit rate average= 0.211146
	minimum = 0.099 (at node 134)
	maximum = 0.422 (at node 129)
Injected packet length average = 18.0341
Accepted packet length average = 17.7263
Total in-flight flits = 51016 (22679 measured)
latency change    = 0.267626
throughput change = 0.0426986
Class 0:
Packet latency average = 2880.07
	minimum = 1313
	maximum = 4537
Network latency average = 537.157
	minimum = 25
	maximum = 1945
Slowest packet = 10352
Flit latency average = 1163.8
	minimum = 6
	maximum = 4841
Slowest flit = 10655
Fragmentation average = 182.683
	minimum = 2
	maximum = 1461
Injected packet rate average = 0.0102422
	minimum = 0 (at node 18)
	maximum = 0.0325 (at node 150)
Accepted packet rate average = 0.0117396
	minimum = 0.006 (at node 105)
	maximum = 0.019 (at node 129)
Injected flit rate average = 0.184596
	minimum = 0 (at node 18)
	maximum = 0.582 (at node 150)
Accepted flit rate average= 0.20831
	minimum = 0.1125 (at node 105)
	maximum = 0.333 (at node 129)
Injected packet length average = 18.0231
Accepted packet length average = 17.7442
Total in-flight flits = 48087 (32226 measured)
latency change    = 0.17095
throughput change = 0.013614
Class 0:
Packet latency average = 3323.97
	minimum = 1313
	maximum = 5470
Network latency average = 659.263
	minimum = 25
	maximum = 2929
Slowest packet = 10352
Flit latency average = 1133.91
	minimum = 6
	maximum = 5867
Slowest flit = 13463
Fragmentation average = 205.319
	minimum = 1
	maximum = 2224
Injected packet rate average = 0.010875
	minimum = 0 (at node 34)
	maximum = 0.028 (at node 43)
Accepted packet rate average = 0.0116858
	minimum = 0.00666667 (at node 116)
	maximum = 0.018 (at node 177)
Injected flit rate average = 0.19592
	minimum = 0 (at node 92)
	maximum = 0.503667 (at node 43)
Accepted flit rate average= 0.208613
	minimum = 0.126667 (at node 116)
	maximum = 0.331 (at node 177)
Injected packet length average = 18.0156
Accepted packet length average = 17.8519
Total in-flight flits = 49803 (39362 measured)
latency change    = 0.133545
throughput change = 0.00145222
Class 0:
Packet latency average = 3753.91
	minimum = 1313
	maximum = 6254
Network latency average = 740.572
	minimum = 25
	maximum = 3780
Slowest packet = 10352
Flit latency average = 1140.55
	minimum = 6
	maximum = 6751
Slowest flit = 22193
Fragmentation average = 219.793
	minimum = 0
	maximum = 3178
Injected packet rate average = 0.0111641
	minimum = 0 (at node 34)
	maximum = 0.02475 (at node 94)
Accepted packet rate average = 0.0116458
	minimum = 0.00775 (at node 36)
	maximum = 0.0155 (at node 12)
Injected flit rate average = 0.200947
	minimum = 0 (at node 92)
	maximum = 0.4465 (at node 94)
Accepted flit rate average= 0.208535
	minimum = 0.13525 (at node 36)
	maximum = 0.2795 (at node 12)
Injected packet length average = 17.9994
Accepted packet length average = 17.9064
Total in-flight flits = 51425 (44803 measured)
latency change    = 0.114531
throughput change = 0.000372556
Class 0:
Packet latency average = 4173.95
	minimum = 1313
	maximum = 7511
Network latency average = 818.399
	minimum = 25
	maximum = 4961
Slowest packet = 10352
Flit latency average = 1136.14
	minimum = 6
	maximum = 7770
Slowest flit = 29800
Fragmentation average = 234.476
	minimum = 0
	maximum = 4206
Injected packet rate average = 0.0111302
	minimum = 0 (at node 92)
	maximum = 0.0266 (at node 43)
Accepted packet rate average = 0.0116115
	minimum = 0.0086 (at node 42)
	maximum = 0.016 (at node 68)
Injected flit rate average = 0.200362
	minimum = 0 (at node 92)
	maximum = 0.4812 (at node 43)
Accepted flit rate average= 0.208061
	minimum = 0.1496 (at node 42)
	maximum = 0.2806 (at node 68)
Injected packet length average = 18.0017
Accepted packet length average = 17.9186
Total in-flight flits = 49857 (45010 measured)
latency change    = 0.100634
throughput change = 0.00227672
Class 0:
Packet latency average = 4587.27
	minimum = 1313
	maximum = 8177
Network latency average = 884.658
	minimum = 25
	maximum = 5681
Slowest packet = 10352
Flit latency average = 1143.4
	minimum = 6
	maximum = 8827
Slowest flit = 17801
Fragmentation average = 243.03
	minimum = 0
	maximum = 4206
Injected packet rate average = 0.0112283
	minimum = 0 (at node 92)
	maximum = 0.0241667 (at node 29)
Accepted packet rate average = 0.0116198
	minimum = 0.00816667 (at node 42)
	maximum = 0.0155 (at node 68)
Injected flit rate average = 0.20221
	minimum = 0 (at node 92)
	maximum = 0.434167 (at node 29)
Accepted flit rate average= 0.207846
	minimum = 0.1465 (at node 42)
	maximum = 0.272167 (at node 68)
Injected packet length average = 18.009
Accepted packet length average = 17.8873
Total in-flight flits = 50855 (47413 measured)
latency change    = 0.0901004
throughput change = 0.00103492
Class 0:
Packet latency average = 4983.34
	minimum = 1313
	maximum = 9060
Network latency average = 928.44
	minimum = 25
	maximum = 6880
Slowest packet = 10352
Flit latency average = 1146.34
	minimum = 6
	maximum = 9914
Slowest flit = 9585
Fragmentation average = 249.558
	minimum = 0
	maximum = 4257
Injected packet rate average = 0.0113289
	minimum = 0 (at node 92)
	maximum = 0.024 (at node 50)
Accepted packet rate average = 0.0116109
	minimum = 0.00885714 (at node 144)
	maximum = 0.0147143 (at node 68)
Injected flit rate average = 0.203989
	minimum = 0.000285714 (at node 92)
	maximum = 0.432286 (at node 50)
Accepted flit rate average= 0.207661
	minimum = 0.157857 (at node 42)
	maximum = 0.262429 (at node 177)
Injected packet length average = 18.0061
Accepted packet length average = 17.885
Total in-flight flits = 52310 (50003 measured)
latency change    = 0.0794781
throughput change = 0.000893958
Draining all recorded packets ...
Class 0:
Remaining flits: 7668 7669 7670 7671 7672 7673 7674 7675 7676 7677 [...] (55563 flits)
Measured flits: 186444 186445 186446 186447 186448 186449 186450 186451 186452 186453 [...] (53811 flits)
Class 0:
Remaining flits: 7668 7669 7670 7671 7672 7673 7674 7675 7676 7677 [...] (55685 flits)
Measured flits: 186444 186445 186446 186447 186448 186449 186450 186451 186452 186453 [...] (54338 flits)
Class 0:
Remaining flits: 7668 7669 7670 7671 7672 7673 7674 7675 7676 7677 [...] (59700 flits)
Measured flits: 186834 186835 186836 186837 186838 186839 189558 189559 189560 189561 [...] (58678 flits)
Class 0:
Remaining flits: 7668 7669 7670 7671 7672 7673 7674 7675 7676 7677 [...] (59223 flits)
Measured flits: 189558 189559 189560 189561 189562 189563 189564 189565 189566 189567 [...] (58397 flits)
Class 0:
Remaining flits: 7668 7669 7670 7671 7672 7673 7674 7675 7676 7677 [...] (61370 flits)
Measured flits: 189558 189559 189560 189561 189562 189563 189564 189565 189566 189567 [...] (60735 flits)
Class 0:
Remaining flits: 7668 7669 7670 7671 7672 7673 7674 7675 7676 7677 [...] (61941 flits)
Measured flits: 208242 208243 208244 208245 208246 208247 208248 208249 208250 208251 [...] (61438 flits)
Class 0:
Remaining flits: 7668 7669 7670 7671 7672 7673 7674 7675 7676 7677 [...] (61686 flits)
Measured flits: 217512 217513 217514 217515 217516 217517 217518 217519 217520 217521 [...] (61365 flits)
Class 0:
Remaining flits: 7668 7669 7670 7671 7672 7673 7674 7675 7676 7677 [...] (64387 flits)
Measured flits: 217512 217513 217514 217515 217516 217517 217518 217519 217520 217521 [...] (64107 flits)
Class 0:
Remaining flits: 7668 7669 7670 7671 7672 7673 7674 7675 7676 7677 [...] (66273 flits)
Measured flits: 217512 217513 217514 217515 217516 217517 217518 217519 217520 217521 [...] (66045 flits)
Class 0:
Remaining flits: 7668 7669 7670 7671 7672 7673 7674 7675 7676 7677 [...] (67137 flits)
Measured flits: 217512 217513 217514 217515 217516 217517 217518 217519 217520 217521 [...] (66941 flits)
Class 0:
Remaining flits: 7670 7671 7672 7673 7674 7675 7676 7677 7678 7679 [...] (60808 flits)
Measured flits: 217512 217513 217514 217515 217516 217517 217518 217519 217520 217521 [...] (60668 flits)
Class 0:
Remaining flits: 69036 69037 69038 69039 69040 69041 69042 69043 69044 69045 [...] (62021 flits)
Measured flits: 217512 217513 217514 217515 217516 217517 217518 217519 217520 217521 [...] (61953 flits)
Class 0:
Remaining flits: 69036 69037 69038 69039 69040 69041 69042 69043 69044 69045 [...] (60356 flits)
Measured flits: 349830 349831 349832 349833 349834 349835 349836 349837 349838 349839 [...] (60308 flits)
Class 0:
Remaining flits: 132084 132085 132086 132087 132088 132089 132090 132091 132092 132093 [...] (64227 flits)
Measured flits: 349830 349831 349832 349833 349834 349835 349836 349837 349838 349839 [...] (63857 flits)
Class 0:
Remaining flits: 132084 132085 132086 132087 132088 132089 132090 132091 132092 132093 [...] (64784 flits)
Measured flits: 349830 349831 349832 349833 349834 349835 349836 349837 349838 349839 [...] (63969 flits)
Class 0:
Remaining flits: 132084 132085 132086 132087 132088 132089 132090 132091 132092 132093 [...] (66294 flits)
Measured flits: 349830 349831 349832 349833 349834 349835 349836 349837 349838 349839 [...] (65122 flits)
Class 0:
Remaining flits: 132084 132085 132086 132087 132088 132089 132090 132091 132092 132093 [...] (69616 flits)
Measured flits: 349830 349831 349832 349833 349834 349835 349836 349837 349838 349839 [...] (67531 flits)
Class 0:
Remaining flits: 132084 132085 132086 132087 132088 132089 132090 132091 132092 132093 [...] (69560 flits)
Measured flits: 354276 354277 354278 354279 354280 354281 354282 354283 354284 354285 [...] (66951 flits)
Class 0:
Remaining flits: 132084 132085 132086 132087 132088 132089 132090 132091 132092 132093 [...] (65641 flits)
Measured flits: 354276 354277 354278 354279 354280 354281 354282 354283 354284 354285 [...] (62686 flits)
Class 0:
Remaining flits: 132084 132085 132086 132087 132088 132089 132090 132091 132092 132093 [...] (65482 flits)
Measured flits: 354293 488610 488611 488612 488613 488614 488615 488616 488617 488618 [...] (61187 flits)
Class 0:
Remaining flits: 488610 488611 488612 488613 488614 488615 488616 488617 488618 488619 [...] (65987 flits)
Measured flits: 488610 488611 488612 488613 488614 488615 488616 488617 488618 488619 [...] (59696 flits)
Class 0:
Remaining flits: 488610 488611 488612 488613 488614 488615 488616 488617 488618 488619 [...] (65915 flits)
Measured flits: 488610 488611 488612 488613 488614 488615 488616 488617 488618 488619 [...] (57196 flits)
Class 0:
Remaining flits: 488610 488611 488612 488613 488614 488615 488616 488617 488618 488619 [...] (65254 flits)
Measured flits: 488610 488611 488612 488613 488614 488615 488616 488617 488618 488619 [...] (53510 flits)
Class 0:
Remaining flits: 488610 488611 488612 488613 488614 488615 488616 488617 488618 488619 [...] (65361 flits)
Measured flits: 488610 488611 488612 488613 488614 488615 488616 488617 488618 488619 [...] (51342 flits)
Class 0:
Remaining flits: 510498 510499 510500 510501 510502 510503 510504 510505 510506 510507 [...] (66250 flits)
Measured flits: 510498 510499 510500 510501 510502 510503 510504 510505 510506 510507 [...] (49885 flits)
Class 0:
Remaining flits: 510498 510499 510500 510501 510502 510503 510504 510505 510506 510507 [...] (65508 flits)
Measured flits: 510498 510499 510500 510501 510502 510503 510504 510505 510506 510507 [...] (48129 flits)
Class 0:
Remaining flits: 510498 510499 510500 510501 510502 510503 510504 510505 510506 510507 [...] (65126 flits)
Measured flits: 510498 510499 510500 510501 510502 510503 510504 510505 510506 510507 [...] (45597 flits)
Class 0:
Remaining flits: 510512 510513 510514 510515 651726 651727 651728 651729 651730 651731 [...] (65625 flits)
Measured flits: 510512 510513 510514 510515 651726 651727 651728 651729 651730 651731 [...] (43968 flits)
Class 0:
Remaining flits: 651726 651727 651728 651729 651730 651731 651732 651733 651734 651735 [...] (64410 flits)
Measured flits: 651726 651727 651728 651729 651730 651731 651732 651733 651734 651735 [...] (40700 flits)
Class 0:
Remaining flits: 795870 795871 795872 795873 795874 795875 795876 795877 795878 795879 [...] (66028 flits)
Measured flits: 795870 795871 795872 795873 795874 795875 795876 795877 795878 795879 [...] (39141 flits)
Class 0:
Remaining flits: 795870 795871 795872 795873 795874 795875 795876 795877 795878 795879 [...] (66545 flits)
Measured flits: 795870 795871 795872 795873 795874 795875 795876 795877 795878 795879 [...] (36572 flits)
Class 0:
Remaining flits: 795887 815058 815059 815060 815061 815062 815063 815064 815065 815066 [...] (66743 flits)
Measured flits: 795887 815058 815059 815060 815061 815062 815063 815064 815065 815066 [...] (34397 flits)
Class 0:
Remaining flits: 815058 815059 815060 815061 815062 815063 815064 815065 815066 815067 [...] (66348 flits)
Measured flits: 815058 815059 815060 815061 815062 815063 815064 815065 815066 815067 [...] (31303 flits)
Class 0:
Remaining flits: 815058 815059 815060 815061 815062 815063 815064 815065 815066 815067 [...] (66782 flits)
Measured flits: 815058 815059 815060 815061 815062 815063 815064 815065 815066 815067 [...] (28906 flits)
Class 0:
Remaining flits: 815058 815059 815060 815061 815062 815063 815064 815065 815066 815067 [...] (67878 flits)
Measured flits: 815058 815059 815060 815061 815062 815063 815064 815065 815066 815067 [...] (27142 flits)
Class 0:
Remaining flits: 815058 815059 815060 815061 815062 815063 815064 815065 815066 815067 [...] (66743 flits)
Measured flits: 815058 815059 815060 815061 815062 815063 815064 815065 815066 815067 [...] (23990 flits)
Class 0:
Remaining flits: 815058 815059 815060 815061 815062 815063 815064 815065 815066 815067 [...] (66871 flits)
Measured flits: 815058 815059 815060 815061 815062 815063 815064 815065 815066 815067 [...] (21977 flits)
Class 0:
Remaining flits: 815058 815059 815060 815061 815062 815063 815064 815065 815066 815067 [...] (67051 flits)
Measured flits: 815058 815059 815060 815061 815062 815063 815064 815065 815066 815067 [...] (20518 flits)
Class 0:
Remaining flits: 815058 815059 815060 815061 815062 815063 815064 815065 815066 815067 [...] (66785 flits)
Measured flits: 815058 815059 815060 815061 815062 815063 815064 815065 815066 815067 [...] (17186 flits)
Class 0:
Remaining flits: 890190 890191 890192 890193 890194 890195 890196 890197 890198 890199 [...] (63915 flits)
Measured flits: 890190 890191 890192 890193 890194 890195 890196 890197 890198 890199 [...] (15013 flits)
Class 0:
Remaining flits: 890190 890191 890192 890193 890194 890195 890196 890197 890198 890199 [...] (62381 flits)
Measured flits: 890190 890191 890192 890193 890194 890195 890196 890197 890198 890199 [...] (14286 flits)
Class 0:
Remaining flits: 890190 890191 890192 890193 890194 890195 890196 890197 890198 890199 [...] (62953 flits)
Measured flits: 890190 890191 890192 890193 890194 890195 890196 890197 890198 890199 [...] (13114 flits)
Class 0:
Remaining flits: 976824 976825 976826 976827 976828 976829 976830 976831 976832 976833 [...] (61316 flits)
Measured flits: 976824 976825 976826 976827 976828 976829 976830 976831 976832 976833 [...] (11252 flits)
Class 0:
Remaining flits: 976824 976825 976826 976827 976828 976829 976830 976831 976832 976833 [...] (58280 flits)
Measured flits: 976824 976825 976826 976827 976828 976829 976830 976831 976832 976833 [...] (10728 flits)
Class 0:
Remaining flits: 976824 976825 976826 976827 976828 976829 976830 976831 976832 976833 [...] (61760 flits)
Measured flits: 976824 976825 976826 976827 976828 976829 976830 976831 976832 976833 [...] (10194 flits)
Class 0:
Remaining flits: 976824 976825 976826 976827 976828 976829 976830 976831 976832 976833 [...] (60259 flits)
Measured flits: 976824 976825 976826 976827 976828 976829 976830 976831 976832 976833 [...] (8845 flits)
Class 0:
Remaining flits: 976824 976825 976826 976827 976828 976829 976830 976831 976832 976833 [...] (59563 flits)
Measured flits: 976824 976825 976826 976827 976828 976829 976830 976831 976832 976833 [...] (8242 flits)
Class 0:
Remaining flits: 1260576 1260577 1260578 1260579 1260580 1260581 1260582 1260583 1260584 1260585 [...] (59182 flits)
Measured flits: 1260576 1260577 1260578 1260579 1260580 1260581 1260582 1260583 1260584 1260585 [...] (7431 flits)
Class 0:
Remaining flits: 1260576 1260577 1260578 1260579 1260580 1260581 1260582 1260583 1260584 1260585 [...] (60468 flits)
Measured flits: 1260576 1260577 1260578 1260579 1260580 1260581 1260582 1260583 1260584 1260585 [...] (6655 flits)
Class 0:
Remaining flits: 1260576 1260577 1260578 1260579 1260580 1260581 1260582 1260583 1260584 1260585 [...] (62467 flits)
Measured flits: 1260576 1260577 1260578 1260579 1260580 1260581 1260582 1260583 1260584 1260585 [...] (7229 flits)
Class 0:
Remaining flits: 1260576 1260577 1260578 1260579 1260580 1260581 1260582 1260583 1260584 1260585 [...] (61973 flits)
Measured flits: 1260576 1260577 1260578 1260579 1260580 1260581 1260582 1260583 1260584 1260585 [...] (7145 flits)
Class 0:
Remaining flits: 1260576 1260577 1260578 1260579 1260580 1260581 1260582 1260583 1260584 1260585 [...] (60417 flits)
Measured flits: 1260576 1260577 1260578 1260579 1260580 1260581 1260582 1260583 1260584 1260585 [...] (6481 flits)
Class 0:
Remaining flits: 1260576 1260577 1260578 1260579 1260580 1260581 1260582 1260583 1260584 1260585 [...] (60276 flits)
Measured flits: 1260576 1260577 1260578 1260579 1260580 1260581 1260582 1260583 1260584 1260585 [...] (5935 flits)
Class 0:
Remaining flits: 1260576 1260577 1260578 1260579 1260580 1260581 1260582 1260583 1260584 1260585 [...] (59435 flits)
Measured flits: 1260576 1260577 1260578 1260579 1260580 1260581 1260582 1260583 1260584 1260585 [...] (5500 flits)
Class 0:
Remaining flits: 1260576 1260577 1260578 1260579 1260580 1260581 1260582 1260583 1260584 1260585 [...] (59878 flits)
Measured flits: 1260576 1260577 1260578 1260579 1260580 1260581 1260582 1260583 1260584 1260585 [...] (5484 flits)
Class 0:
Remaining flits: 1260576 1260577 1260578 1260579 1260580 1260581 1260582 1260583 1260584 1260585 [...] (61284 flits)
Measured flits: 1260576 1260577 1260578 1260579 1260580 1260581 1260582 1260583 1260584 1260585 [...] (5152 flits)
Class 0:
Remaining flits: 1260576 1260577 1260578 1260579 1260580 1260581 1260582 1260583 1260584 1260585 [...] (60472 flits)
Measured flits: 1260576 1260577 1260578 1260579 1260580 1260581 1260582 1260583 1260584 1260585 [...] (4428 flits)
Class 0:
Remaining flits: 1260586 1260587 1260588 1260589 1260590 1260591 1260592 1260593 1398636 1398637 [...] (62915 flits)
Measured flits: 1260586 1260587 1260588 1260589 1260590 1260591 1260592 1260593 1398636 1398637 [...] (4377 flits)
Class 0:
Remaining flits: 1398636 1398637 1398638 1398639 1398640 1398641 1398642 1398643 1398644 1398645 [...] (62924 flits)
Measured flits: 1398636 1398637 1398638 1398639 1398640 1398641 1398642 1398643 1398644 1398645 [...] (3988 flits)
Class 0:
Remaining flits: 1398636 1398637 1398638 1398639 1398640 1398641 1398642 1398643 1398644 1398645 [...] (61993 flits)
Measured flits: 1398636 1398637 1398638 1398639 1398640 1398641 1398642 1398643 1398644 1398645 [...] (3909 flits)
Class 0:
Remaining flits: 1434186 1434187 1434188 1434189 1434190 1434191 1434192 1434193 1434194 1434195 [...] (60851 flits)
Measured flits: 1434186 1434187 1434188 1434189 1434190 1434191 1434192 1434193 1434194 1434195 [...] (3371 flits)
Class 0:
Remaining flits: 1434186 1434187 1434188 1434189 1434190 1434191 1434192 1434193 1434194 1434195 [...] (62697 flits)
Measured flits: 1434186 1434187 1434188 1434189 1434190 1434191 1434192 1434193 1434194 1434195 [...] (2967 flits)
Class 0:
Remaining flits: 1434186 1434187 1434188 1434189 1434190 1434191 1434192 1434193 1434194 1434195 [...] (61613 flits)
Measured flits: 1434186 1434187 1434188 1434189 1434190 1434191 1434192 1434193 1434194 1434195 [...] (2636 flits)
Class 0:
Remaining flits: 1500575 1500576 1500577 1500578 1500579 1500580 1500581 1500582 1500583 1500584 [...] (60807 flits)
Measured flits: 1649216 1649217 1649218 1649219 1649220 1649221 1649222 1649223 1649224 1649225 [...] (2386 flits)
Class 0:
Remaining flits: 1648242 1648243 1648244 1648245 1648246 1648247 1648248 1648249 1648250 1648251 [...] (59990 flits)
Measured flits: 1970604 1970605 1970606 1970607 1970608 1970609 1970610 1970611 1970612 1970613 [...] (1929 flits)
Class 0:
Remaining flits: 1648242 1648243 1648244 1648245 1648246 1648247 1648248 1648249 1648250 1648251 [...] (60815 flits)
Measured flits: 1970604 1970605 1970606 1970607 1970608 1970609 1970610 1970611 1970612 1970613 [...] (1651 flits)
Class 0:
Remaining flits: 1648242 1648243 1648244 1648245 1648246 1648247 1648248 1648249 1648250 1648251 [...] (62074 flits)
Measured flits: 1970604 1970605 1970606 1970607 1970608 1970609 1970610 1970611 1970612 1970613 [...] (1694 flits)
Class 0:
Remaining flits: 1648242 1648243 1648244 1648245 1648246 1648247 1648248 1648249 1648250 1648251 [...] (62277 flits)
Measured flits: 1970604 1970605 1970606 1970607 1970608 1970609 1970610 1970611 1970612 1970613 [...] (1680 flits)
Class 0:
Remaining flits: 1648242 1648243 1648244 1648245 1648246 1648247 1648248 1648249 1648250 1648251 [...] (61556 flits)
Measured flits: 1970604 1970605 1970606 1970607 1970608 1970609 1970610 1970611 1970612 1970613 [...] (1825 flits)
Class 0:
Remaining flits: 1648242 1648243 1648244 1648245 1648246 1648247 1648248 1648249 1648250 1648251 [...] (60721 flits)
Measured flits: 1970604 1970605 1970606 1970607 1970608 1970609 1970610 1970611 1970612 1970613 [...] (1714 flits)
Class 0:
Remaining flits: 1648242 1648243 1648244 1648245 1648246 1648247 1648248 1648249 1648250 1648251 [...] (61846 flits)
Measured flits: 2104344 2104345 2104346 2104347 2104348 2104349 2104350 2104351 2104352 2104353 [...] (1246 flits)
Class 0:
Remaining flits: 1648242 1648243 1648244 1648245 1648246 1648247 1648248 1648249 1648250 1648251 [...] (60796 flits)
Measured flits: 2117826 2117827 2117828 2117829 2117830 2117831 2117832 2117833 2117834 2117835 [...] (1216 flits)
Class 0:
Remaining flits: 1648242 1648243 1648244 1648245 1648246 1648247 1648248 1648249 1648250 1648251 [...] (60583 flits)
Measured flits: 2117826 2117827 2117828 2117829 2117830 2117831 2117832 2117833 2117834 2117835 [...] (1175 flits)
Class 0:
Remaining flits: 1648242 1648243 1648244 1648245 1648246 1648247 1648248 1648249 1648250 1648251 [...] (61308 flits)
Measured flits: 2117839 2117840 2117841 2117842 2117843 2261808 2261809 2261810 2261811 2261812 [...] (960 flits)
Class 0:
Remaining flits: 1648242 1648243 1648244 1648245 1648246 1648247 1648248 1648249 1648250 1648251 [...] (63693 flits)
Measured flits: 2117839 2117840 2117841 2117842 2117843 2261808 2261809 2261810 2261811 2261812 [...] (724 flits)
Class 0:
Remaining flits: 1648242 1648243 1648244 1648245 1648246 1648247 1648248 1648249 1648250 1648251 [...] (63792 flits)
Measured flits: 2117839 2117840 2117841 2117842 2117843 2270394 2270395 2270396 2270397 2270398 [...] (662 flits)
Class 0:
Remaining flits: 1933812 1933813 1933814 1933815 1933816 1933817 1933818 1933819 1933820 1933821 [...] (61010 flits)
Measured flits: 2270394 2270395 2270396 2270397 2270398 2270399 2270400 2270401 2270402 2270403 [...] (577 flits)
Class 0:
Remaining flits: 1943503 1943504 1943505 1943506 1943507 1943508 1943509 1943510 1943511 1943512 [...] (62542 flits)
Measured flits: 2270394 2270395 2270396 2270397 2270398 2270399 2270400 2270401 2270402 2270403 [...] (504 flits)
Class 0:
Remaining flits: 2175912 2175913 2175914 2175915 2175916 2175917 2175918 2175919 2175920 2175921 [...] (62129 flits)
Measured flits: 2270394 2270395 2270396 2270397 2270398 2270399 2270400 2270401 2270402 2270403 [...] (577 flits)
Class 0:
Remaining flits: 2175912 2175913 2175914 2175915 2175916 2175917 2175918 2175919 2175920 2175921 [...] (60389 flits)
Measured flits: 2270394 2270395 2270396 2270397 2270398 2270399 2270400 2270401 2270402 2270403 [...] (414 flits)
Class 0:
Remaining flits: 2175912 2175913 2175914 2175915 2175916 2175917 2175918 2175919 2175920 2175921 [...] (64003 flits)
Measured flits: 2270394 2270395 2270396 2270397 2270398 2270399 2270400 2270401 2270402 2270403 [...] (378 flits)
Class 0:
Remaining flits: 2175912 2175913 2175914 2175915 2175916 2175917 2175918 2175919 2175920 2175921 [...] (62287 flits)
Measured flits: 2270394 2270395 2270396 2270397 2270398 2270399 2270400 2270401 2270402 2270403 [...] (306 flits)
Class 0:
Remaining flits: 2175912 2175913 2175914 2175915 2175916 2175917 2175918 2175919 2175920 2175921 [...] (61236 flits)
Measured flits: 2270394 2270395 2270396 2270397 2270398 2270399 2270400 2270401 2270402 2270403 [...] (252 flits)
Class 0:
Remaining flits: 2175912 2175913 2175914 2175915 2175916 2175917 2175918 2175919 2175920 2175921 [...] (61445 flits)
Measured flits: 2270394 2270395 2270396 2270397 2270398 2270399 2270400 2270401 2270402 2270403 [...] (252 flits)
Class 0:
Remaining flits: 2175912 2175913 2175914 2175915 2175916 2175917 2175918 2175919 2175920 2175921 [...] (62671 flits)
Measured flits: 2668824 2668825 2668826 2668827 2668828 2668829 2668830 2668831 2668832 2668833 [...] (269 flits)
Class 0:
Remaining flits: 2175912 2175913 2175914 2175915 2175916 2175917 2175918 2175919 2175920 2175921 [...] (63089 flits)
Measured flits: 2668830 2668831 2668832 2668833 2668834 2668835 2668836 2668837 2668838 2668839 [...] (150 flits)
Class 0:
Remaining flits: 2175912 2175913 2175914 2175915 2175916 2175917 2175918 2175919 2175920 2175921 [...] (65247 flits)
Measured flits: 2732262 2732263 2732264 2732265 2732266 2732267 2732268 2732269 2732270 2732271 [...] (245 flits)
Class 0:
Remaining flits: 2175912 2175913 2175914 2175915 2175916 2175917 2175918 2175919 2175920 2175921 [...] (64508 flits)
Measured flits: 2750982 2750983 2750984 2750985 2750986 2750987 2750988 2750989 2750990 2750991 [...] (249 flits)
Class 0:
Remaining flits: 2175912 2175913 2175914 2175915 2175916 2175917 2175918 2175919 2175920 2175921 [...] (64151 flits)
Measured flits: 2838006 2838007 2838008 2838009 2838010 2838011 2838012 2838013 2838014 2838015 [...] (193 flits)
Class 0:
Remaining flits: 2175912 2175913 2175914 2175915 2175916 2175917 2175918 2175919 2175920 2175921 [...] (63702 flits)
Measured flits: 3255228 3255229 3255230 3255231 3255232 3255233 3255234 3255235 3255236 3255237 [...] (168 flits)
Class 0:
Remaining flits: 2196990 2196991 2196992 2196993 2196994 2196995 2196996 2196997 2196998 2196999 [...] (64430 flits)
Measured flits: 3255228 3255229 3255230 3255231 3255232 3255233 3255234 3255235 3255236 3255237 [...] (90 flits)
Class 0:
Remaining flits: 2196990 2196991 2196992 2196993 2196994 2196995 2196996 2196997 2196998 2196999 [...] (62422 flits)
Measured flits: 3255228 3255229 3255230 3255231 3255232 3255233 3255234 3255235 3255236 3255237 [...] (90 flits)
Class 0:
Remaining flits: 2196990 2196991 2196992 2196993 2196994 2196995 2196996 2196997 2196998 2196999 [...] (64089 flits)
Measured flits: 3255228 3255229 3255230 3255231 3255232 3255233 3255234 3255235 3255236 3255237 [...] (90 flits)
Class 0:
Remaining flits: 2196990 2196991 2196992 2196993 2196994 2196995 2196996 2196997 2196998 2196999 [...] (62042 flits)
Measured flits: 3255228 3255229 3255230 3255231 3255232 3255233 3255234 3255235 3255236 3255237 [...] (90 flits)
Class 0:
Remaining flits: 2196990 2196991 2196992 2196993 2196994 2196995 2196996 2196997 2196998 2196999 [...] (62124 flits)
Measured flits: 3255228 3255229 3255230 3255231 3255232 3255233 3255234 3255235 3255236 3255237 [...] (90 flits)
Class 0:
Remaining flits: 2196990 2196991 2196992 2196993 2196994 2196995 2196996 2196997 2196998 2196999 [...] (61174 flits)
Measured flits: 3255228 3255229 3255230 3255231 3255232 3255233 3255234 3255235 3255236 3255237 [...] (90 flits)
Class 0:
Remaining flits: 2196990 2196991 2196992 2196993 2196994 2196995 2196996 2196997 2196998 2196999 [...] (60753 flits)
Measured flits: 3255228 3255229 3255230 3255231 3255232 3255233 3255234 3255235 3255236 3255237 [...] (90 flits)
Class 0:
Remaining flits: 2196990 2196991 2196992 2196993 2196994 2196995 2196996 2196997 2196998 2196999 [...] (60177 flits)
Measured flits: 3255228 3255229 3255230 3255231 3255232 3255233 3255234 3255235 3255236 3255237 [...] (80 flits)
Class 0:
Remaining flits: 2196990 2196991 2196992 2196993 2196994 2196995 2196996 2196997 2196998 2196999 [...] (60852 flits)
Measured flits: 3255228 3255229 3255230 3255231 3255232 3255233 3255234 3255235 3255236 3255237 [...] (72 flits)
Class 0:
Remaining flits: 2196990 2196991 2196992 2196993 2196994 2196995 2196996 2196997 2196998 2196999 [...] (61233 flits)
Measured flits: 3255228 3255229 3255230 3255231 3255232 3255233 3255234 3255235 3255236 3255237 [...] (72 flits)
Class 0:
Remaining flits: 2196990 2196991 2196992 2196993 2196994 2196995 2196996 2196997 2196998 2196999 [...] (58081 flits)
Measured flits: 3255228 3255229 3255230 3255231 3255232 3255233 3255234 3255235 3255236 3255237 [...] (72 flits)
Class 0:
Remaining flits: 2196990 2196991 2196992 2196993 2196994 2196995 2196996 2196997 2196998 2196999 [...] (59134 flits)
Measured flits: 3255228 3255229 3255230 3255231 3255232 3255233 3255234 3255235 3255236 3255237 [...] (72 flits)
Class 0:
Remaining flits: 2196990 2196991 2196992 2196993 2196994 2196995 2196996 2196997 2196998 2196999 [...] (58982 flits)
Measured flits: 3255228 3255229 3255230 3255231 3255232 3255233 3255234 3255235 3255236 3255237 [...] (44 flits)
Draining remaining packets ...
Class 0:
Remaining flits: 2196990 2196991 2196992 2196993 2196994 2196995 2196996 2196997 2196998 2196999 [...] (38318 flits)
Measured flits: (0 flits)
Class 0:
Remaining flits: 2197001 2197002 2197003 2197004 2197005 2197006 2197007 2568366 2568367 2568368 [...] (28042 flits)
Measured flits: (0 flits)
Class 0:
Remaining flits: 2568366 2568367 2568368 2568369 2568370 2568371 2568372 2568373 2568374 2568375 [...] (18617 flits)
Measured flits: (0 flits)
Class 0:
Remaining flits: 2568366 2568367 2568368 2568369 2568370 2568371 2568372 2568373 2568374 2568375 [...] (10380 flits)
Measured flits: (0 flits)
Class 0:
Remaining flits: 2944087 2944088 2944089 2944090 2944091 2944092 2944093 2944094 2944095 2944096 [...] (3332 flits)
Measured flits: (0 flits)
Class 0:
Remaining flits: 3519710 3519711 3519712 3519713 3519714 3519715 3519716 3519717 3519718 3519719 [...] (59 flits)
Measured flits: (0 flits)
Time taken is 119542 cycles
====== Overall Traffic Statistics ======
====== Traffic class 0 ======
Packet latency average = 20158 (1 samples)
	minimum = 1313 (1 samples)
	maximum = 104887 (1 samples)
Network latency average = 1822.01 (1 samples)
	minimum = 23 (1 samples)
	maximum = 37052 (1 samples)
Flit latency average = 1887.08 (1 samples)
	minimum = 6 (1 samples)
	maximum = 54840 (1 samples)
Fragmentation average = 252.887 (1 samples)
	minimum = 0 (1 samples)
	maximum = 12173 (1 samples)
Injected packet rate average = 0.0113289 (1 samples)
	minimum = 0 (1 samples)
	maximum = 0.024 (1 samples)
Accepted packet rate average = 0.0116109 (1 samples)
	minimum = 0.00885714 (1 samples)
	maximum = 0.0147143 (1 samples)
Injected flit rate average = 0.203989 (1 samples)
	minimum = 0.000285714 (1 samples)
	maximum = 0.432286 (1 samples)
Accepted flit rate average = 0.207661 (1 samples)
	minimum = 0.157857 (1 samples)
	maximum = 0.262429 (1 samples)
Injected packet size average = 18.0061 (1 samples)
Accepted packet size average = 17.885 (1 samples)
Hops average = 5.06446 (1 samples)
Total run time 177.965
