BEGIN Configuration File: networks/mezzanine_config
topology = mezzanine;
n = 12;

routing_function = multipath;
internal_speedup = 2.0;
latency_thres = 100000.0;
use_read_write = 0;

sample_period = 1000;
injection_rate = 0.5;
packet_size = 18;

noq = 1;
routing_delay = 0;
vc_alloc_delay = 1;
sw_alloc_delay = 1;
st_final_delay = 1;
vc_allocator = islip; 
sw_allocator = islip;
alloc_iters  = 4;
num_vcs     = 12;
buffer_policy = private; // private or shared
buf_size = -1; // -1 for buffer_policy = private;
vc_buf_size = 4096; // size of each VOQ with buffer_policy = private
output_buffer_size = -1;


traffic = uniform;

//mezW = 0.0;
//mezPredefinedPatternType = shift-inter; //shift-qfdb

END Configuration File: networks/mezzanine_config
OVERRIDE Parameter: injection_rate=0.055556
OVERRIDE Parameter: routing_function=multipath
OVERRIDE Parameter: num_vcs=32
OVERRIDE Parameter: vc_buf_size=1024
OVERRIDE Parameter: internal_speedup=1.0
OVERRIDE Parameter: injection_process=on_off
OVERRIDE Parameter: sim_type=latency
OVERRIDE Parameter: burst_alpha=0.0038461538
OVERRIDE Parameter: burst_beta=0.1
network: network_0
========================== Routing table  =====================
Number of Subnets: 1
Class 0:
Packet latency average = 376.948
	minimum = 23
	maximum = 984
Network latency average = 271.732
	minimum = 23
	maximum = 935
Slowest packet = 46
Flit latency average = 209.552
	minimum = 6
	maximum = 950
Slowest flit = 3987
Fragmentation average = 141.569
	minimum = 0
	maximum = 858
Injected packet rate average = 0.0297552
	minimum = 0 (at node 10)
	maximum = 0.056 (at node 29)
Accepted packet rate average = 0.0104896
	minimum = 0.004 (at node 25)
	maximum = 0.019 (at node 88)
Injected flit rate average = 0.53049
	minimum = 0 (at node 10)
	maximum = 1 (at node 29)
Accepted flit rate average= 0.214849
	minimum = 0.073 (at node 25)
	maximum = 0.38 (at node 88)
Injected packet length average = 17.8285
Accepted packet length average = 20.4821
Total in-flight flits = 61583 (0 measured)
latency change    = 1
throughput change = 1
Class 0:
Packet latency average = 649.812
	minimum = 23
	maximum = 1938
Network latency average = 500.126
	minimum = 23
	maximum = 1794
Slowest packet = 131
Flit latency average = 427.753
	minimum = 6
	maximum = 1878
Slowest flit = 9648
Fragmentation average = 176.798
	minimum = 0
	maximum = 1744
Injected packet rate average = 0.031362
	minimum = 0.0015 (at node 10)
	maximum = 0.056 (at node 38)
Accepted packet rate average = 0.011862
	minimum = 0.0065 (at node 174)
	maximum = 0.019 (at node 177)
Injected flit rate average = 0.561771
	minimum = 0.022 (at node 10)
	maximum = 1 (at node 38)
Accepted flit rate average= 0.227005
	minimum = 0.129 (at node 174)
	maximum = 0.356 (at node 177)
Injected packet length average = 17.9125
Accepted packet length average = 19.1372
Total in-flight flits = 129604 (0 measured)
latency change    = 0.419912
throughput change = 0.0535505
Class 0:
Packet latency average = 1363.09
	minimum = 27
	maximum = 2924
Network latency average = 1119.27
	minimum = 23
	maximum = 2675
Slowest packet = 774
Flit latency average = 1062.74
	minimum = 6
	maximum = 2890
Slowest flit = 8851
Fragmentation average = 203.547
	minimum = 0
	maximum = 1709
Injected packet rate average = 0.035349
	minimum = 0 (at node 32)
	maximum = 0.056 (at node 4)
Accepted packet rate average = 0.0136042
	minimum = 0.006 (at node 71)
	maximum = 0.024 (at node 51)
Injected flit rate average = 0.636193
	minimum = 0 (at node 32)
	maximum = 1 (at node 1)
Accepted flit rate average= 0.247021
	minimum = 0.091 (at node 71)
	maximum = 0.437 (at node 68)
Injected packet length average = 17.9975
Accepted packet length average = 18.1577
Total in-flight flits = 204342 (0 measured)
latency change    = 0.523281
throughput change = 0.0810281
Warmed up ...Time used is 3000 cycles
Class 0:
Packet latency average = 479.159
	minimum = 27
	maximum = 2080
Network latency average = 85.2496
	minimum = 23
	maximum = 906
Slowest packet = 18852
Flit latency average = 1490.23
	minimum = 6
	maximum = 3725
Slowest flit = 24324
Fragmentation average = 25.4652
	minimum = 0
	maximum = 368
Injected packet rate average = 0.0374375
	minimum = 0 (at node 14)
	maximum = 0.056 (at node 2)
Accepted packet rate average = 0.0139896
	minimum = 0.004 (at node 130)
	maximum = 0.025 (at node 16)
Injected flit rate average = 0.674375
	minimum = 0 (at node 14)
	maximum = 1 (at node 2)
Accepted flit rate average= 0.250708
	minimum = 0.072 (at node 130)
	maximum = 0.44 (at node 16)
Injected packet length average = 18.0134
Accepted packet length average = 17.9211
Total in-flight flits = 285590 (117734 measured)
latency change    = 1.84476
throughput change = 0.0147083
Class 0:
Packet latency average = 595.403
	minimum = 27
	maximum = 2283
Network latency average = 227.29
	minimum = 23
	maximum = 1994
Slowest packet = 18852
Flit latency average = 1737.37
	minimum = 6
	maximum = 4638
Slowest flit = 31823
Fragmentation average = 47.3279
	minimum = 0
	maximum = 1212
Injected packet rate average = 0.036862
	minimum = 0.0075 (at node 20)
	maximum = 0.0555 (at node 2)
Accepted packet rate average = 0.0138203
	minimum = 0.0085 (at node 130)
	maximum = 0.0205 (at node 16)
Injected flit rate average = 0.663685
	minimum = 0.135 (at node 20)
	maximum = 1 (at node 2)
Accepted flit rate average= 0.247763
	minimum = 0.1445 (at node 130)
	maximum = 0.4045 (at node 103)
Injected packet length average = 18.0046
Accepted packet length average = 17.9275
Total in-flight flits = 363991 (228543 measured)
latency change    = 0.195236
throughput change = 0.0118876
Class 0:
Packet latency average = 838.566
	minimum = 27
	maximum = 3516
Network latency average = 481.304
	minimum = 23
	maximum = 2927
Slowest packet = 18852
Flit latency average = 1984.93
	minimum = 6
	maximum = 5618
Slowest flit = 34584
Fragmentation average = 67.7701
	minimum = 0
	maximum = 1212
Injected packet rate average = 0.0367569
	minimum = 0.009 (at node 14)
	maximum = 0.0556667 (at node 2)
Accepted packet rate average = 0.0137257
	minimum = 0.009 (at node 175)
	maximum = 0.0193333 (at node 103)
Injected flit rate average = 0.661641
	minimum = 0.162 (at node 14)
	maximum = 1 (at node 2)
Accepted flit rate average= 0.246149
	minimum = 0.157 (at node 79)
	maximum = 0.343 (at node 103)
Injected packet length average = 18.0004
Accepted packet length average = 17.9335
Total in-flight flits = 443656 (336413 measured)
latency change    = 0.289975
throughput change = 0.00655584
Class 0:
Packet latency average = 1160.57
	minimum = 27
	maximum = 4725
Network latency average = 819.849
	minimum = 23
	maximum = 3928
Slowest packet = 18852
Flit latency average = 2219.98
	minimum = 6
	maximum = 6476
Slowest flit = 37331
Fragmentation average = 84.7849
	minimum = 0
	maximum = 1271
Injected packet rate average = 0.0366471
	minimum = 0.01275 (at node 14)
	maximum = 0.0555 (at node 2)
Accepted packet rate average = 0.0136159
	minimum = 0.00875 (at node 79)
	maximum = 0.01825 (at node 103)
Injected flit rate average = 0.659661
	minimum = 0.2295 (at node 14)
	maximum = 1 (at node 2)
Accepted flit rate average= 0.244625
	minimum = 0.14325 (at node 79)
	maximum = 0.3245 (at node 151)
Injected packet length average = 18.0004
Accepted packet length average = 17.9661
Total in-flight flits = 523080 (438835 measured)
latency change    = 0.277451
throughput change = 0.00623119
Class 0:
Packet latency average = 1564.59
	minimum = 23
	maximum = 5788
Network latency average = 1229.1
	minimum = 23
	maximum = 4936
Slowest packet = 18852
Flit latency average = 2474.02
	minimum = 6
	maximum = 7315
Slowest flit = 64876
Fragmentation average = 100.548
	minimum = 0
	maximum = 2138
Injected packet rate average = 0.0363469
	minimum = 0.0126 (at node 14)
	maximum = 0.0556 (at node 2)
Accepted packet rate average = 0.0135719
	minimum = 0.0094 (at node 79)
	maximum = 0.0178 (at node 138)
Injected flit rate average = 0.654314
	minimum = 0.2246 (at node 14)
	maximum = 1 (at node 2)
Accepted flit rate average= 0.243419
	minimum = 0.1684 (at node 79)
	maximum = 0.3154 (at node 151)
Injected packet length average = 18.0019
Accepted packet length average = 17.9355
Total in-flight flits = 598734 (533588 measured)
latency change    = 0.258229
throughput change = 0.00495545
Class 0:
Packet latency average = 1977.63
	minimum = 23
	maximum = 7224
Network latency average = 1640.57
	minimum = 23
	maximum = 5965
Slowest packet = 18852
Flit latency average = 2737.8
	minimum = 6
	maximum = 8382
Slowest flit = 53490
Fragmentation average = 110.344
	minimum = 0
	maximum = 2138
Injected packet rate average = 0.0363099
	minimum = 0.0155 (at node 14)
	maximum = 0.0555 (at node 33)
Accepted packet rate average = 0.0134818
	minimum = 0.0103333 (at node 36)
	maximum = 0.0176667 (at node 138)
Injected flit rate average = 0.653532
	minimum = 0.277667 (at node 14)
	maximum = 1 (at node 33)
Accepted flit rate average= 0.241867
	minimum = 0.185 (at node 79)
	maximum = 0.312667 (at node 138)
Injected packet length average = 17.9987
Accepted packet length average = 17.9403
Total in-flight flits = 678633 (629242 measured)
latency change    = 0.208856
throughput change = 0.00641494
Class 0:
Packet latency average = 2424.82
	minimum = 23
	maximum = 8362
Network latency average = 2084.03
	minimum = 23
	maximum = 6978
Slowest packet = 18852
Flit latency average = 3006.55
	minimum = 6
	maximum = 9163
Slowest flit = 35873
Fragmentation average = 119.277
	minimum = 0
	maximum = 2138
Injected packet rate average = 0.0359397
	minimum = 0.0142857 (at node 14)
	maximum = 0.0555714 (at node 33)
Accepted packet rate average = 0.0133661
	minimum = 0.01 (at node 162)
	maximum = 0.0171429 (at node 138)
Injected flit rate average = 0.647001
	minimum = 0.257143 (at node 14)
	maximum = 1 (at node 33)
Accepted flit rate average= 0.239468
	minimum = 0.182143 (at node 162)
	maximum = 0.304143 (at node 138)
Injected packet length average = 18.0024
Accepted packet length average = 17.9161
Total in-flight flits = 751951 (714748 measured)
latency change    = 0.184422
throughput change = 0.0100188
Draining all recorded packets ...
Class 0:
Remaining flits: 104516 104517 104518 104519 104520 104521 104522 104523 104524 104525 [...] (826451 flits)
Measured flits: 338958 338959 338960 338961 338962 338963 338964 338965 338966 338967 [...] (734050 flits)
Class 0:
Remaining flits: 104516 104517 104518 104519 104520 104521 104522 104523 104524 104525 [...] (901365 flits)
Measured flits: 338971 338972 338973 338974 338975 339246 339247 339248 339249 339250 [...] (712878 flits)
Class 0:
Remaining flits: 104521 104522 104523 104524 104525 126899 127836 127837 127838 127839 [...] (978655 flits)
Measured flits: 339246 339247 339248 339249 339250 339251 339252 339253 339254 339255 [...] (687794 flits)
Class 0:
Remaining flits: 137394 137395 137396 137397 137398 137399 137400 137401 137402 137403 [...] (1046471 flits)
Measured flits: 339246 339247 339248 339249 339250 339251 339252 339253 339254 339255 [...] (660496 flits)
Class 0:
Remaining flits: 146943 146944 146945 146946 146947 146948 146949 146950 146951 154944 [...] (1120346 flits)
Measured flits: 339246 339247 339248 339249 339250 339251 339252 339253 339254 339255 [...] (632299 flits)
Class 0:
Remaining flits: 154944 154945 154946 154947 154948 154949 154950 154951 154952 154953 [...] (1194662 flits)
Measured flits: 339246 339247 339248 339249 339250 339251 339252 339253 339254 339255 [...] (602330 flits)
Class 0:
Remaining flits: 154944 154945 154946 154947 154948 154949 154950 154951 154952 154953 [...] (1267083 flits)
Measured flits: 339588 339589 339590 339591 339592 339593 339594 339595 339596 339597 [...] (572252 flits)
Class 0:
Remaining flits: 164970 164971 164972 164973 164974 164975 164976 164977 164978 164979 [...] (1339485 flits)
Measured flits: 339588 339589 339590 339591 339592 339593 339594 339595 339596 339597 [...] (541910 flits)
Class 0:
Remaining flits: 164970 164971 164972 164973 164974 164975 164976 164977 164978 164979 [...] (1412230 flits)
Measured flits: 339588 339589 339590 339591 339592 339593 339594 339595 339596 339597 [...] (511191 flits)
Class 0:
Remaining flits: 164970 164971 164972 164973 164974 164975 164976 164977 164978 164979 [...] (1479526 flits)
Measured flits: 339732 339733 339734 339735 339736 339737 339738 339739 339740 339741 [...] (480855 flits)
Class 0:
Remaining flits: 177300 177301 177302 177303 177304 177305 177306 177307 177308 177309 [...] (1543828 flits)
Measured flits: 339732 339733 339734 339735 339736 339737 339738 339739 339740 339741 [...] (450550 flits)
Class 0:
Remaining flits: 177300 177301 177302 177303 177304 177305 177306 177307 177308 177309 [...] (1605342 flits)
Measured flits: 339732 339733 339734 339735 339736 339737 339738 339739 339740 339741 [...] (420361 flits)
Class 0:
Remaining flits: 177300 177301 177302 177303 177304 177305 177306 177307 177308 177309 [...] (1669208 flits)
Measured flits: 339732 339733 339734 339735 339736 339737 339738 339739 339740 339741 [...] (391174 flits)
Class 0:
Remaining flits: 177304 177305 177306 177307 177308 177309 177310 177311 177312 177313 [...] (1727131 flits)
Measured flits: 340506 340507 340508 340509 340510 340511 340512 340513 340514 340515 [...] (362337 flits)
Class 0:
Remaining flits: 276624 276625 276626 276627 276628 276629 276630 276631 276632 276633 [...] (1782995 flits)
Measured flits: 340506 340507 340508 340509 340510 340511 340512 340513 340514 340515 [...] (334251 flits)
Class 0:
Remaining flits: 304110 304111 304112 304113 304114 304115 304116 304117 304118 304119 [...] (1844351 flits)
Measured flits: 340506 340507 340508 340509 340510 340511 340512 340513 340514 340515 [...] (307657 flits)
Class 0:
Remaining flits: 330840 330841 330842 330843 330844 330845 330846 330847 330848 330849 [...] (1898704 flits)
Measured flits: 346158 346159 346160 346161 346162 346163 346164 346165 346166 346167 [...] (282289 flits)
Class 0:
Remaining flits: 346167 346168 346169 346170 346171 346172 346173 346174 346175 357390 [...] (1951888 flits)
Measured flits: 346167 346168 346169 346170 346171 346172 346173 346174 346175 357390 [...] (258150 flits)
Class 0:
Remaining flits: 360684 360685 360686 360687 360688 360689 360690 360691 360692 360693 [...] (1999788 flits)
Measured flits: 360684 360685 360686 360687 360688 360689 360690 360691 360692 360693 [...] (235711 flits)
Class 0:
Remaining flits: 360684 360685 360686 360687 360688 360689 360690 360691 360692 360693 [...] (2048801 flits)
Measured flits: 360684 360685 360686 360687 360688 360689 360690 360691 360692 360693 [...] (213996 flits)
Class 0:
Remaining flits: 360684 360685 360686 360687 360688 360689 360690 360691 360692 360693 [...] (2087767 flits)
Measured flits: 360684 360685 360686 360687 360688 360689 360690 360691 360692 360693 [...] (193790 flits)
Class 0:
Remaining flits: 360696 360697 360698 360699 360700 360701 403758 403759 403760 403761 [...] (2121262 flits)
Measured flits: 360696 360697 360698 360699 360700 360701 403758 403759 403760 403761 [...] (175825 flits)
Class 0:
Remaining flits: 403758 403759 403760 403761 403762 403763 403764 403765 403766 403767 [...] (2149407 flits)
Measured flits: 403758 403759 403760 403761 403762 403763 403764 403765 403766 403767 [...] (158544 flits)
Class 0:
Remaining flits: 436230 436231 436232 436233 436234 436235 436236 436237 436238 436239 [...] (2178456 flits)
Measured flits: 436230 436231 436232 436233 436234 436235 436236 436237 436238 436239 [...] (141950 flits)
Class 0:
Remaining flits: 436230 436231 436232 436233 436234 436235 436236 436237 436238 436239 [...] (2203119 flits)
Measured flits: 436230 436231 436232 436233 436234 436235 436236 436237 436238 436239 [...] (127485 flits)
Class 0:
Remaining flits: 436230 436231 436232 436233 436234 436235 436236 436237 436238 436239 [...] (2227329 flits)
Measured flits: 436230 436231 436232 436233 436234 436235 436236 436237 436238 436239 [...] (113998 flits)
Class 0:
Remaining flits: 436230 436231 436232 436233 436234 436235 436236 436237 436238 436239 [...] (2248205 flits)
Measured flits: 436230 436231 436232 436233 436234 436235 436236 436237 436238 436239 [...] (101848 flits)
Class 0:
Remaining flits: 436230 436231 436232 436233 436234 436235 436236 436237 436238 436239 [...] (2267022 flits)
Measured flits: 436230 436231 436232 436233 436234 436235 436236 436237 436238 436239 [...] (90111 flits)
Class 0:
Remaining flits: 437022 437023 437024 437025 437026 437027 437028 437029 437030 437031 [...] (2283647 flits)
Measured flits: 437022 437023 437024 437025 437026 437027 437028 437029 437030 437031 [...] (80088 flits)
Class 0:
Remaining flits: 445356 445357 445358 445359 445360 445361 445362 445363 445364 445365 [...] (2300003 flits)
Measured flits: 445356 445357 445358 445359 445360 445361 445362 445363 445364 445365 [...] (71628 flits)
Class 0:
Remaining flits: 445356 445357 445358 445359 445360 445361 445362 445363 445364 445365 [...] (2315985 flits)
Measured flits: 445356 445357 445358 445359 445360 445361 445362 445363 445364 445365 [...] (63763 flits)
Class 0:
Remaining flits: 445356 445357 445358 445359 445360 445361 445362 445363 445364 445365 [...] (2330343 flits)
Measured flits: 445356 445357 445358 445359 445360 445361 445362 445363 445364 445365 [...] (56730 flits)
Class 0:
Remaining flits: 445356 445357 445358 445359 445360 445361 445362 445363 445364 445365 [...] (2345704 flits)
Measured flits: 445356 445357 445358 445359 445360 445361 445362 445363 445364 445365 [...] (50093 flits)
Class 0:
Remaining flits: 445356 445357 445358 445359 445360 445361 445362 445363 445364 445365 [...] (2361620 flits)
Measured flits: 445356 445357 445358 445359 445360 445361 445362 445363 445364 445365 [...] (44264 flits)
Class 0:
Remaining flits: 567288 567289 567290 567291 567292 567293 567294 567295 567296 567297 [...] (2375725 flits)
Measured flits: 567288 567289 567290 567291 567292 567293 567294 567295 567296 567297 [...] (38956 flits)
Class 0:
Remaining flits: 599677 599678 599679 599680 599681 599682 599683 599684 599685 599686 [...] (2389763 flits)
Measured flits: 599677 599678 599679 599680 599681 599682 599683 599684 599685 599686 [...] (34094 flits)
Class 0:
Remaining flits: 625680 625681 625682 625683 625684 625685 625686 625687 625688 625689 [...] (2398879 flits)
Measured flits: 625680 625681 625682 625683 625684 625685 625686 625687 625688 625689 [...] (29530 flits)
Class 0:
Remaining flits: 625680 625681 625682 625683 625684 625685 625686 625687 625688 625689 [...] (2408832 flits)
Measured flits: 625680 625681 625682 625683 625684 625685 625686 625687 625688 625689 [...] (25848 flits)
Class 0:
Remaining flits: 625680 625681 625682 625683 625684 625685 625686 625687 625688 625689 [...] (2417872 flits)
Measured flits: 625680 625681 625682 625683 625684 625685 625686 625687 625688 625689 [...] (22613 flits)
Class 0:
Remaining flits: 625680 625681 625682 625683 625684 625685 625686 625687 625688 625689 [...] (2424083 flits)
Measured flits: 625680 625681 625682 625683 625684 625685 625686 625687 625688 625689 [...] (19523 flits)
Class 0:
Remaining flits: 625680 625681 625682 625683 625684 625685 625686 625687 625688 625689 [...] (2429230 flits)
Measured flits: 625680 625681 625682 625683 625684 625685 625686 625687 625688 625689 [...] (16884 flits)
Class 0:
Remaining flits: 641372 641373 641374 641375 790794 790795 790796 790797 790798 790799 [...] (2436216 flits)
Measured flits: 641372 641373 641374 641375 790794 790795 790796 790797 790798 790799 [...] (14718 flits)
Class 0:
Remaining flits: 790794 790795 790796 790797 790798 790799 790800 790801 790802 790803 [...] (2436600 flits)
Measured flits: 790794 790795 790796 790797 790798 790799 790800 790801 790802 790803 [...] (12574 flits)
Class 0:
Remaining flits: 790794 790795 790796 790797 790798 790799 790800 790801 790802 790803 [...] (2440226 flits)
Measured flits: 790794 790795 790796 790797 790798 790799 790800 790801 790802 790803 [...] (10318 flits)
Class 0:
Remaining flits: 790794 790795 790796 790797 790798 790799 790800 790801 790802 790803 [...] (2442046 flits)
Measured flits: 790794 790795 790796 790797 790798 790799 790800 790801 790802 790803 [...] (8962 flits)
Class 0:
Remaining flits: 790794 790795 790796 790797 790798 790799 790800 790801 790802 790803 [...] (2450378 flits)
Measured flits: 790794 790795 790796 790797 790798 790799 790800 790801 790802 790803 [...] (8016 flits)
Class 0:
Remaining flits: 821736 821737 821738 821739 821740 821741 821742 821743 821744 821745 [...] (2455158 flits)
Measured flits: 821736 821737 821738 821739 821740 821741 821742 821743 821744 821745 [...] (6901 flits)
Class 0:
Remaining flits: 821736 821737 821738 821739 821740 821741 821742 821743 821744 821745 [...] (2458569 flits)
Measured flits: 821736 821737 821738 821739 821740 821741 821742 821743 821744 821745 [...] (5741 flits)
Class 0:
Remaining flits: 821736 821737 821738 821739 821740 821741 821742 821743 821744 821745 [...] (2460370 flits)
Measured flits: 821736 821737 821738 821739 821740 821741 821742 821743 821744 821745 [...] (4924 flits)
Class 0:
Remaining flits: 902610 902611 902612 902613 902614 902615 902616 902617 902618 902619 [...] (2457109 flits)
Measured flits: 902610 902611 902612 902613 902614 902615 902616 902617 902618 902619 [...] (4130 flits)
Class 0:
Remaining flits: 944244 944245 944246 944247 944248 944249 944250 944251 944252 944253 [...] (2453966 flits)
Measured flits: 944244 944245 944246 944247 944248 944249 944250 944251 944252 944253 [...] (3363 flits)
Class 0:
Remaining flits: 950706 950707 950708 950709 950710 950711 950712 950713 950714 950715 [...] (2453267 flits)
Measured flits: 950706 950707 950708 950709 950710 950711 950712 950713 950714 950715 [...] (2806 flits)
Class 0:
Remaining flits: 950706 950707 950708 950709 950710 950711 950712 950713 950714 950715 [...] (2449631 flits)
Measured flits: 950706 950707 950708 950709 950710 950711 950712 950713 950714 950715 [...] (2408 flits)
Class 0:
Remaining flits: 1009440 1009441 1009442 1009443 1009444 1009445 1009446 1009447 1009448 1009449 [...] (2441540 flits)
Measured flits: 1009440 1009441 1009442 1009443 1009444 1009445 1009446 1009447 1009448 1009449 [...] (2149 flits)
Class 0:
Remaining flits: 1009440 1009441 1009442 1009443 1009444 1009445 1009446 1009447 1009448 1009449 [...] (2432652 flits)
Measured flits: 1009440 1009441 1009442 1009443 1009444 1009445 1009446 1009447 1009448 1009449 [...] (1838 flits)
Class 0:
Remaining flits: 1049022 1049023 1049024 1049025 1049026 1049027 1049028 1049029 1049030 1049031 [...] (2429593 flits)
Measured flits: 1049022 1049023 1049024 1049025 1049026 1049027 1049028 1049029 1049030 1049031 [...] (1465 flits)
Class 0:
Remaining flits: 1049022 1049023 1049024 1049025 1049026 1049027 1049028 1049029 1049030 1049031 [...] (2425913 flits)
Measured flits: 1049022 1049023 1049024 1049025 1049026 1049027 1049028 1049029 1049030 1049031 [...] (1273 flits)
Class 0:
Remaining flits: 1049022 1049023 1049024 1049025 1049026 1049027 1049028 1049029 1049030 1049031 [...] (2420891 flits)
Measured flits: 1049022 1049023 1049024 1049025 1049026 1049027 1049028 1049029 1049030 1049031 [...] (1165 flits)
Class 0:
Remaining flits: 1098864 1098865 1098866 1098867 1098868 1098869 1098870 1098871 1098872 1098873 [...] (2417076 flits)
Measured flits: 1098864 1098865 1098866 1098867 1098868 1098869 1098870 1098871 1098872 1098873 [...] (978 flits)
Class 0:
Remaining flits: 1135260 1135261 1135262 1135263 1135264 1135265 1135266 1135267 1135268 1135269 [...] (2410088 flits)
Measured flits: 1135260 1135261 1135262 1135263 1135264 1135265 1135266 1135267 1135268 1135269 [...] (764 flits)
Class 0:
Remaining flits: 1135260 1135261 1135262 1135263 1135264 1135265 1135266 1135267 1135268 1135269 [...] (2404453 flits)
Measured flits: 1135260 1135261 1135262 1135263 1135264 1135265 1135266 1135267 1135268 1135269 [...] (633 flits)
Class 0:
Remaining flits: 1135260 1135261 1135262 1135263 1135264 1135265 1135266 1135267 1135268 1135269 [...] (2402779 flits)
Measured flits: 1135260 1135261 1135262 1135263 1135264 1135265 1135266 1135267 1135268 1135269 [...] (603 flits)
Class 0:
Remaining flits: 1135260 1135261 1135262 1135263 1135264 1135265 1135266 1135267 1135268 1135269 [...] (2399368 flits)
Measured flits: 1135260 1135261 1135262 1135263 1135264 1135265 1135266 1135267 1135268 1135269 [...] (532 flits)
Class 0:
Remaining flits: 1173978 1173979 1173980 1173981 1173982 1173983 1173984 1173985 1173986 1173987 [...] (2392058 flits)
Measured flits: 1173978 1173979 1173980 1173981 1173982 1173983 1173984 1173985 1173986 1173987 [...] (433 flits)
Class 0:
Remaining flits: 1173978 1173979 1173980 1173981 1173982 1173983 1173984 1173985 1173986 1173987 [...] (2385124 flits)
Measured flits: 1173978 1173979 1173980 1173981 1173982 1173983 1173984 1173985 1173986 1173987 [...] (378 flits)
Class 0:
Remaining flits: 1173978 1173979 1173980 1173981 1173982 1173983 1173984 1173985 1173986 1173987 [...] (2382699 flits)
Measured flits: 1173978 1173979 1173980 1173981 1173982 1173983 1173984 1173985 1173986 1173987 [...] (267 flits)
Class 0:
Remaining flits: 1173978 1173979 1173980 1173981 1173982 1173983 1173984 1173985 1173986 1173987 [...] (2377081 flits)
Measured flits: 1173978 1173979 1173980 1173981 1173982 1173983 1173984 1173985 1173986 1173987 [...] (234 flits)
Class 0:
Remaining flits: 1180854 1180855 1180856 1180857 1180858 1180859 1180860 1180861 1180862 1180863 [...] (2373207 flits)
Measured flits: 1180854 1180855 1180856 1180857 1180858 1180859 1180860 1180861 1180862 1180863 [...] (162 flits)
Class 0:
Remaining flits: 1180854 1180855 1180856 1180857 1180858 1180859 1180860 1180861 1180862 1180863 [...] (2366460 flits)
Measured flits: 1180854 1180855 1180856 1180857 1180858 1180859 1180860 1180861 1180862 1180863 [...] (113 flits)
Class 0:
Remaining flits: 1207962 1207963 1207964 1207965 1207966 1207967 1207968 1207969 1207970 1207971 [...] (2360831 flits)
Measured flits: 1207962 1207963 1207964 1207965 1207966 1207967 1207968 1207969 1207970 1207971 [...] (54 flits)
Class 0:
Remaining flits: 1207962 1207963 1207964 1207965 1207966 1207967 1207968 1207969 1207970 1207971 [...] (2356863 flits)
Measured flits: 1207962 1207963 1207964 1207965 1207966 1207967 1207968 1207969 1207970 1207971 [...] (54 flits)
Class 0:
Remaining flits: 1207962 1207963 1207964 1207965 1207966 1207967 1207968 1207969 1207970 1207971 [...] (2349989 flits)
Measured flits: 1207962 1207963 1207964 1207965 1207966 1207967 1207968 1207969 1207970 1207971 [...] (54 flits)
Class 0:
Remaining flits: 1207962 1207963 1207964 1207965 1207966 1207967 1207968 1207969 1207970 1207971 [...] (2345698 flits)
Measured flits: 1207962 1207963 1207964 1207965 1207966 1207967 1207968 1207969 1207970 1207971 [...] (54 flits)
Class 0:
Remaining flits: 1207962 1207963 1207964 1207965 1207966 1207967 1207968 1207969 1207970 1207971 [...] (2342847 flits)
Measured flits: 1207962 1207963 1207964 1207965 1207966 1207967 1207968 1207969 1207970 1207971 [...] (54 flits)
Class 0:
Remaining flits: 1207962 1207963 1207964 1207965 1207966 1207967 1207968 1207969 1207970 1207971 [...] (2335868 flits)
Measured flits: 1207962 1207963 1207964 1207965 1207966 1207967 1207968 1207969 1207970 1207971 [...] (54 flits)
Class 0:
Remaining flits: 1207962 1207963 1207964 1207965 1207966 1207967 1207968 1207969 1207970 1207971 [...] (2330839 flits)
Measured flits: 1207962 1207963 1207964 1207965 1207966 1207967 1207968 1207969 1207970 1207971 [...] (54 flits)
Class 0:
Remaining flits: 1207962 1207963 1207964 1207965 1207966 1207967 1207968 1207969 1207970 1207971 [...] (2328624 flits)
Measured flits: 1207962 1207963 1207964 1207965 1207966 1207967 1207968 1207969 1207970 1207971 [...] (54 flits)
Class 0:
Remaining flits: 1207962 1207963 1207964 1207965 1207966 1207967 1207968 1207969 1207970 1207971 [...] (2322371 flits)
Measured flits: 1207962 1207963 1207964 1207965 1207966 1207967 1207968 1207969 1207970 1207971 [...] (54 flits)
Class 0:
Remaining flits: 1207962 1207963 1207964 1207965 1207966 1207967 1207968 1207969 1207970 1207971 [...] (2318618 flits)
Measured flits: 1207962 1207963 1207964 1207965 1207966 1207967 1207968 1207969 1207970 1207971 [...] (54 flits)
Class 0:
Remaining flits: 1207962 1207963 1207964 1207965 1207966 1207967 1207968 1207969 1207970 1207971 [...] (2313770 flits)
Measured flits: 1207962 1207963 1207964 1207965 1207966 1207967 1207968 1207969 1207970 1207971 [...] (54 flits)
Class 0:
Remaining flits: 1207962 1207963 1207964 1207965 1207966 1207967 1207968 1207969 1207970 1207971 [...] (2313202 flits)
Measured flits: 1207962 1207963 1207964 1207965 1207966 1207967 1207968 1207969 1207970 1207971 [...] (54 flits)
Class 0:
Remaining flits: 1207962 1207963 1207964 1207965 1207966 1207967 1207968 1207969 1207970 1207971 [...] (2309973 flits)
Measured flits: 1207962 1207963 1207964 1207965 1207966 1207967 1207968 1207969 1207970 1207971 [...] (54 flits)
Class 0:
Remaining flits: 1396800 1396801 1396802 1396803 1396804 1396805 1396806 1396807 1396808 1396809 [...] (2308122 flits)
Measured flits: 1396800 1396801 1396802 1396803 1396804 1396805 1396806 1396807 1396808 1396809 [...] (36 flits)
Class 0:
Remaining flits: 1396800 1396801 1396802 1396803 1396804 1396805 1396806 1396807 1396808 1396809 [...] (2303906 flits)
Measured flits: 1396800 1396801 1396802 1396803 1396804 1396805 1396806 1396807 1396808 1396809 [...] (36 flits)
Class 0:
Remaining flits: 1396800 1396801 1396802 1396803 1396804 1396805 1396806 1396807 1396808 1396809 [...] (2300519 flits)
Measured flits: 1396800 1396801 1396802 1396803 1396804 1396805 1396806 1396807 1396808 1396809 [...] (36 flits)
Class 0:
Remaining flits: 1396800 1396801 1396802 1396803 1396804 1396805 1396806 1396807 1396808 1396809 [...] (2300048 flits)
Measured flits: 1396800 1396801 1396802 1396803 1396804 1396805 1396806 1396807 1396808 1396809 [...] (36 flits)
Class 0:
Remaining flits: 1396800 1396801 1396802 1396803 1396804 1396805 1396806 1396807 1396808 1396809 [...] (2296482 flits)
Measured flits: 1396800 1396801 1396802 1396803 1396804 1396805 1396806 1396807 1396808 1396809 [...] (36 flits)
Class 0:
Remaining flits: 1396800 1396801 1396802 1396803 1396804 1396805 1396806 1396807 1396808 1396809 [...] (2291855 flits)
Measured flits: 1396800 1396801 1396802 1396803 1396804 1396805 1396806 1396807 1396808 1396809 [...] (36 flits)
Class 0:
Remaining flits: 1396800 1396801 1396802 1396803 1396804 1396805 1396806 1396807 1396808 1396809 [...] (2290213 flits)
Measured flits: 1396800 1396801 1396802 1396803 1396804 1396805 1396806 1396807 1396808 1396809 [...] (36 flits)
Class 0:
Remaining flits: 1396800 1396801 1396802 1396803 1396804 1396805 1396806 1396807 1396808 1396809 [...] (2287054 flits)
Measured flits: 1396800 1396801 1396802 1396803 1396804 1396805 1396806 1396807 1396808 1396809 [...] (36 flits)
Class 0:
Remaining flits: 1396800 1396801 1396802 1396803 1396804 1396805 1396806 1396807 1396808 1396809 [...] (2278818 flits)
Measured flits: 1396800 1396801 1396802 1396803 1396804 1396805 1396806 1396807 1396808 1396809 [...] (36 flits)
Class 0:
Remaining flits: 1396800 1396801 1396802 1396803 1396804 1396805 1396806 1396807 1396808 1396809 [...] (2273077 flits)
Measured flits: 1396800 1396801 1396802 1396803 1396804 1396805 1396806 1396807 1396808 1396809 [...] (36 flits)
Class 0:
Remaining flits: 1396800 1396801 1396802 1396803 1396804 1396805 1396806 1396807 1396808 1396809 [...] (2265131 flits)
Measured flits: 1396800 1396801 1396802 1396803 1396804 1396805 1396806 1396807 1396808 1396809 [...] (36 flits)
Class 0:
Remaining flits: 1396800 1396801 1396802 1396803 1396804 1396805 1396806 1396807 1396808 1396809 [...] (2258837 flits)
Measured flits: 1396800 1396801 1396802 1396803 1396804 1396805 1396806 1396807 1396808 1396809 [...] (36 flits)
Class 0:
Remaining flits: 1396800 1396801 1396802 1396803 1396804 1396805 1396806 1396807 1396808 1396809 [...] (2253663 flits)
Measured flits: 1396800 1396801 1396802 1396803 1396804 1396805 1396806 1396807 1396808 1396809 [...] (36 flits)
Class 0:
Remaining flits: 1396800 1396801 1396802 1396803 1396804 1396805 1396806 1396807 1396808 1396809 [...] (2244960 flits)
Measured flits: 1396800 1396801 1396802 1396803 1396804 1396805 1396806 1396807 1396808 1396809 [...] (36 flits)
Class 0:
Remaining flits: 1396800 1396801 1396802 1396803 1396804 1396805 1396806 1396807 1396808 1396809 [...] (2238571 flits)
Measured flits: 1396800 1396801 1396802 1396803 1396804 1396805 1396806 1396807 1396808 1396809 [...] (18 flits)
Draining remaining packets ...
Class 0:
Remaining flits: 1641726 1641727 1641728 1641729 1641730 1641731 1641732 1641733 1641734 1641735 [...] (2200193 flits)
Measured flits: (0 flits)
Class 0:
Remaining flits: 1641726 1641727 1641728 1641729 1641730 1641731 1641732 1641733 1641734 1641735 [...] (2165238 flits)
Measured flits: (0 flits)
Class 0:
Remaining flits: 1641726 1641727 1641728 1641729 1641730 1641731 1641732 1641733 1641734 1641735 [...] (2129188 flits)
Measured flits: (0 flits)
Class 0:
Remaining flits: 1641726 1641727 1641728 1641729 1641730 1641731 1641732 1641733 1641734 1641735 [...] (2093589 flits)
Measured flits: (0 flits)
Class 0:
Remaining flits: 1641726 1641727 1641728 1641729 1641730 1641731 1641732 1641733 1641734 1641735 [...] (2058025 flits)
Measured flits: (0 flits)
Class 0:
Remaining flits: 1741554 1741555 1741556 1741557 1741558 1741559 1741560 1741561 1741562 1741563 [...] (2023124 flits)
Measured flits: (0 flits)
Class 0:
Remaining flits: 1741554 1741555 1741556 1741557 1741558 1741559 1741560 1741561 1741562 1741563 [...] (1988240 flits)
Measured flits: (0 flits)
Class 0:
Remaining flits: 1798524 1798525 1798526 1798527 1798528 1798529 1798530 1798531 1798532 1798533 [...] (1953166 flits)
Measured flits: (0 flits)
Class 0:
Remaining flits: 1798524 1798525 1798526 1798527 1798528 1798529 1798530 1798531 1798532 1798533 [...] (1918096 flits)
Measured flits: (0 flits)
Class 0:
Remaining flits: 2005488 2005489 2005490 2005491 2005492 2005493 2005494 2005495 2005496 2005497 [...] (1882803 flits)
Measured flits: (0 flits)
Class 0:
Remaining flits: 2005488 2005489 2005490 2005491 2005492 2005493 2005494 2005495 2005496 2005497 [...] (1846392 flits)
Measured flits: (0 flits)
Class 0:
Remaining flits: 2005488 2005489 2005490 2005491 2005492 2005493 2005494 2005495 2005496 2005497 [...] (1810062 flits)
Measured flits: (0 flits)
Class 0:
Remaining flits: 2005488 2005489 2005490 2005491 2005492 2005493 2005494 2005495 2005496 2005497 [...] (1774183 flits)
Measured flits: (0 flits)
Class 0:
Remaining flits: 2186856 2186857 2186858 2186859 2186860 2186861 2186862 2186863 2186864 2186865 [...] (1738433 flits)
Measured flits: (0 flits)
Class 0:
Remaining flits: 2279124 2279125 2279126 2279127 2279128 2279129 2279130 2279131 2279132 2279133 [...] (1702489 flits)
Measured flits: (0 flits)
Class 0:
Remaining flits: 2279124 2279125 2279126 2279127 2279128 2279129 2279130 2279131 2279132 2279133 [...] (1665975 flits)
Measured flits: (0 flits)
Class 0:
Remaining flits: 2279124 2279125 2279126 2279127 2279128 2279129 2279130 2279131 2279132 2279133 [...] (1630275 flits)
Measured flits: (0 flits)
Class 0:
Remaining flits: 2279124 2279125 2279126 2279127 2279128 2279129 2279130 2279131 2279132 2279133 [...] (1594509 flits)
Measured flits: (0 flits)
Class 0:
Remaining flits: 2279128 2279129 2279130 2279131 2279132 2279133 2279134 2279135 2279136 2279137 [...] (1557884 flits)
Measured flits: (0 flits)
Class 0:
Remaining flits: 2415888 2415889 2415890 2415891 2415892 2415893 2415894 2415895 2415896 2415897 [...] (1522473 flits)
Measured flits: (0 flits)
Class 0:
Remaining flits: 2415888 2415889 2415890 2415891 2415892 2415893 2415894 2415895 2415896 2415897 [...] (1486145 flits)
Measured flits: (0 flits)
Class 0:
Remaining flits: 2415888 2415889 2415890 2415891 2415892 2415893 2415894 2415895 2415896 2415897 [...] (1449577 flits)
Measured flits: (0 flits)
Class 0:
Remaining flits: 2415888 2415889 2415890 2415891 2415892 2415893 2415894 2415895 2415896 2415897 [...] (1413409 flits)
Measured flits: (0 flits)
Class 0:
Remaining flits: 2415893 2415894 2415895 2415896 2415897 2415898 2415899 2415900 2415901 2415902 [...] (1378325 flits)
Measured flits: (0 flits)
Class 0:
Remaining flits: 2575350 2575351 2575352 2575353 2575354 2575355 2575356 2575357 2575358 2575359 [...] (1343303 flits)
Measured flits: (0 flits)
Class 0:
Remaining flits: 2575358 2575359 2575360 2575361 2575362 2575363 2575364 2575365 2575366 2575367 [...] (1308775 flits)
Measured flits: (0 flits)
Class 0:
Remaining flits: 2575365 2575366 2575367 2685150 2685151 2685152 2685153 2685154 2685155 2685156 [...] (1273949 flits)
Measured flits: (0 flits)
Class 0:
Remaining flits: 2685150 2685151 2685152 2685153 2685154 2685155 2685156 2685157 2685158 2685159 [...] (1238934 flits)
Measured flits: (0 flits)
Class 0:
Remaining flits: 2685150 2685151 2685152 2685153 2685154 2685155 2685156 2685157 2685158 2685159 [...] (1204417 flits)
Measured flits: (0 flits)
Class 0:
Remaining flits: 2714472 2714473 2714474 2714475 2714476 2714477 2714478 2714479 2714480 2714481 [...] (1169878 flits)
Measured flits: (0 flits)
Class 0:
Remaining flits: 2714472 2714473 2714474 2714475 2714476 2714477 2714478 2714479 2714480 2714481 [...] (1134893 flits)
Measured flits: (0 flits)
Class 0:
Remaining flits: 2714472 2714473 2714474 2714475 2714476 2714477 2714478 2714479 2714480 2714481 [...] (1100561 flits)
Measured flits: (0 flits)
Class 0:
Remaining flits: 2714472 2714473 2714474 2714475 2714476 2714477 2714478 2714479 2714480 2714481 [...] (1066200 flits)
Measured flits: (0 flits)
Class 0:
Remaining flits: 2714472 2714473 2714474 2714475 2714476 2714477 2714478 2714479 2714480 2714481 [...] (1032217 flits)
Measured flits: (0 flits)
Class 0:
Remaining flits: 2714472 2714473 2714474 2714475 2714476 2714477 2714478 2714479 2714480 2714481 [...] (997956 flits)
Measured flits: (0 flits)
Class 0:
Remaining flits: 2725856 2725857 2725858 2725859 2725860 2725861 2725862 2725863 2725864 2725865 [...] (963739 flits)
Measured flits: (0 flits)
Class 0:
Remaining flits: 2736204 2736205 2736206 2736207 2736208 2736209 2736210 2736211 2736212 2736213 [...] (929472 flits)
Measured flits: (0 flits)
Class 0:
Remaining flits: 2767351 2767352 2767353 2767354 2767355 2924028 2924029 2924030 2924031 2924032 [...] (896001 flits)
Measured flits: (0 flits)
Class 0:
Remaining flits: 2924028 2924029 2924030 2924031 2924032 2924033 2924034 2924035 2924036 2924037 [...] (862244 flits)
Measured flits: (0 flits)
Class 0:
Remaining flits: 2924028 2924029 2924030 2924031 2924032 2924033 2924034 2924035 2924036 2924037 [...] (828248 flits)
Measured flits: (0 flits)
Class 0:
Remaining flits: 2924028 2924029 2924030 2924031 2924032 2924033 2924034 2924035 2924036 2924037 [...] (793769 flits)
Measured flits: (0 flits)
Class 0:
Remaining flits: 2924028 2924029 2924030 2924031 2924032 2924033 2924034 2924035 2924036 2924037 [...] (759834 flits)
Measured flits: (0 flits)
Class 0:
Remaining flits: 2924028 2924029 2924030 2924031 2924032 2924033 2924034 2924035 2924036 2924037 [...] (725776 flits)
Measured flits: (0 flits)
Class 0:
Remaining flits: 2924028 2924029 2924030 2924031 2924032 2924033 2924034 2924035 2924036 2924037 [...] (692327 flits)
Measured flits: (0 flits)
Class 0:
Remaining flits: 2994228 2994229 2994230 2994231 2994232 2994233 2994234 2994235 2994236 2994237 [...] (658671 flits)
Measured flits: (0 flits)
Class 0:
Remaining flits: 2994228 2994229 2994230 2994231 2994232 2994233 2994234 2994235 2994236 2994237 [...] (624340 flits)
Measured flits: (0 flits)
Class 0:
Remaining flits: 2994228 2994229 2994230 2994231 2994232 2994233 2994234 2994235 2994236 2994237 [...] (589615 flits)
Measured flits: (0 flits)
Class 0:
Remaining flits: 2994228 2994229 2994230 2994231 2994232 2994233 2994234 2994235 2994236 2994237 [...] (555743 flits)
Measured flits: (0 flits)
Class 0:
Remaining flits: 2994228 2994229 2994230 2994231 2994232 2994233 2994234 2994235 2994236 2994237 [...] (521063 flits)
Measured flits: (0 flits)
Class 0:
Remaining flits: 3202182 3202183 3202184 3202185 3202186 3202187 3202188 3202189 3202190 3202191 [...] (486754 flits)
Measured flits: (0 flits)
Class 0:
Remaining flits: 3256524 3256525 3256526 3256527 3256528 3256529 3256530 3256531 3256532 3256533 [...] (452343 flits)
Measured flits: (0 flits)
Class 0:
Remaining flits: 3256524 3256525 3256526 3256527 3256528 3256529 3256530 3256531 3256532 3256533 [...] (418009 flits)
Measured flits: (0 flits)
Class 0:
Remaining flits: 3256524 3256525 3256526 3256527 3256528 3256529 3256530 3256531 3256532 3256533 [...] (383422 flits)
Measured flits: (0 flits)
Class 0:
Remaining flits: 3256524 3256525 3256526 3256527 3256528 3256529 3256530 3256531 3256532 3256533 [...] (348918 flits)
Measured flits: (0 flits)
Class 0:
Remaining flits: 3256524 3256525 3256526 3256527 3256528 3256529 3256530 3256531 3256532 3256533 [...] (314773 flits)
Measured flits: (0 flits)
Class 0:
Remaining flits: 3256524 3256525 3256526 3256527 3256528 3256529 3256530 3256531 3256532 3256533 [...] (280644 flits)
Measured flits: (0 flits)
Class 0:
Remaining flits: 3256524 3256525 3256526 3256527 3256528 3256529 3256530 3256531 3256532 3256533 [...] (246789 flits)
Measured flits: (0 flits)
Class 0:
Remaining flits: 3256524 3256525 3256526 3256527 3256528 3256529 3256530 3256531 3256532 3256533 [...] (213792 flits)
Measured flits: (0 flits)
Class 0:
Remaining flits: 3256526 3256527 3256528 3256529 3256530 3256531 3256532 3256533 3256534 3256535 [...] (182009 flits)
Measured flits: (0 flits)
Class 0:
Remaining flits: 3256533 3256534 3256535 3256536 3256537 3256538 3256539 3256540 3256541 3468609 [...] (151564 flits)
Measured flits: (0 flits)
Class 0:
Remaining flits: 3640644 3640645 3640646 3640647 3640648 3640649 3640650 3640651 3640652 3640653 [...] (123014 flits)
Measured flits: (0 flits)
Class 0:
Remaining flits: 3640644 3640645 3640646 3640647 3640648 3640649 3640650 3640651 3640652 3640653 [...] (97714 flits)
Measured flits: (0 flits)
Class 0:
Remaining flits: 3640644 3640645 3640646 3640647 3640648 3640649 3640650 3640651 3640652 3640653 [...] (73930 flits)
Measured flits: (0 flits)
Class 0:
Remaining flits: 3909960 3909961 3909962 3909963 3909964 3909965 3909966 3909967 3909968 3909969 [...] (51112 flits)
Measured flits: (0 flits)
Class 0:
Remaining flits: 3909960 3909961 3909962 3909963 3909964 3909965 3909966 3909967 3909968 3909969 [...] (33448 flits)
Measured flits: (0 flits)
Class 0:
Remaining flits: 3909960 3909961 3909962 3909963 3909964 3909965 3909966 3909967 3909968 3909969 [...] (21896 flits)
Measured flits: (0 flits)
Class 0:
Remaining flits: 3909960 3909961 3909962 3909963 3909964 3909965 3909966 3909967 3909968 3909969 [...] (12999 flits)
Measured flits: (0 flits)
Class 0:
Remaining flits: 3909960 3909961 3909962 3909963 3909964 3909965 3909966 3909967 3909968 3909969 [...] (5737 flits)
Measured flits: (0 flits)
Class 0:
Remaining flits: 3909960 3909961 3909962 3909963 3909964 3909965 3909966 3909967 3909968 3909969 [...] (2548 flits)
Measured flits: (0 flits)
Class 0:
Remaining flits: 5394546 5394547 5394548 5394549 5394550 5394551 5394552 5394553 5394554 5394555 [...] (569 flits)
Measured flits: (0 flits)
Time taken is 178171 cycles
====== Overall Traffic Statistics ======
====== Traffic class 0 ======
Packet latency average = 15712 (1 samples)
	minimum = 23 (1 samples)
	maximum = 98736 (1 samples)
Network latency average = 15169.7 (1 samples)
	minimum = 23 (1 samples)
	maximum = 96052 (1 samples)
Flit latency average = 46305.8 (1 samples)
	minimum = 6 (1 samples)
	maximum = 137993 (1 samples)
Fragmentation average = 192.833 (1 samples)
	minimum = 0 (1 samples)
	maximum = 4264 (1 samples)
Injected packet rate average = 0.0359397 (1 samples)
	minimum = 0.0142857 (1 samples)
	maximum = 0.0555714 (1 samples)
Accepted packet rate average = 0.0133661 (1 samples)
	minimum = 0.01 (1 samples)
	maximum = 0.0171429 (1 samples)
Injected flit rate average = 0.647001 (1 samples)
	minimum = 0.257143 (1 samples)
	maximum = 1 (1 samples)
Accepted flit rate average = 0.239468 (1 samples)
	minimum = 0.182143 (1 samples)
	maximum = 0.304143 (1 samples)
Injected packet size average = 18.0024 (1 samples)
Accepted packet size average = 17.9161 (1 samples)
Hops average = 5.07486 (1 samples)
Total run time 243.234
