BEGIN Configuration File: networks/mezzanine_config
topology = mezzanine;
n = 12;

routing_function = multipath;
internal_speedup = 2.0;
latency_thres = 100000.0;
use_read_write = 0;

sample_period = 1000;
injection_rate = 0.5;
packet_size = 18;

noq = 1;
routing_delay = 0;
vc_alloc_delay = 1;
sw_alloc_delay = 1;
st_final_delay = 1;
vc_allocator = islip; 
sw_allocator = islip;
alloc_iters  = 4;
num_vcs     = 12;
buffer_policy = private; // private or shared
buf_size = -1; // -1 for buffer_policy = private;
vc_buf_size = 4096; // size of each VOQ with buffer_policy = private
output_buffer_size = -1;


traffic = uniform;

//mezW = 0.0;
//mezPredefinedPatternType = shift-inter; //shift-qfdb

END Configuration File: networks/mezzanine_config
OVERRIDE Parameter: injection_rate=0.000277
OVERRIDE Parameter: routing_function=min
OVERRIDE Parameter: num_vcs=32
OVERRIDE Parameter: vc_buf_size=144
OVERRIDE Parameter: internal_speedup=1.0
OVERRIDE Parameter: injection_process=bernoulli
OVERRIDE Parameter: sim_type=latency
OVERRIDE Parameter: burst_alpha=0.0038461538
OVERRIDE Parameter: burst_beta=0.1
network: network_0
========================== Routing table  =====================
Number of Subnets: 1
Class 0:
Packet latency average = 39.7
	minimum = 31
	maximum = 54
Network latency average = 39.7
	minimum = 31
	maximum = 54
Slowest packet = 12
Flit latency average = 22.44
	minimum = 14
	maximum = 37
Slowest flit = 233
Fragmentation average = 0.46
	minimum = 0
	maximum = 12
Injected packet rate average = 0.000260417
	minimum = 0 (at node 1)
	maximum = 0.002 (at node 48)
Accepted packet rate average = 0.000260417
	minimum = 0 (at node 0)
	maximum = 0.002 (at node 15)
Injected flit rate average = 0.0046875
	minimum = 0 (at node 1)
	maximum = 0.036 (at node 48)
Accepted flit rate average= 0.0046875
	minimum = 0 (at node 0)
	maximum = 0.036 (at node 15)
Injected packet length average = 18
Accepted packet length average = 18
Total in-flight flits = 0 (0 measured)
latency change    = 1
throughput change = 1
Class 0:
Packet latency average = 40.0312
	minimum = 23
	maximum = 57
Network latency average = 39.9896
	minimum = 23
	maximum = 57
Slowest packet = 57
Flit latency average = 22.6809
	minimum = 6
	maximum = 40
Slowest flit = 1043
Fragmentation average = 0.53125
	minimum = 0
	maximum = 14
Injected packet rate average = 0.000257813
	minimum = 0 (at node 1)
	maximum = 0.0015 (at node 25)
Accepted packet rate average = 0.00025
	minimum = 0 (at node 1)
	maximum = 0.0015 (at node 122)
Injected flit rate average = 0.00461198
	minimum = 0 (at node 1)
	maximum = 0.027 (at node 25)
Accepted flit rate average= 0.00452083
	minimum = 0 (at node 1)
	maximum = 0.027 (at node 122)
Injected packet length average = 17.8889
Accepted packet length average = 18.0833
Total in-flight flits = 46 (0 measured)
latency change    = 0.00827479
throughput change = 0.0368664
Class 0:
Packet latency average = 40.3448
	minimum = 27
	maximum = 57
Network latency average = 40.3448
	minimum = 27
	maximum = 57
Slowest packet = 100
Flit latency average = 22.5743
	minimum = 10
	maximum = 40
Slowest flit = 1817
Fragmentation average = 1.41379
	minimum = 0
	maximum = 16
Injected packet rate average = 0.000291667
	minimum = 0 (at node 0)
	maximum = 0.002 (at node 78)
Accepted packet rate average = 0.000302083
	minimum = 0 (at node 0)
	maximum = 0.003 (at node 85)
Injected flit rate average = 0.00530729
	minimum = 0 (at node 0)
	maximum = 0.036 (at node 78)
Accepted flit rate average= 0.00539583
	minimum = 0 (at node 0)
	maximum = 0.054 (at node 85)
Injected packet length average = 18.1964
Accepted packet length average = 17.8621
Total in-flight flits = 18 (0 measured)
latency change    = 0.00777244
throughput change = 0.162162
Warmed up ...Time used is 3000 cycles
Class 0:
Packet latency average = 39.56
	minimum = 27
	maximum = 50
Network latency average = 39.56
	minimum = 27
	maximum = 50
Slowest packet = 203
Flit latency average = 22.1721
	minimum = 10
	maximum = 33
Slowest flit = 3667
Fragmentation average = 0.72
	minimum = 0
	maximum = 11
Injected packet rate average = 0.000260417
	minimum = 0 (at node 0)
	maximum = 0.002 (at node 79)
Accepted packet rate average = 0.000265625
	minimum = 0 (at node 0)
	maximum = 0.003 (at node 74)
Injected flit rate average = 0.0046875
	minimum = 0 (at node 0)
	maximum = 0.036 (at node 79)
Accepted flit rate average= 0.00478125
	minimum = 0 (at node 0)
	maximum = 0.054 (at node 74)
Injected packet length average = 18
Accepted packet length average = 18
Total in-flight flits = 0 (0 measured)
latency change    = 0.0198389
throughput change = 0.12854
Class 0:
Packet latency average = 40.3663
	minimum = 27
	maximum = 59
Network latency average = 40.2079
	minimum = 27
	maximum = 58
Slowest packet = 207
Flit latency average = 22.6874
	minimum = 10
	maximum = 41
Slowest flit = 3742
Fragmentation average = 0.970297
	minimum = 0
	maximum = 16
Injected packet rate average = 0.000270833
	minimum = 0 (at node 0)
	maximum = 0.002 (at node 189)
Accepted packet rate average = 0.000265625
	minimum = 0 (at node 0)
	maximum = 0.002 (at node 74)
Injected flit rate average = 0.00485156
	minimum = 0 (at node 0)
	maximum = 0.036 (at node 189)
Accepted flit rate average= 0.00478125
	minimum = 0 (at node 0)
	maximum = 0.036 (at node 74)
Injected packet length average = 17.9135
Accepted packet length average = 18
Total in-flight flits = 54 (54 measured)
latency change    = 0.0199755
throughput change = 0
Class 0:
Packet latency average = 39.8375
	minimum = 27
	maximum = 59
Network latency average = 39.7375
	minimum = 27
	maximum = 58
Slowest packet = 207
Flit latency average = 22.4089
	minimum = 10
	maximum = 41
Slowest flit = 3742
Fragmentation average = 0.6125
	minimum = 0
	maximum = 16
Injected packet rate average = 0.00028125
	minimum = 0 (at node 0)
	maximum = 0.00133333 (at node 148)
Accepted packet rate average = 0.000279514
	minimum = 0 (at node 0)
	maximum = 0.00133333 (at node 56)
Injected flit rate average = 0.0050625
	minimum = 0 (at node 0)
	maximum = 0.024 (at node 148)
Accepted flit rate average= 0.00505208
	minimum = 0 (at node 0)
	maximum = 0.024 (at node 56)
Injected packet length average = 18
Accepted packet length average = 18.0745
Total in-flight flits = 24 (24 measured)
latency change    = 0.0132748
throughput change = 0.0536082
Class 0:
Packet latency average = 39.8194
	minimum = 27
	maximum = 59
Network latency average = 39.7454
	minimum = 27
	maximum = 58
Slowest packet = 207
Flit latency average = 22.3617
	minimum = 10
	maximum = 41
Slowest flit = 3742
Fragmentation average = 0.671296
	minimum = 0
	maximum = 16
Injected packet rate average = 0.000283854
	minimum = 0 (at node 1)
	maximum = 0.001 (at node 23)
Accepted packet rate average = 0.000282552
	minimum = 0 (at node 1)
	maximum = 0.00125 (at node 140)
Injected flit rate average = 0.00510677
	minimum = 0 (at node 1)
	maximum = 0.018 (at node 23)
Accepted flit rate average= 0.00510807
	minimum = 0 (at node 1)
	maximum = 0.0225 (at node 140)
Injected packet length average = 17.9908
Accepted packet length average = 18.0783
Total in-flight flits = 19 (19 measured)
latency change    = 0.000453436
throughput change = 0.010961
Class 0:
Packet latency average = 39.6335
	minimum = 27
	maximum = 59
Network latency average = 39.573
	minimum = 27
	maximum = 58
Slowest packet = 207
Flit latency average = 22.2629
	minimum = 10
	maximum = 41
Slowest flit = 3742
Fragmentation average = 0.601423
	minimum = 0
	maximum = 16
Injected packet rate average = 0.000296875
	minimum = 0 (at node 11)
	maximum = 0.001 (at node 123)
Accepted packet rate average = 0.00029375
	minimum = 0 (at node 1)
	maximum = 0.0014 (at node 140)
Injected flit rate average = 0.00532708
	minimum = 0 (at node 11)
	maximum = 0.018 (at node 123)
Accepted flit rate average= 0.00532604
	minimum = 0 (at node 1)
	maximum = 0.0252 (at node 140)
Injected packet length average = 17.9439
Accepted packet length average = 18.1312
Total in-flight flits = 35 (35 measured)
latency change    = 0.00469282
throughput change = 0.0409251
Class 0:
Packet latency average = 39.7522
	minimum = 27
	maximum = 59
Network latency average = 39.7032
	minimum = 27
	maximum = 58
Slowest packet = 207
Flit latency average = 22.3462
	minimum = 10
	maximum = 41
Slowest flit = 3742
Fragmentation average = 0.654179
	minimum = 0
	maximum = 16
Injected packet rate average = 0.000302951
	minimum = 0 (at node 11)
	maximum = 0.001 (at node 123)
Accepted packet rate average = 0.000302083
	minimum = 0 (at node 1)
	maximum = 0.00116667 (at node 140)
Injected flit rate average = 0.00544792
	minimum = 0 (at node 11)
	maximum = 0.018 (at node 123)
Accepted flit rate average= 0.00544358
	minimum = 0 (at node 1)
	maximum = 0.021 (at node 140)
Injected packet length average = 17.9828
Accepted packet length average = 18.0201
Total in-flight flits = 29 (29 measured)
latency change    = 0.00298624
throughput change = 0.0215915
Draining all recorded packets ...
Draining remaining packets ...
Time taken is 9072 cycles
====== Overall Traffic Statistics ======
====== Traffic class 0 ======
Packet latency average = 39.7593 (1 samples)
	minimum = 27 (1 samples)
	maximum = 59 (1 samples)
Network latency average = 39.7106 (1 samples)
	minimum = 27 (1 samples)
	maximum = 58 (1 samples)
Flit latency average = 22.355 (1 samples)
	minimum = 10 (1 samples)
	maximum = 41 (1 samples)
Fragmentation average = 0.65043 (1 samples)
	minimum = 0 (1 samples)
	maximum = 16 (1 samples)
Injected packet rate average = 0.000302951 (1 samples)
	minimum = 0 (1 samples)
	maximum = 0.001 (1 samples)
Accepted packet rate average = 0.000302083 (1 samples)
	minimum = 0 (1 samples)
	maximum = 0.00116667 (1 samples)
Injected flit rate average = 0.00544792 (1 samples)
	minimum = 0 (1 samples)
	maximum = 0.018 (1 samples)
Accepted flit rate average = 0.00544358 (1 samples)
	minimum = 0 (1 samples)
	maximum = 0.021 (1 samples)
Injected packet size average = 17.9828 (1 samples)
Accepted packet size average = 18.0201 (1 samples)
Hops average = 5.01433 (1 samples)
Total run time 0.88794
