BEGIN Configuration File: networks/mezzanine_config
topology = mezzanine;
n = 12;

routing_function = multipath;
internal_speedup = 2.0;
latency_thres = 100000.0;
use_read_write = 0;

sample_period = 1000;
injection_rate = 0.5;
packet_size = 18;

noq = 1;
routing_delay = 0;
vc_alloc_delay = 1;
sw_alloc_delay = 1;
st_final_delay = 1;
vc_allocator = islip; 
sw_allocator = islip;
alloc_iters  = 4;
num_vcs     = 12;
buffer_policy = private; // private or shared
buf_size = -1; // -1 for buffer_policy = private;
vc_buf_size = 4096; // size of each VOQ with buffer_policy = private
output_buffer_size = -1;


traffic = uniform;

//mezW = 0.0;
//mezPredefinedPatternType = shift-inter; //shift-qfdb

END Configuration File: networks/mezzanine_config
OVERRIDE Parameter: injection_rate=0.051107
OVERRIDE Parameter: routing_function=min
OVERRIDE Parameter: num_vcs=32
OVERRIDE Parameter: vc_buf_size=1024
OVERRIDE Parameter: internal_speedup=1.0
OVERRIDE Parameter: injection_process=bernoulli
OVERRIDE Parameter: sim_type=latency
OVERRIDE Parameter: burst_alpha=0.0038461538
OVERRIDE Parameter: burst_beta=0.1
network: network_0
========================== Routing table  =====================
Number of Subnets: 1
Class 0:
Packet latency average = 332.017
	minimum = 23
	maximum = 967
Network latency average = 306.493
	minimum = 23
	maximum = 962
Slowest packet = 113
Flit latency average = 252.688
	minimum = 6
	maximum = 971
Slowest flit = 1616
Fragmentation average = 152.36
	minimum = 0
	maximum = 899
Injected packet rate average = 0.0474063
	minimum = 0.036 (at node 43)
	maximum = 0.056 (at node 131)
Accepted packet rate average = 0.0119792
	minimum = 0.006 (at node 61)
	maximum = 0.022 (at node 70)
Injected flit rate average = 0.845885
	minimum = 0.639 (at node 157)
	maximum = 1 (at node 131)
Accepted flit rate average= 0.24488
	minimum = 0.114 (at node 93)
	maximum = 0.422 (at node 70)
Injected packet length average = 17.8433
Accepted packet length average = 20.4422
Total in-flight flits = 116819 (0 measured)
latency change    = 1
throughput change = 1
Class 0:
Packet latency average = 623.313
	minimum = 23
	maximum = 1956
Network latency average = 586.707
	minimum = 23
	maximum = 1927
Slowest packet = 463
Flit latency average = 525.217
	minimum = 6
	maximum = 1910
Slowest flit = 8351
Fragmentation average = 177.356
	minimum = 0
	maximum = 1775
Injected packet rate average = 0.0490573
	minimum = 0.039 (at node 43)
	maximum = 0.056 (at node 131)
Accepted packet rate average = 0.0134896
	minimum = 0.0085 (at node 8)
	maximum = 0.02 (at node 136)
Injected flit rate average = 0.878964
	minimum = 0.698 (at node 43)
	maximum = 1 (at node 131)
Accepted flit rate average= 0.257253
	minimum = 0.1625 (at node 153)
	maximum = 0.3705 (at node 177)
Injected packet length average = 17.9171
Accepted packet length average = 19.0705
Total in-flight flits = 240299 (0 measured)
latency change    = 0.467335
throughput change = 0.0480943
Class 0:
Packet latency average = 1392.56
	minimum = 29
	maximum = 2786
Network latency average = 1336.39
	minimum = 23
	maximum = 2786
Slowest packet = 854
Flit latency average = 1300.75
	minimum = 6
	maximum = 2926
Slowest flit = 6999
Fragmentation average = 194.887
	minimum = 0
	maximum = 1891
Injected packet rate average = 0.050625
	minimum = 0.036 (at node 119)
	maximum = 0.056 (at node 2)
Accepted packet rate average = 0.0148802
	minimum = 0.006 (at node 83)
	maximum = 0.025 (at node 75)
Injected flit rate average = 0.91126
	minimum = 0.651 (at node 119)
	maximum = 1 (at node 2)
Accepted flit rate average= 0.267641
	minimum = 0.107 (at node 153)
	maximum = 0.454 (at node 151)
Injected packet length average = 18.0002
Accepted packet length average = 17.9863
Total in-flight flits = 363872 (0 measured)
latency change    = 0.552398
throughput change = 0.0388133
Warmed up ...Time used is 3000 cycles
Class 0:
Packet latency average = 135.283
	minimum = 25
	maximum = 575
Network latency average = 52.1864
	minimum = 23
	maximum = 324
Slowest packet = 28608
Flit latency average = 1865.6
	minimum = 6
	maximum = 3899
Slowest flit = 11115
Fragmentation average = 16.1524
	minimum = 0
	maximum = 105
Injected packet rate average = 0.0511719
	minimum = 0.037 (at node 10)
	maximum = 0.056 (at node 18)
Accepted packet rate average = 0.0146458
	minimum = 0.007 (at node 100)
	maximum = 0.024 (at node 187)
Injected flit rate average = 0.921703
	minimum = 0.68 (at node 10)
	maximum = 1 (at node 1)
Accepted flit rate average= 0.26351
	minimum = 0.126 (at node 110)
	maximum = 0.389 (at node 187)
Injected packet length average = 18.0119
Accepted packet length average = 17.9922
Total in-flight flits = 490128 (163307 measured)
latency change    = 9.29369
throughput change = 0.0156738
Class 0:
Packet latency average = 143.87
	minimum = 25
	maximum = 1085
Network latency average = 55.991
	minimum = 23
	maximum = 933
Slowest packet = 31317
Flit latency average = 2126.44
	minimum = 6
	maximum = 4803
Slowest flit = 25821
Fragmentation average = 16.3976
	minimum = 0
	maximum = 105
Injected packet rate average = 0.0512031
	minimum = 0.0395 (at node 43)
	maximum = 0.056 (at node 32)
Accepted packet rate average = 0.0147578
	minimum = 0.009 (at node 4)
	maximum = 0.022 (at node 44)
Injected flit rate average = 0.921833
	minimum = 0.71 (at node 43)
	maximum = 1 (at node 1)
Accepted flit rate average= 0.264859
	minimum = 0.161 (at node 4)
	maximum = 0.3955 (at node 44)
Injected packet length average = 18.0035
Accepted packet length average = 17.9471
Total in-flight flits = 616082 (325730 measured)
latency change    = 0.0596849
throughput change = 0.00509311
Class 0:
Packet latency average = 143.341
	minimum = 23
	maximum = 1196
Network latency average = 57.1754
	minimum = 23
	maximum = 1034
Slowest packet = 31317
Flit latency average = 2390.84
	minimum = 6
	maximum = 5681
Slowest flit = 46917
Fragmentation average = 16.6526
	minimum = 0
	maximum = 105
Injected packet rate average = 0.0510087
	minimum = 0.042 (at node 182)
	maximum = 0.0556667 (at node 15)
Accepted packet rate average = 0.0148038
	minimum = 0.00966667 (at node 20)
	maximum = 0.0193333 (at node 8)
Injected flit rate average = 0.918224
	minimum = 0.756667 (at node 182)
	maximum = 1 (at node 15)
Accepted flit rate average= 0.265339
	minimum = 0.168333 (at node 36)
	maximum = 0.347 (at node 90)
Injected packet length average = 18.0013
Accepted packet length average = 17.9237
Total in-flight flits = 739895 (485980 measured)
latency change    = 0.00368603
throughput change = 0.00180587
Class 0:
Packet latency average = 148.659
	minimum = 23
	maximum = 3756
Network latency average = 59.401
	minimum = 23
	maximum = 3674
Slowest packet = 28654
Flit latency average = 2669.99
	minimum = 6
	maximum = 6538
Slowest flit = 68668
Fragmentation average = 16.5186
	minimum = 0
	maximum = 176
Injected packet rate average = 0.0496914
	minimum = 0.0385 (at node 48)
	maximum = 0.05575 (at node 99)
Accepted packet rate average = 0.0146185
	minimum = 0.0095 (at node 36)
	maximum = 0.01875 (at node 99)
Injected flit rate average = 0.894538
	minimum = 0.693 (at node 48)
	maximum = 1 (at node 15)
Accepted flit rate average= 0.262875
	minimum = 0.16525 (at node 36)
	maximum = 0.3345 (at node 99)
Injected packet length average = 18.0019
Accepted packet length average = 17.9824
Total in-flight flits = 848918 (630665 measured)
latency change    = 0.0357724
throughput change = 0.00937153
Class 0:
Packet latency average = 184.096
	minimum = 23
	maximum = 5061
Network latency average = 83.8829
	minimum = 23
	maximum = 4943
Slowest packet = 28817
Flit latency average = 3013.4
	minimum = 6
	maximum = 7548
Slowest flit = 66509
Fragmentation average = 16.9723
	minimum = 0
	maximum = 355
Injected packet rate average = 0.0482615
	minimum = 0.033 (at node 48)
	maximum = 0.0556 (at node 15)
Accepted packet rate average = 0.0142313
	minimum = 0.009 (at node 36)
	maximum = 0.018 (at node 103)
Injected flit rate average = 0.868953
	minimum = 0.5958 (at node 48)
	maximum = 1 (at node 15)
Accepted flit rate average= 0.255333
	minimum = 0.161 (at node 36)
	maximum = 0.3222 (at node 138)
Injected packet length average = 18.0051
Accepted packet length average = 17.9417
Total in-flight flits = 952710 (769488 measured)
latency change    = 0.192489
throughput change = 0.0295366
Class 0:
Packet latency average = 338.279
	minimum = 23
	maximum = 6204
Network latency average = 213.052
	minimum = 23
	maximum = 5967
Slowest packet = 28856
Flit latency average = 3368.2
	minimum = 6
	maximum = 8365
Slowest flit = 60029
Fragmentation average = 20.0599
	minimum = 0
	maximum = 916
Injected packet rate average = 0.0472049
	minimum = 0.0306667 (at node 48)
	maximum = 0.0555 (at node 7)
Accepted packet rate average = 0.0138151
	minimum = 0.0101667 (at node 36)
	maximum = 0.0173333 (at node 187)
Injected flit rate average = 0.849813
	minimum = 0.551333 (at node 48)
	maximum = 1 (at node 15)
Accepted flit rate average= 0.248065
	minimum = 0.184167 (at node 36)
	maximum = 0.3065 (at node 114)
Injected packet length average = 18.0027
Accepted packet length average = 17.9561
Total in-flight flits = 1056941 (906914 measured)
latency change    = 0.455787
throughput change = 0.0292997
Class 0:
Packet latency average = 664.858
	minimum = 23
	maximum = 7215
Network latency average = 522.077
	minimum = 23
	maximum = 6973
Slowest packet = 28856
Flit latency average = 3732.4
	minimum = 6
	maximum = 9243
Slowest flit = 119048
Fragmentation average = 26.9562
	minimum = 0
	maximum = 1478
Injected packet rate average = 0.046465
	minimum = 0.0282857 (at node 48)
	maximum = 0.0555714 (at node 126)
Accepted packet rate average = 0.0134881
	minimum = 0.01 (at node 36)
	maximum = 0.0172857 (at node 187)
Injected flit rate average = 0.836505
	minimum = 0.510286 (at node 48)
	maximum = 1 (at node 126)
Accepted flit rate average= 0.241998
	minimum = 0.181429 (at node 36)
	maximum = 0.306429 (at node 187)
Injected packet length average = 18.0029
Accepted packet length average = 17.9416
Total in-flight flits = 1162709 (1043272 measured)
latency change    = 0.491201
throughput change = 0.0250719
Draining all recorded packets ...
Class 0:
Remaining flits: 75420 75421 75422 75423 75424 75425 75426 75427 75428 75429 [...] (1266736 flits)
Measured flits: 514044 514045 514046 514047 514048 514049 514050 514051 514052 514053 [...] (1056406 flits)
Class 0:
Remaining flits: 75433 75434 75435 75436 75437 111798 111799 111800 111801 111802 [...] (1370252 flits)
Measured flits: 514044 514045 514046 514047 514048 514049 514050 514051 514052 514053 [...] (1051808 flits)
Class 0:
Remaining flits: 133254 133255 133256 133257 133258 133259 133260 133261 133262 133263 [...] (1473084 flits)
Measured flits: 514044 514045 514046 514047 514048 514049 514050 514051 514052 514053 [...] (1042199 flits)
Class 0:
Remaining flits: 156064 156065 156066 156067 156068 156069 156070 156071 156072 156073 [...] (1578297 flits)
Measured flits: 514044 514045 514046 514047 514048 514049 514050 514051 514052 514053 [...] (1029863 flits)
Class 0:
Remaining flits: 156639 156640 156641 156642 156643 156644 156645 156646 156647 156648 [...] (1680633 flits)
Measured flits: 514044 514045 514046 514047 514048 514049 514050 514051 514052 514053 [...] (1013358 flits)
Class 0:
Remaining flits: 173250 173251 173252 173253 173254 173255 173256 173257 173258 173259 [...] (1786517 flits)
Measured flits: 514044 514045 514046 514047 514048 514049 514050 514051 514052 514053 [...] (996209 flits)
Class 0:
Remaining flits: 173250 173251 173252 173253 173254 173255 173256 173257 173258 173259 [...] (1890900 flits)
Measured flits: 514098 514099 514100 514101 514102 514103 514104 514105 514106 514107 [...] (977687 flits)
Class 0:
Remaining flits: 173250 173251 173252 173253 173254 173255 173256 173257 173258 173259 [...] (1988370 flits)
Measured flits: 514098 514099 514100 514101 514102 514103 514104 514105 514106 514107 [...] (957371 flits)
Class 0:
Remaining flits: 173250 173251 173252 173253 173254 173255 173256 173257 173258 173259 [...] (2047419 flits)
Measured flits: 514098 514099 514100 514101 514102 514103 514104 514105 514106 514107 [...] (935482 flits)
Class 0:
Remaining flits: 173250 173251 173252 173253 173254 173255 173256 173257 173258 173259 [...] (2074002 flits)
Measured flits: 514098 514099 514100 514101 514102 514103 514104 514105 514106 514107 [...] (910197 flits)
Class 0:
Remaining flits: 173250 173251 173252 173253 173254 173255 173256 173257 173258 173259 [...] (2087073 flits)
Measured flits: 514098 514099 514100 514101 514102 514103 514104 514105 514106 514107 [...] (881423 flits)
Class 0:
Remaining flits: 173250 173251 173252 173253 173254 173255 173256 173257 173258 173259 [...] (2098883 flits)
Measured flits: 514116 514117 514118 514119 514120 514121 514122 514123 514124 514125 [...] (850903 flits)
Class 0:
Remaining flits: 235170 235171 235172 235173 235174 235175 235176 235177 235178 235179 [...] (2112404 flits)
Measured flits: 514116 514117 514118 514119 514120 514121 514122 514123 514124 514125 [...] (819933 flits)
Class 0:
Remaining flits: 235170 235171 235172 235173 235174 235175 235176 235177 235178 235179 [...] (2124262 flits)
Measured flits: 514116 514117 514118 514119 514120 514121 514122 514123 514124 514125 [...] (788936 flits)
Class 0:
Remaining flits: 235170 235171 235172 235173 235174 235175 235176 235177 235178 235179 [...] (2136036 flits)
Measured flits: 514116 514117 514118 514119 514120 514121 514122 514123 514124 514125 [...] (756516 flits)
Class 0:
Remaining flits: 239221 239222 239223 239224 239225 239226 239227 239228 239229 239230 [...] (2146909 flits)
Measured flits: 514116 514117 514118 514119 514120 514121 514122 514123 514124 514125 [...] (723453 flits)
Class 0:
Remaining flits: 245466 245467 245468 245469 245470 245471 245472 245473 245474 245475 [...] (2157915 flits)
Measured flits: 514116 514117 514118 514119 514120 514121 514122 514123 514124 514125 [...] (690874 flits)
Class 0:
Remaining flits: 245466 245467 245468 245469 245470 245471 245472 245473 245474 245475 [...] (2168773 flits)
Measured flits: 514490 514491 514492 514493 516128 516129 516130 516131 516384 516385 [...] (658021 flits)
Class 0:
Remaining flits: 359189 400356 400357 400358 400359 400360 400361 400362 400363 400364 [...] (2178525 flits)
Measured flits: 516384 516385 516386 516387 516388 516389 516390 516391 516392 516393 [...] (625633 flits)
Class 0:
Remaining flits: 400500 400501 400502 400503 400504 400505 400506 400507 400508 400509 [...] (2189787 flits)
Measured flits: 521265 521266 521267 521268 521269 521270 521271 521272 521273 521274 [...] (592670 flits)
Class 0:
Remaining flits: 412182 412183 412184 412185 412186 412187 412188 412189 412190 412191 [...] (2201083 flits)
Measured flits: 526230 526231 526232 526233 526234 526235 526236 526237 526238 526239 [...] (559975 flits)
Class 0:
Remaining flits: 434178 434179 434180 434181 434182 434183 434184 434185 434186 434187 [...] (2211301 flits)
Measured flits: 526230 526231 526232 526233 526234 526235 526236 526237 526238 526239 [...] (527023 flits)
Class 0:
Remaining flits: 434178 434179 434180 434181 434182 434183 434184 434185 434186 434187 [...] (2222415 flits)
Measured flits: 526230 526231 526232 526233 526234 526235 526236 526237 526238 526239 [...] (494741 flits)
Class 0:
Remaining flits: 434178 434179 434180 434181 434182 434183 434184 434185 434186 434187 [...] (2234506 flits)
Measured flits: 526243 526244 526245 526246 526247 542520 542521 542522 542523 542524 [...] (462622 flits)
Class 0:
Remaining flits: 542520 542521 542522 542523 542524 542525 542526 542527 542528 542529 [...] (2246801 flits)
Measured flits: 542520 542521 542522 542523 542524 542525 542526 542527 542528 542529 [...] (430894 flits)
Class 0:
Remaining flits: 557406 557407 557408 557409 557410 557411 557412 557413 557414 557415 [...] (2256933 flits)
Measured flits: 557406 557407 557408 557409 557410 557411 557412 557413 557414 557415 [...] (399583 flits)
Class 0:
Remaining flits: 557406 557407 557408 557409 557410 557411 557412 557413 557414 557415 [...] (2267399 flits)
Measured flits: 557406 557407 557408 557409 557410 557411 557412 557413 557414 557415 [...] (368611 flits)
Class 0:
Remaining flits: 630290 630291 630292 630293 630294 630295 630296 630297 630298 630299 [...] (2278426 flits)
Measured flits: 630290 630291 630292 630293 630294 630295 630296 630297 630298 630299 [...] (338721 flits)
Class 0:
Remaining flits: 655506 655507 655508 655509 655510 655511 655512 655513 655514 655515 [...] (2290014 flits)
Measured flits: 655506 655507 655508 655509 655510 655511 655512 655513 655514 655515 [...] (310296 flits)
Class 0:
Remaining flits: 655506 655507 655508 655509 655510 655511 655512 655513 655514 655515 [...] (2299408 flits)
Measured flits: 655506 655507 655508 655509 655510 655511 655512 655513 655514 655515 [...] (283214 flits)
Class 0:
Remaining flits: 655506 655507 655508 655509 655510 655511 655512 655513 655514 655515 [...] (2311598 flits)
Measured flits: 655506 655507 655508 655509 655510 655511 655512 655513 655514 655515 [...] (257632 flits)
Class 0:
Remaining flits: 655506 655507 655508 655509 655510 655511 655512 655513 655514 655515 [...] (2321925 flits)
Measured flits: 655506 655507 655508 655509 655510 655511 655512 655513 655514 655515 [...] (233294 flits)
Class 0:
Remaining flits: 689486 689487 689488 689489 717210 717211 717212 717213 717214 717215 [...] (2333439 flits)
Measured flits: 689486 689487 689488 689489 717210 717211 717212 717213 717214 717215 [...] (210299 flits)
Class 0:
Remaining flits: 736866 736867 736868 736869 736870 736871 736872 736873 736874 736875 [...] (2343529 flits)
Measured flits: 736866 736867 736868 736869 736870 736871 736872 736873 736874 736875 [...] (188435 flits)
Class 0:
Remaining flits: 778698 778699 778700 778701 778702 778703 778704 778705 778706 778707 [...] (2356056 flits)
Measured flits: 778698 778699 778700 778701 778702 778703 778704 778705 778706 778707 [...] (169126 flits)
Class 0:
Remaining flits: 778698 778699 778700 778701 778702 778703 778704 778705 778706 778707 [...] (2368029 flits)
Measured flits: 778698 778699 778700 778701 778702 778703 778704 778705 778706 778707 [...] (151339 flits)
Class 0:
Remaining flits: 788328 788329 788330 788331 788332 788333 788334 788335 788336 788337 [...] (2378383 flits)
Measured flits: 788328 788329 788330 788331 788332 788333 788334 788335 788336 788337 [...] (134978 flits)
Class 0:
Remaining flits: 807390 807391 807392 807393 807394 807395 807396 807397 807398 807399 [...] (2390437 flits)
Measured flits: 807390 807391 807392 807393 807394 807395 807396 807397 807398 807399 [...] (120061 flits)
Class 0:
Remaining flits: 807393 807394 807395 807396 807397 807398 807399 807400 807401 807402 [...] (2402040 flits)
Measured flits: 807393 807394 807395 807396 807397 807398 807399 807400 807401 807402 [...] (108273 flits)
Class 0:
Remaining flits: 832968 832969 832970 832971 832972 832973 832974 832975 832976 832977 [...] (2411134 flits)
Measured flits: 832968 832969 832970 832971 832972 832973 832974 832975 832976 832977 [...] (95784 flits)
Class 0:
Remaining flits: 832968 832969 832970 832971 832972 832973 832974 832975 832976 832977 [...] (2419595 flits)
Measured flits: 832968 832969 832970 832971 832972 832973 832974 832975 832976 832977 [...] (85627 flits)
Class 0:
Remaining flits: 832968 832969 832970 832971 832972 832973 832974 832975 832976 832977 [...] (2427687 flits)
Measured flits: 832968 832969 832970 832971 832972 832973 832974 832975 832976 832977 [...] (75828 flits)
Class 0:
Remaining flits: 845795 845796 845797 845798 845799 845800 845801 867638 867639 867640 [...] (2436444 flits)
Measured flits: 845795 845796 845797 845798 845799 845800 845801 867638 867639 867640 [...] (67136 flits)
Class 0:
Remaining flits: 966528 966529 966530 966531 966532 966533 966534 966535 966536 966537 [...] (2443522 flits)
Measured flits: 966528 966529 966530 966531 966532 966533 966534 966535 966536 966537 [...] (59486 flits)
Class 0:
Remaining flits: 966528 966529 966530 966531 966532 966533 966534 966535 966536 966537 [...] (2448053 flits)
Measured flits: 966528 966529 966530 966531 966532 966533 966534 966535 966536 966537 [...] (51592 flits)
Class 0:
Remaining flits: 966530 966531 966532 966533 966534 966535 966536 966537 966538 966539 [...] (2449933 flits)
Measured flits: 966530 966531 966532 966533 966534 966535 966536 966537 966538 966539 [...] (44850 flits)
Class 0:
Remaining flits: 966530 966531 966532 966533 966534 966535 966536 966537 966538 966539 [...] (2451463 flits)
Measured flits: 966530 966531 966532 966533 966534 966535 966536 966537 966538 966539 [...] (39464 flits)
Class 0:
Remaining flits: 966532 966533 966534 966535 966536 966537 966538 966539 966540 966541 [...] (2451768 flits)
Measured flits: 966532 966533 966534 966535 966536 966537 966538 966539 966540 966541 [...] (34665 flits)
Class 0:
Remaining flits: 1052568 1052569 1052570 1052571 1052572 1052573 1052574 1052575 1052576 1052577 [...] (2451636 flits)
Measured flits: 1052568 1052569 1052570 1052571 1052572 1052573 1052574 1052575 1052576 1052577 [...] (30398 flits)
Class 0:
Remaining flits: 1071630 1071631 1071632 1071633 1071634 1071635 1071636 1071637 1071638 1071639 [...] (2451326 flits)
Measured flits: 1071630 1071631 1071632 1071633 1071634 1071635 1071636 1071637 1071638 1071639 [...] (26119 flits)
Class 0:
Remaining flits: 1071630 1071631 1071632 1071633 1071634 1071635 1071636 1071637 1071638 1071639 [...] (2448909 flits)
Measured flits: 1071630 1071631 1071632 1071633 1071634 1071635 1071636 1071637 1071638 1071639 [...] (22620 flits)
Class 0:
Remaining flits: 1071630 1071631 1071632 1071633 1071634 1071635 1071636 1071637 1071638 1071639 [...] (2441298 flits)
Measured flits: 1071630 1071631 1071632 1071633 1071634 1071635 1071636 1071637 1071638 1071639 [...] (19162 flits)
Class 0:
Remaining flits: 1177038 1177039 1177040 1177041 1177042 1177043 1177044 1177045 1177046 1177047 [...] (2432478 flits)
Measured flits: 1177038 1177039 1177040 1177041 1177042 1177043 1177044 1177045 1177046 1177047 [...] (16249 flits)
Class 0:
Remaining flits: 1177038 1177039 1177040 1177041 1177042 1177043 1177044 1177045 1177046 1177047 [...] (2418932 flits)
Measured flits: 1177038 1177039 1177040 1177041 1177042 1177043 1177044 1177045 1177046 1177047 [...] (14069 flits)
Class 0:
Remaining flits: 1177038 1177039 1177040 1177041 1177042 1177043 1177044 1177045 1177046 1177047 [...] (2412743 flits)
Measured flits: 1177038 1177039 1177040 1177041 1177042 1177043 1177044 1177045 1177046 1177047 [...] (11980 flits)
Class 0:
Remaining flits: 1177038 1177039 1177040 1177041 1177042 1177043 1177044 1177045 1177046 1177047 [...] (2403866 flits)
Measured flits: 1177038 1177039 1177040 1177041 1177042 1177043 1177044 1177045 1177046 1177047 [...] (9850 flits)
Class 0:
Remaining flits: 1223010 1223011 1223012 1223013 1223014 1223015 1223016 1223017 1223018 1223019 [...] (2396506 flits)
Measured flits: 1223010 1223011 1223012 1223013 1223014 1223015 1223016 1223017 1223018 1223019 [...] (7892 flits)
Class 0:
Remaining flits: 1223010 1223011 1223012 1223013 1223014 1223015 1223016 1223017 1223018 1223019 [...] (2390561 flits)
Measured flits: 1223010 1223011 1223012 1223013 1223014 1223015 1223016 1223017 1223018 1223019 [...] (6626 flits)
Class 0:
Remaining flits: 1223026 1223027 1223568 1223569 1223570 1223571 1223572 1223573 1223574 1223575 [...] (2383435 flits)
Measured flits: 1223026 1223027 1223568 1223569 1223570 1223571 1223572 1223573 1223574 1223575 [...] (5616 flits)
Class 0:
Remaining flits: 1223568 1223569 1223570 1223571 1223572 1223573 1223574 1223575 1223576 1223577 [...] (2375707 flits)
Measured flits: 1223568 1223569 1223570 1223571 1223572 1223573 1223574 1223575 1223576 1223577 [...] (4550 flits)
Class 0:
Remaining flits: 1223568 1223569 1223570 1223571 1223572 1223573 1223574 1223575 1223576 1223577 [...] (2371781 flits)
Measured flits: 1223568 1223569 1223570 1223571 1223572 1223573 1223574 1223575 1223576 1223577 [...] (3901 flits)
Class 0:
Remaining flits: 1223568 1223569 1223570 1223571 1223572 1223573 1223574 1223575 1223576 1223577 [...] (2364271 flits)
Measured flits: 1223568 1223569 1223570 1223571 1223572 1223573 1223574 1223575 1223576 1223577 [...] (3102 flits)
Class 0:
Remaining flits: 1223568 1223569 1223570 1223571 1223572 1223573 1223574 1223575 1223576 1223577 [...] (2355978 flits)
Measured flits: 1223568 1223569 1223570 1223571 1223572 1223573 1223574 1223575 1223576 1223577 [...] (2401 flits)
Class 0:
Remaining flits: 1223568 1223569 1223570 1223571 1223572 1223573 1223574 1223575 1223576 1223577 [...] (2350205 flits)
Measured flits: 1223568 1223569 1223570 1223571 1223572 1223573 1223574 1223575 1223576 1223577 [...] (2014 flits)
Class 0:
Remaining flits: 1223570 1223571 1223572 1223573 1223574 1223575 1223576 1223577 1223578 1223579 [...] (2343902 flits)
Measured flits: 1223570 1223571 1223572 1223573 1223574 1223575 1223576 1223577 1223578 1223579 [...] (1562 flits)
Class 0:
Remaining flits: 1251126 1251127 1251128 1251129 1251130 1251131 1251132 1251133 1251134 1251135 [...] (2340129 flits)
Measured flits: 1251126 1251127 1251128 1251129 1251130 1251131 1251132 1251133 1251134 1251135 [...] (1238 flits)
Class 0:
Remaining flits: 1251126 1251127 1251128 1251129 1251130 1251131 1251132 1251133 1251134 1251135 [...] (2340710 flits)
Measured flits: 1251126 1251127 1251128 1251129 1251130 1251131 1251132 1251133 1251134 1251135 [...] (955 flits)
Class 0:
Remaining flits: 1251126 1251127 1251128 1251129 1251130 1251131 1251132 1251133 1251134 1251135 [...] (2337289 flits)
Measured flits: 1251126 1251127 1251128 1251129 1251130 1251131 1251132 1251133 1251134 1251135 [...] (791 flits)
Class 0:
Remaining flits: 1251141 1251142 1251143 1334052 1334053 1334054 1334055 1334056 1334057 1334058 [...] (2335323 flits)
Measured flits: 1251141 1251142 1251143 1334052 1334053 1334054 1334055 1334056 1334057 1334058 [...] (569 flits)
Class 0:
Remaining flits: 1447362 1447363 1447364 1447365 1447366 1447367 1447368 1447369 1447370 1447371 [...] (2331288 flits)
Measured flits: 1447362 1447363 1447364 1447365 1447366 1447367 1447368 1447369 1447370 1447371 [...] (449 flits)
Class 0:
Remaining flits: 1447362 1447363 1447364 1447365 1447366 1447367 1447368 1447369 1447370 1447371 [...] (2320067 flits)
Measured flits: 1447362 1447363 1447364 1447365 1447366 1447367 1447368 1447369 1447370 1447371 [...] (358 flits)
Class 0:
Remaining flits: 1447362 1447363 1447364 1447365 1447366 1447367 1447368 1447369 1447370 1447371 [...] (2311778 flits)
Measured flits: 1447362 1447363 1447364 1447365 1447366 1447367 1447368 1447369 1447370 1447371 [...] (292 flits)
Class 0:
Remaining flits: 1447362 1447363 1447364 1447365 1447366 1447367 1447368 1447369 1447370 1447371 [...] (2306706 flits)
Measured flits: 1447362 1447363 1447364 1447365 1447366 1447367 1447368 1447369 1447370 1447371 [...] (209 flits)
Class 0:
Remaining flits: 1524582 1524583 1524584 1524585 1524586 1524587 1524588 1524589 1524590 1524591 [...] (2302246 flits)
Measured flits: 1524582 1524583 1524584 1524585 1524586 1524587 1524588 1524589 1524590 1524591 [...] (108 flits)
Class 0:
Remaining flits: 1524582 1524583 1524584 1524585 1524586 1524587 1524588 1524589 1524590 1524591 [...] (2297344 flits)
Measured flits: 1524582 1524583 1524584 1524585 1524586 1524587 1524588 1524589 1524590 1524591 [...] (72 flits)
Class 0:
Remaining flits: 1524588 1524589 1524590 1524591 1524592 1524593 1524594 1524595 1524596 1524597 [...] (2293266 flits)
Measured flits: 1524588 1524589 1524590 1524591 1524592 1524593 1524594 1524595 1524596 1524597 [...] (48 flits)
Class 0:
Remaining flits: 1651194 1651195 1651196 1651197 1651198 1651199 1651200 1651201 1651202 1651203 [...] (2286670 flits)
Measured flits: 1651194 1651195 1651196 1651197 1651198 1651199 1651200 1651201 1651202 1651203 [...] (36 flits)
Class 0:
Remaining flits: 1651194 1651195 1651196 1651197 1651198 1651199 1651200 1651201 1651202 1651203 [...] (2283110 flits)
Measured flits: 1651194 1651195 1651196 1651197 1651198 1651199 1651200 1651201 1651202 1651203 [...] (35 flits)
Draining remaining packets ...
Class 0:
Remaining flits: 1744812 1744813 1744814 1744815 1744816 1744817 1744818 1744819 1744820 1744821 [...] (2245694 flits)
Measured flits: (0 flits)
Class 0:
Remaining flits: 1744829 1745784 1745785 1745786 1745787 1745788 1745789 1745790 1745791 1745792 [...] (2210559 flits)
Measured flits: (0 flits)
Class 0:
Remaining flits: 1745784 1745785 1745786 1745787 1745788 1745789 1745790 1745791 1745792 1745793 [...] (2175760 flits)
Measured flits: (0 flits)
Class 0:
Remaining flits: 1775238 1775239 1775240 1775241 1775242 1775243 1775244 1775245 1775246 1775247 [...] (2141343 flits)
Measured flits: (0 flits)
Class 0:
Remaining flits: 1794690 1794691 1794692 1794693 1794694 1794695 1794696 1794697 1794698 1794699 [...] (2106462 flits)
Measured flits: (0 flits)
Class 0:
Remaining flits: 1794690 1794691 1794692 1794693 1794694 1794695 1794696 1794697 1794698 1794699 [...] (2070195 flits)
Measured flits: (0 flits)
Class 0:
Remaining flits: 1794690 1794691 1794692 1794693 1794694 1794695 1794696 1794697 1794698 1794699 [...] (2034589 flits)
Measured flits: (0 flits)
Class 0:
Remaining flits: 1794690 1794691 1794692 1794693 1794694 1794695 1794696 1794697 1794698 1794699 [...] (1998976 flits)
Measured flits: (0 flits)
Class 0:
Remaining flits: 1794690 1794691 1794692 1794693 1794694 1794695 1794696 1794697 1794698 1794699 [...] (1963975 flits)
Measured flits: (0 flits)
Class 0:
Remaining flits: 1794690 1794691 1794692 1794693 1794694 1794695 1794696 1794697 1794698 1794699 [...] (1928853 flits)
Measured flits: (0 flits)
Class 0:
Remaining flits: 1794692 1794693 1794694 1794695 1794696 1794697 1794698 1794699 1794700 1794701 [...] (1894356 flits)
Measured flits: (0 flits)
Class 0:
Remaining flits: 1941858 1941859 1941860 1941861 1941862 1941863 1941864 1941865 1941866 1941867 [...] (1859697 flits)
Measured flits: (0 flits)
Class 0:
Remaining flits: 1941858 1941859 1941860 1941861 1941862 1941863 1941864 1941865 1941866 1941867 [...] (1824388 flits)
Measured flits: (0 flits)
Class 0:
Remaining flits: 1941875 1981062 1981063 1981064 1981065 1981066 1981067 1981068 1981069 1981070 [...] (1789364 flits)
Measured flits: (0 flits)
Class 0:
Remaining flits: 1981062 1981063 1981064 1981065 1981066 1981067 1981068 1981069 1981070 1981071 [...] (1753649 flits)
Measured flits: (0 flits)
Class 0:
Remaining flits: 1983546 1983547 1983548 1983549 1983550 1983551 1983552 1983553 1983554 1983555 [...] (1717997 flits)
Measured flits: (0 flits)
Class 0:
Remaining flits: 1983546 1983547 1983548 1983549 1983550 1983551 1983552 1983553 1983554 1983555 [...] (1681919 flits)
Measured flits: (0 flits)
Class 0:
Remaining flits: 1983546 1983547 1983548 1983549 1983550 1983551 1983552 1983553 1983554 1983555 [...] (1645824 flits)
Measured flits: (0 flits)
Class 0:
Remaining flits: 2007114 2007115 2007116 2007117 2007118 2007119 2007120 2007121 2007122 2007123 [...] (1609976 flits)
Measured flits: (0 flits)
Class 0:
Remaining flits: 2151036 2151037 2151038 2151039 2151040 2151041 2151042 2151043 2151044 2151045 [...] (1574576 flits)
Measured flits: (0 flits)
Class 0:
Remaining flits: 2172006 2172007 2172008 2172009 2172010 2172011 2172012 2172013 2172014 2172015 [...] (1538709 flits)
Measured flits: (0 flits)
Class 0:
Remaining flits: 2172007 2172008 2172009 2172010 2172011 2172012 2172013 2172014 2172015 2172016 [...] (1503234 flits)
Measured flits: (0 flits)
Class 0:
Remaining flits: 2232936 2232937 2232938 2232939 2232940 2232941 2232942 2232943 2232944 2232945 [...] (1467369 flits)
Measured flits: (0 flits)
Class 0:
Remaining flits: 2232936 2232937 2232938 2232939 2232940 2232941 2232942 2232943 2232944 2232945 [...] (1432197 flits)
Measured flits: (0 flits)
Class 0:
Remaining flits: 2232936 2232937 2232938 2232939 2232940 2232941 2232942 2232943 2232944 2232945 [...] (1397241 flits)
Measured flits: (0 flits)
Class 0:
Remaining flits: 2232936 2232937 2232938 2232939 2232940 2232941 2232942 2232943 2232944 2232945 [...] (1362400 flits)
Measured flits: (0 flits)
Class 0:
Remaining flits: 2232936 2232937 2232938 2232939 2232940 2232941 2232942 2232943 2232944 2232945 [...] (1326669 flits)
Measured flits: (0 flits)
Class 0:
Remaining flits: 2232939 2232940 2232941 2232942 2232943 2232944 2232945 2232946 2232947 2232948 [...] (1291990 flits)
Measured flits: (0 flits)
Class 0:
Remaining flits: 2349666 2349667 2349668 2349669 2349670 2349671 2349672 2349673 2349674 2349675 [...] (1257493 flits)
Measured flits: (0 flits)
Class 0:
Remaining flits: 2349666 2349667 2349668 2349669 2349670 2349671 2349672 2349673 2349674 2349675 [...] (1222353 flits)
Measured flits: (0 flits)
Class 0:
Remaining flits: 2349666 2349667 2349668 2349669 2349670 2349671 2349672 2349673 2349674 2349675 [...] (1187141 flits)
Measured flits: (0 flits)
Class 0:
Remaining flits: 2427480 2427481 2427482 2427483 2427484 2427485 2427486 2427487 2427488 2427489 [...] (1152694 flits)
Measured flits: (0 flits)
Class 0:
Remaining flits: 2427480 2427481 2427482 2427483 2427484 2427485 2427486 2427487 2427488 2427489 [...] (1118867 flits)
Measured flits: (0 flits)
Class 0:
Remaining flits: 2452176 2452177 2452178 2452179 2452180 2452181 2452182 2452183 2452184 2452185 [...] (1084403 flits)
Measured flits: (0 flits)
Class 0:
Remaining flits: 2452176 2452177 2452178 2452179 2452180 2452181 2452182 2452183 2452184 2452185 [...] (1049864 flits)
Measured flits: (0 flits)
Class 0:
Remaining flits: 2452176 2452177 2452178 2452179 2452180 2452181 2452182 2452183 2452184 2452185 [...] (1015637 flits)
Measured flits: (0 flits)
Class 0:
Remaining flits: 2452193 2530602 2530603 2530604 2530605 2530606 2530607 2530608 2530609 2530610 [...] (982057 flits)
Measured flits: (0 flits)
Class 0:
Remaining flits: 2530602 2530603 2530604 2530605 2530606 2530607 2530608 2530609 2530610 2530611 [...] (948821 flits)
Measured flits: (0 flits)
Class 0:
Remaining flits: 2530602 2530603 2530604 2530605 2530606 2530607 2530608 2530609 2530610 2530611 [...] (915385 flits)
Measured flits: (0 flits)
Class 0:
Remaining flits: 2530604 2530605 2530606 2530607 2530608 2530609 2530610 2530611 2530612 2530613 [...] (882025 flits)
Measured flits: (0 flits)
Class 0:
Remaining flits: 2693628 2693629 2693630 2693631 2693632 2693633 2693634 2693635 2693636 2693637 [...] (848658 flits)
Measured flits: (0 flits)
Class 0:
Remaining flits: 2693628 2693629 2693630 2693631 2693632 2693633 2693634 2693635 2693636 2693637 [...] (815231 flits)
Measured flits: (0 flits)
Class 0:
Remaining flits: 2693628 2693629 2693630 2693631 2693632 2693633 2693634 2693635 2693636 2693637 [...] (781816 flits)
Measured flits: (0 flits)
Class 0:
Remaining flits: 2693628 2693629 2693630 2693631 2693632 2693633 2693634 2693635 2693636 2693637 [...] (747259 flits)
Measured flits: (0 flits)
Class 0:
Remaining flits: 2693628 2693629 2693630 2693631 2693632 2693633 2693634 2693635 2693636 2693637 [...] (713148 flits)
Measured flits: (0 flits)
Class 0:
Remaining flits: 2750602 2750603 2750604 2750605 2750606 2750607 2750608 2750609 2750610 2750611 [...] (679474 flits)
Measured flits: (0 flits)
Class 0:
Remaining flits: 2750613 2750614 2750615 2784312 2784313 2784314 2784315 2784316 2784317 2784318 [...] (645074 flits)
Measured flits: (0 flits)
Class 0:
Remaining flits: 2784312 2784313 2784314 2784315 2784316 2784317 2784318 2784319 2784320 2784321 [...] (610607 flits)
Measured flits: (0 flits)
Class 0:
Remaining flits: 2810376 2810377 2810378 2810379 2810380 2810381 2810382 2810383 2810384 2810385 [...] (576199 flits)
Measured flits: (0 flits)
Class 0:
Remaining flits: 2810376 2810377 2810378 2810379 2810380 2810381 2810382 2810383 2810384 2810385 [...] (542055 flits)
Measured flits: (0 flits)
Class 0:
Remaining flits: 2810376 2810377 2810378 2810379 2810380 2810381 2810382 2810383 2810384 2810385 [...] (507707 flits)
Measured flits: (0 flits)
Class 0:
Remaining flits: 2810376 2810377 2810378 2810379 2810380 2810381 2810382 2810383 2810384 2810385 [...] (473362 flits)
Measured flits: (0 flits)
Class 0:
Remaining flits: 2810380 2810381 2810382 2810383 2810384 2810385 2810386 2810387 2810388 2810389 [...] (438613 flits)
Measured flits: (0 flits)
Class 0:
Remaining flits: 2900376 2900377 2900378 2900379 2900380 2900381 2900382 2900383 2900384 2900385 [...] (403720 flits)
Measured flits: (0 flits)
Class 0:
Remaining flits: 2900376 2900377 2900378 2900379 2900380 2900381 2900382 2900383 2900384 2900385 [...] (367328 flits)
Measured flits: (0 flits)
Class 0:
Remaining flits: 2900376 2900377 2900378 2900379 2900380 2900381 2900382 2900383 2900384 2900385 [...] (331425 flits)
Measured flits: (0 flits)
Class 0:
Remaining flits: 2900376 2900377 2900378 2900379 2900380 2900381 2900382 2900383 2900384 2900385 [...] (296487 flits)
Measured flits: (0 flits)
Class 0:
Remaining flits: 2900376 2900377 2900378 2900379 2900380 2900381 2900382 2900383 2900384 2900385 [...] (261858 flits)
Measured flits: (0 flits)
Class 0:
Remaining flits: 3004218 3004219 3004220 3004221 3004222 3004223 3004224 3004225 3004226 3004227 [...] (228307 flits)
Measured flits: (0 flits)
Class 0:
Remaining flits: 3004218 3004219 3004220 3004221 3004222 3004223 3004224 3004225 3004226 3004227 [...] (195718 flits)
Measured flits: (0 flits)
Class 0:
Remaining flits: 3004218 3004219 3004220 3004221 3004222 3004223 3004224 3004225 3004226 3004227 [...] (164752 flits)
Measured flits: (0 flits)
Class 0:
Remaining flits: 3004218 3004219 3004220 3004221 3004222 3004223 3004224 3004225 3004226 3004227 [...] (134927 flits)
Measured flits: (0 flits)
Class 0:
Remaining flits: 3004218 3004219 3004220 3004221 3004222 3004223 3004224 3004225 3004226 3004227 [...] (106755 flits)
Measured flits: (0 flits)
Class 0:
Remaining flits: 3004218 3004219 3004220 3004221 3004222 3004223 3004224 3004225 3004226 3004227 [...] (80507 flits)
Measured flits: (0 flits)
Class 0:
Remaining flits: 3120768 3120769 3120770 3120771 3120772 3120773 3120774 3120775 3120776 3120777 [...] (57801 flits)
Measured flits: (0 flits)
Class 0:
Remaining flits: 3275028 3275029 3275030 3275031 3275032 3275033 3275034 3275035 3275036 3275037 [...] (37968 flits)
Measured flits: (0 flits)
Class 0:
Remaining flits: 3429738 3429739 3429740 3429741 3429742 3429743 3429744 3429745 3429746 3429747 [...] (23142 flits)
Measured flits: (0 flits)
Class 0:
Remaining flits: 3429738 3429739 3429740 3429741 3429742 3429743 3429744 3429745 3429746 3429747 [...] (11539 flits)
Measured flits: (0 flits)
Class 0:
Remaining flits: 3739878 3739879 3739880 3739881 3739882 3739883 3739884 3739885 3739886 3739887 [...] (4256 flits)
Measured flits: (0 flits)
Class 0:
Remaining flits: 4513986 4513987 4513988 4513989 4513990 4513991 4513992 4513993 4513994 4513995 [...] (975 flits)
Measured flits: (0 flits)
Time taken is 159215 cycles
====== Overall Traffic Statistics ======
====== Traffic class 0 ======
Packet latency average = 23293.5 (1 samples)
	minimum = 23 (1 samples)
	maximum = 78901 (1 samples)
Network latency average = 22574.3 (1 samples)
	minimum = 23 (1 samples)
	maximum = 78609 (1 samples)
Flit latency average = 46555.3 (1 samples)
	minimum = 6 (1 samples)
	maximum = 132345 (1 samples)
Fragmentation average = 189.661 (1 samples)
	minimum = 0 (1 samples)
	maximum = 4906 (1 samples)
Injected packet rate average = 0.046465 (1 samples)
	minimum = 0.0282857 (1 samples)
	maximum = 0.0555714 (1 samples)
Accepted packet rate average = 0.0134881 (1 samples)
	minimum = 0.01 (1 samples)
	maximum = 0.0172857 (1 samples)
Injected flit rate average = 0.836505 (1 samples)
	minimum = 0.510286 (1 samples)
	maximum = 1 (1 samples)
Accepted flit rate average = 0.241998 (1 samples)
	minimum = 0.181429 (1 samples)
	maximum = 0.306429 (1 samples)
Injected packet size average = 18.0029 (1 samples)
Accepted packet size average = 17.9416 (1 samples)
Hops average = 5.07018 (1 samples)
Total run time 215.68
