BEGIN Configuration File: networks/mezzanine_config
topology = mezzanine;
n = 12;

routing_function = multipath;
internal_speedup = 2.0;
latency_thres = 100000.0;
use_read_write = 0;

sample_period = 1000;
injection_rate = 0.5;
packet_size = 18;

noq = 1;
routing_delay = 0;
vc_alloc_delay = 1;
sw_alloc_delay = 1;
st_final_delay = 1;
vc_allocator = islip; 
sw_allocator = islip;
alloc_iters  = 4;
num_vcs     = 12;
buffer_policy = private; // private or shared
buf_size = -1; // -1 for buffer_policy = private;
vc_buf_size = 4096; // size of each VOQ with buffer_policy = private
output_buffer_size = -1;


traffic = uniform;

//mezW = 0.0;
//mezPredefinedPatternType = shift-inter; //shift-qfdb

END Configuration File: networks/mezzanine_config
OVERRIDE Parameter: injection_rate=0.004697
OVERRIDE Parameter: routing_function=multipath
OVERRIDE Parameter: num_vcs=12
OVERRIDE Parameter: vc_buf_size=144
OVERRIDE Parameter: internal_speedup=2.0
OVERRIDE Parameter: injection_process=on_off
OVERRIDE Parameter: sim_type=latency
OVERRIDE Parameter: burst_alpha=0.0038461538
OVERRIDE Parameter: burst_beta=0.1
network: network_0
========================== Routing table  =====================
Number of Subnets: 1
Class 0:
Packet latency average = 64.0604
	minimum = 22
	maximum = 186
Network latency average = 48.3478
	minimum = 22
	maximum = 124
Slowest packet = 1
Flit latency average = 28.0865
	minimum = 5
	maximum = 107
Slowest flit = 1887
Fragmentation average = 5.79533
	minimum = 0
	maximum = 55
Injected packet rate average = 0.00510938
	minimum = 0 (at node 5)
	maximum = 0.02 (at node 161)
Accepted packet rate average = 0.00491146
	minimum = 0.001 (at node 41)
	maximum = 0.011 (at node 140)
Injected flit rate average = 0.090974
	minimum = 0 (at node 5)
	maximum = 0.36 (at node 161)
Accepted flit rate average= 0.0890156
	minimum = 0.018 (at node 41)
	maximum = 0.198 (at node 140)
Injected packet length average = 17.8053
Accepted packet length average = 18.1241
Total in-flight flits = 567 (0 measured)
latency change    = 1
throughput change = 1
Class 0:
Packet latency average = 63.5641
	minimum = 22
	maximum = 296
Network latency average = 48.1508
	minimum = 22
	maximum = 235
Slowest packet = 1141
Flit latency average = 27.9327
	minimum = 5
	maximum = 218
Slowest flit = 21240
Fragmentation average = 5.75438
	minimum = 0
	maximum = 55
Injected packet rate average = 0.00473437
	minimum = 0 (at node 37)
	maximum = 0.014 (at node 161)
Accepted packet rate average = 0.00461198
	minimum = 0.0005 (at node 41)
	maximum = 0.008 (at node 48)
Injected flit rate average = 0.0848724
	minimum = 0 (at node 37)
	maximum = 0.251 (at node 161)
Accepted flit rate average= 0.0835078
	minimum = 0.009 (at node 41)
	maximum = 0.148 (at node 70)
Injected packet length average = 17.9268
Accepted packet length average = 18.1067
Total in-flight flits = 657 (0 measured)
latency change    = 0.00780877
throughput change = 0.0659557
Class 0:
Packet latency average = 63.8592
	minimum = 25
	maximum = 204
Network latency average = 47.7963
	minimum = 22
	maximum = 142
Slowest packet = 1770
Flit latency average = 27.9569
	minimum = 5
	maximum = 125
Slowest flit = 38051
Fragmentation average = 5.32178
	minimum = 0
	maximum = 35
Injected packet rate average = 0.00475521
	minimum = 0 (at node 1)
	maximum = 0.025 (at node 22)
Accepted packet rate average = 0.00480729
	minimum = 0 (at node 17)
	maximum = 0.013 (at node 173)
Injected flit rate average = 0.0857448
	minimum = 0 (at node 1)
	maximum = 0.467 (at node 22)
Accepted flit rate average= 0.0865781
	minimum = 0 (at node 17)
	maximum = 0.234 (at node 173)
Injected packet length average = 18.0318
Accepted packet length average = 18.0098
Total in-flight flits = 468 (0 measured)
latency change    = 0.00462059
throughput change = 0.0354629
Warmed up ...Time used is 3000 cycles
Class 0:
Packet latency average = 65.7054
	minimum = 22
	maximum = 235
Network latency average = 47.9505
	minimum = 22
	maximum = 168
Slowest packet = 2739
Flit latency average = 28.3509
	minimum = 5
	maximum = 175
Slowest flit = 63358
Fragmentation average = 5.01496
	minimum = 0
	maximum = 33
Injected packet rate average = 0.00471875
	minimum = 0 (at node 0)
	maximum = 0.016 (at node 115)
Accepted packet rate average = 0.00471875
	minimum = 0 (at node 18)
	maximum = 0.011 (at node 22)
Injected flit rate average = 0.084651
	minimum = 0 (at node 0)
	maximum = 0.272 (at node 115)
Accepted flit rate average= 0.0848333
	minimum = 0 (at node 18)
	maximum = 0.205 (at node 22)
Injected packet length average = 17.9393
Accepted packet length average = 17.9779
Total in-flight flits = 488 (488 measured)
latency change    = 0.028099
throughput change = 0.0205673
Class 0:
Packet latency average = 62.772
	minimum = 22
	maximum = 235
Network latency average = 47.3055
	minimum = 22
	maximum = 196
Slowest packet = 2739
Flit latency average = 27.5931
	minimum = 5
	maximum = 179
Slowest flit = 63359
Fragmentation average = 4.91778
	minimum = 0
	maximum = 49
Injected packet rate average = 0.00454948
	minimum = 0 (at node 58)
	maximum = 0.012 (at node 115)
Accepted packet rate average = 0.0045625
	minimum = 0.001 (at node 24)
	maximum = 0.0085 (at node 166)
Injected flit rate average = 0.0819323
	minimum = 0 (at node 58)
	maximum = 0.216 (at node 115)
Accepted flit rate average= 0.0819948
	minimum = 0.018 (at node 24)
	maximum = 0.153 (at node 166)
Injected packet length average = 18.0092
Accepted packet length average = 17.9715
Total in-flight flits = 428 (428 measured)
latency change    = 0.046731
throughput change = 0.0346186
Class 0:
Packet latency average = 62.7427
	minimum = 22
	maximum = 260
Network latency average = 46.8147
	minimum = 22
	maximum = 196
Slowest packet = 2739
Flit latency average = 27.153
	minimum = 5
	maximum = 179
Slowest flit = 63359
Fragmentation average = 4.88867
	minimum = 0
	maximum = 49
Injected packet rate average = 0.00444097
	minimum = 0.000333333 (at node 119)
	maximum = 0.00933333 (at node 173)
Accepted packet rate average = 0.00443056
	minimum = 0.00133333 (at node 153)
	maximum = 0.00733333 (at node 174)
Injected flit rate average = 0.0799531
	minimum = 0.006 (at node 119)
	maximum = 0.168 (at node 173)
Accepted flit rate average= 0.0797153
	minimum = 0.024 (at node 153)
	maximum = 0.132 (at node 174)
Injected packet length average = 18.0035
Accepted packet length average = 17.9922
Total in-flight flits = 596 (596 measured)
latency change    = 0.000466478
throughput change = 0.0285957
Draining all recorded packets ...
Draining remaining packets ...
Time taken is 6191 cycles
====== Overall Traffic Statistics ======
====== Traffic class 0 ======
Packet latency average = 63.5236 (1 samples)
	minimum = 22 (1 samples)
	maximum = 260 (1 samples)
Network latency average = 47.1124 (1 samples)
	minimum = 22 (1 samples)
	maximum = 196 (1 samples)
Flit latency average = 27.3223 (1 samples)
	minimum = 5 (1 samples)
	maximum = 179 (1 samples)
Fragmentation average = 4.92481 (1 samples)
	minimum = 0 (1 samples)
	maximum = 49 (1 samples)
Injected packet rate average = 0.00444097 (1 samples)
	minimum = 0.000333333 (1 samples)
	maximum = 0.00933333 (1 samples)
Accepted packet rate average = 0.00443056 (1 samples)
	minimum = 0.00133333 (1 samples)
	maximum = 0.00733333 (1 samples)
Injected flit rate average = 0.0799531 (1 samples)
	minimum = 0.006 (1 samples)
	maximum = 0.168 (1 samples)
Accepted flit rate average = 0.0797153 (1 samples)
	minimum = 0.024 (1 samples)
	maximum = 0.132 (1 samples)
Injected packet size average = 18.0035 (1 samples)
Accepted packet size average = 17.9922 (1 samples)
Hops average = 5.05194 (1 samples)
Total run time 1.55151
