BEGIN Configuration File: networks/mezzanine_config
topology = mezzanine;
n = 12;

routing_function = multipath;
internal_speedup = 2.0;
latency_thres = 100000.0;
use_read_write = 0;

sample_period = 1000;
injection_rate = 0.5;
packet_size = 18;

noq = 1;
routing_delay = 0;
vc_alloc_delay = 1;
sw_alloc_delay = 1;
st_final_delay = 1;
vc_allocator = islip; 
sw_allocator = islip;
alloc_iters  = 4;
num_vcs     = 12;
buffer_policy = private; // private or shared
buf_size = -1; // -1 for buffer_policy = private;
vc_buf_size = 4096; // size of each VOQ with buffer_policy = private
output_buffer_size = -1;


traffic = uniform;

//mezW = 0.0;
//mezPredefinedPatternType = shift-inter; //shift-qfdb

END Configuration File: networks/mezzanine_config
OVERRIDE Parameter: injection_rate=0.015747
OVERRIDE Parameter: routing_function=multipath
OVERRIDE Parameter: num_vcs=32
OVERRIDE Parameter: vc_buf_size=144
OVERRIDE Parameter: internal_speedup=2.0
OVERRIDE Parameter: injection_process=bernoulli
OVERRIDE Parameter: sim_type=latency
OVERRIDE Parameter: burst_alpha=0.0038461538
OVERRIDE Parameter: burst_beta=0.1
network: network_0
========================== Routing table  =====================
Number of Subnets: 1
Class 0:
Packet latency average = 138.447
	minimum = 22
	maximum = 463
Network latency average = 135.346
	minimum = 22
	maximum = 463
Slowest packet = 775
Flit latency average = 105.995
	minimum = 5
	maximum = 446
Slowest flit = 16955
Fragmentation average = 26.9868
	minimum = 0
	maximum = 188
Injected packet rate average = 0.0158542
	minimum = 0.008 (at node 65)
	maximum = 0.027 (at node 14)
Accepted packet rate average = 0.0126302
	minimum = 0.003 (at node 174)
	maximum = 0.022 (at node 44)
Injected flit rate average = 0.282297
	minimum = 0.144 (at node 65)
	maximum = 0.486 (at node 14)
Accepted flit rate average= 0.233432
	minimum = 0.058 (at node 174)
	maximum = 0.41 (at node 132)
Injected packet length average = 17.8058
Accepted packet length average = 18.4821
Total in-flight flits = 9973 (0 measured)
latency change    = 1
throughput change = 1
Class 0:
Packet latency average = 192.47
	minimum = 22
	maximum = 678
Network latency average = 189.236
	minimum = 22
	maximum = 678
Slowest packet = 2722
Flit latency average = 158.634
	minimum = 5
	maximum = 661
Slowest flit = 49013
Fragmentation average = 28.3808
	minimum = 0
	maximum = 188
Injected packet rate average = 0.0156458
	minimum = 0.009 (at node 164)
	maximum = 0.0235 (at node 44)
Accepted packet rate average = 0.0135417
	minimum = 0.0075 (at node 153)
	maximum = 0.0195 (at node 22)
Injected flit rate average = 0.280391
	minimum = 0.162 (at node 164)
	maximum = 0.423 (at node 44)
Accepted flit rate average= 0.247047
	minimum = 0.135 (at node 153)
	maximum = 0.351 (at node 22)
Injected packet length average = 17.9211
Accepted packet length average = 18.2435
Total in-flight flits = 13278 (0 measured)
latency change    = 0.28068
throughput change = 0.0551093
Class 0:
Packet latency average = 299.926
	minimum = 22
	maximum = 880
Network latency average = 296.771
	minimum = 22
	maximum = 867
Slowest packet = 5186
Flit latency average = 265.817
	minimum = 5
	maximum = 850
Slowest flit = 95003
Fragmentation average = 29.1363
	minimum = 0
	maximum = 205
Injected packet rate average = 0.0156458
	minimum = 0.005 (at node 67)
	maximum = 0.028 (at node 35)
Accepted packet rate average = 0.0146771
	minimum = 0.005 (at node 91)
	maximum = 0.028 (at node 34)
Injected flit rate average = 0.281401
	minimum = 0.101 (at node 67)
	maximum = 0.504 (at node 35)
Accepted flit rate average= 0.263661
	minimum = 0.094 (at node 91)
	maximum = 0.503 (at node 34)
Injected packet length average = 17.9857
Accepted packet length average = 17.9642
Total in-flight flits = 16727 (0 measured)
latency change    = 0.358275
throughput change = 0.0630148
Warmed up ...Time used is 3000 cycles
Class 0:
Packet latency average = 324.615
	minimum = 22
	maximum = 905
Network latency average = 320.986
	minimum = 22
	maximum = 888
Slowest packet = 9042
Flit latency average = 332.725
	minimum = 5
	maximum = 887
Slowest flit = 160108
Fragmentation average = 27.7458
	minimum = 0
	maximum = 259
Injected packet rate average = 0.016276
	minimum = 0.008 (at node 154)
	maximum = 0.027 (at node 155)
Accepted packet rate average = 0.0148073
	minimum = 0.005 (at node 48)
	maximum = 0.026 (at node 123)
Injected flit rate average = 0.292349
	minimum = 0.144 (at node 154)
	maximum = 0.486 (at node 155)
Accepted flit rate average= 0.266672
	minimum = 0.09 (at node 48)
	maximum = 0.468 (at node 123)
Injected packet length average = 17.9619
Accepted packet length average = 18.0095
Total in-flight flits = 21776 (21776 measured)
latency change    = 0.0760566
throughput change = 0.0112888
Class 0:
Packet latency average = 393.549
	minimum = 22
	maximum = 1293
Network latency average = 390.012
	minimum = 22
	maximum = 1280
Slowest packet = 11218
Flit latency average = 368.655
	minimum = 5
	maximum = 1263
Slowest flit = 201941
Fragmentation average = 29.3442
	minimum = 0
	maximum = 259
Injected packet rate average = 0.0159089
	minimum = 0.008 (at node 154)
	maximum = 0.023 (at node 150)
Accepted packet rate average = 0.0148073
	minimum = 0.009 (at node 86)
	maximum = 0.023 (at node 129)
Injected flit rate average = 0.286482
	minimum = 0.144 (at node 154)
	maximum = 0.414 (at node 150)
Accepted flit rate average= 0.266599
	minimum = 0.166 (at node 88)
	maximum = 0.422 (at node 129)
Injected packet length average = 18.0077
Accepted packet length average = 18.0046
Total in-flight flits = 24315 (24315 measured)
latency change    = 0.17516
throughput change = 0.000273507
Class 0:
Packet latency average = 433.533
	minimum = 22
	maximum = 1426
Network latency average = 430.074
	minimum = 22
	maximum = 1410
Slowest packet = 13930
Flit latency average = 400.389
	minimum = 5
	maximum = 1393
Slowest flit = 250749
Fragmentation average = 29.3092
	minimum = 0
	maximum = 259
Injected packet rate average = 0.0158767
	minimum = 0.00966667 (at node 118)
	maximum = 0.0243333 (at node 3)
Accepted packet rate average = 0.014816
	minimum = 0.00866667 (at node 36)
	maximum = 0.0206667 (at node 128)
Injected flit rate average = 0.285889
	minimum = 0.172667 (at node 118)
	maximum = 0.438 (at node 3)
Accepted flit rate average= 0.266681
	minimum = 0.156 (at node 36)
	maximum = 0.377333 (at node 128)
Injected packet length average = 18.0068
Accepted packet length average = 17.9995
Total in-flight flits = 27729 (27729 measured)
latency change    = 0.092228
throughput change = 0.000305974
Class 0:
Packet latency average = 465.959
	minimum = 22
	maximum = 1437
Network latency average = 462.57
	minimum = 22
	maximum = 1423
Slowest packet = 13930
Flit latency average = 430.27
	minimum = 5
	maximum = 1406
Slowest flit = 251711
Fragmentation average = 29.3229
	minimum = 0
	maximum = 283
Injected packet rate average = 0.015875
	minimum = 0.00975 (at node 154)
	maximum = 0.022 (at node 3)
Accepted packet rate average = 0.0147526
	minimum = 0.011 (at node 71)
	maximum = 0.0205 (at node 128)
Injected flit rate average = 0.285848
	minimum = 0.1755 (at node 154)
	maximum = 0.3945 (at node 3)
Accepted flit rate average= 0.266004
	minimum = 0.198 (at node 86)
	maximum = 0.37125 (at node 128)
Injected packet length average = 18.0062
Accepted packet length average = 18.031
Total in-flight flits = 31892 (31892 measured)
latency change    = 0.0695896
throughput change = 0.00254376
Class 0:
Packet latency average = 501.389
	minimum = 22
	maximum = 1614
Network latency average = 498.012
	minimum = 22
	maximum = 1614
Slowest packet = 18859
Flit latency average = 463.363
	minimum = 5
	maximum = 1597
Slowest flit = 339479
Fragmentation average = 29.7683
	minimum = 0
	maximum = 283
Injected packet rate average = 0.0158021
	minimum = 0.0116 (at node 138)
	maximum = 0.02 (at node 3)
Accepted packet rate average = 0.0148146
	minimum = 0.0116 (at node 42)
	maximum = 0.0192 (at node 128)
Injected flit rate average = 0.284525
	minimum = 0.2084 (at node 138)
	maximum = 0.36 (at node 3)
Accepted flit rate average= 0.266769
	minimum = 0.2062 (at node 42)
	maximum = 0.353 (at node 128)
Injected packet length average = 18.0055
Accepted packet length average = 18.0072
Total in-flight flits = 33689 (33689 measured)
latency change    = 0.0706636
throughput change = 0.00286707
Class 0:
Packet latency average = 531.824
	minimum = 22
	maximum = 1681
Network latency average = 528.456
	minimum = 22
	maximum = 1681
Slowest packet = 21929
Flit latency average = 492.342
	minimum = 5
	maximum = 1664
Slowest flit = 394737
Fragmentation average = 29.6647
	minimum = 0
	maximum = 283
Injected packet rate average = 0.015822
	minimum = 0.0118333 (at node 154)
	maximum = 0.0195 (at node 185)
Accepted packet rate average = 0.014849
	minimum = 0.0116667 (at node 67)
	maximum = 0.0198333 (at node 138)
Injected flit rate average = 0.284834
	minimum = 0.210667 (at node 154)
	maximum = 0.352833 (at node 185)
Accepted flit rate average= 0.26725
	minimum = 0.209333 (at node 67)
	maximum = 0.357 (at node 138)
Injected packet length average = 18.0024
Accepted packet length average = 17.9979
Total in-flight flits = 36941 (36941 measured)
latency change    = 0.0572281
throughput change = 0.00180075
Class 0:
Packet latency average = 557.634
	minimum = 22
	maximum = 1781
Network latency average = 554.291
	minimum = 22
	maximum = 1769
Slowest packet = 23902
Flit latency average = 517.758
	minimum = 5
	maximum = 1752
Slowest flit = 430252
Fragmentation average = 29.9103
	minimum = 0
	maximum = 283
Injected packet rate average = 0.0158222
	minimum = 0.0117143 (at node 154)
	maximum = 0.0197143 (at node 140)
Accepted packet rate average = 0.0148713
	minimum = 0.0117143 (at node 79)
	maximum = 0.019 (at node 181)
Injected flit rate average = 0.284795
	minimum = 0.210857 (at node 154)
	maximum = 0.355714 (at node 140)
Accepted flit rate average= 0.267716
	minimum = 0.213286 (at node 79)
	maximum = 0.342 (at node 181)
Injected packet length average = 17.9998
Accepted packet length average = 18.0022
Total in-flight flits = 39687 (39687 measured)
latency change    = 0.0462847
throughput change = 0.00173981
Draining all recorded packets ...
Class 0:
Remaining flits: 506466 506467 506468 506469 506470 506471 506472 506473 506474 506475 [...] (43570 flits)
Measured flits: 506466 506467 506468 506469 506470 506471 506472 506473 506474 506475 [...] (4111 flits)
Class 0:
Remaining flits: 539963 541134 541135 541136 541137 541138 541139 541140 541141 541142 [...] (44113 flits)
Measured flits: 539963 541134 541135 541136 541137 541138 541139 541140 541141 541142 [...] (54 flits)
Draining remaining packets ...
Class 0:
Remaining flits: 589428 589429 589430 589431 589432 589433 589434 589435 589436 589437 [...] (5278 flits)
Measured flits: (0 flits)
Time taken is 13781 cycles
====== Overall Traffic Statistics ======
====== Traffic class 0 ======
Packet latency average = 604.215 (1 samples)
	minimum = 22 (1 samples)
	maximum = 2240 (1 samples)
Network latency average = 600.844 (1 samples)
	minimum = 22 (1 samples)
	maximum = 2240 (1 samples)
Flit latency average = 620.317 (1 samples)
	minimum = 5 (1 samples)
	maximum = 2454 (1 samples)
Fragmentation average = 30.3319 (1 samples)
	minimum = 0 (1 samples)
	maximum = 283 (1 samples)
Injected packet rate average = 0.0158222 (1 samples)
	minimum = 0.0117143 (1 samples)
	maximum = 0.0197143 (1 samples)
Accepted packet rate average = 0.0148713 (1 samples)
	minimum = 0.0117143 (1 samples)
	maximum = 0.019 (1 samples)
Injected flit rate average = 0.284795 (1 samples)
	minimum = 0.210857 (1 samples)
	maximum = 0.355714 (1 samples)
Accepted flit rate average = 0.267716 (1 samples)
	minimum = 0.213286 (1 samples)
	maximum = 0.342 (1 samples)
Injected packet size average = 17.9998 (1 samples)
Accepted packet size average = 18.0022 (1 samples)
Hops average = 5.07096 (1 samples)
Total run time 10.1217
