BEGIN Configuration File: networks/mezzanine_config
topology = mezzanine;
n = 12;

routing_function = multipath;
internal_speedup = 2.0;
latency_thres = 100000.0;
use_read_write = 0;

sample_period = 1000;
injection_rate = 0.5;
packet_size = 18;

noq = 1;
routing_delay = 0;
vc_alloc_delay = 1;
sw_alloc_delay = 1;
st_final_delay = 1;
vc_allocator = islip; 
sw_allocator = islip;
alloc_iters  = 4;
num_vcs     = 12;
buffer_policy = private; // private or shared
buf_size = -1; // -1 for buffer_policy = private;
vc_buf_size = 4096; // size of each VOQ with buffer_policy = private
output_buffer_size = -1;


traffic = uniform;

//mezW = 0.0;
//mezPredefinedPatternType = shift-inter; //shift-qfdb

END Configuration File: networks/mezzanine_config
OVERRIDE Parameter: injection_rate=0.011327
OVERRIDE Parameter: routing_function=multipath
OVERRIDE Parameter: num_vcs=32
OVERRIDE Parameter: vc_buf_size=1024
OVERRIDE Parameter: internal_speedup=2.0
OVERRIDE Parameter: injection_process=on_off
OVERRIDE Parameter: sim_type=latency
OVERRIDE Parameter: burst_alpha=0.0038461538
OVERRIDE Parameter: burst_beta=0.1
network: network_0
========================== Routing table  =====================
Number of Subnets: 1
Class 0:
Packet latency average = 156.552
	minimum = 25
	maximum = 620
Network latency average = 108.999
	minimum = 22
	maximum = 508
Slowest packet = 33
Flit latency average = 82.4356
	minimum = 5
	maximum = 491
Slowest flit = 19601
Fragmentation average = 20.0582
	minimum = 0
	maximum = 172
Injected packet rate average = 0.011901
	minimum = 0 (at node 35)
	maximum = 0.037 (at node 70)
Accepted packet rate average = 0.0101198
	minimum = 0.002 (at node 174)
	maximum = 0.018 (at node 140)
Injected flit rate average = 0.212328
	minimum = 0 (at node 35)
	maximum = 0.666 (at node 88)
Accepted flit rate average= 0.186198
	minimum = 0.036 (at node 174)
	maximum = 0.324 (at node 140)
Injected packet length average = 17.8411
Accepted packet length average = 18.3994
Total in-flight flits = 5380 (0 measured)
latency change    = 1
throughput change = 1
Class 0:
Packet latency average = 188.365
	minimum = 25
	maximum = 1111
Network latency average = 137.083
	minimum = 22
	maximum = 700
Slowest packet = 33
Flit latency average = 109.993
	minimum = 5
	maximum = 683
Slowest flit = 52631
Fragmentation average = 20.1475
	minimum = 0
	maximum = 244
Injected packet rate average = 0.0115156
	minimum = 0.0005 (at node 87)
	maximum = 0.0305 (at node 70)
Accepted packet rate average = 0.0105599
	minimum = 0.0055 (at node 30)
	maximum = 0.017 (at node 22)
Injected flit rate average = 0.206414
	minimum = 0.009 (at node 87)
	maximum = 0.543 (at node 70)
Accepted flit rate average= 0.192174
	minimum = 0.099 (at node 30)
	maximum = 0.306 (at node 22)
Injected packet length average = 17.9247
Accepted packet length average = 18.1985
Total in-flight flits = 5801 (0 measured)
latency change    = 0.168891
throughput change = 0.0310997
Class 0:
Packet latency average = 198.548
	minimum = 22
	maximum = 904
Network latency average = 154.189
	minimum = 22
	maximum = 772
Slowest packet = 3101
Flit latency average = 125.457
	minimum = 5
	maximum = 755
Slowest flit = 75023
Fragmentation average = 21.3748
	minimum = 0
	maximum = 198
Injected packet rate average = 0.0113125
	minimum = 0 (at node 2)
	maximum = 0.031 (at node 97)
Accepted packet rate average = 0.0113958
	minimum = 0.004 (at node 28)
	maximum = 0.019 (at node 16)
Injected flit rate average = 0.203552
	minimum = 0 (at node 2)
	maximum = 0.542 (at node 97)
Accepted flit rate average= 0.204729
	minimum = 0.065 (at node 184)
	maximum = 0.351 (at node 16)
Injected packet length average = 17.9936
Accepted packet length average = 17.9653
Total in-flight flits = 5589 (0 measured)
latency change    = 0.0512849
throughput change = 0.0613234
Warmed up ...Time used is 3000 cycles
Class 0:
Packet latency average = 205.41
	minimum = 22
	maximum = 877
Network latency average = 155.24
	minimum = 22
	maximum = 799
Slowest packet = 6606
Flit latency average = 142.142
	minimum = 5
	maximum = 821
Slowest flit = 116855
Fragmentation average = 22.8353
	minimum = 0
	maximum = 181
Injected packet rate average = 0.0117917
	minimum = 0 (at node 78)
	maximum = 0.045 (at node 41)
Accepted packet rate average = 0.0115365
	minimum = 0.005 (at node 150)
	maximum = 0.025 (at node 120)
Injected flit rate average = 0.212542
	minimum = 0 (at node 78)
	maximum = 0.821 (at node 41)
Accepted flit rate average= 0.206839
	minimum = 0.09 (at node 163)
	maximum = 0.442 (at node 120)
Injected packet length average = 18.0247
Accepted packet length average = 17.9291
Total in-flight flits = 6628 (6628 measured)
latency change    = 0.0334058
throughput change = 0.0101982
Class 0:
Packet latency average = 231.708
	minimum = 22
	maximum = 1153
Network latency average = 179.056
	minimum = 22
	maximum = 941
Slowest packet = 6606
Flit latency average = 156.57
	minimum = 5
	maximum = 924
Slowest flit = 160703
Fragmentation average = 22.6729
	minimum = 0
	maximum = 255
Injected packet rate average = 0.0115911
	minimum = 0 (at node 131)
	maximum = 0.0365 (at node 153)
Accepted packet rate average = 0.0112552
	minimum = 0.0065 (at node 4)
	maximum = 0.019 (at node 182)
Injected flit rate average = 0.208357
	minimum = 0 (at node 131)
	maximum = 0.6575 (at node 153)
Accepted flit rate average= 0.20282
	minimum = 0.117 (at node 4)
	maximum = 0.343 (at node 182)
Injected packet length average = 17.9755
Accepted packet length average = 18.0201
Total in-flight flits = 7824 (7824 measured)
latency change    = 0.113498
throughput change = 0.0198118
Class 0:
Packet latency average = 244.279
	minimum = 22
	maximum = 1153
Network latency average = 191.244
	minimum = 22
	maximum = 1092
Slowest packet = 6606
Flit latency average = 165.773
	minimum = 5
	maximum = 1075
Slowest flit = 166876
Fragmentation average = 22.609
	minimum = 0
	maximum = 255
Injected packet rate average = 0.011276
	minimum = 0.00333333 (at node 28)
	maximum = 0.031 (at node 153)
Accepted packet rate average = 0.0112378
	minimum = 0.00533333 (at node 4)
	maximum = 0.0166667 (at node 129)
Injected flit rate average = 0.20297
	minimum = 0.06 (at node 28)
	maximum = 0.561333 (at node 153)
Accepted flit rate average= 0.202073
	minimum = 0.0976667 (at node 4)
	maximum = 0.297 (at node 129)
Injected packet length average = 18.0002
Accepted packet length average = 17.9815
Total in-flight flits = 6105 (6105 measured)
latency change    = 0.0514607
throughput change = 0.00369864
Class 0:
Packet latency average = 243.943
	minimum = 22
	maximum = 1603
Network latency average = 190.979
	minimum = 22
	maximum = 1256
Slowest packet = 6606
Flit latency average = 164.949
	minimum = 5
	maximum = 1239
Slowest flit = 224153
Fragmentation average = 23.0194
	minimum = 0
	maximum = 274
Injected packet rate average = 0.0112526
	minimum = 0.003 (at node 120)
	maximum = 0.028 (at node 81)
Accepted packet rate average = 0.0112174
	minimum = 0.00775 (at node 86)
	maximum = 0.0165 (at node 128)
Injected flit rate average = 0.202583
	minimum = 0.054 (at node 120)
	maximum = 0.504 (at node 81)
Accepted flit rate average= 0.201915
	minimum = 0.13775 (at node 86)
	maximum = 0.297 (at node 128)
Injected packet length average = 18.0032
Accepted packet length average = 18.0001
Total in-flight flits = 6074 (6074 measured)
latency change    = 0.001376
throughput change = 0.000780288
Class 0:
Packet latency average = 243.582
	minimum = 22
	maximum = 1603
Network latency average = 190.629
	minimum = 22
	maximum = 1445
Slowest packet = 6606
Flit latency average = 164.103
	minimum = 5
	maximum = 1428
Slowest flit = 255221
Fragmentation average = 22.6281
	minimum = 0
	maximum = 274
Injected packet rate average = 0.0112927
	minimum = 0.005 (at node 91)
	maximum = 0.028 (at node 153)
Accepted packet rate average = 0.0112354
	minimum = 0.0076 (at node 36)
	maximum = 0.0156 (at node 128)
Injected flit rate average = 0.203272
	minimum = 0.09 (at node 91)
	maximum = 0.506 (at node 153)
Accepted flit rate average= 0.202295
	minimum = 0.1342 (at node 36)
	maximum = 0.2808 (at node 128)
Injected packet length average = 18.0003
Accepted packet length average = 18.0051
Total in-flight flits = 6524 (6524 measured)
latency change    = 0.00148216
throughput change = 0.00187561
Class 0:
Packet latency average = 240.682
	minimum = 22
	maximum = 1603
Network latency average = 188.624
	minimum = 22
	maximum = 1445
Slowest packet = 6606
Flit latency average = 161.748
	minimum = 5
	maximum = 1428
Slowest flit = 255221
Fragmentation average = 22.2852
	minimum = 0
	maximum = 274
Injected packet rate average = 0.0112187
	minimum = 0.00466667 (at node 29)
	maximum = 0.0271667 (at node 153)
Accepted packet rate average = 0.011224
	minimum = 0.008 (at node 89)
	maximum = 0.0153333 (at node 129)
Injected flit rate average = 0.201935
	minimum = 0.084 (at node 29)
	maximum = 0.490167 (at node 153)
Accepted flit rate average= 0.201997
	minimum = 0.145 (at node 89)
	maximum = 0.2745 (at node 129)
Injected packet length average = 17.9998
Accepted packet length average = 17.9969
Total in-flight flits = 5521 (5521 measured)
latency change    = 0.0120523
throughput change = 0.00147658
Draining all recorded packets ...
Class 0:
Remaining flits: 351483 351484 351485 351555 351556 351557 351610 351611 352287 352288 [...] (9437 flits)
Measured flits: 351483 351484 351485 351555 351556 351557 352287 352288 352289 352290 [...] (134 flits)
Draining remaining packets ...
Class 0:
Remaining flits: 398420 398421 398422 398423 398424 398425 398426 398427 398428 398429 [...] (289 flits)
Measured flits: (0 flits)
Time taken is 11669 cycles
====== Overall Traffic Statistics ======
====== Traffic class 0 ======
Packet latency average = 246.978 (1 samples)
	minimum = 22 (1 samples)
	maximum = 1603 (1 samples)
Network latency average = 193.846 (1 samples)
	minimum = 22 (1 samples)
	maximum = 1445 (1 samples)
Flit latency average = 170.271 (1 samples)
	minimum = 5 (1 samples)
	maximum = 1428 (1 samples)
Fragmentation average = 22.8923 (1 samples)
	minimum = 0 (1 samples)
	maximum = 358 (1 samples)
Injected packet rate average = 0.0112187 (1 samples)
	minimum = 0.00466667 (1 samples)
	maximum = 0.0271667 (1 samples)
Accepted packet rate average = 0.011224 (1 samples)
	minimum = 0.008 (1 samples)
	maximum = 0.0153333 (1 samples)
Injected flit rate average = 0.201935 (1 samples)
	minimum = 0.084 (1 samples)
	maximum = 0.490167 (1 samples)
Accepted flit rate average = 0.201997 (1 samples)
	minimum = 0.145 (1 samples)
	maximum = 0.2745 (1 samples)
Injected packet size average = 17.9998 (1 samples)
Accepted packet size average = 17.9969 (1 samples)
Hops average = 5.0805 (1 samples)
Total run time 6.34134
