BEGIN Configuration File: networks/mezzanine_config
topology = mezzanine;
n = 12;

routing_function = multipath;
internal_speedup = 2.0;
latency_thres = 100000.0;
use_read_write = 0;

sample_period = 1000;
injection_rate = 0.5;
packet_size = 18;

noq = 1;
routing_delay = 0;
vc_alloc_delay = 1;
sw_alloc_delay = 1;
st_final_delay = 1;
vc_allocator = islip; 
sw_allocator = islip;
alloc_iters  = 4;
num_vcs     = 12;
buffer_policy = private; // private or shared
buf_size = -1; // -1 for buffer_policy = private;
vc_buf_size = 4096; // size of each VOQ with buffer_policy = private
output_buffer_size = -1;


traffic = uniform;

//mezW = 0.0;
//mezPredefinedPatternType = shift-inter; //shift-qfdb

END Configuration File: networks/mezzanine_config
OVERRIDE Parameter: injection_rate=0.046687
OVERRIDE Parameter: routing_function=multipath
OVERRIDE Parameter: num_vcs=64
OVERRIDE Parameter: vc_buf_size=144
OVERRIDE Parameter: internal_speedup=1.0
OVERRIDE Parameter: injection_process=on_off
OVERRIDE Parameter: sim_type=latency
OVERRIDE Parameter: burst_alpha=0.0038461538
OVERRIDE Parameter: burst_beta=0.1
network: network_0
========================== Routing table  =====================
Number of Subnets: 1
Class 0:
Packet latency average = 376.585
	minimum = 23
	maximum = 990
Network latency average = 273.653
	minimum = 23
	maximum = 922
Slowest packet = 46
Flit latency average = 203.963
	minimum = 6
	maximum = 958
Slowest flit = 3264
Fragmentation average = 159.95
	minimum = 0
	maximum = 867
Injected packet rate average = 0.0297552
	minimum = 0 (at node 10)
	maximum = 0.056 (at node 29)
Accepted packet rate average = 0.0102292
	minimum = 0.004 (at node 25)
	maximum = 0.017 (at node 154)
Injected flit rate average = 0.53049
	minimum = 0 (at node 10)
	maximum = 1 (at node 29)
Accepted flit rate average= 0.218182
	minimum = 0.101 (at node 79)
	maximum = 0.362 (at node 22)
Injected packet length average = 17.8285
Accepted packet length average = 21.3294
Total in-flight flits = 60943 (0 measured)
latency change    = 1
throughput change = 1
Class 0:
Packet latency average = 633.904
	minimum = 23
	maximum = 1951
Network latency average = 478.571
	minimum = 23
	maximum = 1788
Slowest packet = 160
Flit latency average = 391.507
	minimum = 6
	maximum = 1882
Slowest flit = 10121
Fragmentation average = 226.599
	minimum = 0
	maximum = 1538
Injected packet rate average = 0.0313932
	minimum = 0.0015 (at node 191)
	maximum = 0.056 (at node 87)
Accepted packet rate average = 0.0116901
	minimum = 0.007 (at node 81)
	maximum = 0.0185 (at node 34)
Injected flit rate average = 0.562104
	minimum = 0.027 (at node 191)
	maximum = 1 (at node 87)
Accepted flit rate average= 0.232758
	minimum = 0.136 (at node 153)
	maximum = 0.3715 (at node 63)
Injected packet length average = 17.9053
Accepted packet length average = 19.9107
Total in-flight flits = 127611 (0 measured)
latency change    = 0.405928
throughput change = 0.062621
Class 0:
Packet latency average = 1353.22
	minimum = 28
	maximum = 2960
Network latency average = 1106.1
	minimum = 26
	maximum = 2862
Slowest packet = 413
Flit latency average = 1021.77
	minimum = 6
	maximum = 2869
Slowest flit = 9718
Fragmentation average = 341.96
	minimum = 1
	maximum = 2124
Injected packet rate average = 0.0321146
	minimum = 0 (at node 178)
	maximum = 0.056 (at node 26)
Accepted packet rate average = 0.0134271
	minimum = 0.005 (at node 8)
	maximum = 0.028 (at node 129)
Injected flit rate average = 0.578635
	minimum = 0 (at node 178)
	maximum = 1 (at node 1)
Accepted flit rate average= 0.247047
	minimum = 0.119 (at node 36)
	maximum = 0.479 (at node 129)
Injected packet length average = 18.0178
Accepted packet length average = 18.3991
Total in-flight flits = 191166 (0 measured)
latency change    = 0.531558
throughput change = 0.0578395
Warmed up ...Time used is 3000 cycles
Class 0:
Packet latency average = 510.522
	minimum = 29
	maximum = 2330
Network latency average = 143.233
	minimum = 25
	maximum = 912
Slowest packet = 18307
Flit latency average = 1504.11
	minimum = 6
	maximum = 3806
Slowest flit = 15256
Fragmentation average = 58.0628
	minimum = 1
	maximum = 717
Injected packet rate average = 0.0315521
	minimum = 0 (at node 70)
	maximum = 0.056 (at node 1)
Accepted packet rate average = 0.0134375
	minimum = 0.005 (at node 132)
	maximum = 0.028 (at node 19)
Injected flit rate average = 0.567609
	minimum = 0 (at node 70)
	maximum = 1 (at node 1)
Accepted flit rate average= 0.243714
	minimum = 0.087 (at node 149)
	maximum = 0.464 (at node 19)
Injected packet length average = 17.9896
Accepted packet length average = 18.1368
Total in-flight flits = 253417 (100082 measured)
latency change    = 1.65065
throughput change = 0.0136773
Class 0:
Packet latency average = 763.194
	minimum = 29
	maximum = 3614
Network latency average = 397.817
	minimum = 25
	maximum = 1990
Slowest packet = 18307
Flit latency average = 1790.6
	minimum = 6
	maximum = 4788
Slowest flit = 10596
Fragmentation average = 121.844
	minimum = 0
	maximum = 1352
Injected packet rate average = 0.0311484
	minimum = 0.0065 (at node 131)
	maximum = 0.056 (at node 41)
Accepted packet rate average = 0.0133073
	minimum = 0.0055 (at node 149)
	maximum = 0.022 (at node 19)
Injected flit rate average = 0.560477
	minimum = 0.117 (at node 131)
	maximum = 1 (at node 1)
Accepted flit rate average= 0.241789
	minimum = 0.095 (at node 149)
	maximum = 0.3825 (at node 3)
Injected packet length average = 17.9937
Accepted packet length average = 18.1697
Total in-flight flits = 313635 (192952 measured)
latency change    = 0.331071
throughput change = 0.00795933
Class 0:
Packet latency average = 1148.08
	minimum = 29
	maximum = 4708
Network latency average = 753.839
	minimum = 25
	maximum = 2914
Slowest packet = 18307
Flit latency average = 2087.26
	minimum = 6
	maximum = 5751
Slowest flit = 21623
Fragmentation average = 174.783
	minimum = 0
	maximum = 2313
Injected packet rate average = 0.0305486
	minimum = 0.01 (at node 38)
	maximum = 0.0556667 (at node 58)
Accepted packet rate average = 0.0132726
	minimum = 0.008 (at node 171)
	maximum = 0.0186667 (at node 44)
Injected flit rate average = 0.549672
	minimum = 0.184667 (at node 38)
	maximum = 1 (at node 58)
Accepted flit rate average= 0.239842
	minimum = 0.148333 (at node 171)
	maximum = 0.348 (at node 50)
Injected packet length average = 17.9934
Accepted packet length average = 18.0705
Total in-flight flits = 369745 (277538 measured)
latency change    = 0.335241
throughput change = 0.00811805
Class 0:
Packet latency average = 1671.32
	minimum = 29
	maximum = 6209
Network latency average = 1208.24
	minimum = 25
	maximum = 3904
Slowest packet = 18307
Flit latency average = 2386.95
	minimum = 6
	maximum = 6713
Slowest flit = 24511
Fragmentation average = 213.826
	minimum = 0
	maximum = 2313
Injected packet rate average = 0.0293711
	minimum = 0.012 (at node 108)
	maximum = 0.05025 (at node 45)
Accepted packet rate average = 0.0132331
	minimum = 0.00875 (at node 144)
	maximum = 0.018 (at node 50)
Injected flit rate average = 0.52854
	minimum = 0.21675 (at node 128)
	maximum = 0.902 (at node 45)
Accepted flit rate average= 0.239178
	minimum = 0.152 (at node 171)
	maximum = 0.3445 (at node 50)
Injected packet length average = 17.9953
Accepted packet length average = 18.0743
Total in-flight flits = 413611 (345152 measured)
latency change    = 0.313073
throughput change = 0.00277462
Class 0:
Packet latency average = 2215.26
	minimum = 29
	maximum = 6884
Network latency average = 1695.15
	minimum = 25
	maximum = 4975
Slowest packet = 18307
Flit latency average = 2676.59
	minimum = 6
	maximum = 7495
Slowest flit = 41785
Fragmentation average = 251.786
	minimum = 0
	maximum = 3195
Injected packet rate average = 0.0283479
	minimum = 0.0112 (at node 180)
	maximum = 0.0446 (at node 45)
Accepted packet rate average = 0.0131281
	minimum = 0.009 (at node 190)
	maximum = 0.0172 (at node 50)
Injected flit rate average = 0.510124
	minimum = 0.2022 (at node 180)
	maximum = 0.8028 (at node 45)
Accepted flit rate average= 0.23678
	minimum = 0.1642 (at node 171)
	maximum = 0.3182 (at node 50)
Injected packet length average = 17.9951
Accepted packet length average = 18.0361
Total in-flight flits = 453745 (404408 measured)
latency change    = 0.24554
throughput change = 0.0101283
Class 0:
Packet latency average = 2785.62
	minimum = 29
	maximum = 8238
Network latency average = 2205.93
	minimum = 25
	maximum = 5968
Slowest packet = 18307
Flit latency average = 2956.27
	minimum = 6
	maximum = 8705
Slowest flit = 14490
Fragmentation average = 271.488
	minimum = 0
	maximum = 3220
Injected packet rate average = 0.0272995
	minimum = 0.0111667 (at node 184)
	maximum = 0.0443333 (at node 99)
Accepted packet rate average = 0.0130252
	minimum = 0.00916667 (at node 171)
	maximum = 0.0165 (at node 87)
Injected flit rate average = 0.491286
	minimum = 0.201833 (at node 184)
	maximum = 0.797167 (at node 99)
Accepted flit rate average= 0.234625
	minimum = 0.168333 (at node 190)
	maximum = 0.300167 (at node 50)
Injected packet length average = 17.9962
Accepted packet length average = 18.0132
Total in-flight flits = 486996 (450845 measured)
latency change    = 0.204751
throughput change = 0.00918576
Class 0:
Packet latency average = 3364.57
	minimum = 29
	maximum = 8957
Network latency average = 2714.58
	minimum = 25
	maximum = 6904
Slowest packet = 18307
Flit latency average = 3215.4
	minimum = 6
	maximum = 9611
Slowest flit = 19511
Fragmentation average = 289.523
	minimum = 0
	maximum = 3437
Injected packet rate average = 0.026224
	minimum = 0.0117143 (at node 184)
	maximum = 0.0401429 (at node 99)
Accepted packet rate average = 0.012933
	minimum = 0.00914286 (at node 190)
	maximum = 0.0162857 (at node 50)
Injected flit rate average = 0.471831
	minimum = 0.211714 (at node 184)
	maximum = 0.723 (at node 99)
Accepted flit rate average= 0.232455
	minimum = 0.169143 (at node 171)
	maximum = 0.297143 (at node 50)
Injected packet length average = 17.9924
Accepted packet length average = 17.9737
Total in-flight flits = 513301 (485679 measured)
latency change    = 0.172074
throughput change = 0.00933682
Draining all recorded packets ...
Class 0:
Remaining flits: 33690 33691 33692 33693 33694 33695 35982 35983 35984 35985 [...] (534153 flits)
Measured flits: 328032 328033 328034 328035 328036 328037 328038 328039 328040 328041 [...] (495045 flits)
Class 0:
Remaining flits: 35982 35983 35984 35985 35986 35987 35988 35989 35990 35991 [...] (555377 flits)
Measured flits: 328032 328033 328034 328035 328036 328037 328038 328039 328040 328041 [...] (495205 flits)
Class 0:
Remaining flits: 35982 35983 35984 35985 35986 35987 35988 35989 35990 35991 [...] (576665 flits)
Measured flits: 328032 328033 328034 328035 328036 328037 328038 328039 328040 328041 [...] (492650 flits)
Class 0:
Remaining flits: 35982 35983 35984 35985 35986 35987 35988 35989 35990 35991 [...] (594397 flits)
Measured flits: 328032 328033 328034 328035 328036 328037 328038 328039 328040 328041 [...] (487661 flits)
Class 0:
Remaining flits: 35982 35983 35984 35985 35986 35987 35988 35989 35990 35991 [...] (614496 flits)
Measured flits: 328194 328195 328196 328197 328198 328199 328200 328201 328202 328203 [...] (480563 flits)
Class 0:
Remaining flits: 35982 35983 35984 35985 35986 35987 35988 35989 35990 35991 [...] (628040 flits)
Measured flits: 328212 328213 328214 328215 328216 328217 328218 328219 328220 328221 [...] (469430 flits)
Class 0:
Remaining flits: 35982 35983 35984 35985 35986 35987 35988 35989 35990 35991 [...] (646648 flits)
Measured flits: 328230 328231 328232 328233 328234 328235 328236 328237 328238 328239 [...] (457780 flits)
Class 0:
Remaining flits: 52606 52607 52608 52609 52610 52611 52612 52613 59598 59599 [...] (664113 flits)
Measured flits: 328230 328231 328232 328233 328234 328235 328236 328237 328238 328239 [...] (445374 flits)
Class 0:
Remaining flits: 59598 59599 59600 59601 59602 59603 59604 59605 59606 59607 [...] (685280 flits)
Measured flits: 328500 328501 328502 328503 328504 328505 328506 328507 328508 328509 [...] (432016 flits)
Class 0:
Remaining flits: 59598 59599 59600 59601 59602 59603 59604 59605 59606 59607 [...] (702780 flits)
Measured flits: 328500 328501 328502 328503 328504 328505 328506 328507 328508 328509 [...] (413986 flits)
Class 0:
Remaining flits: 59598 59599 59600 59601 59602 59603 59604 59605 59606 59607 [...] (717029 flits)
Measured flits: 328500 328501 328502 328503 328504 328505 328506 328507 328508 328509 [...] (392703 flits)
Class 0:
Remaining flits: 59598 59599 59600 59601 59602 59603 59604 59605 59606 59607 [...] (732550 flits)
Measured flits: 328500 328501 328502 328503 328504 328505 328506 328507 328508 328509 [...] (371105 flits)
Class 0:
Remaining flits: 59598 59599 59600 59601 59602 59603 59604 59605 59606 59607 [...] (743039 flits)
Measured flits: 328500 328501 328502 328503 328504 328505 328506 328507 328508 328509 [...] (349085 flits)
Class 0:
Remaining flits: 59598 59599 59600 59601 59602 59603 59604 59605 59606 59607 [...] (747619 flits)
Measured flits: 328500 328501 328502 328503 328504 328505 328506 328507 328508 328509 [...] (327641 flits)
Class 0:
Remaining flits: 59598 59599 59600 59601 59602 59603 59604 59605 59606 59607 [...] (750484 flits)
Measured flits: 330462 330463 330464 330465 330466 330467 330468 330469 330470 330471 [...] (305449 flits)
Class 0:
Remaining flits: 59598 59599 59600 59601 59602 59603 59604 59605 59606 59607 [...] (751092 flits)
Measured flits: 330588 330589 330590 330591 330592 330593 330594 330595 330596 330597 [...] (284729 flits)
Class 0:
Remaining flits: 103734 103735 103736 103737 103738 103739 103740 103741 103742 103743 [...] (749994 flits)
Measured flits: 330588 330589 330590 330591 330592 330593 330594 330595 330596 330597 [...] (265448 flits)
Class 0:
Remaining flits: 103734 103735 103736 103737 103738 103739 103740 103741 103742 103743 [...] (747672 flits)
Measured flits: 330588 330589 330590 330591 330592 330593 330594 330595 330596 330597 [...] (248643 flits)
Class 0:
Remaining flits: 103734 103735 103736 103737 103738 103739 103740 103741 103742 103743 [...] (744715 flits)
Measured flits: 330588 330589 330590 330591 330592 330593 330594 330595 330596 330597 [...] (230942 flits)
Class 0:
Remaining flits: 103734 103735 103736 103737 103738 103739 103740 103741 103742 103743 [...] (742863 flits)
Measured flits: 330588 330589 330590 330591 330592 330593 330594 330595 330596 330597 [...] (211937 flits)
Class 0:
Remaining flits: 103734 103735 103736 103737 103738 103739 103740 103741 103742 103743 [...] (740823 flits)
Measured flits: 330588 330589 330590 330591 330592 330593 330594 330595 330596 330597 [...] (195483 flits)
Class 0:
Remaining flits: 103734 103735 103736 103737 103738 103739 103740 103741 103742 103743 [...] (736954 flits)
Measured flits: 336834 336835 336836 336837 336838 336839 336840 336841 336842 336843 [...] (180171 flits)
Class 0:
Remaining flits: 103734 103735 103736 103737 103738 103739 103740 103741 103742 103743 [...] (733219 flits)
Measured flits: 336834 336835 336836 336837 336838 336839 336840 336841 336842 336843 [...] (167480 flits)
Class 0:
Remaining flits: 103734 103735 103736 103737 103738 103739 103740 103741 103742 103743 [...] (731994 flits)
Measured flits: 336834 336835 336836 336837 336838 336839 336840 336841 336842 336843 [...] (154178 flits)
Class 0:
Remaining flits: 103734 103735 103736 103737 103738 103739 103740 103741 103742 103743 [...] (732779 flits)
Measured flits: 336834 336835 336836 336837 336838 336839 336840 336841 336842 336843 [...] (140207 flits)
Class 0:
Remaining flits: 103734 103735 103736 103737 103738 103739 103740 103741 103742 103743 [...] (730423 flits)
Measured flits: 336850 336851 343854 343855 343856 343857 343858 343859 343860 343861 [...] (128769 flits)
Class 0:
Remaining flits: 230490 230491 230492 230493 230494 230495 230496 230497 230498 230499 [...] (727757 flits)
Measured flits: 343854 343855 343856 343857 343858 343859 343860 343861 343862 343863 [...] (116764 flits)
Class 0:
Remaining flits: 266022 266023 266024 266025 266026 266027 266028 266029 266030 266031 [...] (724688 flits)
Measured flits: 344358 344359 344360 344361 344362 344363 344364 344365 344366 344367 [...] (106304 flits)
Class 0:
Remaining flits: 266022 266023 266024 266025 266026 266027 266028 266029 266030 266031 [...] (722441 flits)
Measured flits: 344358 344359 344360 344361 344362 344363 344364 344365 344366 344367 [...] (96631 flits)
Class 0:
Remaining flits: 266022 266023 266024 266025 266026 266027 266028 266029 266030 266031 [...] (721253 flits)
Measured flits: 344358 344359 344360 344361 344362 344363 344364 344365 344366 344367 [...] (87728 flits)
Class 0:
Remaining flits: 266022 266023 266024 266025 266026 266027 266028 266029 266030 266031 [...] (719478 flits)
Measured flits: 344358 344359 344360 344361 344362 344363 344364 344365 344366 344367 [...] (80095 flits)
Class 0:
Remaining flits: 268434 268435 268436 268437 268438 268439 268440 268441 268442 268443 [...] (719062 flits)
Measured flits: 344358 344359 344360 344361 344362 344363 344364 344365 344366 344367 [...] (72657 flits)
Class 0:
Remaining flits: 268434 268435 268436 268437 268438 268439 268440 268441 268442 268443 [...] (714861 flits)
Measured flits: 344358 344359 344360 344361 344362 344363 344364 344365 344366 344367 [...] (65993 flits)
Class 0:
Remaining flits: 268434 268435 268436 268437 268438 268439 268440 268441 268442 268443 [...] (712967 flits)
Measured flits: 344358 344359 344360 344361 344362 344363 344364 344365 344366 344367 [...] (59516 flits)
Class 0:
Remaining flits: 268434 268435 268436 268437 268438 268439 268440 268441 268442 268443 [...] (713052 flits)
Measured flits: 344358 344359 344360 344361 344362 344363 344364 344365 344366 344367 [...] (53423 flits)
Class 0:
Remaining flits: 268434 268435 268436 268437 268438 268439 268440 268441 268442 268443 [...] (711802 flits)
Measured flits: 344358 344359 344360 344361 344362 344363 344364 344365 344366 344367 [...] (48419 flits)
Class 0:
Remaining flits: 268434 268435 268436 268437 268438 268439 268440 268441 268442 268443 [...] (714200 flits)
Measured flits: 344358 344359 344360 344361 344362 344363 344364 344365 344366 344367 [...] (43390 flits)
Class 0:
Remaining flits: 268434 268435 268436 268437 268438 268439 268440 268441 268442 268443 [...] (719504 flits)
Measured flits: 344358 344359 344360 344361 344362 344363 344364 344365 344366 344367 [...] (38418 flits)
Class 0:
Remaining flits: 268434 268435 268436 268437 268438 268439 268440 268441 268442 268443 [...] (718262 flits)
Measured flits: 344358 344359 344360 344361 344362 344363 344364 344365 344366 344367 [...] (34553 flits)
Class 0:
Remaining flits: 268434 268435 268436 268437 268438 268439 268440 268441 268442 268443 [...] (715914 flits)
Measured flits: 344358 344359 344360 344361 344362 344363 344364 344365 344366 344367 [...] (30336 flits)
Class 0:
Remaining flits: 268434 268435 268436 268437 268438 268439 268440 268441 268442 268443 [...] (714202 flits)
Measured flits: 344358 344359 344360 344361 344362 344363 344364 344365 344366 344367 [...] (26909 flits)
Class 0:
Remaining flits: 268434 268435 268436 268437 268438 268439 268440 268441 268442 268443 [...] (713046 flits)
Measured flits: 344358 344359 344360 344361 344362 344363 344364 344365 344366 344367 [...] (24726 flits)
Class 0:
Remaining flits: 268434 268435 268436 268437 268438 268439 268440 268441 268442 268443 [...] (712842 flits)
Measured flits: 344358 344359 344360 344361 344362 344363 344364 344365 344366 344367 [...] (22625 flits)
Class 0:
Remaining flits: 268434 268435 268436 268437 268438 268439 268440 268441 268442 268443 [...] (707161 flits)
Measured flits: 344358 344359 344360 344361 344362 344363 344364 344365 344366 344367 [...] (21071 flits)
Class 0:
Remaining flits: 268434 268435 268436 268437 268438 268439 268440 268441 268442 268443 [...] (703591 flits)
Measured flits: 344358 344359 344360 344361 344362 344363 344364 344365 344366 344367 [...] (18902 flits)
Class 0:
Remaining flits: 268434 268435 268436 268437 268438 268439 268440 268441 268442 268443 [...] (698974 flits)
Measured flits: 344358 344359 344360 344361 344362 344363 344364 344365 344366 344367 [...] (16810 flits)
Class 0:
Remaining flits: 268434 268435 268436 268437 268438 268439 268440 268441 268442 268443 [...] (695233 flits)
Measured flits: 344358 344359 344360 344361 344362 344363 344364 344365 344366 344367 [...] (15646 flits)
Class 0:
Remaining flits: 268434 268435 268436 268437 268438 268439 268440 268441 268442 268443 [...] (694181 flits)
Measured flits: 344358 344359 344360 344361 344362 344363 344364 344365 344366 344367 [...] (14853 flits)
Class 0:
Remaining flits: 268434 268435 268436 268437 268438 268439 268440 268441 268442 268443 [...] (695262 flits)
Measured flits: 344358 344359 344360 344361 344362 344363 344364 344365 344366 344367 [...] (13062 flits)
Class 0:
Remaining flits: 268434 268435 268436 268437 268438 268439 268440 268441 268442 268443 [...] (692679 flits)
Measured flits: 344358 344359 344360 344361 344362 344363 344364 344365 344366 344367 [...] (11424 flits)
Class 0:
Remaining flits: 268434 268435 268436 268437 268438 268439 268440 268441 268442 268443 [...] (690679 flits)
Measured flits: 344358 344359 344360 344361 344362 344363 344364 344365 344366 344367 [...] (10777 flits)
Class 0:
Remaining flits: 268434 268435 268436 268437 268438 268439 268440 268441 268442 268443 [...] (691017 flits)
Measured flits: 344358 344359 344360 344361 344362 344363 344364 344365 344366 344367 [...] (10224 flits)
Class 0:
Remaining flits: 268434 268435 268436 268437 268438 268439 268440 268441 268442 268443 [...] (689400 flits)
Measured flits: 344358 344359 344360 344361 344362 344363 344364 344365 344366 344367 [...] (9233 flits)
Class 0:
Remaining flits: 268434 268435 268436 268437 268438 268439 268440 268441 268442 268443 [...] (690167 flits)
Measured flits: 344358 344359 344360 344361 344362 344363 344364 344365 344366 344367 [...] (7983 flits)
Class 0:
Remaining flits: 268434 268435 268436 268437 268438 268439 268440 268441 268442 268443 [...] (690642 flits)
Measured flits: 344358 344359 344360 344361 344362 344363 344364 344365 344366 344367 [...] (7178 flits)
Class 0:
Remaining flits: 268434 268435 268436 268437 268438 268439 268440 268441 268442 268443 [...] (693389 flits)
Measured flits: 344358 344359 344360 344361 344362 344363 344364 344365 344366 344367 [...] (6265 flits)
Class 0:
Remaining flits: 344358 344359 344360 344361 344362 344363 344364 344365 344366 344367 [...] (692216 flits)
Measured flits: 344358 344359 344360 344361 344362 344363 344364 344365 344366 344367 [...] (5438 flits)
Class 0:
Remaining flits: 344358 344359 344360 344361 344362 344363 344364 344365 344366 344367 [...] (690522 flits)
Measured flits: 344358 344359 344360 344361 344362 344363 344364 344365 344366 344367 [...] (4915 flits)
Class 0:
Remaining flits: 344358 344359 344360 344361 344362 344363 344364 344365 344366 344367 [...] (691312 flits)
Measured flits: 344358 344359 344360 344361 344362 344363 344364 344365 344366 344367 [...] (4438 flits)
Class 0:
Remaining flits: 344358 344359 344360 344361 344362 344363 344364 344365 344366 344367 [...] (696884 flits)
Measured flits: 344358 344359 344360 344361 344362 344363 344364 344365 344366 344367 [...] (3978 flits)
Class 0:
Remaining flits: 344358 344359 344360 344361 344362 344363 344364 344365 344366 344367 [...] (702549 flits)
Measured flits: 344358 344359 344360 344361 344362 344363 344364 344365 344366 344367 [...] (3336 flits)
Class 0:
Remaining flits: 344358 344359 344360 344361 344362 344363 344364 344365 344366 344367 [...] (702875 flits)
Measured flits: 344358 344359 344360 344361 344362 344363 344364 344365 344366 344367 [...] (2940 flits)
Class 0:
Remaining flits: 344358 344359 344360 344361 344362 344363 344364 344365 344366 344367 [...] (702883 flits)
Measured flits: 344358 344359 344360 344361 344362 344363 344364 344365 344366 344367 [...] (2478 flits)
Class 0:
Remaining flits: 344358 344359 344360 344361 344362 344363 344364 344365 344366 344367 [...] (702540 flits)
Measured flits: 344358 344359 344360 344361 344362 344363 344364 344365 344366 344367 [...] (2128 flits)
Class 0:
Remaining flits: 344358 344359 344360 344361 344362 344363 344364 344365 344366 344367 [...] (701734 flits)
Measured flits: 344358 344359 344360 344361 344362 344363 344364 344365 344366 344367 [...] (1749 flits)
Class 0:
Remaining flits: 344358 344359 344360 344361 344362 344363 344364 344365 344366 344367 [...] (705490 flits)
Measured flits: 344358 344359 344360 344361 344362 344363 344364 344365 344366 344367 [...] (1576 flits)
Class 0:
Remaining flits: 344358 344359 344360 344361 344362 344363 344364 344365 344366 344367 [...] (703805 flits)
Measured flits: 344358 344359 344360 344361 344362 344363 344364 344365 344366 344367 [...] (1399 flits)
Class 0:
Remaining flits: 344358 344359 344360 344361 344362 344363 344364 344365 344366 344367 [...] (697995 flits)
Measured flits: 344358 344359 344360 344361 344362 344363 344364 344365 344366 344367 [...] (1267 flits)
Class 0:
Remaining flits: 344358 344359 344360 344361 344362 344363 344364 344365 344366 344367 [...] (691461 flits)
Measured flits: 344358 344359 344360 344361 344362 344363 344364 344365 344366 344367 [...] (1164 flits)
Class 0:
Remaining flits: 344358 344359 344360 344361 344362 344363 344364 344365 344366 344367 [...] (686084 flits)
Measured flits: 344358 344359 344360 344361 344362 344363 344364 344365 344366 344367 [...] (1027 flits)
Class 0:
Remaining flits: 344358 344359 344360 344361 344362 344363 344364 344365 344366 344367 [...] (685279 flits)
Measured flits: 344358 344359 344360 344361 344362 344363 344364 344365 344366 344367 [...] (714 flits)
Class 0:
Remaining flits: 435780 435781 435782 435783 435784 435785 435786 435787 435788 435789 [...] (686015 flits)
Measured flits: 435780 435781 435782 435783 435784 435785 435786 435787 435788 435789 [...] (576 flits)
Class 0:
Remaining flits: 435780 435781 435782 435783 435784 435785 435786 435787 435788 435789 [...] (682441 flits)
Measured flits: 435780 435781 435782 435783 435784 435785 435786 435787 435788 435789 [...] (540 flits)
Class 0:
Remaining flits: 435780 435781 435782 435783 435784 435785 435786 435787 435788 435789 [...] (682655 flits)
Measured flits: 435780 435781 435782 435783 435784 435785 435786 435787 435788 435789 [...] (470 flits)
Class 0:
Remaining flits: 435780 435781 435782 435783 435784 435785 435786 435787 435788 435789 [...] (679544 flits)
Measured flits: 435780 435781 435782 435783 435784 435785 435786 435787 435788 435789 [...] (468 flits)
Class 0:
Remaining flits: 435780 435781 435782 435783 435784 435785 435786 435787 435788 435789 [...] (675628 flits)
Measured flits: 435780 435781 435782 435783 435784 435785 435786 435787 435788 435789 [...] (396 flits)
Class 0:
Remaining flits: 435780 435781 435782 435783 435784 435785 435786 435787 435788 435789 [...] (675467 flits)
Measured flits: 435780 435781 435782 435783 435784 435785 435786 435787 435788 435789 [...] (364 flits)
Class 0:
Remaining flits: 435780 435781 435782 435783 435784 435785 435786 435787 435788 435789 [...] (678701 flits)
Measured flits: 435780 435781 435782 435783 435784 435785 435786 435787 435788 435789 [...] (342 flits)
Class 0:
Remaining flits: 435780 435781 435782 435783 435784 435785 435786 435787 435788 435789 [...] (681046 flits)
Measured flits: 435780 435781 435782 435783 435784 435785 435786 435787 435788 435789 [...] (306 flits)
Class 0:
Remaining flits: 435780 435781 435782 435783 435784 435785 435786 435787 435788 435789 [...] (682654 flits)
Measured flits: 435780 435781 435782 435783 435784 435785 435786 435787 435788 435789 [...] (306 flits)
Class 0:
Remaining flits: 435780 435781 435782 435783 435784 435785 435786 435787 435788 435789 [...] (685011 flits)
Measured flits: 435780 435781 435782 435783 435784 435785 435786 435787 435788 435789 [...] (288 flits)
Class 0:
Remaining flits: 435780 435781 435782 435783 435784 435785 435786 435787 435788 435789 [...] (690555 flits)
Measured flits: 435780 435781 435782 435783 435784 435785 435786 435787 435788 435789 [...] (234 flits)
Class 0:
Remaining flits: 616572 616573 616574 616575 616576 616577 616578 616579 616580 616581 [...] (691398 flits)
Measured flits: 616572 616573 616574 616575 616576 616577 616578 616579 616580 616581 [...] (198 flits)
Class 0:
Remaining flits: 616572 616573 616574 616575 616576 616577 616578 616579 616580 616581 [...] (691122 flits)
Measured flits: 616572 616573 616574 616575 616576 616577 616578 616579 616580 616581 [...] (180 flits)
Class 0:
Remaining flits: 616572 616573 616574 616575 616576 616577 616578 616579 616580 616581 [...] (692252 flits)
Measured flits: 616572 616573 616574 616575 616576 616577 616578 616579 616580 616581 [...] (162 flits)
Class 0:
Remaining flits: 616572 616573 616574 616575 616576 616577 616578 616579 616580 616581 [...] (692940 flits)
Measured flits: 616572 616573 616574 616575 616576 616577 616578 616579 616580 616581 [...] (144 flits)
Class 0:
Remaining flits: 616572 616573 616574 616575 616576 616577 616578 616579 616580 616581 [...] (687011 flits)
Measured flits: 616572 616573 616574 616575 616576 616577 616578 616579 616580 616581 [...] (126 flits)
Class 0:
Remaining flits: 616572 616573 616574 616575 616576 616577 616578 616579 616580 616581 [...] (685218 flits)
Measured flits: 616572 616573 616574 616575 616576 616577 616578 616579 616580 616581 [...] (108 flits)
Class 0:
Remaining flits: 616572 616573 616574 616575 616576 616577 616578 616579 616580 616581 [...] (682821 flits)
Measured flits: 616572 616573 616574 616575 616576 616577 616578 616579 616580 616581 [...] (106 flits)
Class 0:
Remaining flits: 616572 616573 616574 616575 616576 616577 616578 616579 616580 616581 [...] (681562 flits)
Measured flits: 616572 616573 616574 616575 616576 616577 616578 616579 616580 616581 [...] (94 flits)
Class 0:
Remaining flits: 1115100 1115101 1115102 1115103 1115104 1115105 1115106 1115107 1115108 1115109 [...] (683905 flits)
Measured flits: 1115100 1115101 1115102 1115103 1115104 1115105 1115106 1115107 1115108 1115109 [...] (72 flits)
Class 0:
Remaining flits: 1115100 1115101 1115102 1115103 1115104 1115105 1115106 1115107 1115108 1115109 [...] (684101 flits)
Measured flits: 1115100 1115101 1115102 1115103 1115104 1115105 1115106 1115107 1115108 1115109 [...] (58 flits)
Class 0:
Remaining flits: 1115100 1115101 1115102 1115103 1115104 1115105 1115106 1115107 1115108 1115109 [...] (680173 flits)
Measured flits: 1115100 1115101 1115102 1115103 1115104 1115105 1115106 1115107 1115108 1115109 [...] (36 flits)
Class 0:
Remaining flits: 1115100 1115101 1115102 1115103 1115104 1115105 1115106 1115107 1115108 1115109 [...] (675663 flits)
Measured flits: 1115100 1115101 1115102 1115103 1115104 1115105 1115106 1115107 1115108 1115109 [...] (36 flits)
Class 0:
Remaining flits: 1115100 1115101 1115102 1115103 1115104 1115105 1115106 1115107 1115108 1115109 [...] (677460 flits)
Measured flits: 1115100 1115101 1115102 1115103 1115104 1115105 1115106 1115107 1115108 1115109 [...] (36 flits)
Class 0:
Remaining flits: 1115100 1115101 1115102 1115103 1115104 1115105 1115106 1115107 1115108 1115109 [...] (677044 flits)
Measured flits: 1115100 1115101 1115102 1115103 1115104 1115105 1115106 1115107 1115108 1115109 [...] (36 flits)
Class 0:
Remaining flits: 1115100 1115101 1115102 1115103 1115104 1115105 1115106 1115107 1115108 1115109 [...] (677400 flits)
Measured flits: 1115100 1115101 1115102 1115103 1115104 1115105 1115106 1115107 1115108 1115109 [...] (36 flits)
Class 0:
Remaining flits: 1115100 1115101 1115102 1115103 1115104 1115105 1115106 1115107 1115108 1115109 [...] (677853 flits)
Measured flits: 1115100 1115101 1115102 1115103 1115104 1115105 1115106 1115107 1115108 1115109 [...] (36 flits)
Class 0:
Remaining flits: 1115100 1115101 1115102 1115103 1115104 1115105 1115106 1115107 1115108 1115109 [...] (677133 flits)
Measured flits: 1115100 1115101 1115102 1115103 1115104 1115105 1115106 1115107 1115108 1115109 [...] (36 flits)
Class 0:
Remaining flits: 1115100 1115101 1115102 1115103 1115104 1115105 1115106 1115107 1115108 1115109 [...] (678587 flits)
Measured flits: 1115100 1115101 1115102 1115103 1115104 1115105 1115106 1115107 1115108 1115109 [...] (36 flits)
Class 0:
Remaining flits: 1115100 1115101 1115102 1115103 1115104 1115105 1115106 1115107 1115108 1115109 [...] (680290 flits)
Measured flits: 1115100 1115101 1115102 1115103 1115104 1115105 1115106 1115107 1115108 1115109 [...] (36 flits)
Class 0:
Remaining flits: 1115100 1115101 1115102 1115103 1115104 1115105 1115106 1115107 1115108 1115109 [...] (677700 flits)
Measured flits: 1115100 1115101 1115102 1115103 1115104 1115105 1115106 1115107 1115108 1115109 [...] (36 flits)
Class 0:
Remaining flits: 1115101 1115102 1115103 1115104 1115105 1115106 1115107 1115108 1115109 1115110 [...] (673673 flits)
Measured flits: 1115101 1115102 1115103 1115104 1115105 1115106 1115107 1115108 1115109 1115110 [...] (35 flits)
Class 0:
Remaining flits: 1115101 1115102 1115103 1115104 1115105 1115106 1115107 1115108 1115109 1115110 [...] (670471 flits)
Measured flits: 1115101 1115102 1115103 1115104 1115105 1115106 1115107 1115108 1115109 1115110 [...] (35 flits)
Class 0:
Remaining flits: 1115101 1115102 1115103 1115104 1115105 1115106 1115107 1115108 1115109 1115110 [...] (664994 flits)
Measured flits: 1115101 1115102 1115103 1115104 1115105 1115106 1115107 1115108 1115109 1115110 [...] (35 flits)
Class 0:
Remaining flits: 1115101 1115102 1115103 1115104 1115105 1115106 1115107 1115108 1115109 1115110 [...] (662607 flits)
Measured flits: 1115101 1115102 1115103 1115104 1115105 1115106 1115107 1115108 1115109 1115110 [...] (35 flits)
Class 0:
Remaining flits: 1115101 1115102 1115103 1115104 1115105 1115106 1115107 1115108 1115109 1115110 [...] (662597 flits)
Measured flits: 1115101 1115102 1115103 1115104 1115105 1115106 1115107 1115108 1115109 1115110 [...] (35 flits)
Class 0:
Remaining flits: 1441584 1441585 1441586 1441587 1441588 1441589 1441590 1441591 1441592 1441593 [...] (663105 flits)
Measured flits: 1441584 1441585 1441586 1441587 1441588 1441589 1441590 1441591 1441592 1441593 [...] (18 flits)
Class 0:
Remaining flits: 1441584 1441585 1441586 1441587 1441588 1441589 1441590 1441591 1441592 1441593 [...] (663078 flits)
Measured flits: 1441584 1441585 1441586 1441587 1441588 1441589 1441590 1441591 1441592 1441593 [...] (18 flits)
Class 0:
Remaining flits: 1441584 1441585 1441586 1441587 1441588 1441589 1441590 1441591 1441592 1441593 [...] (659018 flits)
Measured flits: 1441584 1441585 1441586 1441587 1441588 1441589 1441590 1441591 1441592 1441593 [...] (18 flits)
Class 0:
Remaining flits: 1441584 1441585 1441586 1441587 1441588 1441589 1441590 1441591 1441592 1441593 [...] (660981 flits)
Measured flits: 1441584 1441585 1441586 1441587 1441588 1441589 1441590 1441591 1441592 1441593 [...] (18 flits)
Class 0:
Remaining flits: 1441584 1441585 1441586 1441587 1441588 1441589 1441590 1441591 1441592 1441593 [...] (658008 flits)
Measured flits: 1441584 1441585 1441586 1441587 1441588 1441589 1441590 1441591 1441592 1441593 [...] (18 flits)
Class 0:
Remaining flits: 1441584 1441585 1441586 1441587 1441588 1441589 1441590 1441591 1441592 1441593 [...] (657780 flits)
Measured flits: 1441584 1441585 1441586 1441587 1441588 1441589 1441590 1441591 1441592 1441593 [...] (18 flits)
Class 0:
Remaining flits: 1441584 1441585 1441586 1441587 1441588 1441589 1441590 1441591 1441592 1441593 [...] (653027 flits)
Measured flits: 1441584 1441585 1441586 1441587 1441588 1441589 1441590 1441591 1441592 1441593 [...] (18 flits)
Class 0:
Remaining flits: 1441584 1441585 1441586 1441587 1441588 1441589 1441590 1441591 1441592 1441593 [...] (651347 flits)
Measured flits: 1441584 1441585 1441586 1441587 1441588 1441589 1441590 1441591 1441592 1441593 [...] (18 flits)
Class 0:
Remaining flits: 1441584 1441585 1441586 1441587 1441588 1441589 1441590 1441591 1441592 1441593 [...] (650727 flits)
Measured flits: 1441584 1441585 1441586 1441587 1441588 1441589 1441590 1441591 1441592 1441593 [...] (18 flits)
Class 0:
Remaining flits: 1441584 1441585 1441586 1441587 1441588 1441589 1441590 1441591 1441592 1441593 [...] (655141 flits)
Measured flits: 1441584 1441585 1441586 1441587 1441588 1441589 1441590 1441591 1441592 1441593 [...] (18 flits)
Class 0:
Remaining flits: 1441585 1441586 1441587 1441588 1441589 1441590 1441591 1441592 1441593 1441594 [...] (658645 flits)
Measured flits: 1441585 1441586 1441587 1441588 1441589 1441590 1441591 1441592 1441593 1441594 [...] (17 flits)
Class 0:
Remaining flits: 1441585 1441586 1441587 1441588 1441589 1441590 1441591 1441592 1441593 1441594 [...] (660519 flits)
Measured flits: 1441585 1441586 1441587 1441588 1441589 1441590 1441591 1441592 1441593 1441594 [...] (17 flits)
Class 0:
Remaining flits: 1441585 1441586 1441587 1441588 1441589 1441590 1441591 1441592 1441593 1441594 [...] (660714 flits)
Measured flits: 1441585 1441586 1441587 1441588 1441589 1441590 1441591 1441592 1441593 1441594 [...] (17 flits)
Draining remaining packets ...
Class 0:
Remaining flits: 1897812 1897813 1897814 1897815 1897816 1897817 1897818 1897819 1897820 1897821 [...] (628200 flits)
Measured flits: (0 flits)
Class 0:
Remaining flits: 1897812 1897813 1897814 1897815 1897816 1897817 1897818 1897819 1897820 1897821 [...] (594761 flits)
Measured flits: (0 flits)
Class 0:
Remaining flits: 1897812 1897813 1897814 1897815 1897816 1897817 1897818 1897819 1897820 1897821 [...] (562046 flits)
Measured flits: (0 flits)
Class 0:
Remaining flits: 1897812 1897813 1897814 1897815 1897816 1897817 1897818 1897819 1897820 1897821 [...] (531094 flits)
Measured flits: (0 flits)
Class 0:
Remaining flits: 1897812 1897813 1897814 1897815 1897816 1897817 1897818 1897819 1897820 1897821 [...] (500215 flits)
Measured flits: (0 flits)
Class 0:
Remaining flits: 1897812 1897813 1897814 1897815 1897816 1897817 1897818 1897819 1897820 1897821 [...] (468835 flits)
Measured flits: (0 flits)
Class 0:
Remaining flits: 1897812 1897813 1897814 1897815 1897816 1897817 1897818 1897819 1897820 1897821 [...] (436940 flits)
Measured flits: (0 flits)
Class 0:
Remaining flits: 1897812 1897813 1897814 1897815 1897816 1897817 1897818 1897819 1897820 1897821 [...] (405771 flits)
Measured flits: (0 flits)
Class 0:
Remaining flits: 1897812 1897813 1897814 1897815 1897816 1897817 1897818 1897819 1897820 1897821 [...] (373971 flits)
Measured flits: (0 flits)
Class 0:
Remaining flits: 1897812 1897813 1897814 1897815 1897816 1897817 1897818 1897819 1897820 1897821 [...] (343308 flits)
Measured flits: (0 flits)
Class 0:
Remaining flits: 1897828 1897829 2556864 2556865 2556866 2556867 2556868 2556869 2556870 2556871 [...] (311251 flits)
Measured flits: (0 flits)
Class 0:
Remaining flits: 1897828 1897829 2556864 2556865 2556866 2556867 2556868 2556869 2556870 2556871 [...] (279602 flits)
Measured flits: (0 flits)
Class 0:
Remaining flits: 1897828 1897829 2556864 2556865 2556866 2556867 2556868 2556869 2556870 2556871 [...] (249260 flits)
Measured flits: (0 flits)
Class 0:
Remaining flits: 1897828 1897829 2556864 2556865 2556866 2556867 2556868 2556869 2556870 2556871 [...] (219834 flits)
Measured flits: (0 flits)
Class 0:
Remaining flits: 1897828 1897829 2567430 2567431 2567432 2567433 2567434 2567435 2567436 2567437 [...] (192778 flits)
Measured flits: (0 flits)
Class 0:
Remaining flits: 2814606 2814607 2814608 2814609 2814610 2814611 2814612 2814613 2814614 2814615 [...] (166100 flits)
Measured flits: (0 flits)
Class 0:
Remaining flits: 2814606 2814607 2814608 2814609 2814610 2814611 2814612 2814613 2814614 2814615 [...] (140889 flits)
Measured flits: (0 flits)
Class 0:
Remaining flits: 2989656 2989657 2989658 2989659 2989660 2989661 2989662 2989663 2989664 2989665 [...] (116223 flits)
Measured flits: (0 flits)
Class 0:
Remaining flits: 2989656 2989657 2989658 2989659 2989660 2989661 2989662 2989663 2989664 2989665 [...] (92992 flits)
Measured flits: (0 flits)
Class 0:
Remaining flits: 2989656 2989657 2989658 2989659 2989660 2989661 2989662 2989663 2989664 2989665 [...] (70953 flits)
Measured flits: (0 flits)
Class 0:
Remaining flits: 2989656 2989657 2989658 2989659 2989660 2989661 2989662 2989663 2989664 2989665 [...] (51564 flits)
Measured flits: (0 flits)
Class 0:
Remaining flits: 2989656 2989657 2989658 2989659 2989660 2989661 2989662 2989663 2989664 2989665 [...] (34464 flits)
Measured flits: (0 flits)
Class 0:
Remaining flits: 2989656 2989657 2989658 2989659 2989660 2989661 2989662 2989663 2989664 2989665 [...] (20526 flits)
Measured flits: (0 flits)
Class 0:
Remaining flits: 2989656 2989657 2989658 2989659 2989660 2989661 2989662 2989663 2989664 2989665 [...] (12021 flits)
Measured flits: (0 flits)
Class 0:
Remaining flits: 2989656 2989657 2989658 2989659 2989660 2989661 2989662 2989663 2989664 2989665 [...] (7588 flits)
Measured flits: (0 flits)
Class 0:
Remaining flits: 2989656 2989657 2989658 2989659 2989660 2989661 2989662 2989663 2989664 2989665 [...] (3763 flits)
Measured flits: (0 flits)
Class 0:
Remaining flits: 2989656 2989657 2989658 2989659 2989660 2989661 2989662 2989663 2989664 2989665 [...] (1736 flits)
Measured flits: (0 flits)
Class 0:
Remaining flits: 4221575 4307832 4307833 4307834 4307835 4307836 4307837 4307838 4307839 4307840 [...] (736 flits)
Measured flits: (0 flits)
Time taken is 159022 cycles
====== Overall Traffic Statistics ======
====== Traffic class 0 ======
Packet latency average = 16200.6 (1 samples)
	minimum = 29 (1 samples)
	maximum = 121931 (1 samples)
Network latency average = 12668.9 (1 samples)
	minimum = 25 (1 samples)
	maximum = 112078 (1 samples)
Flit latency average = 17897.5 (1 samples)
	minimum = 6 (1 samples)
	maximum = 116663 (1 samples)
Fragmentation average = 269.685 (1 samples)
	minimum = 0 (1 samples)
	maximum = 15297 (1 samples)
Injected packet rate average = 0.026224 (1 samples)
	minimum = 0.0117143 (1 samples)
	maximum = 0.0401429 (1 samples)
Accepted packet rate average = 0.012933 (1 samples)
	minimum = 0.00914286 (1 samples)
	maximum = 0.0162857 (1 samples)
Injected flit rate average = 0.471831 (1 samples)
	minimum = 0.211714 (1 samples)
	maximum = 0.723 (1 samples)
Accepted flit rate average = 0.232455 (1 samples)
	minimum = 0.169143 (1 samples)
	maximum = 0.297143 (1 samples)
Injected packet size average = 17.9924 (1 samples)
Accepted packet size average = 17.9737 (1 samples)
Hops average = 5.05825 (1 samples)
Total run time 337.674
