BEGIN Configuration File: networks/mezzanine_config
topology = mezzanine;
n = 12;

routing_function = multipath;
internal_speedup = 2.0;
latency_thres = 100000.0;
use_read_write = 0;

sample_period = 1000;
injection_rate = 0.5;
packet_size = 18;

noq = 1;
routing_delay = 0;
vc_alloc_delay = 1;
sw_alloc_delay = 1;
st_final_delay = 1;
vc_allocator = islip; 
sw_allocator = islip;
alloc_iters  = 4;
num_vcs     = 12;
buffer_policy = private; // private or shared
buf_size = -1; // -1 for buffer_policy = private;
vc_buf_size = 4096; // size of each VOQ with buffer_policy = private
output_buffer_size = -1;


traffic = uniform;

//mezW = 0.0;
//mezPredefinedPatternType = shift-inter; //shift-qfdb

END Configuration File: networks/mezzanine_config
OVERRIDE Parameter: injection_rate=0.004697
OVERRIDE Parameter: routing_function=multipath
OVERRIDE Parameter: num_vcs=12
OVERRIDE Parameter: vc_buf_size=18
OVERRIDE Parameter: internal_speedup=2.0
OVERRIDE Parameter: injection_process=on_off
OVERRIDE Parameter: sim_type=throughput
OVERRIDE Parameter: burst_alpha=0.0038461538
OVERRIDE Parameter: burst_beta=0.1
network: network_0
========================== Routing table  =====================
Number of Subnets: 1
Class 0:
Packet latency average = 69.7235
	minimum = 25
	maximum = 276
Network latency average = 51.8263
	minimum = 22
	maximum = 207
Slowest packet = 104
Flit latency average = 31.2769
	minimum = 5
	maximum = 190
Slowest flit = 13714
Fragmentation average = 6.53814
	minimum = 0
	maximum = 52
Injected packet rate average = 0.00521354
	minimum = 0 (at node 8)
	maximum = 0.016 (at node 49)
Accepted packet rate average = 0.00491667
	minimum = 0.001 (at node 35)
	maximum = 0.011 (at node 140)
Injected flit rate average = 0.0929531
	minimum = 0 (at node 8)
	maximum = 0.288 (at node 51)
Accepted flit rate average= 0.0896302
	minimum = 0.018 (at node 41)
	maximum = 0.198 (at node 140)
Injected packet length average = 17.8292
Accepted packet length average = 18.2299
Total in-flight flits = 809 (0 measured)
latency change    = 1
throughput change = 1
Class 0:
Packet latency average = 71.3798
	minimum = 22
	maximum = 330
Network latency average = 53.2491
	minimum = 22
	maximum = 273
Slowest packet = 104
Flit latency average = 32.5585
	minimum = 5
	maximum = 240
Slowest flit = 18735
Fragmentation average = 6.63803
	minimum = 0
	maximum = 52
Injected packet rate average = 0.00494271
	minimum = 0 (at node 8)
	maximum = 0.016 (at node 47)
Accepted packet rate average = 0.00482031
	minimum = 0.0005 (at node 41)
	maximum = 0.0085 (at node 91)
Injected flit rate average = 0.0885313
	minimum = 0 (at node 8)
	maximum = 0.288 (at node 47)
Accepted flit rate average= 0.0871563
	minimum = 0.0095 (at node 41)
	maximum = 0.153 (at node 91)
Injected packet length average = 17.9115
Accepted packet length average = 18.081
Total in-flight flits = 696 (0 measured)
latency change    = 0.0232037
throughput change = 0.0283853
Class 0:
Packet latency average = 62.5524
	minimum = 22
	maximum = 280
Network latency average = 47.706
	minimum = 22
	maximum = 229
Slowest packet = 1791
Flit latency average = 27.7628
	minimum = 5
	maximum = 212
Slowest flit = 34642
Fragmentation average = 5.26429
	minimum = 0
	maximum = 48
Injected packet rate average = 0.00431771
	minimum = 0 (at node 11)
	maximum = 0.017 (at node 74)
Accepted packet rate average = 0.004375
	minimum = 0 (at node 17)
	maximum = 0.011 (at node 133)
Injected flit rate average = 0.0781406
	minimum = 0 (at node 11)
	maximum = 0.303 (at node 74)
Accepted flit rate average= 0.0787865
	minimum = 0 (at node 17)
	maximum = 0.2 (at node 173)
Injected packet length average = 18.0977
Accepted packet length average = 18.0083
Total in-flight flits = 491 (0 measured)
latency change    = 0.14112
throughput change = 0.106234
Warmed up ...Time used is 3000 cycles
Class 0:
Packet latency average = 61.8594
	minimum = 22
	maximum = 313
Network latency average = 48.4217
	minimum = 22
	maximum = 255
Slowest packet = 2894
Flit latency average = 29.2502
	minimum = 5
	maximum = 238
Slowest flit = 52109
Fragmentation average = 5.37855
	minimum = 0
	maximum = 56
Injected packet rate average = 0.0044375
	minimum = 0 (at node 9)
	maximum = 0.016 (at node 91)
Accepted packet rate average = 0.00441146
	minimum = 0 (at node 18)
	maximum = 0.011 (at node 22)
Injected flit rate average = 0.07925
	minimum = 0 (at node 9)
	maximum = 0.288 (at node 91)
Accepted flit rate average= 0.0793698
	minimum = 0 (at node 18)
	maximum = 0.198 (at node 22)
Injected packet length average = 17.8592
Accepted packet length average = 17.9917
Total in-flight flits = 588 (588 measured)
latency change    = 0.011202
throughput change = 0.00734956
Class 0:
Packet latency average = 62.8355
	minimum = 22
	maximum = 313
Network latency average = 47.6496
	minimum = 22
	maximum = 255
Slowest packet = 2894
Flit latency average = 28.0574
	minimum = 5
	maximum = 238
Slowest flit = 52109
Fragmentation average = 5.39014
	minimum = 0
	maximum = 56
Injected packet rate average = 0.0045
	minimum = 0 (at node 62)
	maximum = 0.013 (at node 20)
Accepted packet rate average = 0.00447917
	minimum = 0.001 (at node 24)
	maximum = 0.0085 (at node 166)
Injected flit rate average = 0.0809818
	minimum = 0 (at node 62)
	maximum = 0.234 (at node 20)
Accepted flit rate average= 0.0807057
	minimum = 0.018 (at node 24)
	maximum = 0.153 (at node 166)
Injected packet length average = 17.9959
Accepted packet length average = 18.018
Total in-flight flits = 604 (604 measured)
latency change    = 0.0155339
throughput change = 0.0165532
Class 0:
Packet latency average = 66.4381
	minimum = 22
	maximum = 463
Network latency average = 50.17
	minimum = 22
	maximum = 276
Slowest packet = 2894
Flit latency average = 30.2604
	minimum = 5
	maximum = 256
Slowest flit = 83393
Fragmentation average = 5.6651
	minimum = 0
	maximum = 56
Injected packet rate average = 0.00452778
	minimum = 0.000333333 (at node 62)
	maximum = 0.0113333 (at node 169)
Accepted packet rate average = 0.00450521
	minimum = 0.00133333 (at node 153)
	maximum = 0.00733333 (at node 174)
Injected flit rate average = 0.0814271
	minimum = 0.006 (at node 62)
	maximum = 0.204 (at node 169)
Accepted flit rate average= 0.0811632
	minimum = 0.024 (at node 153)
	maximum = 0.133667 (at node 177)
Injected packet length average = 17.9839
Accepted packet length average = 18.0154
Total in-flight flits = 685 (685 measured)
latency change    = 0.0542242
throughput change = 0.00563636
Draining remaining packets ...
Time taken is 6094 cycles
====== Overall Traffic Statistics ======
====== Traffic class 0 ======
Packet latency average = 66.7465 (1 samples)
	minimum = 22 (1 samples)
	maximum = 463 (1 samples)
Network latency average = 50.4149 (1 samples)
	minimum = 22 (1 samples)
	maximum = 276 (1 samples)
Flit latency average = 30.4735 (1 samples)
	minimum = 5 (1 samples)
	maximum = 256 (1 samples)
Fragmentation average = 5.6691 (1 samples)
	minimum = 0 (1 samples)
	maximum = 56 (1 samples)
Injected packet rate average = 0.00452778 (1 samples)
	minimum = 0.000333333 (1 samples)
	maximum = 0.0113333 (1 samples)
Accepted packet rate average = 0.00450521 (1 samples)
	minimum = 0.00133333 (1 samples)
	maximum = 0.00733333 (1 samples)
Injected flit rate average = 0.0814271 (1 samples)
	minimum = 0.006 (1 samples)
	maximum = 0.204 (1 samples)
Accepted flit rate average = 0.0811632 (1 samples)
	minimum = 0.024 (1 samples)
	maximum = 0.133667 (1 samples)
Injected packet size average = 17.9839 (1 samples)
Accepted packet size average = 18.0154 (1 samples)
Hops average = 5.08359 (1 samples)
Total run time 1.45555
