BEGIN Configuration File: networks/mezzanine_config
topology = mezzanine;
n = 12;

routing_function = multipath;
internal_speedup = 2.0;
latency_thres = 100000.0;
use_read_write = 0;

sample_period = 1000;
injection_rate = 0.5;
packet_size = 18;

noq = 1;
routing_delay = 0;
vc_alloc_delay = 1;
sw_alloc_delay = 1;
st_final_delay = 1;
vc_allocator = islip; 
sw_allocator = islip;
alloc_iters  = 4;
num_vcs     = 12;
buffer_policy = private; // private or shared
buf_size = -1; // -1 for buffer_policy = private;
vc_buf_size = 4096; // size of each VOQ with buffer_policy = private
output_buffer_size = -1;


traffic = uniform;

//mezW = 0.0;
//mezPredefinedPatternType = shift-inter; //shift-qfdb

END Configuration File: networks/mezzanine_config
OVERRIDE Parameter: injection_rate=0.013537
OVERRIDE Parameter: routing_function=multipath
OVERRIDE Parameter: num_vcs=12
OVERRIDE Parameter: vc_buf_size=18
OVERRIDE Parameter: internal_speedup=1.0
OVERRIDE Parameter: injection_process=on_off
OVERRIDE Parameter: sim_type=throughput
OVERRIDE Parameter: burst_alpha=0.0038461538
OVERRIDE Parameter: burst_beta=0.1
network: network_0
========================== Routing table  =====================
Number of Subnets: 1
Class 0:
Packet latency average = 255.574
	minimum = 23
	maximum = 953
Network latency average = 189.12
	minimum = 23
	maximum = 894
Slowest packet = 206
Flit latency average = 149.291
	minimum = 6
	maximum = 921
Slowest flit = 5206
Fragmentation average = 44.2003
	minimum = 0
	maximum = 110
Injected packet rate average = 0.0113333
	minimum = 0 (at node 42)
	maximum = 0.028 (at node 57)
Accepted packet rate average = 0.00827083
	minimum = 0.002 (at node 41)
	maximum = 0.016 (at node 140)
Injected flit rate average = 0.201802
	minimum = 0 (at node 42)
	maximum = 0.504 (at node 57)
Accepted flit rate average= 0.155005
	minimum = 0.036 (at node 41)
	maximum = 0.295 (at node 140)
Injected packet length average = 17.8061
Accepted packet length average = 18.7412
Total in-flight flits = 10127 (0 measured)
latency change    = 1
throughput change = 1
Class 0:
Packet latency average = 414.377
	minimum = 23
	maximum = 1941
Network latency average = 271.215
	minimum = 23
	maximum = 1588
Slowest packet = 342
Flit latency average = 224.679
	minimum = 6
	maximum = 1571
Slowest flit = 6173
Fragmentation average = 50.7118
	minimum = 0
	maximum = 181
Injected packet rate average = 0.0104687
	minimum = 0.0005 (at node 115)
	maximum = 0.023 (at node 147)
Accepted packet rate average = 0.00864844
	minimum = 0.004 (at node 164)
	maximum = 0.0145 (at node 22)
Injected flit rate average = 0.187049
	minimum = 0.009 (at node 115)
	maximum = 0.413 (at node 147)
Accepted flit rate average= 0.158495
	minimum = 0.077 (at node 164)
	maximum = 0.2715 (at node 22)
Injected packet length average = 17.8674
Accepted packet length average = 18.3264
Total in-flight flits = 12542 (0 measured)
latency change    = 0.383234
throughput change = 0.022017
Class 0:
Packet latency average = 867.096
	minimum = 27
	maximum = 2549
Network latency average = 407.837
	minimum = 23
	maximum = 1840
Slowest packet = 3341
Flit latency average = 353.111
	minimum = 6
	maximum = 1806
Slowest flit = 21023
Fragmentation average = 54.4528
	minimum = 0
	maximum = 155
Injected packet rate average = 0.00944792
	minimum = 0 (at node 20)
	maximum = 0.025 (at node 76)
Accepted packet rate average = 0.00883333
	minimum = 0.001 (at node 121)
	maximum = 0.016 (at node 6)
Injected flit rate average = 0.169464
	minimum = 0 (at node 20)
	maximum = 0.437 (at node 76)
Accepted flit rate average= 0.160703
	minimum = 0.018 (at node 121)
	maximum = 0.268 (at node 6)
Injected packet length average = 17.9366
Accepted packet length average = 18.1928
Total in-flight flits = 14645 (0 measured)
latency change    = 0.522109
throughput change = 0.0137417
Warmed up ...Time used is 3000 cycles
Class 0:
Packet latency average = 1084.24
	minimum = 23
	maximum = 3477
Network latency average = 304.401
	minimum = 23
	maximum = 953
Slowest packet = 5916
Flit latency average = 410.243
	minimum = 6
	maximum = 1895
Slowest flit = 64439
Fragmentation average = 54.4797
	minimum = 0
	maximum = 131
Injected packet rate average = 0.00932812
	minimum = 0.001 (at node 0)
	maximum = 0.023 (at node 82)
Accepted packet rate average = 0.00897396
	minimum = 0.002 (at node 40)
	maximum = 0.017 (at node 16)
Injected flit rate average = 0.167672
	minimum = 0.013 (at node 85)
	maximum = 0.421 (at node 82)
Accepted flit rate average= 0.16125
	minimum = 0.021 (at node 40)
	maximum = 0.314 (at node 114)
Injected packet length average = 17.9749
Accepted packet length average = 17.9687
Total in-flight flits = 15941 (15129 measured)
latency change    = 0.200272
throughput change = 0.00339147
Class 0:
Packet latency average = 1349.25
	minimum = 23
	maximum = 4430
Network latency average = 405.259
	minimum = 23
	maximum = 1853
Slowest packet = 5916
Flit latency average = 416.816
	minimum = 6
	maximum = 2102
Slowest flit = 97253
Fragmentation average = 55.2116
	minimum = 0
	maximum = 132
Injected packet rate average = 0.0093151
	minimum = 0.0015 (at node 89)
	maximum = 0.0185 (at node 43)
Accepted packet rate average = 0.00907552
	minimum = 0.004 (at node 190)
	maximum = 0.0145 (at node 16)
Injected flit rate average = 0.167208
	minimum = 0.027 (at node 89)
	maximum = 0.333 (at node 43)
Accepted flit rate average= 0.163172
	minimum = 0.075 (at node 190)
	maximum = 0.2705 (at node 34)
Injected packet length average = 17.9502
Accepted packet length average = 17.9793
Total in-flight flits = 16373 (16337 measured)
latency change    = 0.196417
throughput change = 0.0117782
Class 0:
Packet latency average = 1550.99
	minimum = 23
	maximum = 4922
Network latency average = 448.675
	minimum = 23
	maximum = 2139
Slowest packet = 5916
Flit latency average = 429.572
	minimum = 6
	maximum = 2282
Slowest flit = 100835
Fragmentation average = 56.1901
	minimum = 0
	maximum = 132
Injected packet rate average = 0.00922049
	minimum = 0.00166667 (at node 89)
	maximum = 0.0166667 (at node 133)
Accepted packet rate average = 0.00908333
	minimum = 0.00533333 (at node 4)
	maximum = 0.016 (at node 16)
Injected flit rate average = 0.165724
	minimum = 0.03 (at node 89)
	maximum = 0.3 (at node 133)
Accepted flit rate average= 0.162948
	minimum = 0.096 (at node 4)
	maximum = 0.286667 (at node 16)
Injected packet length average = 17.9735
Accepted packet length average = 17.9392
Total in-flight flits = 16547 (16547 measured)
latency change    = 0.130068
throughput change = 0.00137442
Draining remaining packets ...
Time taken is 6764 cycles
====== Overall Traffic Statistics ======
====== Traffic class 0 ======
Packet latency average = 1693.58 (1 samples)
	minimum = 23 (1 samples)
	maximum = 5093 (1 samples)
Network latency average = 481.662 (1 samples)
	minimum = 23 (1 samples)
	maximum = 2193 (1 samples)
Flit latency average = 450.98 (1 samples)
	minimum = 6 (1 samples)
	maximum = 2282 (1 samples)
Fragmentation average = 54.5607 (1 samples)
	minimum = 0 (1 samples)
	maximum = 132 (1 samples)
Injected packet rate average = 0.00922049 (1 samples)
	minimum = 0.00166667 (1 samples)
	maximum = 0.0166667 (1 samples)
Accepted packet rate average = 0.00908333 (1 samples)
	minimum = 0.00533333 (1 samples)
	maximum = 0.016 (1 samples)
Injected flit rate average = 0.165724 (1 samples)
	minimum = 0.03 (1 samples)
	maximum = 0.3 (1 samples)
Accepted flit rate average = 0.162948 (1 samples)
	minimum = 0.096 (1 samples)
	maximum = 0.286667 (1 samples)
Injected packet size average = 17.9735 (1 samples)
Accepted packet size average = 17.9392 (1 samples)
Hops average = 5.07538 (1 samples)
Total run time 4.21602
