BEGIN Configuration File: networks/mezzanine_config
topology = mezzanine;
n = 12;

routing_function = multipath;
internal_speedup = 2.0;
latency_thres = 100000.0;
use_read_write = 0;

sample_period = 1000;
injection_rate = 0.5;
packet_size = 18;

noq = 1;
routing_delay = 0;
vc_alloc_delay = 1;
sw_alloc_delay = 1;
st_final_delay = 1;
vc_allocator = islip; 
sw_allocator = islip;
alloc_iters  = 4;
num_vcs     = 12;
buffer_policy = private; // private or shared
buf_size = -1; // -1 for buffer_policy = private;
vc_buf_size = 4096; // size of each VOQ with buffer_policy = private
output_buffer_size = -1;


traffic = uniform;

//mezW = 0.0;
//mezPredefinedPatternType = shift-inter; //shift-qfdb

END Configuration File: networks/mezzanine_config
OVERRIDE Parameter: injection_rate=0.017957
OVERRIDE Parameter: routing_function=multipath
OVERRIDE Parameter: num_vcs=32
OVERRIDE Parameter: vc_buf_size=1024
OVERRIDE Parameter: internal_speedup=2.0
OVERRIDE Parameter: injection_process=bernoulli
OVERRIDE Parameter: sim_type=throughput
OVERRIDE Parameter: burst_alpha=0.0038461538
OVERRIDE Parameter: burst_beta=0.1
network: network_0
========================== Routing table  =====================
Number of Subnets: 1
Class 0:
Packet latency average = 171.4
	minimum = 22
	maximum = 510
Network latency average = 167.673
	minimum = 22
	maximum = 509
Slowest packet = 1296
Flit latency average = 138.194
	minimum = 5
	maximum = 539
Slowest flit = 28314
Fragmentation average = 29.6203
	minimum = 0
	maximum = 186
Injected packet rate average = 0.0179583
	minimum = 0.008 (at node 46)
	maximum = 0.029 (at node 9)
Accepted packet rate average = 0.0129896
	minimum = 0.004 (at node 41)
	maximum = 0.024 (at node 44)
Injected flit rate average = 0.319563
	minimum = 0.132 (at node 109)
	maximum = 0.522 (at node 9)
Accepted flit rate average= 0.240182
	minimum = 0.072 (at node 41)
	maximum = 0.447 (at node 44)
Injected packet length average = 17.7947
Accepted packet length average = 18.4904
Total in-flight flits = 15949 (0 measured)
latency change    = 1
throughput change = 1
Class 0:
Packet latency average = 271.303
	minimum = 22
	maximum = 912
Network latency average = 267.424
	minimum = 22
	maximum = 912
Slowest packet = 3679
Flit latency average = 237.51
	minimum = 5
	maximum = 924
Slowest flit = 65658
Fragmentation average = 31.1164
	minimum = 0
	maximum = 190
Injected packet rate average = 0.0177526
	minimum = 0.0115 (at node 7)
	maximum = 0.0255 (at node 85)
Accepted packet rate average = 0.0137344
	minimum = 0.007 (at node 153)
	maximum = 0.02 (at node 152)
Injected flit rate average = 0.318164
	minimum = 0.207 (at node 7)
	maximum = 0.459 (at node 85)
Accepted flit rate average= 0.251167
	minimum = 0.1385 (at node 153)
	maximum = 0.36 (at node 152)
Injected packet length average = 17.9221
Accepted packet length average = 18.2874
Total in-flight flits = 26258 (0 measured)
latency change    = 0.368236
throughput change = 0.0437334
Class 0:
Packet latency average = 526.573
	minimum = 25
	maximum = 1195
Network latency average = 522.532
	minimum = 22
	maximum = 1179
Slowest packet = 6141
Flit latency average = 493.133
	minimum = 5
	maximum = 1163
Slowest flit = 112688
Fragmentation average = 32.3187
	minimum = 0
	maximum = 246
Injected packet rate average = 0.0178802
	minimum = 0.009 (at node 173)
	maximum = 0.031 (at node 187)
Accepted packet rate average = 0.0147917
	minimum = 0.006 (at node 163)
	maximum = 0.026 (at node 16)
Injected flit rate average = 0.321677
	minimum = 0.162 (at node 173)
	maximum = 0.569 (at node 187)
Accepted flit rate average= 0.26549
	minimum = 0.108 (at node 163)
	maximum = 0.479 (at node 159)
Injected packet length average = 17.9907
Accepted packet length average = 17.9486
Total in-flight flits = 37078 (0 measured)
latency change    = 0.484775
throughput change = 0.0539491
Warmed up ...Time used is 3000 cycles
Class 0:
Packet latency average = 456.13
	minimum = 22
	maximum = 989
Network latency average = 452.152
	minimum = 22
	maximum = 989
Slowest packet = 10256
Flit latency average = 649.569
	minimum = 5
	maximum = 1465
Slowest flit = 152081
Fragmentation average = 24.4346
	minimum = 0
	maximum = 149
Injected packet rate average = 0.0185156
	minimum = 0.009 (at node 46)
	maximum = 0.029 (at node 43)
Accepted packet rate average = 0.0151302
	minimum = 0.007 (at node 86)
	maximum = 0.028 (at node 90)
Injected flit rate average = 0.332589
	minimum = 0.147 (at node 46)
	maximum = 0.522 (at node 43)
Accepted flit rate average= 0.27226
	minimum = 0.14 (at node 154)
	maximum = 0.495 (at node 90)
Injected packet length average = 17.9626
Accepted packet length average = 17.9945
Total in-flight flits = 48794 (46749 measured)
latency change    = 0.154437
throughput change = 0.024869
Class 0:
Packet latency average = 739.224
	minimum = 22
	maximum = 1923
Network latency average = 735.065
	minimum = 22
	maximum = 1906
Slowest packet = 10539
Flit latency average = 733.224
	minimum = 5
	maximum = 1889
Slowest flit = 189719
Fragmentation average = 31.642
	minimum = 0
	maximum = 256
Injected packet rate average = 0.0181406
	minimum = 0.01 (at node 23)
	maximum = 0.025 (at node 106)
Accepted packet rate average = 0.015099
	minimum = 0.0105 (at node 23)
	maximum = 0.0235 (at node 129)
Injected flit rate average = 0.326781
	minimum = 0.1865 (at node 23)
	maximum = 0.449 (at node 106)
Accepted flit rate average= 0.271641
	minimum = 0.178 (at node 2)
	maximum = 0.423 (at node 129)
Injected packet length average = 18.0138
Accepted packet length average = 17.9907
Total in-flight flits = 58156 (58156 measured)
latency change    = 0.382961
throughput change = 0.00228166
Class 0:
Packet latency average = 867.484
	minimum = 22
	maximum = 2103
Network latency average = 863.234
	minimum = 22
	maximum = 2100
Slowest packet = 13109
Flit latency average = 821.2
	minimum = 5
	maximum = 2083
Slowest flit = 235979
Fragmentation average = 33.3069
	minimum = 0
	maximum = 297
Injected packet rate average = 0.0181389
	minimum = 0.0103333 (at node 67)
	maximum = 0.026 (at node 104)
Accepted packet rate average = 0.0150781
	minimum = 0.011 (at node 2)
	maximum = 0.0206667 (at node 129)
Injected flit rate average = 0.326543
	minimum = 0.186 (at node 67)
	maximum = 0.463 (at node 104)
Accepted flit rate average= 0.271696
	minimum = 0.185667 (at node 2)
	maximum = 0.380333 (at node 129)
Injected packet length average = 18.0024
Accepted packet length average = 18.0192
Total in-flight flits = 68645 (68645 measured)
latency change    = 0.147853
throughput change = 0.000204477
Draining remaining packets ...
Class 0:
Remaining flits: 299011 299012 299013 299014 299015 299912 299913 299914 299915 301644 [...] (22047 flits)
Measured flits: 299011 299012 299013 299014 299015 299912 299913 299914 299915 301644 [...] (22047 flits)
Class 0:
Remaining flits: 369980 369981 369982 369983 369984 369985 369986 369987 369988 369989 [...] (28 flits)
Measured flits: 369980 369981 369982 369983 369984 369985 369986 369987 369988 369989 [...] (28 flits)
Time taken is 8036 cycles
====== Overall Traffic Statistics ======
====== Traffic class 0 ======
Packet latency average = 1069.9 (1 samples)
	minimum = 22 (1 samples)
	maximum = 2496 (1 samples)
Network latency average = 1065.6 (1 samples)
	minimum = 22 (1 samples)
	maximum = 2496 (1 samples)
Flit latency average = 990.368 (1 samples)
	minimum = 5 (1 samples)
	maximum = 2479 (1 samples)
Fragmentation average = 33.4821 (1 samples)
	minimum = 0 (1 samples)
	maximum = 297 (1 samples)
Injected packet rate average = 0.0181389 (1 samples)
	minimum = 0.0103333 (1 samples)
	maximum = 0.026 (1 samples)
Accepted packet rate average = 0.0150781 (1 samples)
	minimum = 0.011 (1 samples)
	maximum = 0.0206667 (1 samples)
Injected flit rate average = 0.326543 (1 samples)
	minimum = 0.186 (1 samples)
	maximum = 0.463 (1 samples)
Accepted flit rate average = 0.271696 (1 samples)
	minimum = 0.185667 (1 samples)
	maximum = 0.380333 (1 samples)
Injected packet size average = 18.0024 (1 samples)
Accepted packet size average = 18.0192 (1 samples)
Hops average = 5.07111 (1 samples)
Total run time 5.65566
