BEGIN Configuration File: networks/mezzanine_config
topology = mezzanine;
n = 12;

routing_function = multipath;
internal_speedup = 2.0;
latency_thres = 100000.0;
use_read_write = 0;

sample_period = 1000;
injection_rate = 0.5;
packet_size = 18;

noq = 1;
routing_delay = 0;
vc_alloc_delay = 1;
sw_alloc_delay = 1;
st_final_delay = 1;
vc_allocator = islip; 
sw_allocator = islip;
alloc_iters  = 4;
num_vcs     = 12;
buffer_policy = private; // private or shared
buf_size = -1; // -1 for buffer_policy = private;
vc_buf_size = 4096; // size of each VOQ with buffer_policy = private
output_buffer_size = -1;


traffic = uniform;

//mezW = 0.0;
//mezPredefinedPatternType = shift-inter; //shift-qfdb

END Configuration File: networks/mezzanine_config
OVERRIDE Parameter: injection_rate=0.044477
OVERRIDE Parameter: routing_function=multipath
OVERRIDE Parameter: num_vcs=12
OVERRIDE Parameter: vc_buf_size=18
OVERRIDE Parameter: internal_speedup=1.0
OVERRIDE Parameter: injection_process=bernoulli
OVERRIDE Parameter: sim_type=throughput
OVERRIDE Parameter: burst_alpha=0.0038461538
OVERRIDE Parameter: burst_beta=0.1
network: network_0
========================== Routing table  =====================
Number of Subnets: 1
Class 0:
Packet latency average = 381.218
	minimum = 27
	maximum = 943
Network latency average = 301.997
	minimum = 23
	maximum = 890
Slowest packet = 454
Flit latency average = 255.685
	minimum = 6
	maximum = 910
Slowest flit = 10261
Fragmentation average = 56.1454
	minimum = 0
	maximum = 141
Injected packet rate average = 0.014026
	minimum = 0.004 (at node 116)
	maximum = 0.024 (at node 25)
Accepted packet rate average = 0.00898958
	minimum = 0.002 (at node 174)
	maximum = 0.016 (at node 44)
Injected flit rate average = 0.248516
	minimum = 0.065 (at node 116)
	maximum = 0.432 (at node 113)
Accepted flit rate average= 0.168177
	minimum = 0.041 (at node 174)
	maximum = 0.289 (at node 48)
Injected packet length average = 17.7182
Accepted packet length average = 18.708
Total in-flight flits = 18164 (0 measured)
latency change    = 1
throughput change = 1
Class 0:
Packet latency average = 768.465
	minimum = 27
	maximum = 1821
Network latency average = 419.854
	minimum = 23
	maximum = 1714
Slowest packet = 744
Flit latency average = 363.826
	minimum = 6
	maximum = 1693
Slowest flit = 22445
Fragmentation average = 58.4739
	minimum = 0
	maximum = 141
Injected packet rate average = 0.011513
	minimum = 0.0035 (at node 116)
	maximum = 0.0185 (at node 49)
Accepted packet rate average = 0.00898958
	minimum = 0.005 (at node 43)
	maximum = 0.0145 (at node 22)
Injected flit rate average = 0.205422
	minimum = 0.063 (at node 116)
	maximum = 0.333 (at node 49)
Accepted flit rate average= 0.165138
	minimum = 0.09 (at node 43)
	maximum = 0.267 (at node 22)
Injected packet length average = 17.8426
Accepted packet length average = 18.3699
Total in-flight flits = 18001 (0 measured)
latency change    = 0.503923
throughput change = 0.0184032
Class 0:
Packet latency average = 1953.18
	minimum = 998
	maximum = 2753
Network latency average = 550.067
	minimum = 23
	maximum = 2249
Slowest packet = 916
Flit latency average = 488.239
	minimum = 6
	maximum = 2184
Slowest flit = 36179
Fragmentation average = 57.6899
	minimum = 0
	maximum = 133
Injected packet rate average = 0.00882292
	minimum = 0.001 (at node 2)
	maximum = 0.022 (at node 114)
Accepted packet rate average = 0.00898438
	minimum = 0.003 (at node 10)
	maximum = 0.017 (at node 174)
Injected flit rate average = 0.158615
	minimum = 0.005 (at node 98)
	maximum = 0.39 (at node 114)
Accepted flit rate average= 0.161016
	minimum = 0.042 (at node 153)
	maximum = 0.296 (at node 174)
Injected packet length average = 17.9776
Accepted packet length average = 17.9217
Total in-flight flits = 17686 (0 measured)
latency change    = 0.606556
throughput change = 0.0256025
Warmed up ...Time used is 3000 cycles
Class 0:
Packet latency average = 2818.45
	minimum = 1861
	maximum = 3530
Network latency average = 316.317
	minimum = 23
	maximum = 910
Slowest packet = 6223
Flit latency average = 480.78
	minimum = 6
	maximum = 2748
Slowest flit = 51407
Fragmentation average = 51.5374
	minimum = 0
	maximum = 131
Injected packet rate average = 0.00894792
	minimum = 0 (at node 21)
	maximum = 0.022 (at node 99)
Accepted packet rate average = 0.00884375
	minimum = 0.001 (at node 184)
	maximum = 0.017 (at node 187)
Injected flit rate average = 0.1615
	minimum = 0.002 (at node 21)
	maximum = 0.393 (at node 99)
Accepted flit rate average= 0.161135
	minimum = 0.018 (at node 190)
	maximum = 0.307 (at node 59)
Injected packet length average = 18.0489
Accepted packet length average = 18.2203
Total in-flight flits = 17618 (15799 measured)
latency change    = 0.307004
throughput change = 0.000743422
Class 0:
Packet latency average = 3307.83
	minimum = 1861
	maximum = 4641
Network latency average = 435.797
	minimum = 23
	maximum = 1735
Slowest packet = 6223
Flit latency average = 480.817
	minimum = 6
	maximum = 2893
Slowest flit = 52218
Fragmentation average = 56.7238
	minimum = 0
	maximum = 147
Injected packet rate average = 0.0090599
	minimum = 0.001 (at node 55)
	maximum = 0.017 (at node 79)
Accepted packet rate average = 0.00901302
	minimum = 0.0035 (at node 163)
	maximum = 0.0175 (at node 16)
Injected flit rate average = 0.163224
	minimum = 0.018 (at node 55)
	maximum = 0.311 (at node 79)
Accepted flit rate average= 0.162464
	minimum = 0.0565 (at node 163)
	maximum = 0.316 (at node 16)
Injected packet length average = 18.0161
Accepted packet length average = 18.0254
Total in-flight flits = 17958 (17762 measured)
latency change    = 0.147944
throughput change = 0.00817491
Class 0:
Packet latency average = 3740.03
	minimum = 1861
	maximum = 5549
Network latency average = 485.516
	minimum = 23
	maximum = 2109
Slowest packet = 6223
Flit latency average = 489.679
	minimum = 6
	maximum = 3377
Slowest flit = 68292
Fragmentation average = 58.657
	minimum = 0
	maximum = 147
Injected packet rate average = 0.00899132
	minimum = 0.00133333 (at node 54)
	maximum = 0.016 (at node 79)
Accepted packet rate average = 0.00897222
	minimum = 0.00533333 (at node 154)
	maximum = 0.0156667 (at node 16)
Injected flit rate average = 0.161764
	minimum = 0.024 (at node 54)
	maximum = 0.286333 (at node 79)
Accepted flit rate average= 0.161311
	minimum = 0.096 (at node 154)
	maximum = 0.283 (at node 16)
Injected packet length average = 17.9911
Accepted packet length average = 17.9789
Total in-flight flits = 17957 (17939 measured)
latency change    = 0.115562
throughput change = 0.00714632
Draining remaining packets ...
Time taken is 6889 cycles
====== Overall Traffic Statistics ======
====== Traffic class 0 ======
Packet latency average = 4008.84 (1 samples)
	minimum = 1861 (1 samples)
	maximum = 6192 (1 samples)
Network latency average = 527.401 (1 samples)
	minimum = 23 (1 samples)
	maximum = 3086 (1 samples)
Flit latency average = 513.844 (1 samples)
	minimum = 6 (1 samples)
	maximum = 3377 (1 samples)
Fragmentation average = 56.8974 (1 samples)
	minimum = 0 (1 samples)
	maximum = 147 (1 samples)
Injected packet rate average = 0.00899132 (1 samples)
	minimum = 0.00133333 (1 samples)
	maximum = 0.016 (1 samples)
Accepted packet rate average = 0.00897222 (1 samples)
	minimum = 0.00533333 (1 samples)
	maximum = 0.0156667 (1 samples)
Injected flit rate average = 0.161764 (1 samples)
	minimum = 0.024 (1 samples)
	maximum = 0.286333 (1 samples)
Accepted flit rate average = 0.161311 (1 samples)
	minimum = 0.096 (1 samples)
	maximum = 0.283 (1 samples)
Injected packet size average = 17.9911 (1 samples)
Accepted packet size average = 17.9789 (1 samples)
Hops average = 5.06741 (1 samples)
Total run time 4.69592
