BEGIN Configuration File: networks/mezzanine_config
topology = mezzanine;
n = 12;

routing_function = multipath;
internal_speedup = 2.0;
latency_thres = 100000.0;
use_read_write = 0;

sample_period = 1000;
injection_rate = 0.5;
packet_size = 18;

noq = 1;
routing_delay = 0;
vc_alloc_delay = 1;
sw_alloc_delay = 1;
st_final_delay = 1;
vc_allocator = islip; 
sw_allocator = islip;
alloc_iters  = 4;
num_vcs     = 12;
buffer_policy = private; // private or shared
buf_size = -1; // -1 for buffer_policy = private;
vc_buf_size = 4096; // size of each VOQ with buffer_policy = private
output_buffer_size = -1;


traffic = uniform;

//mezW = 0.0;
//mezPredefinedPatternType = shift-inter; //shift-qfdb

END Configuration File: networks/mezzanine_config
OVERRIDE Parameter: injection_rate=0.046687
OVERRIDE Parameter: routing_function=multipath
OVERRIDE Parameter: num_vcs=12
OVERRIDE Parameter: vc_buf_size=18
OVERRIDE Parameter: internal_speedup=2.0
OVERRIDE Parameter: injection_process=bernoulli
OVERRIDE Parameter: sim_type=throughput
OVERRIDE Parameter: burst_alpha=0.0038461538
OVERRIDE Parameter: burst_beta=0.1
network: network_0
========================== Routing table  =====================
Number of Subnets: 1
Class 0:
Packet latency average = 353.932
	minimum = 25
	maximum = 905
Network latency average = 255.735
	minimum = 22
	maximum = 816
Slowest packet = 770
Flit latency average = 226.017
	minimum = 5
	maximum = 809
Slowest flit = 22420
Fragmentation average = 22.7886
	minimum = 0
	maximum = 112
Injected packet rate average = 0.0186406
	minimum = 0.01 (at node 124)
	maximum = 0.028 (at node 70)
Accepted packet rate average = 0.013651
	minimum = 0.007 (at node 30)
	maximum = 0.022 (at node 44)
Injected flit rate average = 0.332104
	minimum = 0.178 (at node 148)
	maximum = 0.504 (at node 70)
Accepted flit rate average= 0.250536
	minimum = 0.126 (at node 30)
	maximum = 0.41 (at node 44)
Injected packet length average = 17.8161
Accepted packet length average = 18.3529
Total in-flight flits = 18335 (0 measured)
latency change    = 1
throughput change = 1
Class 0:
Packet latency average = 692.564
	minimum = 25
	maximum = 1705
Network latency average = 311.063
	minimum = 22
	maximum = 1312
Slowest packet = 770
Flit latency average = 277.612
	minimum = 5
	maximum = 1283
Slowest flit = 29465
Fragmentation average = 22.8153
	minimum = 0
	maximum = 122
Injected packet rate average = 0.0161797
	minimum = 0.007 (at node 92)
	maximum = 0.0255 (at node 75)
Accepted packet rate average = 0.0137214
	minimum = 0.0075 (at node 153)
	maximum = 0.0195 (at node 98)
Injected flit rate average = 0.289409
	minimum = 0.126 (at node 92)
	maximum = 0.4535 (at node 75)
Accepted flit rate average= 0.249383
	minimum = 0.135 (at node 153)
	maximum = 0.351 (at node 98)
Injected packet length average = 17.8872
Accepted packet length average = 18.1748
Total in-flight flits = 18069 (0 measured)
latency change    = 0.488953
throughput change = 0.004626
Class 0:
Packet latency average = 1741.79
	minimum = 956
	maximum = 2647
Network latency average = 368.775
	minimum = 22
	maximum = 1808
Slowest packet = 4203
Flit latency average = 332.697
	minimum = 5
	maximum = 1791
Slowest flit = 66725
Fragmentation average = 22.5257
	minimum = 0
	maximum = 134
Injected packet rate average = 0.01375
	minimum = 0.002 (at node 2)
	maximum = 0.028 (at node 39)
Accepted packet rate average = 0.0136615
	minimum = 0.004 (at node 40)
	maximum = 0.027 (at node 16)
Injected flit rate average = 0.247875
	minimum = 0.036 (at node 2)
	maximum = 0.489 (at node 39)
Accepted flit rate average= 0.246417
	minimum = 0.073 (at node 40)
	maximum = 0.481 (at node 16)
Injected packet length average = 18.0273
Accepted packet length average = 18.0374
Total in-flight flits = 18295 (0 measured)
latency change    = 0.602383
throughput change = 0.0120371
Warmed up ...Time used is 3000 cycles
Class 0:
Packet latency average = 2526.48
	minimum = 1461
	maximum = 3404
Network latency average = 281.154
	minimum = 22
	maximum = 957
Slowest packet = 9015
Flit latency average = 329.828
	minimum = 5
	maximum = 1915
Slowest flit = 92428
Fragmentation average = 20.9771
	minimum = 0
	maximum = 105
Injected packet rate average = 0.0141146
	minimum = 0.002 (at node 107)
	maximum = 0.028 (at node 122)
Accepted packet rate average = 0.0139896
	minimum = 0.006 (at node 85)
	maximum = 0.025 (at node 90)
Injected flit rate average = 0.25312
	minimum = 0.036 (at node 107)
	maximum = 0.499 (at node 122)
Accepted flit rate average= 0.251932
	minimum = 0.118 (at node 85)
	maximum = 0.465 (at node 123)
Injected packet length average = 17.9332
Accepted packet length average = 18.0086
Total in-flight flits = 18434 (18326 measured)
latency change    = 0.310587
throughput change = 0.0218933
Class 0:
Packet latency average = 2899.3
	minimum = 1461
	maximum = 4407
Network latency average = 329.618
	minimum = 22
	maximum = 1543
Slowest packet = 9015
Flit latency average = 327.215
	minimum = 5
	maximum = 1915
Slowest flit = 92428
Fragmentation average = 22.6983
	minimum = 0
	maximum = 126
Injected packet rate average = 0.014112
	minimum = 0.006 (at node 171)
	maximum = 0.022 (at node 5)
Accepted packet rate average = 0.013974
	minimum = 0.0085 (at node 4)
	maximum = 0.0205 (at node 38)
Injected flit rate average = 0.253495
	minimum = 0.1055 (at node 171)
	maximum = 0.3995 (at node 5)
Accepted flit rate average= 0.251659
	minimum = 0.153 (at node 86)
	maximum = 0.369 (at node 123)
Injected packet length average = 17.9631
Accepted packet length average = 18.0091
Total in-flight flits = 19020 (19020 measured)
latency change    = 0.128591
throughput change = 0.00108654
Class 0:
Packet latency average = 3260.01
	minimum = 1461
	maximum = 5080
Network latency average = 343.742
	minimum = 22
	maximum = 1950
Slowest packet = 9015
Flit latency average = 327.727
	minimum = 5
	maximum = 1915
Slowest flit = 92428
Fragmentation average = 23.2744
	minimum = 0
	maximum = 126
Injected packet rate average = 0.0140781
	minimum = 0.00766667 (at node 104)
	maximum = 0.0213333 (at node 146)
Accepted packet rate average = 0.0140174
	minimum = 0.00933333 (at node 36)
	maximum = 0.0193333 (at node 128)
Injected flit rate average = 0.253118
	minimum = 0.139 (at node 104)
	maximum = 0.383333 (at node 146)
Accepted flit rate average= 0.252484
	minimum = 0.168 (at node 36)
	maximum = 0.350333 (at node 128)
Injected packet length average = 17.9795
Accepted packet length average = 18.0123
Total in-flight flits = 18718 (18718 measured)
latency change    = 0.110645
throughput change = 0.00326959
Draining remaining packets ...
Time taken is 6713 cycles
====== Overall Traffic Statistics ======
====== Traffic class 0 ======
Packet latency average = 3411 (1 samples)
	minimum = 1461 (1 samples)
	maximum = 5319 (1 samples)
Network latency average = 358.833 (1 samples)
	minimum = 22 (1 samples)
	maximum = 1950 (1 samples)
Flit latency average = 338.195 (1 samples)
	minimum = 5 (1 samples)
	maximum = 1915 (1 samples)
Fragmentation average = 22.9281 (1 samples)
	minimum = 0 (1 samples)
	maximum = 126 (1 samples)
Injected packet rate average = 0.0140781 (1 samples)
	minimum = 0.00766667 (1 samples)
	maximum = 0.0213333 (1 samples)
Accepted packet rate average = 0.0140174 (1 samples)
	minimum = 0.00933333 (1 samples)
	maximum = 0.0193333 (1 samples)
Injected flit rate average = 0.253118 (1 samples)
	minimum = 0.139 (1 samples)
	maximum = 0.383333 (1 samples)
Accepted flit rate average = 0.252484 (1 samples)
	minimum = 0.168 (1 samples)
	maximum = 0.350333 (1 samples)
Injected packet size average = 17.9795 (1 samples)
Accepted packet size average = 18.0123 (1 samples)
Hops average = 5.07121 (1 samples)
Total run time 5.91881
