BEGIN Configuration File: networks/mezzanine_config
topology = mezzanine;
n = 12;

routing_function = multipath;
internal_speedup = 2.0;
latency_thres = 100000.0;
use_read_write = 0;

sample_period = 1000;
injection_rate = 0.5;
packet_size = 18;

noq = 1;
routing_delay = 0;
vc_alloc_delay = 1;
sw_alloc_delay = 1;
st_final_delay = 1;
vc_allocator = islip; 
sw_allocator = islip;
alloc_iters  = 4;
num_vcs     = 12;
buffer_policy = private; // private or shared
buf_size = -1; // -1 for buffer_policy = private;
vc_buf_size = 4096; // size of each VOQ with buffer_policy = private
output_buffer_size = -1;


traffic = uniform;

//mezW = 0.0;
//mezPredefinedPatternType = shift-inter; //shift-qfdb

END Configuration File: networks/mezzanine_config
OVERRIDE Parameter: injection_rate=0.004697
OVERRIDE Parameter: routing_function=min
OVERRIDE Parameter: num_vcs=32
OVERRIDE Parameter: vc_buf_size=18
OVERRIDE Parameter: internal_speedup=2.0
OVERRIDE Parameter: injection_process=on_off
OVERRIDE Parameter: sim_type=throughput
OVERRIDE Parameter: burst_alpha=0.0038461538
OVERRIDE Parameter: burst_beta=0.1
network: network_0
========================== Routing table  =====================
Number of Subnets: 1
Class 0:
Packet latency average = 64.4984
	minimum = 22
	maximum = 184
Network latency average = 48.7858
	minimum = 22
	maximum = 126
Slowest packet = 10
Flit latency average = 27.566
	minimum = 5
	maximum = 109
Slowest flit = 1889
Fragmentation average = 7.66384
	minimum = 0
	maximum = 54
Injected packet rate average = 0.00510938
	minimum = 0 (at node 5)
	maximum = 0.02 (at node 161)
Accepted packet rate average = 0.00491146
	minimum = 0.001 (at node 41)
	maximum = 0.011 (at node 140)
Injected flit rate average = 0.090974
	minimum = 0 (at node 5)
	maximum = 0.36 (at node 161)
Accepted flit rate average= 0.0890156
	minimum = 0.018 (at node 41)
	maximum = 0.198 (at node 140)
Injected packet length average = 17.8053
Accepted packet length average = 18.1241
Total in-flight flits = 567 (0 measured)
latency change    = 1
throughput change = 1
Class 0:
Packet latency average = 64.0983
	minimum = 22
	maximum = 286
Network latency average = 48.6836
	minimum = 22
	maximum = 231
Slowest packet = 1141
Flit latency average = 27.424
	minimum = 5
	maximum = 214
Slowest flit = 20732
Fragmentation average = 7.78192
	minimum = 0
	maximum = 153
Injected packet rate average = 0.00473437
	minimum = 0 (at node 37)
	maximum = 0.014 (at node 161)
Accepted packet rate average = 0.00460937
	minimum = 0.0005 (at node 41)
	maximum = 0.008 (at node 48)
Injected flit rate average = 0.0848724
	minimum = 0 (at node 37)
	maximum = 0.251 (at node 161)
Accepted flit rate average= 0.0835208
	minimum = 0.009 (at node 41)
	maximum = 0.148 (at node 70)
Injected packet length average = 17.9268
Accepted packet length average = 18.1198
Total in-flight flits = 652 (0 measured)
latency change    = 0.00624204
throughput change = 0.0657895
Class 0:
Packet latency average = 64.6916
	minimum = 25
	maximum = 212
Network latency average = 48.7294
	minimum = 22
	maximum = 172
Slowest packet = 1770
Flit latency average = 27.7865
	minimum = 5
	maximum = 155
Slowest flit = 40350
Fragmentation average = 7.43182
	minimum = 0
	maximum = 67
Injected packet rate average = 0.00475521
	minimum = 0 (at node 1)
	maximum = 0.025 (at node 22)
Accepted packet rate average = 0.0048125
	minimum = 0 (at node 17)
	maximum = 0.013 (at node 173)
Injected flit rate average = 0.0857448
	minimum = 0 (at node 1)
	maximum = 0.467 (at node 22)
Accepted flit rate average= 0.0866146
	minimum = 0 (at node 17)
	maximum = 0.234 (at node 173)
Injected packet length average = 18.0318
Accepted packet length average = 17.9978
Total in-flight flits = 456 (0 measured)
latency change    = 0.00917049
throughput change = 0.0357186
Warmed up ...Time used is 3000 cycles
Class 0:
Packet latency average = 66.2664
	minimum = 22
	maximum = 282
Network latency average = 48.4914
	minimum = 22
	maximum = 202
Slowest packet = 2737
Flit latency average = 28.0252
	minimum = 5
	maximum = 185
Slowest flit = 61109
Fragmentation average = 6.47072
	minimum = 0
	maximum = 44
Injected packet rate average = 0.00471875
	minimum = 0 (at node 0)
	maximum = 0.016 (at node 115)
Accepted packet rate average = 0.00472917
	minimum = 0 (at node 18)
	maximum = 0.011 (at node 22)
Injected flit rate average = 0.084651
	minimum = 0 (at node 0)
	maximum = 0.272 (at node 115)
Accepted flit rate average= 0.0848177
	minimum = 0 (at node 18)
	maximum = 0.205 (at node 22)
Injected packet length average = 17.9393
Accepted packet length average = 17.935
Total in-flight flits = 479 (479 measured)
latency change    = 0.0237647
throughput change = 0.0211851
Class 0:
Packet latency average = 63.245
	minimum = 22
	maximum = 282
Network latency average = 47.8016
	minimum = 22
	maximum = 202
Slowest packet = 2737
Flit latency average = 27.2763
	minimum = 5
	maximum = 185
Slowest flit = 61109
Fragmentation average = 6.53734
	minimum = 0
	maximum = 71
Injected packet rate average = 0.00454948
	minimum = 0 (at node 58)
	maximum = 0.012 (at node 115)
Accepted packet rate average = 0.0045599
	minimum = 0.001 (at node 24)
	maximum = 0.0085 (at node 166)
Injected flit rate average = 0.0819323
	minimum = 0 (at node 58)
	maximum = 0.216 (at node 115)
Accepted flit rate average= 0.0819766
	minimum = 0.018 (at node 24)
	maximum = 0.153 (at node 166)
Injected packet length average = 18.0092
Accepted packet length average = 17.9777
Total in-flight flits = 423 (423 measured)
latency change    = 0.0477716
throughput change = 0.034658
Class 0:
Packet latency average = 63.1773
	minimum = 22
	maximum = 282
Network latency average = 47.2724
	minimum = 22
	maximum = 202
Slowest packet = 2737
Flit latency average = 26.8323
	minimum = 5
	maximum = 185
Slowest flit = 61109
Fragmentation average = 6.40795
	minimum = 0
	maximum = 77
Injected packet rate average = 0.00444097
	minimum = 0.000333333 (at node 119)
	maximum = 0.00933333 (at node 173)
Accepted packet rate average = 0.00443056
	minimum = 0.00133333 (at node 153)
	maximum = 0.00733333 (at node 174)
Injected flit rate average = 0.0799531
	minimum = 0.006 (at node 119)
	maximum = 0.168 (at node 173)
Accepted flit rate average= 0.0796944
	minimum = 0.024 (at node 153)
	maximum = 0.132 (at node 174)
Injected packet length average = 18.0035
Accepted packet length average = 17.9875
Total in-flight flits = 596 (596 measured)
latency change    = 0.00107166
throughput change = 0.0286358
Draining remaining packets ...
Time taken is 6065 cycles
====== Overall Traffic Statistics ======
====== Traffic class 0 ======
Packet latency average = 63.6462 (1 samples)
	minimum = 22 (1 samples)
	maximum = 282 (1 samples)
Network latency average = 47.5727 (1 samples)
	minimum = 22 (1 samples)
	maximum = 202 (1 samples)
Flit latency average = 27.0642 (1 samples)
	minimum = 5 (1 samples)
	maximum = 185 (1 samples)
Fragmentation average = 6.44019 (1 samples)
	minimum = 0 (1 samples)
	maximum = 77 (1 samples)
Injected packet rate average = 0.00444097 (1 samples)
	minimum = 0.000333333 (1 samples)
	maximum = 0.00933333 (1 samples)
Accepted packet rate average = 0.00443056 (1 samples)
	minimum = 0.00133333 (1 samples)
	maximum = 0.00733333 (1 samples)
Injected flit rate average = 0.0799531 (1 samples)
	minimum = 0.006 (1 samples)
	maximum = 0.168 (1 samples)
Accepted flit rate average = 0.0796944 (1 samples)
	minimum = 0.024 (1 samples)
	maximum = 0.132 (1 samples)
Injected packet size average = 18.0035 (1 samples)
Accepted packet size average = 17.9875 (1 samples)
Hops average = 5.05043 (1 samples)
Total run time 3.65347
