BEGIN Configuration File: networks/mezzanine_config
topology = mezzanine;
n = 12;

routing_function = multipath;
internal_speedup = 2.0;
latency_thres = 100000.0;
use_read_write = 0;

sample_period = 1000;
injection_rate = 0.5;
packet_size = 18;

noq = 1;
routing_delay = 0;
vc_alloc_delay = 1;
sw_alloc_delay = 1;
st_final_delay = 1;
vc_allocator = islip; 
sw_allocator = islip;
alloc_iters  = 4;
num_vcs     = 12;
buffer_policy = private; // private or shared
buf_size = -1; // -1 for buffer_policy = private;
vc_buf_size = 4096; // size of each VOQ with buffer_policy = private
output_buffer_size = -1;


traffic = uniform;

//mezW = 0.0;
//mezPredefinedPatternType = shift-inter; //shift-qfdb

END Configuration File: networks/mezzanine_config
OVERRIDE Parameter: injection_rate=0.013537
OVERRIDE Parameter: routing_function=min
OVERRIDE Parameter: num_vcs=12
OVERRIDE Parameter: vc_buf_size=18
OVERRIDE Parameter: internal_speedup=2.0
OVERRIDE Parameter: injection_process=on_off
OVERRIDE Parameter: sim_type=throughput
OVERRIDE Parameter: burst_alpha=0.0038461538
OVERRIDE Parameter: burst_beta=0.1
network: network_0
========================== Routing table  =====================
Number of Subnets: 1
Class 0:
Packet latency average = 189.815
	minimum = 22
	maximum = 818
Network latency average = 123.798
	minimum = 22
	maximum = 482
Slowest packet = 61
Flit latency average = 99.1404
	minimum = 5
	maximum = 465
Slowest flit = 22662
Fragmentation average = 13.9215
	minimum = 0
	maximum = 93
Injected packet rate average = 0.0129844
	minimum = 0 (at node 43)
	maximum = 0.04 (at node 177)
Accepted packet rate average = 0.0110833
	minimum = 0.003 (at node 174)
	maximum = 0.019 (at node 44)
Injected flit rate average = 0.232005
	minimum = 0 (at node 43)
	maximum = 0.72 (at node 177)
Accepted flit rate average= 0.202646
	minimum = 0.054 (at node 174)
	maximum = 0.358 (at node 44)
Injected packet length average = 17.868
Accepted packet length average = 18.2838
Total in-flight flits = 6272 (0 measured)
latency change    = 1
throughput change = 1
Class 0:
Packet latency average = 252.857
	minimum = 22
	maximum = 1536
Network latency average = 148.689
	minimum = 22
	maximum = 815
Slowest packet = 61
Flit latency average = 123.07
	minimum = 5
	maximum = 782
Slowest flit = 44310
Fragmentation average = 14.4537
	minimum = 0
	maximum = 124
Injected packet rate average = 0.0125104
	minimum = 0.0005 (at node 145)
	maximum = 0.03 (at node 177)
Accepted packet rate average = 0.0113255
	minimum = 0.0065 (at node 30)
	maximum = 0.0175 (at node 166)
Injected flit rate average = 0.224013
	minimum = 0.009 (at node 145)
	maximum = 0.54 (at node 177)
Accepted flit rate average= 0.206003
	minimum = 0.117 (at node 79)
	maximum = 0.323 (at node 166)
Injected packet length average = 17.9061
Accepted packet length average = 18.1892
Total in-flight flits = 7673 (0 measured)
latency change    = 0.249317
throughput change = 0.0162948
Class 0:
Packet latency average = 379.302
	minimum = 22
	maximum = 1776
Network latency average = 188.87
	minimum = 22
	maximum = 1061
Slowest packet = 4554
Flit latency average = 160.79
	minimum = 5
	maximum = 1020
Slowest flit = 43839
Fragmentation average = 17.3894
	minimum = 0
	maximum = 149
Injected packet rate average = 0.0130885
	minimum = 0 (at node 26)
	maximum = 0.034 (at node 171)
Accepted packet rate average = 0.0129063
	minimum = 0.004 (at node 184)
	maximum = 0.023 (at node 56)
Injected flit rate average = 0.235542
	minimum = 0 (at node 26)
	maximum = 0.615 (at node 171)
Accepted flit rate average= 0.232891
	minimum = 0.062 (at node 184)
	maximum = 0.411 (at node 56)
Injected packet length average = 17.996
Accepted packet length average = 18.0448
Total in-flight flits = 8300 (0 measured)
latency change    = 0.333363
throughput change = 0.115453
Warmed up ...Time used is 3000 cycles
Class 0:
Packet latency average = 393.087
	minimum = 22
	maximum = 2058
Network latency average = 181.281
	minimum = 22
	maximum = 847
Slowest packet = 7377
Flit latency average = 171.851
	minimum = 5
	maximum = 835
Slowest flit = 139284
Fragmentation average = 17.393
	minimum = 0
	maximum = 96
Injected packet rate average = 0.0132656
	minimum = 0 (at node 58)
	maximum = 0.032 (at node 62)
Accepted packet rate average = 0.0130625
	minimum = 0.005 (at node 113)
	maximum = 0.026 (at node 120)
Injected flit rate average = 0.238026
	minimum = 0 (at node 58)
	maximum = 0.575 (at node 62)
Accepted flit rate average= 0.23413
	minimum = 0.09 (at node 113)
	maximum = 0.456 (at node 120)
Injected packet length average = 17.9431
Accepted packet length average = 17.9238
Total in-flight flits = 9265 (9265 measured)
latency change    = 0.0350695
throughput change = 0.00529442
Class 0:
Packet latency average = 441.581
	minimum = 22
	maximum = 2200
Network latency average = 200.299
	minimum = 22
	maximum = 1077
Slowest packet = 7377
Flit latency average = 179.233
	minimum = 5
	maximum = 1055
Slowest flit = 164303
Fragmentation average = 17.7488
	minimum = 0
	maximum = 100
Injected packet rate average = 0.0132448
	minimum = 0.001 (at node 37)
	maximum = 0.0295 (at node 118)
Accepted packet rate average = 0.0130391
	minimum = 0.0065 (at node 4)
	maximum = 0.02 (at node 129)
Injected flit rate average = 0.238346
	minimum = 0.018 (at node 37)
	maximum = 0.531 (at node 118)
Accepted flit rate average= 0.234458
	minimum = 0.114 (at node 4)
	maximum = 0.36 (at node 129)
Injected packet length average = 17.9955
Accepted packet length average = 17.9812
Total in-flight flits = 9870 (9870 measured)
latency change    = 0.109819
throughput change = 0.0013995
Class 0:
Packet latency average = 475.459
	minimum = 22
	maximum = 2246
Network latency average = 208.655
	minimum = 22
	maximum = 1591
Slowest packet = 7377
Flit latency average = 184.402
	minimum = 5
	maximum = 1574
Slowest flit = 195010
Fragmentation average = 17.7536
	minimum = 0
	maximum = 122
Injected packet rate average = 0.0129809
	minimum = 0.00266667 (at node 155)
	maximum = 0.026 (at node 118)
Accepted packet rate average = 0.0128767
	minimum = 0.008 (at node 86)
	maximum = 0.0193333 (at node 128)
Injected flit rate average = 0.233606
	minimum = 0.048 (at node 155)
	maximum = 0.466333 (at node 118)
Accepted flit rate average= 0.231608
	minimum = 0.138333 (at node 86)
	maximum = 0.348 (at node 128)
Injected packet length average = 17.9961
Accepted packet length average = 17.9865
Total in-flight flits = 9750 (9750 measured)
latency change    = 0.0712533
throughput change = 0.0123083
Draining remaining packets ...
Time taken is 6638 cycles
====== Overall Traffic Statistics ======
====== Traffic class 0 ======
Packet latency average = 497.625 (1 samples)
	minimum = 22 (1 samples)
	maximum = 2527 (1 samples)
Network latency average = 218.507 (1 samples)
	minimum = 22 (1 samples)
	maximum = 1591 (1 samples)
Flit latency average = 192.992 (1 samples)
	minimum = 5 (1 samples)
	maximum = 1574 (1 samples)
Fragmentation average = 17.6117 (1 samples)
	minimum = 0 (1 samples)
	maximum = 122 (1 samples)
Injected packet rate average = 0.0129809 (1 samples)
	minimum = 0.00266667 (1 samples)
	maximum = 0.026 (1 samples)
Accepted packet rate average = 0.0128767 (1 samples)
	minimum = 0.008 (1 samples)
	maximum = 0.0193333 (1 samples)
Injected flit rate average = 0.233606 (1 samples)
	minimum = 0.048 (1 samples)
	maximum = 0.466333 (1 samples)
Accepted flit rate average = 0.231608 (1 samples)
	minimum = 0.138333 (1 samples)
	maximum = 0.348 (1 samples)
Injected packet size average = 17.9961 (1 samples)
Accepted packet size average = 17.9865 (1 samples)
Hops average = 5.07461 (1 samples)
Total run time 5.50853
