BEGIN Configuration File: networks/mezzanine_config
topology = mezzanine;
n = 12;

routing_function = multipath;
internal_speedup = 2.0;
latency_thres = 100000.0;
use_read_write = 0;

sample_period = 1000;
injection_rate = 0.5;
packet_size = 18;

noq = 1;
routing_delay = 0;
vc_alloc_delay = 1;
sw_alloc_delay = 1;
st_final_delay = 1;
vc_allocator = islip; 
sw_allocator = islip;
alloc_iters  = 4;
num_vcs     = 12;
buffer_policy = private; // private or shared
buf_size = -1; // -1 for buffer_policy = private;
vc_buf_size = 4096; // size of each VOQ with buffer_policy = private
output_buffer_size = -1;


traffic = uniform;

//mezW = 0.0;
//mezPredefinedPatternType = shift-inter; //shift-qfdb

END Configuration File: networks/mezzanine_config
OVERRIDE Parameter: injection_rate=0.009117
OVERRIDE Parameter: routing_function=min
OVERRIDE Parameter: num_vcs=12
OVERRIDE Parameter: vc_buf_size=18
OVERRIDE Parameter: internal_speedup=1.0
OVERRIDE Parameter: injection_process=on_off
OVERRIDE Parameter: sim_type=throughput
OVERRIDE Parameter: burst_alpha=0.0038461538
OVERRIDE Parameter: burst_beta=0.1
network: network_0
========================== Routing table  =====================
Number of Subnets: 1
Class 0:
Packet latency average = 189.585
	minimum = 23
	maximum = 888
Network latency average = 140.768
	minimum = 23
	maximum = 763
Slowest packet = 262
Flit latency average = 103.686
	minimum = 6
	maximum = 724
Slowest flit = 8261
Fragmentation average = 38.1232
	minimum = 0
	maximum = 98
Injected packet rate average = 0.00890104
	minimum = 0 (at node 70)
	maximum = 0.028 (at node 84)
Accepted packet rate average = 0.00739583
	minimum = 0.001 (at node 41)
	maximum = 0.014 (at node 48)
Injected flit rate average = 0.158786
	minimum = 0 (at node 70)
	maximum = 0.504 (at node 84)
Accepted flit rate average= 0.13725
	minimum = 0.018 (at node 41)
	maximum = 0.258 (at node 165)
Injected packet length average = 17.8391
Accepted packet length average = 18.5577
Total in-flight flits = 4608 (0 measured)
latency change    = 1
throughput change = 1
Class 0:
Packet latency average = 248.552
	minimum = 23
	maximum = 1477
Network latency average = 173.366
	minimum = 23
	maximum = 1222
Slowest packet = 262
Flit latency average = 133.203
	minimum = 6
	maximum = 1192
Slowest flit = 19349
Fragmentation average = 41.791
	minimum = 0
	maximum = 116
Injected packet rate average = 0.00871094
	minimum = 0 (at node 183)
	maximum = 0.0215 (at node 136)
Accepted packet rate average = 0.00777344
	minimum = 0.003 (at node 174)
	maximum = 0.013 (at node 44)
Injected flit rate average = 0.156034
	minimum = 0 (at node 183)
	maximum = 0.387 (at node 136)
Accepted flit rate average= 0.142349
	minimum = 0.0575 (at node 174)
	maximum = 0.234 (at node 44)
Injected packet length average = 17.9124
Accepted packet length average = 18.3122
Total in-flight flits = 5782 (0 measured)
latency change    = 0.237243
throughput change = 0.0358201
Class 0:
Packet latency average = 359.321
	minimum = 23
	maximum = 2000
Network latency average = 245.315
	minimum = 23
	maximum = 1166
Slowest packet = 3063
Flit latency average = 198.958
	minimum = 6
	maximum = 1149
Slowest flit = 42011
Fragmentation average = 49.3812
	minimum = 0
	maximum = 123
Injected packet rate average = 0.00904167
	minimum = 0 (at node 5)
	maximum = 0.022 (at node 41)
Accepted packet rate average = 0.00830729
	minimum = 0.002 (at node 153)
	maximum = 0.017 (at node 179)
Injected flit rate average = 0.161552
	minimum = 0 (at node 5)
	maximum = 0.396 (at node 41)
Accepted flit rate average= 0.149688
	minimum = 0.036 (at node 153)
	maximum = 0.292 (at node 179)
Injected packet length average = 17.8675
Accepted packet length average = 18.0188
Total in-flight flits = 8488 (0 measured)
latency change    = 0.308272
throughput change = 0.0490257
Warmed up ...Time used is 3000 cycles
Class 0:
Packet latency average = 417.145
	minimum = 24
	maximum = 2224
Network latency average = 236.366
	minimum = 23
	maximum = 968
Slowest packet = 5156
Flit latency average = 257.204
	minimum = 6
	maximum = 1488
Slowest flit = 55583
Fragmentation average = 50.4807
	minimum = 0
	maximum = 139
Injected packet rate average = 0.00871354
	minimum = 0 (at node 4)
	maximum = 0.026 (at node 78)
Accepted packet rate average = 0.00850521
	minimum = 0.001 (at node 184)
	maximum = 0.015 (at node 24)
Injected flit rate average = 0.156594
	minimum = 0 (at node 4)
	maximum = 0.468 (at node 78)
Accepted flit rate average= 0.152802
	minimum = 0.018 (at node 184)
	maximum = 0.27 (at node 119)
Injected packet length average = 17.9713
Accepted packet length average = 17.9657
Total in-flight flits = 9300 (9226 measured)
latency change    = 0.138618
throughput change = 0.0203831
Class 0:
Packet latency average = 509.095
	minimum = 23
	maximum = 2333
Network latency average = 287.257
	minimum = 23
	maximum = 1304
Slowest packet = 5156
Flit latency average = 264.906
	minimum = 6
	maximum = 1633
Slowest flit = 86597
Fragmentation average = 52.3126
	minimum = 0
	maximum = 139
Injected packet rate average = 0.00867708
	minimum = 0.001 (at node 77)
	maximum = 0.022 (at node 98)
Accepted packet rate average = 0.0086224
	minimum = 0.003 (at node 184)
	maximum = 0.0145 (at node 56)
Injected flit rate average = 0.156367
	minimum = 0.018 (at node 77)
	maximum = 0.394 (at node 98)
Accepted flit rate average= 0.155174
	minimum = 0.0585 (at node 184)
	maximum = 0.261 (at node 56)
Injected packet length average = 18.0207
Accepted packet length average = 17.9967
Total in-flight flits = 8877 (8877 measured)
latency change    = 0.180615
throughput change = 0.0152886
Class 0:
Packet latency average = 557.477
	minimum = 23
	maximum = 3031
Network latency average = 301.215
	minimum = 23
	maximum = 1977
Slowest packet = 5156
Flit latency average = 267.737
	minimum = 6
	maximum = 1941
Slowest flit = 105839
Fragmentation average = 52.6897
	minimum = 0
	maximum = 148
Injected packet rate average = 0.00863368
	minimum = 0.000666667 (at node 77)
	maximum = 0.0186667 (at node 98)
Accepted packet rate average = 0.00862153
	minimum = 0.00433333 (at node 190)
	maximum = 0.015 (at node 16)
Injected flit rate average = 0.155568
	minimum = 0.012 (at node 77)
	maximum = 0.336 (at node 98)
Accepted flit rate average= 0.155339
	minimum = 0.078 (at node 190)
	maximum = 0.268 (at node 16)
Injected packet length average = 18.0187
Accepted packet length average = 18.0175
Total in-flight flits = 8653 (8653 measured)
latency change    = 0.0867867
throughput change = 0.00105616
Draining remaining packets ...
Time taken is 6431 cycles
====== Overall Traffic Statistics ======
====== Traffic class 0 ======
Packet latency average = 589.825 (1 samples)
	minimum = 23 (1 samples)
	maximum = 3143 (1 samples)
Network latency average = 313.472 (1 samples)
	minimum = 23 (1 samples)
	maximum = 1977 (1 samples)
Flit latency average = 276.596 (1 samples)
	minimum = 6 (1 samples)
	maximum = 1941 (1 samples)
Fragmentation average = 52.0892 (1 samples)
	minimum = 0 (1 samples)
	maximum = 148 (1 samples)
Injected packet rate average = 0.00863368 (1 samples)
	minimum = 0.000666667 (1 samples)
	maximum = 0.0186667 (1 samples)
Accepted packet rate average = 0.00862153 (1 samples)
	minimum = 0.00433333 (1 samples)
	maximum = 0.015 (1 samples)
Injected flit rate average = 0.155568 (1 samples)
	minimum = 0.012 (1 samples)
	maximum = 0.336 (1 samples)
Accepted flit rate average = 0.155339 (1 samples)
	minimum = 0.078 (1 samples)
	maximum = 0.268 (1 samples)
Injected packet size average = 18.0187 (1 samples)
Accepted packet size average = 18.0175 (1 samples)
Hops average = 5.07209 (1 samples)
Total run time 4.25222
