BEGIN Configuration File: networks/mezzanine_config
topology = mezzanine;
n = 12;

routing_function = multipath;
internal_speedup = 2.0;
latency_thres = 100000.0;
use_read_write = 0;

sample_period = 1000;
injection_rate = 0.5;
packet_size = 18;

noq = 1;
routing_delay = 0;
vc_alloc_delay = 1;
sw_alloc_delay = 1;
st_final_delay = 1;
vc_allocator = islip; 
sw_allocator = islip;
alloc_iters  = 4;
num_vcs     = 12;
buffer_policy = private; // private or shared
buf_size = -1; // -1 for buffer_policy = private;
vc_buf_size = 4096; // size of each VOQ with buffer_policy = private
output_buffer_size = -1;


traffic = uniform;

//mezW = 0.0;
//mezPredefinedPatternType = shift-inter; //shift-qfdb

END Configuration File: networks/mezzanine_config
OVERRIDE Parameter: injection_rate=0.013537
OVERRIDE Parameter: routing_function=multipath
OVERRIDE Parameter: num_vcs=32
OVERRIDE Parameter: vc_buf_size=18
OVERRIDE Parameter: internal_speedup=2.0
OVERRIDE Parameter: injection_process=bernoulli
OVERRIDE Parameter: sim_type=throughput
OVERRIDE Parameter: burst_alpha=0.0038461538
OVERRIDE Parameter: burst_beta=0.1
network: network_0
========================== Routing table  =====================
Number of Subnets: 1
Class 0:
Packet latency average = 100.532
	minimum = 22
	maximum = 420
Network latency average = 98.0168
	minimum = 22
	maximum = 417
Slowest packet = 1419
Flit latency average = 69.1637
	minimum = 5
	maximum = 400
Slowest flit = 25556
Fragmentation average = 23.6814
	minimum = 0
	maximum = 163
Injected packet rate average = 0.0136094
	minimum = 0.004 (at node 87)
	maximum = 0.022 (at node 5)
Accepted packet rate average = 0.0117865
	minimum = 0.004 (at node 64)
	maximum = 0.02 (at node 44)
Injected flit rate average = 0.242203
	minimum = 0.072 (at node 87)
	maximum = 0.396 (at node 106)
Accepted flit rate average= 0.217396
	minimum = 0.072 (at node 174)
	maximum = 0.364 (at node 44)
Injected packet length average = 17.7968
Accepted packet length average = 18.4445
Total in-flight flits = 5294 (0 measured)
latency change    = 1
throughput change = 1
Class 0:
Packet latency average = 123.8
	minimum = 22
	maximum = 542
Network latency average = 121.046
	minimum = 22
	maximum = 534
Slowest packet = 2624
Flit latency average = 90.4507
	minimum = 5
	maximum = 517
Slowest flit = 47249
Fragmentation average = 26.2094
	minimum = 0
	maximum = 163
Injected packet rate average = 0.0133906
	minimum = 0.008 (at node 165)
	maximum = 0.02 (at node 122)
Accepted packet rate average = 0.0125339
	minimum = 0.007 (at node 116)
	maximum = 0.0185 (at node 22)
Injected flit rate average = 0.239906
	minimum = 0.144 (at node 165)
	maximum = 0.3565 (at node 122)
Accepted flit rate average= 0.228049
	minimum = 0.126 (at node 116)
	maximum = 0.333 (at node 22)
Injected packet length average = 17.916
Accepted packet length average = 18.1947
Total in-flight flits = 4985 (0 measured)
latency change    = 0.187944
throughput change = 0.0467164
Class 0:
Packet latency average = 142.129
	minimum = 22
	maximum = 632
Network latency average = 139.348
	minimum = 22
	maximum = 632
Slowest packet = 5872
Flit latency average = 107.941
	minimum = 5
	maximum = 615
Slowest flit = 105713
Fragmentation average = 28.5568
	minimum = 0
	maximum = 198
Injected packet rate average = 0.0134844
	minimum = 0.005 (at node 139)
	maximum = 0.023 (at node 115)
Accepted packet rate average = 0.0130781
	minimum = 0.004 (at node 184)
	maximum = 0.022 (at node 16)
Injected flit rate average = 0.242464
	minimum = 0.098 (at node 139)
	maximum = 0.4 (at node 115)
Accepted flit rate average= 0.23725
	minimum = 0.072 (at node 184)
	maximum = 0.406 (at node 16)
Injected packet length average = 17.9811
Accepted packet length average = 18.141
Total in-flight flits = 6035 (0 measured)
latency change    = 0.128959
throughput change = 0.0387799
Warmed up ...Time used is 3000 cycles
Class 0:
Packet latency average = 160.686
	minimum = 22
	maximum = 641
Network latency average = 157.625
	minimum = 22
	maximum = 639
Slowest packet = 7908
Flit latency average = 134.001
	minimum = 5
	maximum = 682
Slowest flit = 116314
Fragmentation average = 31.4151
	minimum = 0
	maximum = 189
Injected packet rate average = 0.0140365
	minimum = 0.006 (at node 39)
	maximum = 0.025 (at node 80)
Accepted packet rate average = 0.013401
	minimum = 0.005 (at node 113)
	maximum = 0.027 (at node 16)
Injected flit rate average = 0.252193
	minimum = 0.108 (at node 148)
	maximum = 0.448 (at node 80)
Accepted flit rate average= 0.241464
	minimum = 0.108 (at node 1)
	maximum = 0.47 (at node 16)
Injected packet length average = 17.967
Accepted packet length average = 18.0183
Total in-flight flits = 8184 (8184 measured)
latency change    = 0.115489
throughput change = 0.01745
Class 0:
Packet latency average = 177.376
	minimum = 22
	maximum = 864
Network latency average = 174.248
	minimum = 22
	maximum = 838
Slowest packet = 9970
Flit latency average = 144.105
	minimum = 5
	maximum = 821
Slowest flit = 179477
Fragmentation average = 31.9559
	minimum = 0
	maximum = 215
Injected packet rate average = 0.0136927
	minimum = 0.0085 (at node 147)
	maximum = 0.0205 (at node 175)
Accepted packet rate average = 0.013625
	minimum = 0.0065 (at node 4)
	maximum = 0.0215 (at node 129)
Injected flit rate average = 0.246555
	minimum = 0.153 (at node 147)
	maximum = 0.369 (at node 175)
Accepted flit rate average= 0.245042
	minimum = 0.1195 (at node 4)
	maximum = 0.3915 (at node 129)
Injected packet length average = 18.0063
Accepted packet length average = 17.9847
Total in-flight flits = 6583 (6583 measured)
latency change    = 0.0940955
throughput change = 0.0146021
Class 0:
Packet latency average = 174.248
	minimum = 22
	maximum = 993
Network latency average = 171.119
	minimum = 22
	maximum = 993
Slowest packet = 10999
Flit latency average = 139.679
	minimum = 5
	maximum = 976
Slowest flit = 197999
Fragmentation average = 31.7687
	minimum = 0
	maximum = 301
Injected packet rate average = 0.013658
	minimum = 0.00833333 (at node 64)
	maximum = 0.0186667 (at node 175)
Accepted packet rate average = 0.013625
	minimum = 0.00866667 (at node 86)
	maximum = 0.021 (at node 128)
Injected flit rate average = 0.245995
	minimum = 0.148667 (at node 64)
	maximum = 0.336 (at node 175)
Accepted flit rate average= 0.245111
	minimum = 0.166 (at node 86)
	maximum = 0.378667 (at node 128)
Injected packet length average = 18.0111
Accepted packet length average = 17.9898
Total in-flight flits = 6457 (6457 measured)
latency change    = 0.0179539
throughput change = 0.000283318
Draining remaining packets ...
Time taken is 6338 cycles
====== Overall Traffic Statistics ======
====== Traffic class 0 ======
Packet latency average = 176.149 (1 samples)
	minimum = 22 (1 samples)
	maximum = 993 (1 samples)
Network latency average = 173.001 (1 samples)
	minimum = 22 (1 samples)
	maximum = 993 (1 samples)
Flit latency average = 141.405 (1 samples)
	minimum = 5 (1 samples)
	maximum = 976 (1 samples)
Fragmentation average = 31.8456 (1 samples)
	minimum = 0 (1 samples)
	maximum = 301 (1 samples)
Injected packet rate average = 0.013658 (1 samples)
	minimum = 0.00833333 (1 samples)
	maximum = 0.0186667 (1 samples)
Accepted packet rate average = 0.013625 (1 samples)
	minimum = 0.00866667 (1 samples)
	maximum = 0.021 (1 samples)
Injected flit rate average = 0.245995 (1 samples)
	minimum = 0.148667 (1 samples)
	maximum = 0.336 (1 samples)
Accepted flit rate average = 0.245111 (1 samples)
	minimum = 0.166 (1 samples)
	maximum = 0.378667 (1 samples)
Injected packet size average = 18.0111 (1 samples)
Accepted packet size average = 17.9898 (1 samples)
Hops average = 5.06877 (1 samples)
Total run time 4.33198
