BEGIN Configuration File: networks/mezzanine_config
topology = mezzanine;
n = 12;

routing_function = multipath;
internal_speedup = 2.0;
latency_thres = 100000.0;
use_read_write = 0;

sample_period = 1000;
injection_rate = 0.5;
packet_size = 18;

noq = 1;
routing_delay = 0;
vc_alloc_delay = 1;
sw_alloc_delay = 1;
st_final_delay = 1;
vc_allocator = islip; 
sw_allocator = islip;
alloc_iters  = 4;
num_vcs     = 12;
buffer_policy = private; // private or shared
buf_size = -1; // -1 for buffer_policy = private;
vc_buf_size = 4096; // size of each VOQ with buffer_policy = private
output_buffer_size = -1;


traffic = uniform;

//mezW = 0.0;
//mezPredefinedPatternType = shift-inter; //shift-qfdb

END Configuration File: networks/mezzanine_config
OVERRIDE Parameter: injection_rate=0.033427
OVERRIDE Parameter: routing_function=min
OVERRIDE Parameter: num_vcs=12
OVERRIDE Parameter: vc_buf_size=18
OVERRIDE Parameter: internal_speedup=1.0
OVERRIDE Parameter: injection_process=on_off
OVERRIDE Parameter: sim_type=throughput
OVERRIDE Parameter: burst_alpha=0.0038461538
OVERRIDE Parameter: burst_beta=0.1
network: network_0
========================== Routing table  =====================
Number of Subnets: 1
Class 0:
Packet latency average = 355.723
	minimum = 23
	maximum = 983
Network latency average = 244.992
	minimum = 23
	maximum = 861
Slowest packet = 88
Flit latency average = 201.071
	minimum = 6
	maximum = 844
Slowest flit = 7541
Fragmentation average = 51.6177
	minimum = 0
	maximum = 126
Injected packet rate average = 0.0134896
	minimum = 0 (at node 2)
	maximum = 0.026 (at node 89)
Accepted packet rate average = 0.00904688
	minimum = 0.003 (at node 64)
	maximum = 0.017 (at node 91)
Injected flit rate average = 0.23825
	minimum = 0 (at node 2)
	maximum = 0.468 (at node 126)
Accepted flit rate average= 0.168958
	minimum = 0.054 (at node 112)
	maximum = 0.323 (at node 91)
Injected packet length average = 17.6618
Accepted packet length average = 18.6759
Total in-flight flits = 15566 (0 measured)
latency change    = 1
throughput change = 1
Class 0:
Packet latency average = 648.703
	minimum = 23
	maximum = 1966
Network latency average = 350.149
	minimum = 23
	maximum = 1645
Slowest packet = 88
Flit latency average = 299.729
	minimum = 6
	maximum = 1628
Slowest flit = 6857
Fragmentation average = 54.8271
	minimum = 0
	maximum = 137
Injected packet rate average = 0.0115599
	minimum = 0.0025 (at node 67)
	maximum = 0.0205 (at node 175)
Accepted packet rate average = 0.00904948
	minimum = 0.0045 (at node 174)
	maximum = 0.0145 (at node 22)
Injected flit rate average = 0.205917
	minimum = 0.044 (at node 67)
	maximum = 0.3615 (at node 175)
Accepted flit rate average= 0.16607
	minimum = 0.081 (at node 174)
	maximum = 0.269 (at node 22)
Injected packet length average = 17.813
Accepted packet length average = 18.3514
Total in-flight flits = 17679 (0 measured)
latency change    = 0.45164
throughput change = 0.0173903
Class 0:
Packet latency average = 1649.52
	minimum = 46
	maximum = 2961
Network latency average = 539.946
	minimum = 23
	maximum = 2052
Slowest packet = 2494
Flit latency average = 480.376
	minimum = 6
	maximum = 2025
Slowest flit = 40446
Fragmentation average = 58.1644
	minimum = 0
	maximum = 123
Injected packet rate average = 0.00895833
	minimum = 0 (at node 124)
	maximum = 0.019 (at node 51)
Accepted packet rate average = 0.00903125
	minimum = 0.003 (at node 10)
	maximum = 0.017 (at node 68)
Injected flit rate average = 0.161937
	minimum = 0 (at node 124)
	maximum = 0.343 (at node 51)
Accepted flit rate average= 0.162333
	minimum = 0.048 (at node 153)
	maximum = 0.315 (at node 68)
Injected packet length average = 18.0767
Accepted packet length average = 17.9746
Total in-flight flits = 17831 (0 measured)
latency change    = 0.606732
throughput change = 0.0230204
Warmed up ...Time used is 3000 cycles
Class 0:
Packet latency average = 2458.75
	minimum = 46
	maximum = 3942
Network latency average = 320.702
	minimum = 27
	maximum = 903
Slowest packet = 6286
Flit latency average = 473.35
	minimum = 6
	maximum = 2174
Slowest flit = 73960
Fragmentation average = 52.228
	minimum = 0
	maximum = 132
Injected packet rate average = 0.00926042
	minimum = 0.001 (at node 41)
	maximum = 0.024 (at node 167)
Accepted packet rate average = 0.00920833
	minimum = 0.003 (at node 31)
	maximum = 0.017 (at node 34)
Injected flit rate average = 0.167276
	minimum = 0.018 (at node 41)
	maximum = 0.421 (at node 167)
Accepted flit rate average= 0.166792
	minimum = 0.064 (at node 31)
	maximum = 0.323 (at node 34)
Injected packet length average = 18.0636
Accepted packet length average = 18.1131
Total in-flight flits = 17973 (16704 measured)
latency change    = 0.329123
throughput change = 0.02673
Class 0:
Packet latency average = 2877.17
	minimum = 46
	maximum = 4940
Network latency average = 449.144
	minimum = 26
	maximum = 1821
Slowest packet = 6286
Flit latency average = 479.686
	minimum = 6
	maximum = 2178
Slowest flit = 73961
Fragmentation average = 55.7581
	minimum = 0
	maximum = 155
Injected packet rate average = 0.00908333
	minimum = 0.0015 (at node 164)
	maximum = 0.017 (at node 159)
Accepted packet rate average = 0.00914323
	minimum = 0.0045 (at node 190)
	maximum = 0.0165 (at node 16)
Injected flit rate average = 0.163599
	minimum = 0.027 (at node 164)
	maximum = 0.3085 (at node 167)
Accepted flit rate average= 0.164339
	minimum = 0.081 (at node 190)
	maximum = 0.2945 (at node 16)
Injected packet length average = 18.0109
Accepted packet length average = 17.9738
Total in-flight flits = 17689 (17671 measured)
latency change    = 0.145425
throughput change = 0.0149273
Class 0:
Packet latency average = 3277.8
	minimum = 46
	maximum = 5886
Network latency average = 489.117
	minimum = 25
	maximum = 2745
Slowest packet = 6286
Flit latency average = 480.763
	minimum = 6
	maximum = 2728
Slowest flit = 116981
Fragmentation average = 57.2612
	minimum = 0
	maximum = 155
Injected packet rate average = 0.00907292
	minimum = 0.00333333 (at node 54)
	maximum = 0.0146667 (at node 125)
Accepted packet rate average = 0.00907118
	minimum = 0.00566667 (at node 4)
	maximum = 0.0156667 (at node 16)
Injected flit rate average = 0.163038
	minimum = 0.0633333 (at node 54)
	maximum = 0.264 (at node 125)
Accepted flit rate average= 0.163033
	minimum = 0.101333 (at node 4)
	maximum = 0.276667 (at node 16)
Injected packet length average = 17.9698
Accepted packet length average = 17.9726
Total in-flight flits = 17920 (17920 measured)
latency change    = 0.122226
throughput change = 0.00800792
Draining remaining packets ...
Time taken is 6991 cycles
====== Overall Traffic Statistics ======
====== Traffic class 0 ======
Packet latency average = 3519.1 (1 samples)
	minimum = 46 (1 samples)
	maximum = 6460 (1 samples)
Network latency average = 524.995 (1 samples)
	minimum = 25 (1 samples)
	maximum = 2745 (1 samples)
Flit latency average = 502.286 (1 samples)
	minimum = 6 (1 samples)
	maximum = 2728 (1 samples)
Fragmentation average = 55.5927 (1 samples)
	minimum = 0 (1 samples)
	maximum = 155 (1 samples)
Injected packet rate average = 0.00907292 (1 samples)
	minimum = 0.00333333 (1 samples)
	maximum = 0.0146667 (1 samples)
Accepted packet rate average = 0.00907118 (1 samples)
	minimum = 0.00566667 (1 samples)
	maximum = 0.0156667 (1 samples)
Injected flit rate average = 0.163038 (1 samples)
	minimum = 0.0633333 (1 samples)
	maximum = 0.264 (1 samples)
Accepted flit rate average = 0.163033 (1 samples)
	minimum = 0.101333 (1 samples)
	maximum = 0.276667 (1 samples)
Injected packet size average = 17.9698 (1 samples)
Accepted packet size average = 17.9726 (1 samples)
Hops average = 5.05975 (1 samples)
Total run time 7.20708
