BEGIN Configuration File: networks/mezzanine_config
topology = mezzanine;
n = 12;

routing_function = multipath;
internal_speedup = 2.0;
latency_thres = 100000.0;
use_read_write = 0;

sample_period = 1000;
injection_rate = 0.5;
packet_size = 18;

noq = 1;
routing_delay = 0;
vc_alloc_delay = 1;
sw_alloc_delay = 1;
st_final_delay = 1;
vc_allocator = islip; 
sw_allocator = islip;
alloc_iters  = 4;
num_vcs     = 12;
buffer_policy = private; // private or shared
buf_size = -1; // -1 for buffer_policy = private;
vc_buf_size = 4096; // size of each VOQ with buffer_policy = private
output_buffer_size = -1;


traffic = uniform;

//mezW = 0.0;
//mezPredefinedPatternType = shift-inter; //shift-qfdb

END Configuration File: networks/mezzanine_config
OVERRIDE Parameter: injection_rate=0.004697
OVERRIDE Parameter: routing_function=multipath
OVERRIDE Parameter: num_vcs=64
OVERRIDE Parameter: vc_buf_size=144
OVERRIDE Parameter: internal_speedup=2.0
OVERRIDE Parameter: injection_process=bernoulli
OVERRIDE Parameter: sim_type=throughput
OVERRIDE Parameter: burst_alpha=0.0038461538
OVERRIDE Parameter: burst_beta=0.1
network: network_0
========================== Routing table  =====================
Number of Subnets: 1
Class 0:
Packet latency average = 44.4197
	minimum = 22
	maximum = 106
Network latency average = 43.5113
	minimum = 22
	maximum = 106
Slowest packet = 562
Flit latency average = 22.6013
	minimum = 5
	maximum = 89
Slowest flit = 10133
Fragmentation average = 7.12247
	minimum = 0
	maximum = 53
Injected packet rate average = 0.00458333
	minimum = 0 (at node 33)
	maximum = 0.01 (at node 39)
Accepted packet rate average = 0.00438021
	minimum = 0.001 (at node 4)
	maximum = 0.011 (at node 140)
Injected flit rate average = 0.0817552
	minimum = 0 (at node 33)
	maximum = 0.18 (at node 39)
Accepted flit rate average= 0.079875
	minimum = 0.018 (at node 4)
	maximum = 0.198 (at node 140)
Injected packet length average = 17.8375
Accepted packet length average = 18.2354
Total in-flight flits = 504 (0 measured)
latency change    = 1
throughput change = 1
Class 0:
Packet latency average = 44.3786
	minimum = 22
	maximum = 143
Network latency average = 43.6226
	minimum = 22
	maximum = 121
Slowest packet = 923
Flit latency average = 22.8578
	minimum = 5
	maximum = 104
Slowest flit = 17753
Fragmentation average = 6.87738
	minimum = 0
	maximum = 61
Injected packet rate average = 0.00447656
	minimum = 0.0005 (at node 82)
	maximum = 0.0085 (at node 132)
Accepted packet rate average = 0.004375
	minimum = 0.0005 (at node 41)
	maximum = 0.008 (at node 48)
Injected flit rate average = 0.080276
	minimum = 0.009 (at node 82)
	maximum = 0.153 (at node 132)
Accepted flit rate average= 0.0794271
	minimum = 0.009 (at node 41)
	maximum = 0.144 (at node 48)
Injected packet length average = 17.9325
Accepted packet length average = 18.1548
Total in-flight flits = 442 (0 measured)
latency change    = 0.000927632
throughput change = 0.00563934
Class 0:
Packet latency average = 44.2826
	minimum = 22
	maximum = 113
Network latency average = 43.4414
	minimum = 22
	maximum = 113
Slowest packet = 2233
Flit latency average = 22.5488
	minimum = 5
	maximum = 96
Slowest flit = 40211
Fragmentation average = 7.05586
	minimum = 0
	maximum = 54
Injected packet rate average = 0.00477604
	minimum = 0 (at node 40)
	maximum = 0.013 (at node 121)
Accepted packet rate average = 0.00475521
	minimum = 0 (at node 17)
	maximum = 0.011 (at node 168)
Injected flit rate average = 0.0858698
	minimum = 0 (at node 40)
	maximum = 0.234 (at node 121)
Accepted flit rate average= 0.0855313
	minimum = 0 (at node 17)
	maximum = 0.206 (at node 173)
Injected packet length average = 17.9793
Accepted packet length average = 17.9869
Total in-flight flits = 526 (0 measured)
latency change    = 0.00216759
throughput change = 0.0713677
Warmed up ...Time used is 3000 cycles
Class 0:
Packet latency average = 45.4994
	minimum = 22
	maximum = 116
Network latency average = 44.7649
	minimum = 22
	maximum = 109
Slowest packet = 2890
Flit latency average = 23.707
	minimum = 5
	maximum = 92
Slowest flit = 60047
Fragmentation average = 7.48144
	minimum = 0
	maximum = 47
Injected packet rate average = 0.00483854
	minimum = 0.001 (at node 0)
	maximum = 0.011 (at node 128)
Accepted packet rate average = 0.00485417
	minimum = 0 (at node 18)
	maximum = 0.013 (at node 22)
Injected flit rate average = 0.087026
	minimum = 0.018 (at node 0)
	maximum = 0.198 (at node 128)
Accepted flit rate average= 0.0871094
	minimum = 0 (at node 18)
	maximum = 0.234 (at node 22)
Injected packet length average = 17.986
Accepted packet length average = 17.9453
Total in-flight flits = 523 (523 measured)
latency change    = 0.0267443
throughput change = 0.0181166
Class 0:
Packet latency average = 44.7941
	minimum = 22
	maximum = 117
Network latency average = 44.0461
	minimum = 22
	maximum = 109
Slowest packet = 2890
Flit latency average = 23.2079
	minimum = 5
	maximum = 92
Slowest flit = 60047
Fragmentation average = 7.05631
	minimum = 0
	maximum = 47
Injected packet rate average = 0.00467187
	minimum = 0.001 (at node 0)
	maximum = 0.01 (at node 128)
Accepted packet rate average = 0.0046901
	minimum = 0.001 (at node 24)
	maximum = 0.0085 (at node 22)
Injected flit rate average = 0.0840313
	minimum = 0.0095 (at node 0)
	maximum = 0.18 (at node 128)
Accepted flit rate average= 0.0842057
	minimum = 0.018 (at node 24)
	maximum = 0.153 (at node 22)
Injected packet length average = 17.9866
Accepted packet length average = 17.9539
Total in-flight flits = 483 (483 measured)
latency change    = 0.0157466
throughput change = 0.0344828
Class 0:
Packet latency average = 44.4118
	minimum = 22
	maximum = 120
Network latency average = 43.7345
	minimum = 22
	maximum = 113
Slowest packet = 2890
Flit latency average = 23.0179
	minimum = 5
	maximum = 96
Slowest flit = 81485
Fragmentation average = 6.88699
	minimum = 0
	maximum = 57
Injected packet rate average = 0.00464583
	minimum = 0.000666667 (at node 0)
	maximum = 0.008 (at node 128)
Accepted packet rate average = 0.00465278
	minimum = 0.00133333 (at node 153)
	maximum = 0.00733333 (at node 97)
Injected flit rate average = 0.0837483
	minimum = 0.012 (at node 0)
	maximum = 0.144 (at node 128)
Accepted flit rate average= 0.0837535
	minimum = 0.024 (at node 153)
	maximum = 0.132 (at node 97)
Injected packet length average = 18.0265
Accepted packet length average = 18.0007
Total in-flight flits = 452 (452 measured)
latency change    = 0.008607
throughput change = 0.00539986
Draining remaining packets ...
Time taken is 6058 cycles
====== Overall Traffic Statistics ======
====== Traffic class 0 ======
Packet latency average = 44.5736 (1 samples)
	minimum = 22 (1 samples)
	maximum = 120 (1 samples)
Network latency average = 43.8703 (1 samples)
	minimum = 22 (1 samples)
	maximum = 113 (1 samples)
Flit latency average = 23.1001 (1 samples)
	minimum = 5 (1 samples)
	maximum = 96 (1 samples)
Fragmentation average = 6.94357 (1 samples)
	minimum = 0 (1 samples)
	maximum = 57 (1 samples)
Injected packet rate average = 0.00464583 (1 samples)
	minimum = 0.000666667 (1 samples)
	maximum = 0.008 (1 samples)
Accepted packet rate average = 0.00465278 (1 samples)
	minimum = 0.00133333 (1 samples)
	maximum = 0.00733333 (1 samples)
Injected flit rate average = 0.0837483 (1 samples)
	minimum = 0.012 (1 samples)
	maximum = 0.144 (1 samples)
Accepted flit rate average = 0.0837535 (1 samples)
	minimum = 0.024 (1 samples)
	maximum = 0.132 (1 samples)
Injected packet size average = 18.0265 (1 samples)
Accepted packet size average = 18.0007 (1 samples)
Hops average = 5.09193 (1 samples)
Total run time 2.20215
