BEGIN Configuration File: networks/mezzanine_config
topology = mezzanine;
n = 12;

routing_function = multipath;
internal_speedup = 2.0;
latency_thres = 100000.0;
use_read_write = 0;

sample_period = 1000;
injection_rate = 0.5;
packet_size = 18;

noq = 1;
routing_delay = 0;
vc_alloc_delay = 1;
sw_alloc_delay = 1;
st_final_delay = 1;
vc_allocator = islip; 
sw_allocator = islip;
alloc_iters  = 4;
num_vcs     = 12;
buffer_policy = private; // private or shared
buf_size = -1; // -1 for buffer_policy = private;
vc_buf_size = 4096; // size of each VOQ with buffer_policy = private
output_buffer_size = -1;


traffic = uniform;

//mezW = 0.0;
//mezPredefinedPatternType = shift-inter; //shift-qfdb

END Configuration File: networks/mezzanine_config
OVERRIDE Parameter: injection_rate=0.020167
OVERRIDE Parameter: routing_function=multipath
OVERRIDE Parameter: num_vcs=12
OVERRIDE Parameter: vc_buf_size=18
OVERRIDE Parameter: internal_speedup=1.0
OVERRIDE Parameter: injection_process=bernoulli
OVERRIDE Parameter: sim_type=throughput
OVERRIDE Parameter: burst_alpha=0.0038461538
OVERRIDE Parameter: burst_beta=0.1
network: network_0
========================== Routing table  =====================
Number of Subnets: 1
Class 0:
Packet latency average = 259.716
	minimum = 23
	maximum = 871
Network latency average = 232.607
	minimum = 23
	maximum = 838
Slowest packet = 407
Flit latency average = 192.73
	minimum = 6
	maximum = 851
Slowest flit = 8920
Fragmentation average = 49.7112
	minimum = 0
	maximum = 121
Injected packet rate average = 0.0136875
	minimum = 0.005 (at node 0)
	maximum = 0.026 (at node 146)
Accepted packet rate average = 0.009
	minimum = 0.002 (at node 41)
	maximum = 0.017 (at node 140)
Injected flit rate average = 0.242922
	minimum = 0.09 (at node 0)
	maximum = 0.453 (at node 146)
Accepted flit rate average= 0.167964
	minimum = 0.05 (at node 41)
	maximum = 0.307 (at node 140)
Injected packet length average = 17.7477
Accepted packet length average = 18.6626
Total in-flight flits = 16765 (0 measured)
latency change    = 1
throughput change = 1
Class 0:
Packet latency average = 512.391
	minimum = 23
	maximum = 1648
Network latency average = 357.423
	minimum = 23
	maximum = 1648
Slowest packet = 1164
Flit latency average = 308.248
	minimum = 6
	maximum = 1631
Slowest flit = 20969
Fragmentation average = 54.0087
	minimum = 0
	maximum = 126
Injected packet rate average = 0.0113906
	minimum = 0.0045 (at node 99)
	maximum = 0.018 (at node 175)
Accepted packet rate average = 0.00894271
	minimum = 0.0045 (at node 164)
	maximum = 0.014 (at node 22)
Injected flit rate average = 0.203104
	minimum = 0.081 (at node 99)
	maximum = 0.317 (at node 175)
Accepted flit rate average= 0.163865
	minimum = 0.0835 (at node 174)
	maximum = 0.261 (at node 22)
Injected packet length average = 17.8308
Accepted packet length average = 18.3238
Total in-flight flits = 17680 (0 measured)
latency change    = 0.49313
throughput change = 0.0250143
Class 0:
Packet latency average = 1319.14
	minimum = 250
	maximum = 2534
Network latency average = 550.602
	minimum = 23
	maximum = 2448
Slowest packet = 1282
Flit latency average = 485.78
	minimum = 6
	maximum = 2431
Slowest flit = 23093
Fragmentation average = 58.5352
	minimum = 0
	maximum = 135
Injected packet rate average = 0.00872396
	minimum = 0 (at node 32)
	maximum = 0.02 (at node 40)
Accepted packet rate average = 0.00880729
	minimum = 0.001 (at node 153)
	maximum = 0.018 (at node 14)
Injected flit rate average = 0.156276
	minimum = 0 (at node 32)
	maximum = 0.376 (at node 40)
Accepted flit rate average= 0.157891
	minimum = 0.001 (at node 153)
	maximum = 0.309 (at node 14)
Injected packet length average = 17.9134
Accepted packet length average = 17.9273
Total in-flight flits = 17497 (0 measured)
latency change    = 0.611572
throughput change = 0.0378361
Warmed up ...Time used is 3000 cycles
Class 0:
Packet latency average = 1903.7
	minimum = 885
	maximum = 3303
Network latency average = 333.651
	minimum = 25
	maximum = 962
Slowest packet = 6157
Flit latency average = 489.922
	minimum = 6
	maximum = 3130
Slowest flit = 26657
Fragmentation average = 52.1965
	minimum = 0
	maximum = 122
Injected packet rate average = 0.00910938
	minimum = 0 (at node 24)
	maximum = 0.023 (at node 32)
Accepted packet rate average = 0.00896875
	minimum = 0.001 (at node 96)
	maximum = 0.016 (at node 34)
Injected flit rate average = 0.164917
	minimum = 0 (at node 24)
	maximum = 0.411 (at node 32)
Accepted flit rate average= 0.162786
	minimum = 0.033 (at node 96)
	maximum = 0.305 (at node 34)
Injected packet length average = 18.1041
Accepted packet length average = 18.1504
Total in-flight flits = 17922 (16197 measured)
latency change    = 0.307066
throughput change = 0.0300752
Class 0:
Packet latency average = 2231.21
	minimum = 885
	maximum = 4082
Network latency average = 443.357
	minimum = 23
	maximum = 1860
Slowest packet = 6157
Flit latency average = 488.951
	minimum = 6
	maximum = 3259
Slowest flit = 57150
Fragmentation average = 54.6421
	minimum = 0
	maximum = 130
Injected packet rate average = 0.0089349
	minimum = 0.001 (at node 111)
	maximum = 0.0185 (at node 46)
Accepted packet rate average = 0.00890365
	minimum = 0.004 (at node 96)
	maximum = 0.0155 (at node 34)
Injected flit rate average = 0.161164
	minimum = 0.018 (at node 111)
	maximum = 0.333 (at node 46)
Accepted flit rate average= 0.160568
	minimum = 0.07 (at node 113)
	maximum = 0.279 (at node 34)
Injected packet length average = 18.0376
Accepted packet length average = 18.0339
Total in-flight flits = 17705 (17536 measured)
latency change    = 0.146784
throughput change = 0.0138182
Class 0:
Packet latency average = 2547
	minimum = 885
	maximum = 4918
Network latency average = 488.742
	minimum = 23
	maximum = 2667
Slowest packet = 6157
Flit latency average = 493.329
	minimum = 6
	maximum = 3259
Slowest flit = 57150
Fragmentation average = 56.9143
	minimum = 0
	maximum = 131
Injected packet rate average = 0.00903819
	minimum = 0.00233333 (at node 141)
	maximum = 0.0156667 (at node 46)
Accepted packet rate average = 0.0090191
	minimum = 0.00466667 (at node 113)
	maximum = 0.015 (at node 16)
Injected flit rate average = 0.163122
	minimum = 0.042 (at node 141)
	maximum = 0.284 (at node 168)
Accepted flit rate average= 0.162835
	minimum = 0.084 (at node 113)
	maximum = 0.274 (at node 16)
Injected packet length average = 18.048
Accepted packet length average = 18.0545
Total in-flight flits = 17502 (17502 measured)
latency change    = 0.123988
throughput change = 0.0139243
Draining remaining packets ...
Time taken is 6894 cycles
====== Overall Traffic Statistics ======
====== Traffic class 0 ======
Packet latency average = 2742.14 (1 samples)
	minimum = 885 (1 samples)
	maximum = 5407 (1 samples)
Network latency average = 523.259 (1 samples)
	minimum = 23 (1 samples)
	maximum = 2667 (1 samples)
Flit latency average = 511.135 (1 samples)
	minimum = 6 (1 samples)
	maximum = 3259 (1 samples)
Fragmentation average = 55.7001 (1 samples)
	minimum = 0 (1 samples)
	maximum = 137 (1 samples)
Injected packet rate average = 0.00903819 (1 samples)
	minimum = 0.00233333 (1 samples)
	maximum = 0.0156667 (1 samples)
Accepted packet rate average = 0.0090191 (1 samples)
	minimum = 0.00466667 (1 samples)
	maximum = 0.015 (1 samples)
Injected flit rate average = 0.163122 (1 samples)
	minimum = 0.042 (1 samples)
	maximum = 0.284 (1 samples)
Accepted flit rate average = 0.162835 (1 samples)
	minimum = 0.084 (1 samples)
	maximum = 0.274 (1 samples)
Injected packet size average = 18.048 (1 samples)
Accepted packet size average = 18.0545 (1 samples)
Hops average = 5.05316 (1 samples)
Total run time 4.61598
