BEGIN Configuration File: networks/mezzanine_config
topology = mezzanine;
n = 12;

routing_function = multipath;
internal_speedup = 2.0;
latency_thres = 100000.0;
use_read_write = 0;

sample_period = 1000;
injection_rate = 0.5;
packet_size = 18;

noq = 1;
routing_delay = 0;
vc_alloc_delay = 1;
sw_alloc_delay = 1;
st_final_delay = 1;
vc_allocator = islip; 
sw_allocator = islip;
alloc_iters  = 4;
num_vcs     = 12;
buffer_policy = private; // private or shared
buf_size = -1; // -1 for buffer_policy = private;
vc_buf_size = 4096; // size of each VOQ with buffer_policy = private
output_buffer_size = -1;


traffic = uniform;

//mezW = 0.0;
//mezPredefinedPatternType = shift-inter; //shift-qfdb

END Configuration File: networks/mezzanine_config
OVERRIDE Parameter: injection_rate=0.013537
OVERRIDE Parameter: routing_function=min
OVERRIDE Parameter: num_vcs=12
OVERRIDE Parameter: vc_buf_size=144
OVERRIDE Parameter: internal_speedup=2.0
OVERRIDE Parameter: injection_process=bernoulli
OVERRIDE Parameter: sim_type=throughput
OVERRIDE Parameter: burst_alpha=0.0038461538
OVERRIDE Parameter: burst_beta=0.1
network: network_0
========================== Routing table  =====================
Number of Subnets: 1
Class 0:
Packet latency average = 98.7147
	minimum = 22
	maximum = 406
Network latency average = 96.1952
	minimum = 22
	maximum = 400
Slowest packet = 1471
Flit latency average = 71.9481
	minimum = 5
	maximum = 383
Slowest flit = 26495
Fragmentation average = 14.4629
	minimum = 0
	maximum = 97
Injected packet rate average = 0.0136094
	minimum = 0.006 (at node 87)
	maximum = 0.022 (at node 123)
Accepted packet rate average = 0.011849
	minimum = 0.004 (at node 64)
	maximum = 0.02 (at node 44)
Injected flit rate average = 0.242297
	minimum = 0.1 (at node 87)
	maximum = 0.396 (at node 123)
Accepted flit rate average= 0.217094
	minimum = 0.072 (at node 64)
	maximum = 0.369 (at node 132)
Injected packet length average = 17.8037
Accepted packet length average = 18.3218
Total in-flight flits = 5352 (0 measured)
latency change    = 1
throughput change = 1
Class 0:
Packet latency average = 121.987
	minimum = 22
	maximum = 507
Network latency average = 119.343
	minimum = 22
	maximum = 502
Slowest packet = 3706
Flit latency average = 94.5471
	minimum = 5
	maximum = 492
Slowest flit = 69737
Fragmentation average = 14.8427
	minimum = 0
	maximum = 97
Injected packet rate average = 0.0133906
	minimum = 0.0075 (at node 161)
	maximum = 0.019 (at node 77)
Accepted packet rate average = 0.0124349
	minimum = 0.007 (at node 30)
	maximum = 0.018 (at node 22)
Injected flit rate average = 0.239911
	minimum = 0.135 (at node 161)
	maximum = 0.342 (at node 77)
Accepted flit rate average= 0.225521
	minimum = 0.126 (at node 83)
	maximum = 0.3245 (at node 166)
Injected packet length average = 17.9164
Accepted packet length average = 18.1361
Total in-flight flits = 5956 (0 measured)
latency change    = 0.190777
throughput change = 0.0373672
Class 0:
Packet latency average = 152.771
	minimum = 22
	maximum = 598
Network latency average = 150.211
	minimum = 22
	maximum = 598
Slowest packet = 3969
Flit latency average = 125.191
	minimum = 5
	maximum = 581
Slowest flit = 71452
Fragmentation average = 14.7564
	minimum = 0
	maximum = 87
Injected packet rate average = 0.0134844
	minimum = 0.004 (at node 136)
	maximum = 0.025 (at node 191)
Accepted packet rate average = 0.013276
	minimum = 0.004 (at node 184)
	maximum = 0.022 (at node 16)
Injected flit rate average = 0.242443
	minimum = 0.064 (at node 136)
	maximum = 0.457 (at node 191)
Accepted flit rate average= 0.239734
	minimum = 0.084 (at node 184)
	maximum = 0.41 (at node 24)
Injected packet length average = 17.9795
Accepted packet length average = 18.0577
Total in-flight flits = 6529 (0 measured)
latency change    = 0.201504
throughput change = 0.0592887
Warmed up ...Time used is 3000 cycles
Class 0:
Packet latency average = 157.386
	minimum = 22
	maximum = 610
Network latency average = 154.664
	minimum = 22
	maximum = 597
Slowest packet = 8051
Flit latency average = 137.683
	minimum = 5
	maximum = 634
Slowest flit = 133295
Fragmentation average = 15.1218
	minimum = 0
	maximum = 84
Injected packet rate average = 0.0140469
	minimum = 0.004 (at node 150)
	maximum = 0.025 (at node 84)
Accepted packet rate average = 0.0137083
	minimum = 0.003 (at node 154)
	maximum = 0.025 (at node 16)
Injected flit rate average = 0.252427
	minimum = 0.072 (at node 150)
	maximum = 0.45 (at node 84)
Accepted flit rate average= 0.24599
	minimum = 0.056 (at node 154)
	maximum = 0.46 (at node 16)
Injected packet length average = 17.9703
Accepted packet length average = 17.9445
Total in-flight flits = 7845 (7845 measured)
latency change    = 0.0293212
throughput change = 0.0254288
Class 0:
Packet latency average = 168.136
	minimum = 22
	maximum = 610
Network latency average = 165.538
	minimum = 22
	maximum = 597
Slowest packet = 8051
Flit latency average = 143.77
	minimum = 5
	maximum = 634
Slowest flit = 133295
Fragmentation average = 14.9
	minimum = 0
	maximum = 84
Injected packet rate average = 0.0136901
	minimum = 0.0085 (at node 10)
	maximum = 0.022 (at node 126)
Accepted packet rate average = 0.0137135
	minimum = 0.006 (at node 4)
	maximum = 0.021 (at node 129)
Injected flit rate average = 0.246563
	minimum = 0.153 (at node 10)
	maximum = 0.392 (at node 126)
Accepted flit rate average= 0.246469
	minimum = 0.1065 (at node 4)
	maximum = 0.3855 (at node 129)
Injected packet length average = 18.0103
Accepted packet length average = 17.9727
Total in-flight flits = 6511 (6511 measured)
latency change    = 0.0639411
throughput change = 0.00194413
Class 0:
Packet latency average = 166.186
	minimum = 22
	maximum = 610
Network latency average = 163.572
	minimum = 22
	maximum = 597
Slowest packet = 8051
Flit latency average = 140.799
	minimum = 5
	maximum = 634
Slowest flit = 133295
Fragmentation average = 14.8705
	minimum = 0
	maximum = 84
Injected packet rate average = 0.013658
	minimum = 0.00866667 (at node 18)
	maximum = 0.0196667 (at node 116)
Accepted packet rate average = 0.0136042
	minimum = 0.009 (at node 86)
	maximum = 0.02 (at node 128)
Injected flit rate average = 0.245995
	minimum = 0.156 (at node 18)
	maximum = 0.354 (at node 116)
Accepted flit rate average= 0.244745
	minimum = 0.162 (at node 86)
	maximum = 0.36 (at node 128)
Injected packet length average = 18.0111
Accepted packet length average = 17.9904
Total in-flight flits = 7162 (7162 measured)
latency change    = 0.0117347
throughput change = 0.0070439
Draining remaining packets ...
Time taken is 6513 cycles
====== Overall Traffic Statistics ======
====== Traffic class 0 ======
Packet latency average = 169.182 (1 samples)
	minimum = 22 (1 samples)
	maximum = 610 (1 samples)
Network latency average = 166.557 (1 samples)
	minimum = 22 (1 samples)
	maximum = 597 (1 samples)
Flit latency average = 143.528 (1 samples)
	minimum = 5 (1 samples)
	maximum = 634 (1 samples)
Fragmentation average = 14.9227 (1 samples)
	minimum = 0 (1 samples)
	maximum = 84 (1 samples)
Injected packet rate average = 0.013658 (1 samples)
	minimum = 0.00866667 (1 samples)
	maximum = 0.0196667 (1 samples)
Accepted packet rate average = 0.0136042 (1 samples)
	minimum = 0.009 (1 samples)
	maximum = 0.02 (1 samples)
Injected flit rate average = 0.245995 (1 samples)
	minimum = 0.156 (1 samples)
	maximum = 0.354 (1 samples)
Accepted flit rate average = 0.244745 (1 samples)
	minimum = 0.162 (1 samples)
	maximum = 0.36 (1 samples)
Injected packet size average = 18.0111 (1 samples)
Accepted packet size average = 17.9904 (1 samples)
Hops average = 5.05707 (1 samples)
Total run time 5.32498
