BEGIN Configuration File: networks/mezzanine_config
topology = mezzanine;
n = 12;

routing_function = multipath;
internal_speedup = 2.0;
latency_thres = 100000.0;
use_read_write = 0;

sample_period = 1000;
injection_rate = 0.5;
packet_size = 18;

noq = 1;
routing_delay = 0;
vc_alloc_delay = 1;
sw_alloc_delay = 1;
st_final_delay = 1;
vc_allocator = islip; 
sw_allocator = islip;
alloc_iters  = 4;
num_vcs     = 12;
buffer_policy = private; // private or shared
buf_size = -1; // -1 for buffer_policy = private;
vc_buf_size = 4096; // size of each VOQ with buffer_policy = private
output_buffer_size = -1;


traffic = uniform;

//mezW = 0.0;
//mezPredefinedPatternType = shift-inter; //shift-qfdb

END Configuration File: networks/mezzanine_config
OVERRIDE Parameter: injection_rate=0.006907
OVERRIDE Parameter: routing_function=min
OVERRIDE Parameter: num_vcs=32
OVERRIDE Parameter: vc_buf_size=1024
OVERRIDE Parameter: internal_speedup=2.0
OVERRIDE Parameter: injection_process=bernoulli
OVERRIDE Parameter: sim_type=throughput
OVERRIDE Parameter: burst_alpha=0.0038461538
OVERRIDE Parameter: burst_beta=0.1
network: network_0
========================== Routing table  =====================
Number of Subnets: 1
Class 0:
Packet latency average = 52.0701
	minimum = 22
	maximum = 150
Network latency average = 50.7897
	minimum = 22
	maximum = 150
Slowest packet = 649
Flit latency average = 28.1364
	minimum = 5
	maximum = 133
Slowest flit = 11699
Fragmentation average = 10.546
	minimum = 0
	maximum = 56
Injected packet rate average = 0.00677083
	minimum = 0.001 (at node 176)
	maximum = 0.014 (at node 173)
Accepted packet rate average = 0.00639063
	minimum = 0.001 (at node 41)
	maximum = 0.013 (at node 48)
Injected flit rate average = 0.120698
	minimum = 0.018 (at node 176)
	maximum = 0.252 (at node 173)
Accepted flit rate average= 0.117047
	minimum = 0.018 (at node 41)
	maximum = 0.234 (at node 48)
Injected packet length average = 17.8262
Accepted packet length average = 18.3154
Total in-flight flits = 927 (0 measured)
latency change    = 1
throughput change = 1
Class 0:
Packet latency average = 52.1856
	minimum = 22
	maximum = 179
Network latency average = 50.9534
	minimum = 22
	maximum = 179
Slowest packet = 1447
Flit latency average = 28.2214
	minimum = 5
	maximum = 162
Slowest flit = 26062
Fragmentation average = 10.6288
	minimum = 0
	maximum = 113
Injected packet rate average = 0.0066224
	minimum = 0.002 (at node 37)
	maximum = 0.0125 (at node 172)
Accepted packet rate average = 0.00648177
	minimum = 0.0025 (at node 115)
	maximum = 0.0105 (at node 44)
Injected flit rate average = 0.118724
	minimum = 0.036 (at node 37)
	maximum = 0.225 (at node 172)
Accepted flit rate average= 0.117391
	minimum = 0.045 (at node 115)
	maximum = 0.189 (at node 44)
Injected packet length average = 17.9276
Accepted packet length average = 18.1109
Total in-flight flits = 696 (0 measured)
latency change    = 0.00221377
throughput change = 0.00292826
Class 0:
Packet latency average = 51.7981
	minimum = 22
	maximum = 175
Network latency average = 50.5349
	minimum = 22
	maximum = 166
Slowest packet = 2464
Flit latency average = 27.9479
	minimum = 5
	maximum = 149
Slowest flit = 44531
Fragmentation average = 10.2578
	minimum = 0
	maximum = 77
Injected packet rate average = 0.00679167
	minimum = 0.001 (at node 125)
	maximum = 0.016 (at node 34)
Accepted packet rate average = 0.00670833
	minimum = 0.001 (at node 18)
	maximum = 0.018 (at node 22)
Injected flit rate average = 0.122089
	minimum = 0.018 (at node 125)
	maximum = 0.288 (at node 34)
Accepted flit rate average= 0.121115
	minimum = 0.018 (at node 18)
	maximum = 0.324 (at node 22)
Injected packet length average = 17.9762
Accepted packet length average = 18.0543
Total in-flight flits = 914 (0 measured)
latency change    = 0.00748058
throughput change = 0.0307474
Warmed up ...Time used is 3000 cycles
Class 0:
Packet latency average = 52.1664
	minimum = 22
	maximum = 153
Network latency average = 51
	minimum = 22
	maximum = 153
Slowest packet = 4023
Flit latency average = 28.2004
	minimum = 5
	maximum = 136
Slowest flit = 72431
Fragmentation average = 10.9563
	minimum = 0
	maximum = 78
Injected packet rate average = 0.00718229
	minimum = 0.002 (at node 28)
	maximum = 0.018 (at node 115)
Accepted packet rate average = 0.00715625
	minimum = 0 (at node 153)
	maximum = 0.014 (at node 6)
Injected flit rate average = 0.129193
	minimum = 0.036 (at node 28)
	maximum = 0.324 (at node 115)
Accepted flit rate average= 0.129286
	minimum = 0.017 (at node 153)
	maximum = 0.252 (at node 6)
Injected packet length average = 17.9877
Accepted packet length average = 18.0662
Total in-flight flits = 913 (913 measured)
latency change    = 0.00705961
throughput change = 0.0632075
Class 0:
Packet latency average = 52.2334
	minimum = 22
	maximum = 167
Network latency average = 51.1878
	minimum = 22
	maximum = 153
Slowest packet = 4023
Flit latency average = 28.3797
	minimum = 5
	maximum = 136
Slowest flit = 72431
Fragmentation average = 10.9195
	minimum = 0
	maximum = 78
Injected packet rate average = 0.00692969
	minimum = 0.0025 (at node 2)
	maximum = 0.0115 (at node 5)
Accepted packet rate average = 0.00697656
	minimum = 0.003 (at node 184)
	maximum = 0.0115 (at node 63)
Injected flit rate average = 0.124703
	minimum = 0.045 (at node 2)
	maximum = 0.207 (at node 5)
Accepted flit rate average= 0.125164
	minimum = 0.054 (at node 184)
	maximum = 0.2 (at node 63)
Injected packet length average = 17.9955
Accepted packet length average = 17.9406
Total in-flight flits = 749 (749 measured)
latency change    = 0.00128293
throughput change = 0.0329359
Class 0:
Packet latency average = 51.9238
	minimum = 22
	maximum = 167
Network latency average = 50.8314
	minimum = 22
	maximum = 153
Slowest packet = 4023
Flit latency average = 28.1933
	minimum = 5
	maximum = 136
Slowest flit = 72431
Fragmentation average = 10.5702
	minimum = 0
	maximum = 78
Injected packet rate average = 0.0068941
	minimum = 0.003 (at node 112)
	maximum = 0.0106667 (at node 191)
Accepted packet rate average = 0.00688715
	minimum = 0.00333333 (at node 153)
	maximum = 0.0106667 (at node 34)
Injected flit rate average = 0.124269
	minimum = 0.054 (at node 112)
	maximum = 0.195 (at node 191)
Accepted flit rate average= 0.124208
	minimum = 0.06 (at node 153)
	maximum = 0.197 (at node 34)
Injected packet length average = 18.0254
Accepted packet length average = 18.0348
Total in-flight flits = 848 (848 measured)
latency change    = 0.00596326
throughput change = 0.00769457
Class 0:
Packet latency average = 51.9816
	minimum = 22
	maximum = 167
Network latency average = 50.8914
	minimum = 22
	maximum = 153
Slowest packet = 4023
Flit latency average = 28.234
	minimum = 5
	maximum = 136
Slowest flit = 72431
Fragmentation average = 10.5184
	minimum = 0
	maximum = 79
Injected packet rate average = 0.006875
	minimum = 0.0035 (at node 112)
	maximum = 0.01025 (at node 69)
Accepted packet rate average = 0.00688802
	minimum = 0.00425 (at node 91)
	maximum = 0.0115 (at node 16)
Injected flit rate average = 0.123779
	minimum = 0.063 (at node 112)
	maximum = 0.186 (at node 191)
Accepted flit rate average= 0.123943
	minimum = 0.0765 (at node 91)
	maximum = 0.20925 (at node 16)
Injected packet length average = 18.0042
Accepted packet length average = 17.994
Total in-flight flits = 766 (766 measured)
latency change    = 0.00111235
throughput change = 0.00214313
Draining remaining packets ...
Time taken is 7078 cycles
====== Overall Traffic Statistics ======
====== Traffic class 0 ======
Packet latency average = 52.0053 (1 samples)
	minimum = 22 (1 samples)
	maximum = 167 (1 samples)
Network latency average = 50.9165 (1 samples)
	minimum = 22 (1 samples)
	maximum = 153 (1 samples)
Flit latency average = 28.284 (1 samples)
	minimum = 5 (1 samples)
	maximum = 136 (1 samples)
Fragmentation average = 10.5081 (1 samples)
	minimum = 0 (1 samples)
	maximum = 79 (1 samples)
Injected packet rate average = 0.006875 (1 samples)
	minimum = 0.0035 (1 samples)
	maximum = 0.01025 (1 samples)
Accepted packet rate average = 0.00688802 (1 samples)
	minimum = 0.00425 (1 samples)
	maximum = 0.0115 (1 samples)
Injected flit rate average = 0.123779 (1 samples)
	minimum = 0.063 (1 samples)
	maximum = 0.186 (1 samples)
Accepted flit rate average = 0.123943 (1 samples)
	minimum = 0.0765 (1 samples)
	maximum = 0.20925 (1 samples)
Injected packet size average = 18.0042 (1 samples)
Accepted packet size average = 17.994 (1 samples)
Hops average = 5.07576 (1 samples)
Total run time 2.58201
