BEGIN Configuration File: networks/mezzanine_config
topology = mezzanine;
n = 12;

routing_function = multipath;
internal_speedup = 2.0;
latency_thres = 100000.0;
use_read_write = 0;

sample_period = 1000;
injection_rate = 0.5;
packet_size = 18;

noq = 1;
routing_delay = 0;
vc_alloc_delay = 1;
sw_alloc_delay = 1;
st_final_delay = 1;
vc_allocator = islip; 
sw_allocator = islip;
alloc_iters  = 4;
num_vcs     = 12;
buffer_policy = private; // private or shared
buf_size = -1; // -1 for buffer_policy = private;
vc_buf_size = 4096; // size of each VOQ with buffer_policy = private
output_buffer_size = -1;


traffic = uniform;

//mezW = 0.0;
//mezPredefinedPatternType = shift-inter; //shift-qfdb

END Configuration File: networks/mezzanine_config
OVERRIDE Parameter: injection_rate=0.022377
OVERRIDE Parameter: routing_function=min
OVERRIDE Parameter: num_vcs=12
OVERRIDE Parameter: vc_buf_size=18
OVERRIDE Parameter: internal_speedup=1.0
OVERRIDE Parameter: injection_process=on_off
OVERRIDE Parameter: sim_type=throughput
OVERRIDE Parameter: burst_alpha=0.0038461538
OVERRIDE Parameter: burst_beta=0.1
network: network_0
========================== Routing table  =====================
Number of Subnets: 1
Class 0:
Packet latency average = 336.349
	minimum = 23
	maximum = 987
Network latency average = 227.845
	minimum = 23
	maximum = 904
Slowest packet = 69
Flit latency average = 184.485
	minimum = 6
	maximum = 877
Slowest flit = 7307
Fragmentation average = 48.6845
	minimum = 0
	maximum = 150
Injected packet rate average = 0.012974
	minimum = 0 (at node 71)
	maximum = 0.03 (at node 105)
Accepted packet rate average = 0.00897917
	minimum = 0.002 (at node 41)
	maximum = 0.017 (at node 91)
Injected flit rate average = 0.229698
	minimum = 0 (at node 71)
	maximum = 0.54 (at node 105)
Accepted flit rate average= 0.166802
	minimum = 0.036 (at node 41)
	maximum = 0.306 (at node 91)
Injected packet length average = 17.7045
Accepted packet length average = 18.5766
Total in-flight flits = 13946 (0 measured)
latency change    = 1
throughput change = 1
Class 0:
Packet latency average = 580.111
	minimum = 23
	maximum = 1961
Network latency average = 318.777
	minimum = 23
	maximum = 1438
Slowest packet = 69
Flit latency average = 270.75
	minimum = 6
	maximum = 1389
Slowest flit = 19854
Fragmentation average = 52.2777
	minimum = 0
	maximum = 150
Injected packet rate average = 0.0112161
	minimum = 0 (at node 107)
	maximum = 0.022 (at node 6)
Accepted packet rate average = 0.00896354
	minimum = 0.005 (at node 30)
	maximum = 0.015 (at node 22)
Injected flit rate average = 0.199839
	minimum = 0 (at node 107)
	maximum = 0.3885 (at node 6)
Accepted flit rate average= 0.164263
	minimum = 0.09 (at node 135)
	maximum = 0.2735 (at node 22)
Injected packet length average = 17.817
Accepted packet length average = 18.3257
Total in-flight flits = 15997 (0 measured)
latency change    = 0.420199
throughput change = 0.0154573
Class 0:
Packet latency average = 1360.15
	minimum = 23
	maximum = 2845
Network latency average = 507.44
	minimum = 23
	maximum = 2173
Slowest packet = 3829
Flit latency average = 445.504
	minimum = 6
	maximum = 2151
Slowest flit = 37511
Fragmentation average = 58.3623
	minimum = 0
	maximum = 125
Injected packet rate average = 0.00920833
	minimum = 0 (at node 27)
	maximum = 0.024 (at node 133)
Accepted packet rate average = 0.00894271
	minimum = 0.002 (at node 121)
	maximum = 0.016 (at node 63)
Injected flit rate average = 0.166563
	minimum = 0 (at node 27)
	maximum = 0.424 (at node 133)
Accepted flit rate average= 0.161948
	minimum = 0.036 (at node 121)
	maximum = 0.298 (at node 73)
Injected packet length average = 18.0882
Accepted packet length average = 18.1095
Total in-flight flits = 17015 (0 measured)
latency change    = 0.573495
throughput change = 0.0142954
Warmed up ...Time used is 3000 cycles
Class 0:
Packet latency average = 1890.51
	minimum = 43
	maximum = 3846
Network latency average = 319.333
	minimum = 23
	maximum = 914
Slowest packet = 6207
Flit latency average = 457.72
	minimum = 6
	maximum = 2293
Slowest flit = 38501
Fragmentation average = 53.174
	minimum = 0
	maximum = 138
Injected packet rate average = 0.00932292
	minimum = 0 (at node 157)
	maximum = 0.026 (at node 64)
Accepted packet rate average = 0.00928125
	minimum = 0.004 (at node 61)
	maximum = 0.02 (at node 187)
Injected flit rate average = 0.167203
	minimum = 0.015 (at node 157)
	maximum = 0.475 (at node 64)
Accepted flit rate average= 0.166245
	minimum = 0.068 (at node 91)
	maximum = 0.36 (at node 187)
Injected packet length average = 17.9346
Accepted packet length average = 17.9119
Total in-flight flits = 17334 (16123 measured)
latency change    = 0.280538
throughput change = 0.0258467
Class 0:
Packet latency average = 2313.66
	minimum = 23
	maximum = 4815
Network latency average = 440.166
	minimum = 23
	maximum = 1768
Slowest packet = 6207
Flit latency average = 466.102
	minimum = 6
	maximum = 2375
Slowest flit = 76050
Fragmentation average = 55.5657
	minimum = 0
	maximum = 153
Injected packet rate average = 0.00934115
	minimum = 0.0015 (at node 155)
	maximum = 0.021 (at node 64)
Accepted packet rate average = 0.00924219
	minimum = 0.004 (at node 180)
	maximum = 0.017 (at node 16)
Injected flit rate average = 0.167875
	minimum = 0.027 (at node 155)
	maximum = 0.3785 (at node 64)
Accepted flit rate average= 0.166318
	minimum = 0.074 (at node 180)
	maximum = 0.312 (at node 16)
Injected packet length average = 17.9716
Accepted packet length average = 17.9955
Total in-flight flits = 17841 (17805 measured)
latency change    = 0.182892
throughput change = 0.000438418
Class 0:
Packet latency average = 2629.45
	minimum = 23
	maximum = 5635
Network latency average = 478.401
	minimum = 23
	maximum = 2264
Slowest packet = 6207
Flit latency average = 467.446
	minimum = 6
	maximum = 2950
Slowest flit = 103121
Fragmentation average = 57.4446
	minimum = 0
	maximum = 153
Injected packet rate average = 0.00927257
	minimum = 0.00266667 (at node 155)
	maximum = 0.016 (at node 64)
Accepted packet rate average = 0.00921007
	minimum = 0.005 (at node 4)
	maximum = 0.0163333 (at node 16)
Injected flit rate average = 0.16647
	minimum = 0.046 (at node 155)
	maximum = 0.290333 (at node 64)
Accepted flit rate average= 0.165425
	minimum = 0.09 (at node 4)
	maximum = 0.295333 (at node 16)
Injected packet length average = 17.953
Accepted packet length average = 17.9614
Total in-flight flits = 17706 (17706 measured)
latency change    = 0.120097
throughput change = 0.00539434
Draining remaining packets ...
Time taken is 6846 cycles
====== Overall Traffic Statistics ======
====== Traffic class 0 ======
Packet latency average = 2834.17 (1 samples)
	minimum = 23 (1 samples)
	maximum = 6031 (1 samples)
Network latency average = 518.708 (1 samples)
	minimum = 23 (1 samples)
	maximum = 2264 (1 samples)
Flit latency average = 493.481 (1 samples)
	minimum = 6 (1 samples)
	maximum = 2950 (1 samples)
Fragmentation average = 55.732 (1 samples)
	minimum = 0 (1 samples)
	maximum = 153 (1 samples)
Injected packet rate average = 0.00927257 (1 samples)
	minimum = 0.00266667 (1 samples)
	maximum = 0.016 (1 samples)
Accepted packet rate average = 0.00921007 (1 samples)
	minimum = 0.005 (1 samples)
	maximum = 0.0163333 (1 samples)
Injected flit rate average = 0.16647 (1 samples)
	minimum = 0.046 (1 samples)
	maximum = 0.290333 (1 samples)
Accepted flit rate average = 0.165425 (1 samples)
	minimum = 0.09 (1 samples)
	maximum = 0.295333 (1 samples)
Injected packet size average = 17.953 (1 samples)
Accepted packet size average = 17.9614 (1 samples)
Hops average = 5.06939 (1 samples)
Total run time 7.57092
