BEGIN Configuration File: networks/mezzanine_config
topology = mezzanine;
n = 12;

routing_function = multipath;
internal_speedup = 2.0;
latency_thres = 100000.0;
use_read_write = 0;

sample_period = 1000;
injection_rate = 0.5;
packet_size = 18;

noq = 1;
routing_delay = 0;
vc_alloc_delay = 1;
sw_alloc_delay = 1;
st_final_delay = 1;
vc_allocator = islip; 
sw_allocator = islip;
alloc_iters  = 4;
num_vcs     = 12;
buffer_policy = private; // private or shared
buf_size = -1; // -1 for buffer_policy = private;
vc_buf_size = 4096; // size of each VOQ with buffer_policy = private
output_buffer_size = -1;


traffic = uniform;

//mezW = 0.0;
//mezPredefinedPatternType = shift-inter; //shift-qfdb

END Configuration File: networks/mezzanine_config
OVERRIDE Parameter: injection_rate=0.029007
OVERRIDE Parameter: routing_function=multipath
OVERRIDE Parameter: num_vcs=12
OVERRIDE Parameter: vc_buf_size=18
OVERRIDE Parameter: internal_speedup=1.0
OVERRIDE Parameter: injection_process=bernoulli
OVERRIDE Parameter: sim_type=throughput
OVERRIDE Parameter: burst_alpha=0.0038461538
OVERRIDE Parameter: burst_beta=0.1
network: network_0
========================== Routing table  =====================
Number of Subnets: 1
Class 0:
Packet latency average = 320.072
	minimum = 23
	maximum = 880
Network latency average = 271.729
	minimum = 23
	maximum = 880
Slowest packet = 504
Flit latency average = 230.471
	minimum = 6
	maximum = 863
Slowest flit = 9089
Fragmentation average = 52.4272
	minimum = 0
	maximum = 134
Injected packet rate average = 0.0142135
	minimum = 0.005 (at node 76)
	maximum = 0.023 (at node 44)
Accepted packet rate average = 0.00922917
	minimum = 0.002 (at node 174)
	maximum = 0.018 (at node 44)
Injected flit rate average = 0.252193
	minimum = 0.089 (at node 76)
	maximum = 0.414 (at node 59)
Accepted flit rate average= 0.172849
	minimum = 0.036 (at node 174)
	maximum = 0.324 (at node 44)
Injected packet length average = 17.7431
Accepted packet length average = 18.7286
Total in-flight flits = 17879 (0 measured)
latency change    = 1
throughput change = 1
Class 0:
Packet latency average = 651.063
	minimum = 23
	maximum = 1795
Network latency average = 394.045
	minimum = 23
	maximum = 1691
Slowest packet = 944
Flit latency average = 341.431
	minimum = 6
	maximum = 1674
Slowest flit = 17009
Fragmentation average = 55.4587
	minimum = 0
	maximum = 146
Injected packet rate average = 0.0116615
	minimum = 0.0055 (at node 72)
	maximum = 0.0195 (at node 15)
Accepted packet rate average = 0.00914583
	minimum = 0.0045 (at node 30)
	maximum = 0.014 (at node 22)
Injected flit rate average = 0.20769
	minimum = 0.099 (at node 72)
	maximum = 0.344 (at node 15)
Accepted flit rate average= 0.167773
	minimum = 0.081 (at node 30)
	maximum = 0.2615 (at node 22)
Injected packet length average = 17.81
Accepted packet length average = 18.3442
Total in-flight flits = 17997 (0 measured)
latency change    = 0.508386
throughput change = 0.0302522
Class 0:
Packet latency average = 1670.21
	minimum = 678
	maximum = 2669
Network latency average = 541.372
	minimum = 24
	maximum = 2012
Slowest packet = 2848
Flit latency average = 476.907
	minimum = 6
	maximum = 1945
Slowest flit = 31175
Fragmentation average = 60.1661
	minimum = 0
	maximum = 133
Injected packet rate average = 0.00901563
	minimum = 0.001 (at node 151)
	maximum = 0.024 (at node 191)
Accepted packet rate average = 0.00909375
	minimum = 0.003 (at node 109)
	maximum = 0.017 (at node 63)
Injected flit rate average = 0.162766
	minimum = 0.008 (at node 178)
	maximum = 0.432 (at node 191)
Accepted flit rate average= 0.163333
	minimum = 0.057 (at node 109)
	maximum = 0.313 (at node 174)
Injected packet length average = 18.0537
Accepted packet length average = 17.9611
Total in-flight flits = 17867 (0 measured)
latency change    = 0.61019
throughput change = 0.0271843
Warmed up ...Time used is 3000 cycles
Class 0:
Packet latency average = 2411.17
	minimum = 1255
	maximum = 3339
Network latency average = 324.569
	minimum = 27
	maximum = 921
Slowest packet = 6430
Flit latency average = 493.67
	minimum = 6
	maximum = 2417
Slowest flit = 52829
Fragmentation average = 53.1773
	minimum = 0
	maximum = 132
Injected packet rate average = 0.00895833
	minimum = 0.001 (at node 5)
	maximum = 0.021 (at node 67)
Accepted packet rate average = 0.00895833
	minimum = 0 (at node 184)
	maximum = 0.018 (at node 34)
Injected flit rate average = 0.161052
	minimum = 0.018 (at node 5)
	maximum = 0.378 (at node 67)
Accepted flit rate average= 0.161839
	minimum = 0 (at node 184)
	maximum = 0.312 (at node 99)
Injected packet length average = 17.9779
Accepted packet length average = 18.0657
Total in-flight flits = 17610 (16227 measured)
latency change    = 0.307304
throughput change = 0.00923631
Class 0:
Packet latency average = 2834.3
	minimum = 1255
	maximum = 4206
Network latency average = 452.115
	minimum = 24
	maximum = 1734
Slowest packet = 6430
Flit latency average = 492.715
	minimum = 6
	maximum = 2482
Slowest flit = 98757
Fragmentation average = 55.48
	minimum = 0
	maximum = 132
Injected packet rate average = 0.00899479
	minimum = 0.003 (at node 5)
	maximum = 0.017 (at node 67)
Accepted packet rate average = 0.00901042
	minimum = 0.004 (at node 91)
	maximum = 0.0165 (at node 159)
Injected flit rate average = 0.162057
	minimum = 0.054 (at node 5)
	maximum = 0.3055 (at node 67)
Accepted flit rate average= 0.162333
	minimum = 0.078 (at node 91)
	maximum = 0.2865 (at node 159)
Injected packet length average = 18.0168
Accepted packet length average = 18.0162
Total in-flight flits = 17775 (17766 measured)
latency change    = 0.149289
throughput change = 0.003048
Class 0:
Packet latency average = 3206.26
	minimum = 1255
	maximum = 5005
Network latency average = 486.455
	minimum = 23
	maximum = 2196
Slowest packet = 6430
Flit latency average = 485.492
	minimum = 6
	maximum = 2508
Slowest flit = 98765
Fragmentation average = 56.1612
	minimum = 0
	maximum = 132
Injected packet rate average = 0.00909722
	minimum = 0.00366667 (at node 5)
	maximum = 0.0153333 (at node 4)
Accepted packet rate average = 0.00909028
	minimum = 0.00533333 (at node 17)
	maximum = 0.015 (at node 16)
Injected flit rate average = 0.163922
	minimum = 0.0646667 (at node 5)
	maximum = 0.276 (at node 67)
Accepted flit rate average= 0.163988
	minimum = 0.0926667 (at node 17)
	maximum = 0.274 (at node 16)
Injected packet length average = 18.0189
Accepted packet length average = 18.0399
Total in-flight flits = 17766 (17766 measured)
latency change    = 0.116012
throughput change = 0.0100892
Draining remaining packets ...
Time taken is 6953 cycles
====== Overall Traffic Statistics ======
====== Traffic class 0 ======
Packet latency average = 3436.1 (1 samples)
	minimum = 1255 (1 samples)
	maximum = 5430 (1 samples)
Network latency average = 521.891 (1 samples)
	minimum = 23 (1 samples)
	maximum = 2196 (1 samples)
Flit latency average = 505.149 (1 samples)
	minimum = 6 (1 samples)
	maximum = 2508 (1 samples)
Fragmentation average = 54.4109 (1 samples)
	minimum = 0 (1 samples)
	maximum = 132 (1 samples)
Injected packet rate average = 0.00909722 (1 samples)
	minimum = 0.00366667 (1 samples)
	maximum = 0.0153333 (1 samples)
Accepted packet rate average = 0.00909028 (1 samples)
	minimum = 0.00533333 (1 samples)
	maximum = 0.015 (1 samples)
Injected flit rate average = 0.163922 (1 samples)
	minimum = 0.0646667 (1 samples)
	maximum = 0.276 (1 samples)
Accepted flit rate average = 0.163988 (1 samples)
	minimum = 0.0926667 (1 samples)
	maximum = 0.274 (1 samples)
Injected packet size average = 18.0189 (1 samples)
Accepted packet size average = 18.0399 (1 samples)
Hops average = 5.05189 (1 samples)
Total run time 4.58264
