BEGIN Configuration File: networks/mezzanine_config
topology = mezzanine;
n = 12;

routing_function = multipath;
internal_speedup = 2.0;
latency_thres = 100000.0;
use_read_write = 0;

sample_period = 1000;
injection_rate = 0.5;
packet_size = 18;

noq = 1;
routing_delay = 0;
vc_alloc_delay = 1;
sw_alloc_delay = 1;
st_final_delay = 1;
vc_allocator = islip; 
sw_allocator = islip;
alloc_iters  = 4;
num_vcs     = 12;
buffer_policy = private; // private or shared
buf_size = -1; // -1 for buffer_policy = private;
vc_buf_size = 4096; // size of each VOQ with buffer_policy = private
output_buffer_size = -1;


traffic = uniform;

//mezW = 0.0;
//mezPredefinedPatternType = shift-inter; //shift-qfdb

END Configuration File: networks/mezzanine_config
OVERRIDE Parameter: injection_rate=0.013537
OVERRIDE Parameter: routing_function=min
OVERRIDE Parameter: num_vcs=64
OVERRIDE Parameter: vc_buf_size=18
OVERRIDE Parameter: internal_speedup=1.0
OVERRIDE Parameter: injection_process=bernoulli
OVERRIDE Parameter: sim_type=throughput
OVERRIDE Parameter: burst_alpha=0.0038461538
OVERRIDE Parameter: burst_beta=0.1
network: network_0
========================== Routing table  =====================
Number of Subnets: 1
Class 0:
Packet latency average = 188.709
	minimum = 23
	maximum = 790
Network latency average = 186.375
	minimum = 23
	maximum = 790
Slowest packet = 103
Flit latency average = 116.701
	minimum = 6
	maximum = 782
Slowest flit = 8924
Fragmentation average = 116.753
	minimum = 0
	maximum = 703
Injected packet rate average = 0.0136042
	minimum = 0.003 (at node 87)
	maximum = 0.023 (at node 25)
Accepted packet rate average = 0.00895313
	minimum = 0.002 (at node 41)
	maximum = 0.017 (at node 124)
Injected flit rate average = 0.24225
	minimum = 0.054 (at node 87)
	maximum = 0.4 (at node 25)
Accepted flit rate average= 0.181021
	minimum = 0.051 (at node 174)
	maximum = 0.315 (at node 48)
Injected packet length average = 17.807
Accepted packet length average = 20.2187
Total in-flight flits = 12260 (0 measured)
latency change    = 1
throughput change = 1
Class 0:
Packet latency average = 273.714
	minimum = 23
	maximum = 1619
Network latency average = 270.69
	minimum = 23
	maximum = 1619
Slowest packet = 419
Flit latency average = 186.594
	minimum = 6
	maximum = 1669
Slowest flit = 14395
Fragmentation average = 156.869
	minimum = 0
	maximum = 1463
Injected packet rate average = 0.0132604
	minimum = 0.0065 (at node 3)
	maximum = 0.0205 (at node 47)
Accepted packet rate average = 0.0100313
	minimum = 0.0055 (at node 62)
	maximum = 0.016 (at node 22)
Injected flit rate average = 0.237792
	minimum = 0.117 (at node 3)
	maximum = 0.369 (at node 47)
Accepted flit rate average= 0.192927
	minimum = 0.108 (at node 30)
	maximum = 0.302 (at node 22)
Injected packet length average = 17.9324
Accepted packet length average = 19.2326
Total in-flight flits = 17626 (0 measured)
latency change    = 0.31056
throughput change = 0.0617137
Class 0:
Packet latency average = 480.113
	minimum = 25
	maximum = 2442
Network latency average = 464.29
	minimum = 25
	maximum = 2416
Slowest packet = 1007
Flit latency average = 351.782
	minimum = 6
	maximum = 2573
Slowest flit = 10413
Fragmentation average = 227.268
	minimum = 0
	maximum = 2151
Injected packet rate average = 0.0129115
	minimum = 0 (at node 56)
	maximum = 0.034 (at node 45)
Accepted packet rate average = 0.0115104
	minimum = 0.005 (at node 104)
	maximum = 0.021 (at node 16)
Injected flit rate average = 0.232099
	minimum = 0 (at node 56)
	maximum = 0.615 (at node 45)
Accepted flit rate average= 0.210823
	minimum = 0.075 (at node 184)
	maximum = 0.379 (at node 16)
Injected packet length average = 17.9762
Accepted packet length average = 18.3158
Total in-flight flits = 21824 (0 measured)
latency change    = 0.429897
throughput change = 0.0848856
Warmed up ...Time used is 3000 cycles
Class 0:
Packet latency average = 320.289
	minimum = 25
	maximum = 1787
Network latency average = 278.389
	minimum = 25
	maximum = 923
Slowest packet = 7583
Flit latency average = 421.034
	minimum = 6
	maximum = 3415
Slowest flit = 22211
Fragmentation average = 161.574
	minimum = 0
	maximum = 832
Injected packet rate average = 0.0128177
	minimum = 0 (at node 9)
	maximum = 0.026 (at node 127)
Accepted packet rate average = 0.0115469
	minimum = 0.001 (at node 134)
	maximum = 0.022 (at node 33)
Injected flit rate average = 0.229557
	minimum = 0 (at node 9)
	maximum = 0.469 (at node 127)
Accepted flit rate average= 0.209063
	minimum = 0.048 (at node 134)
	maximum = 0.411 (at node 33)
Injected packet length average = 17.9094
Accepted packet length average = 18.1055
Total in-flight flits = 25964 (18426 measured)
latency change    = 0.498997
throughput change = 0.00842053
Class 0:
Packet latency average = 442.841
	minimum = 23
	maximum = 2571
Network latency average = 379.127
	minimum = 23
	maximum = 1831
Slowest packet = 7583
Flit latency average = 458.53
	minimum = 6
	maximum = 4375
Slowest flit = 10421
Fragmentation average = 188.483
	minimum = 0
	maximum = 1684
Injected packet rate average = 0.0124089
	minimum = 0 (at node 9)
	maximum = 0.0255 (at node 56)
Accepted packet rate average = 0.011625
	minimum = 0.0055 (at node 48)
	maximum = 0.02 (at node 78)
Injected flit rate average = 0.22243
	minimum = 0 (at node 9)
	maximum = 0.46 (at node 56)
Accepted flit rate average= 0.210161
	minimum = 0.0965 (at node 162)
	maximum = 0.355 (at node 78)
Injected packet length average = 17.9251
Accepted packet length average = 18.0784
Total in-flight flits = 26874 (22676 measured)
latency change    = 0.276739
throughput change = 0.00522911
Class 0:
Packet latency average = 547.343
	minimum = 23
	maximum = 4291
Network latency average = 449.497
	minimum = 23
	maximum = 2962
Slowest packet = 7583
Flit latency average = 487.21
	minimum = 6
	maximum = 5145
Slowest flit = 38980
Fragmentation average = 205.085
	minimum = 0
	maximum = 2364
Injected packet rate average = 0.0123785
	minimum = 0 (at node 140)
	maximum = 0.0206667 (at node 56)
Accepted packet rate average = 0.0115764
	minimum = 0.00733333 (at node 48)
	maximum = 0.017 (at node 129)
Injected flit rate average = 0.222123
	minimum = 0.000666667 (at node 108)
	maximum = 0.371 (at node 56)
Accepted flit rate average= 0.209257
	minimum = 0.130667 (at node 31)
	maximum = 0.312 (at node 129)
Injected packet length average = 17.9443
Accepted packet length average = 18.0762
Total in-flight flits = 29578 (26935 measured)
latency change    = 0.190927
throughput change = 0.0043225
Draining remaining packets ...
Class 0:
Remaining flits: 22381 22382 22383 22384 22385 22386 22387 22388 22389 22390 [...] (1789 flits)
Measured flits: 137394 137395 137396 137397 137398 137399 137400 137401 137402 137403 [...] (1510 flits)
Time taken is 7274 cycles
====== Overall Traffic Statistics ======
====== Traffic class 0 ======
Packet latency average = 781.977 (1 samples)
	minimum = 23 (1 samples)
	maximum = 4863 (1 samples)
Network latency average = 656.736 (1 samples)
	minimum = 23 (1 samples)
	maximum = 4226 (1 samples)
Flit latency average = 688.458 (1 samples)
	minimum = 6 (1 samples)
	maximum = 6715 (1 samples)
Fragmentation average = 213.816 (1 samples)
	minimum = 0 (1 samples)
	maximum = 2500 (1 samples)
Injected packet rate average = 0.0123785 (1 samples)
	minimum = 0 (1 samples)
	maximum = 0.0206667 (1 samples)
Accepted packet rate average = 0.0115764 (1 samples)
	minimum = 0.00733333 (1 samples)
	maximum = 0.017 (1 samples)
Injected flit rate average = 0.222123 (1 samples)
	minimum = 0.000666667 (1 samples)
	maximum = 0.371 (1 samples)
Accepted flit rate average = 0.209257 (1 samples)
	minimum = 0.130667 (1 samples)
	maximum = 0.312 (1 samples)
Injected packet size average = 17.9443 (1 samples)
Accepted packet size average = 18.0762 (1 samples)
Hops average = 5.09625 (1 samples)
Total run time 7.5063
