BEGIN Configuration File: networks/mezzanine_config
topology = mezzanine;
n = 12;

routing_function = multipath;
internal_speedup = 2.0;
latency_thres = 100000.0;
use_read_write = 0;

sample_period = 1000;
injection_rate = 0.5;
packet_size = 18;

noq = 1;
routing_delay = 0;
vc_alloc_delay = 1;
sw_alloc_delay = 1;
st_final_delay = 1;
vc_allocator = islip; 
sw_allocator = islip;
alloc_iters  = 4;
num_vcs     = 12;
buffer_policy = private; // private or shared
buf_size = -1; // -1 for buffer_policy = private;
vc_buf_size = 4096; // size of each VOQ with buffer_policy = private
output_buffer_size = -1;


traffic = uniform;

//mezW = 0.0;
//mezPredefinedPatternType = shift-inter; //shift-qfdb

END Configuration File: networks/mezzanine_config
OVERRIDE Parameter: injection_rate=0.015747
OVERRIDE Parameter: routing_function=min
OVERRIDE Parameter: num_vcs=12
OVERRIDE Parameter: vc_buf_size=144
OVERRIDE Parameter: internal_speedup=2.0
OVERRIDE Parameter: injection_process=bernoulli
OVERRIDE Parameter: sim_type=throughput
OVERRIDE Parameter: burst_alpha=0.0038461538
OVERRIDE Parameter: burst_beta=0.1
network: network_0
========================== Routing table  =====================
Number of Subnets: 1
Class 0:
Packet latency average = 136.612
	minimum = 22
	maximum = 466
Network latency average = 133.499
	minimum = 22
	maximum = 466
Slowest packet = 1379
Flit latency average = 109.164
	minimum = 5
	maximum = 449
Slowest flit = 24839
Fragmentation average = 16.5219
	minimum = 0
	maximum = 98
Injected packet rate average = 0.0158542
	minimum = 0.008 (at node 65)
	maximum = 0.027 (at node 14)
Accepted packet rate average = 0.0126146
	minimum = 0.003 (at node 174)
	maximum = 0.022 (at node 44)
Injected flit rate average = 0.282297
	minimum = 0.144 (at node 65)
	maximum = 0.486 (at node 14)
Accepted flit rate average= 0.232536
	minimum = 0.064 (at node 174)
	maximum = 0.399 (at node 132)
Injected packet length average = 17.8058
Accepted packet length average = 18.4339
Total in-flight flits = 10145 (0 measured)
latency change    = 1
throughput change = 1
Class 0:
Packet latency average = 190.865
	minimum = 22
	maximum = 677
Network latency average = 187.628
	minimum = 22
	maximum = 677
Slowest packet = 2722
Flit latency average = 162.309
	minimum = 5
	maximum = 660
Slowest flit = 49013
Fragmentation average = 16.8497
	minimum = 0
	maximum = 98
Injected packet rate average = 0.0156458
	minimum = 0.009 (at node 164)
	maximum = 0.0235 (at node 44)
Accepted packet rate average = 0.0135521
	minimum = 0.0075 (at node 153)
	maximum = 0.0195 (at node 22)
Injected flit rate average = 0.280391
	minimum = 0.162 (at node 164)
	maximum = 0.423 (at node 44)
Accepted flit rate average= 0.246331
	minimum = 0.135 (at node 153)
	maximum = 0.351 (at node 22)
Injected packet length average = 17.9211
Accepted packet length average = 18.1766
Total in-flight flits = 13553 (0 measured)
latency change    = 0.284247
throughput change = 0.055999
Class 0:
Packet latency average = 298.761
	minimum = 22
	maximum = 888
Network latency average = 295.599
	minimum = 22
	maximum = 888
Slowest packet = 5277
Flit latency average = 270.801
	minimum = 5
	maximum = 871
Slowest flit = 95003
Fragmentation average = 16.5678
	minimum = 0
	maximum = 88
Injected packet rate average = 0.0156458
	minimum = 0.005 (at node 67)
	maximum = 0.028 (at node 35)
Accepted packet rate average = 0.0146406
	minimum = 0.006 (at node 61)
	maximum = 0.028 (at node 34)
Injected flit rate average = 0.281401
	minimum = 0.101 (at node 67)
	maximum = 0.504 (at node 35)
Accepted flit rate average= 0.263625
	minimum = 0.097 (at node 91)
	maximum = 0.504 (at node 34)
Injected packet length average = 17.9857
Accepted packet length average = 18.0064
Total in-flight flits = 17009 (0 measured)
latency change    = 0.361146
throughput change = 0.0656018
Warmed up ...Time used is 3000 cycles
Class 0:
Packet latency average = 323.571
	minimum = 22
	maximum = 912
Network latency average = 319.937
	minimum = 22
	maximum = 895
Slowest packet = 9042
Flit latency average = 337.809
	minimum = 5
	maximum = 886
Slowest flit = 160109
Fragmentation average = 16.4943
	minimum = 0
	maximum = 82
Injected packet rate average = 0.016276
	minimum = 0.008 (at node 154)
	maximum = 0.027 (at node 155)
Accepted packet rate average = 0.0148125
	minimum = 0.005 (at node 48)
	maximum = 0.026 (at node 123)
Injected flit rate average = 0.292349
	minimum = 0.144 (at node 154)
	maximum = 0.486 (at node 155)
Accepted flit rate average= 0.266479
	minimum = 0.09 (at node 48)
	maximum = 0.468 (at node 123)
Injected packet length average = 17.9619
Accepted packet length average = 17.9902
Total in-flight flits = 22095 (22095 measured)
latency change    = 0.0766759
throughput change = 0.0107107
Class 0:
Packet latency average = 392.55
	minimum = 22
	maximum = 1202
Network latency average = 389.026
	minimum = 22
	maximum = 1202
Slowest packet = 11165
Flit latency average = 373.254
	minimum = 5
	maximum = 1185
Slowest flit = 200970
Fragmentation average = 16.9792
	minimum = 0
	maximum = 84
Injected packet rate average = 0.0159089
	minimum = 0.008 (at node 154)
	maximum = 0.023 (at node 150)
Accepted packet rate average = 0.0148464
	minimum = 0.009 (at node 86)
	maximum = 0.023 (at node 0)
Injected flit rate average = 0.286482
	minimum = 0.144 (at node 154)
	maximum = 0.414 (at node 150)
Accepted flit rate average= 0.266633
	minimum = 0.165 (at node 86)
	maximum = 0.418 (at node 129)
Injected packet length average = 18.0077
Accepted packet length average = 17.9595
Total in-flight flits = 24584 (24584 measured)
latency change    = 0.175721
throughput change = 0.000576245
Class 0:
Packet latency average = 431.616
	minimum = 22
	maximum = 1358
Network latency average = 428.161
	minimum = 22
	maximum = 1358
Slowest packet = 13826
Flit latency average = 404.821
	minimum = 5
	maximum = 1384
Slowest flit = 251704
Fragmentation average = 16.8289
	minimum = 0
	maximum = 87
Injected packet rate average = 0.0158767
	minimum = 0.00966667 (at node 118)
	maximum = 0.0243333 (at node 3)
Accepted packet rate average = 0.0148229
	minimum = 0.00866667 (at node 36)
	maximum = 0.0206667 (at node 128)
Injected flit rate average = 0.285889
	minimum = 0.172667 (at node 118)
	maximum = 0.438 (at node 3)
Accepted flit rate average= 0.26679
	minimum = 0.156 (at node 36)
	maximum = 0.372 (at node 128)
Injected packet length average = 18.0068
Accepted packet length average = 17.9985
Total in-flight flits = 27948 (27948 measured)
latency change    = 0.0905112
throughput change = 0.00058892
Draining remaining packets ...
Time taken is 6978 cycles
====== Overall Traffic Statistics ======
====== Traffic class 0 ======
Packet latency average = 473.631 (1 samples)
	minimum = 22 (1 samples)
	maximum = 1445 (1 samples)
Network latency average = 470.194 (1 samples)
	minimum = 22 (1 samples)
	maximum = 1445 (1 samples)
Flit latency average = 441.934 (1 samples)
	minimum = 5 (1 samples)
	maximum = 1428 (1 samples)
Fragmentation average = 16.6401 (1 samples)
	minimum = 0 (1 samples)
	maximum = 91 (1 samples)
Injected packet rate average = 0.0158767 (1 samples)
	minimum = 0.00966667 (1 samples)
	maximum = 0.0243333 (1 samples)
Accepted packet rate average = 0.0148229 (1 samples)
	minimum = 0.00866667 (1 samples)
	maximum = 0.0206667 (1 samples)
Injected flit rate average = 0.285889 (1 samples)
	minimum = 0.172667 (1 samples)
	maximum = 0.438 (1 samples)
Accepted flit rate average = 0.26679 (1 samples)
	minimum = 0.156 (1 samples)
	maximum = 0.372 (1 samples)
Injected packet size average = 18.0068 (1 samples)
Accepted packet size average = 17.9985 (1 samples)
Hops average = 5.06802 (1 samples)
Total run time 5.53757
