BEGIN Configuration File: networks/mezzanine_config
topology = mezzanine;
n = 12;

routing_function = multipath;
internal_speedup = 2.0;
latency_thres = 100000.0;
use_read_write = 0;

sample_period = 1000;
injection_rate = 0.5;
packet_size = 18;

noq = 1;
routing_delay = 0;
vc_alloc_delay = 1;
sw_alloc_delay = 1;
st_final_delay = 1;
vc_allocator = islip; 
sw_allocator = islip;
alloc_iters  = 4;
num_vcs     = 12;
buffer_policy = private; // private or shared
buf_size = -1; // -1 for buffer_policy = private;
vc_buf_size = 4096; // size of each VOQ with buffer_policy = private
output_buffer_size = -1;


traffic = uniform;

//mezW = 0.0;
//mezPredefinedPatternType = shift-inter; //shift-qfdb

END Configuration File: networks/mezzanine_config
OVERRIDE Parameter: injection_rate=0.042267
OVERRIDE Parameter: routing_function=multipath
OVERRIDE Parameter: num_vcs=12
OVERRIDE Parameter: vc_buf_size=18
OVERRIDE Parameter: internal_speedup=1.0
OVERRIDE Parameter: injection_process=bernoulli
OVERRIDE Parameter: sim_type=throughput
OVERRIDE Parameter: burst_alpha=0.0038461538
OVERRIDE Parameter: burst_beta=0.1
network: network_0
========================== Routing table  =====================
Number of Subnets: 1
Class 0:
Packet latency average = 379.189
	minimum = 23
	maximum = 931
Network latency average = 302.617
	minimum = 23
	maximum = 916
Slowest packet = 438
Flit latency average = 258.045
	minimum = 6
	maximum = 921
Slowest flit = 7374
Fragmentation average = 55.4126
	minimum = 0
	maximum = 146
Injected packet rate average = 0.0139323
	minimum = 0.004 (at node 24)
	maximum = 0.023 (at node 87)
Accepted packet rate average = 0.0089375
	minimum = 0.001 (at node 41)
	maximum = 0.018 (at node 76)
Injected flit rate average = 0.246745
	minimum = 0.072 (at node 24)
	maximum = 0.414 (at node 87)
Accepted flit rate average= 0.167375
	minimum = 0.018 (at node 41)
	maximum = 0.332 (at node 76)
Injected packet length average = 17.7103
Accepted packet length average = 18.7273
Total in-flight flits = 17850 (0 measured)
latency change    = 1
throughput change = 1
Class 0:
Packet latency average = 756.399
	minimum = 23
	maximum = 1883
Network latency average = 410.633
	minimum = 23
	maximum = 1678
Slowest packet = 767
Flit latency average = 357.919
	minimum = 6
	maximum = 1884
Slowest flit = 11302
Fragmentation average = 57.7891
	minimum = 0
	maximum = 146
Injected packet rate average = 0.0114896
	minimum = 0.005 (at node 8)
	maximum = 0.019 (at node 103)
Accepted packet rate average = 0.0090026
	minimum = 0.005 (at node 79)
	maximum = 0.0145 (at node 22)
Injected flit rate average = 0.205063
	minimum = 0.09 (at node 8)
	maximum = 0.336 (at node 103)
Accepted flit rate average= 0.165456
	minimum = 0.09 (at node 79)
	maximum = 0.267 (at node 44)
Injected packet length average = 17.8477
Accepted packet length average = 18.3787
Total in-flight flits = 17951 (0 measured)
latency change    = 0.498692
throughput change = 0.0115999
Class 0:
Packet latency average = 1931.03
	minimum = 907
	maximum = 2775
Network latency average = 564.875
	minimum = 23
	maximum = 2697
Slowest packet = 934
Flit latency average = 498.919
	minimum = 6
	maximum = 2663
Slowest flit = 16829
Fragmentation average = 58.6655
	minimum = 0
	maximum = 124
Injected packet rate average = 0.00876042
	minimum = 0 (at node 0)
	maximum = 0.019 (at node 109)
Accepted packet rate average = 0.00878125
	minimum = 0.001 (at node 121)
	maximum = 0.015 (at node 71)
Injected flit rate average = 0.15799
	minimum = 0 (at node 0)
	maximum = 0.345 (at node 116)
Accepted flit rate average= 0.158714
	minimum = 0.024 (at node 153)
	maximum = 0.295 (at node 98)
Injected packet length average = 18.0345
Accepted packet length average = 18.0741
Total in-flight flits = 17718 (0 measured)
latency change    = 0.608292
throughput change = 0.0424802
Warmed up ...Time used is 3000 cycles
Class 0:
Packet latency average = 2795.54
	minimum = 1747
	maximum = 3587
Network latency average = 330.994
	minimum = 23
	maximum = 929
Slowest packet = 6242
Flit latency average = 475.61
	minimum = 6
	maximum = 3081
Slowest flit = 43847
Fragmentation average = 51.8621
	minimum = 0
	maximum = 129
Injected packet rate average = 0.00924479
	minimum = 0 (at node 144)
	maximum = 0.023 (at node 7)
Accepted packet rate average = 0.00932292
	minimum = 0.003 (at node 18)
	maximum = 0.018 (at node 16)
Injected flit rate average = 0.165635
	minimum = 0 (at node 144)
	maximum = 0.417 (at node 7)
Accepted flit rate average= 0.166969
	minimum = 0.04 (at node 91)
	maximum = 0.317 (at node 16)
Injected packet length average = 17.9166
Accepted packet length average = 17.9095
Total in-flight flits = 17394 (16062 measured)
latency change    = 0.309248
throughput change = 0.0494416
Class 0:
Packet latency average = 3276.74
	minimum = 1747
	maximum = 4423
Network latency average = 431.908
	minimum = 23
	maximum = 1708
Slowest packet = 6242
Flit latency average = 469.945
	minimum = 6
	maximum = 3240
Slowest flit = 44549
Fragmentation average = 55.4822
	minimum = 0
	maximum = 141
Injected packet rate average = 0.00929427
	minimum = 0.001 (at node 144)
	maximum = 0.019 (at node 66)
Accepted packet rate average = 0.00926823
	minimum = 0.0045 (at node 113)
	maximum = 0.0165 (at node 34)
Injected flit rate average = 0.167078
	minimum = 0.018 (at node 144)
	maximum = 0.3445 (at node 66)
Accepted flit rate average= 0.16663
	minimum = 0.079 (at node 113)
	maximum = 0.2945 (at node 34)
Injected packet length average = 17.9765
Accepted packet length average = 17.9786
Total in-flight flits = 17794 (17760 measured)
latency change    = 0.146853
throughput change = 0.00203169
Class 0:
Packet latency average = 3694.43
	minimum = 1747
	maximum = 5287
Network latency average = 480.17
	minimum = 23
	maximum = 2345
Slowest packet = 6242
Flit latency average = 476.125
	minimum = 6
	maximum = 3240
Slowest flit = 44549
Fragmentation average = 56.9504
	minimum = 0
	maximum = 159
Injected packet rate average = 0.00918576
	minimum = 0.00366667 (at node 149)
	maximum = 0.0183333 (at node 7)
Accepted packet rate average = 0.00920139
	minimum = 0.00533333 (at node 1)
	maximum = 0.015 (at node 16)
Injected flit rate average = 0.16504
	minimum = 0.0606667 (at node 149)
	maximum = 0.328 (at node 7)
Accepted flit rate average= 0.165
	minimum = 0.0913333 (at node 36)
	maximum = 0.272667 (at node 16)
Injected packet length average = 17.9669
Accepted packet length average = 17.9321
Total in-flight flits = 17808 (17808 measured)
latency change    = 0.11306
throughput change = 0.00988005
Draining remaining packets ...
Time taken is 6835 cycles
====== Overall Traffic Statistics ======
====== Traffic class 0 ======
Packet latency average = 3948.89 (1 samples)
	minimum = 1747 (1 samples)
	maximum = 5934 (1 samples)
Network latency average = 519.132 (1 samples)
	minimum = 23 (1 samples)
	maximum = 2382 (1 samples)
Flit latency average = 499.284 (1 samples)
	minimum = 6 (1 samples)
	maximum = 3240 (1 samples)
Fragmentation average = 55.5217 (1 samples)
	minimum = 0 (1 samples)
	maximum = 159 (1 samples)
Injected packet rate average = 0.00918576 (1 samples)
	minimum = 0.00366667 (1 samples)
	maximum = 0.0183333 (1 samples)
Accepted packet rate average = 0.00920139 (1 samples)
	minimum = 0.00533333 (1 samples)
	maximum = 0.015 (1 samples)
Injected flit rate average = 0.16504 (1 samples)
	minimum = 0.0606667 (1 samples)
	maximum = 0.328 (1 samples)
Accepted flit rate average = 0.165 (1 samples)
	minimum = 0.0913333 (1 samples)
	maximum = 0.272667 (1 samples)
Injected packet size average = 17.9669 (1 samples)
Accepted packet size average = 17.9321 (1 samples)
Hops average = 5.05733 (1 samples)
Total run time 4.68974
