BEGIN Configuration File: networks/mezzanine_config
topology = mezzanine;
n = 12;

routing_function = multipath;
internal_speedup = 2.0;
latency_thres = 100000.0;
use_read_write = 0;

sample_period = 1000;
injection_rate = 0.5;
packet_size = 18;

noq = 1;
routing_delay = 0;
vc_alloc_delay = 1;
sw_alloc_delay = 1;
st_final_delay = 1;
vc_allocator = islip; 
sw_allocator = islip;
alloc_iters  = 4;
num_vcs     = 12;
buffer_policy = private; // private or shared
buf_size = -1; // -1 for buffer_policy = private;
vc_buf_size = 4096; // size of each VOQ with buffer_policy = private
output_buffer_size = -1;


traffic = uniform;

//mezW = 0.0;
//mezPredefinedPatternType = shift-inter; //shift-qfdb

END Configuration File: networks/mezzanine_config
OVERRIDE Parameter: injection_rate=0.011327
OVERRIDE Parameter: routing_function=multipath
OVERRIDE Parameter: num_vcs=64
OVERRIDE Parameter: vc_buf_size=18
OVERRIDE Parameter: internal_speedup=1.0
OVERRIDE Parameter: injection_process=bernoulli
OVERRIDE Parameter: sim_type=throughput
OVERRIDE Parameter: burst_alpha=0.0038461538
OVERRIDE Parameter: burst_beta=0.1
network: network_0
========================== Routing table  =====================
Number of Subnets: 1
Class 0:
Packet latency average = 156.667
	minimum = 23
	maximum = 843
Network latency average = 154.661
	minimum = 23
	maximum = 843
Slowest packet = 157
Flit latency average = 93.7277
	minimum = 6
	maximum = 949
Slowest flit = 1247
Fragmentation average = 94.8754
	minimum = 0
	maximum = 648
Injected packet rate average = 0.0112344
	minimum = 0.003 (at node 14)
	maximum = 0.022 (at node 115)
Accepted packet rate average = 0.00835938
	minimum = 0.002 (at node 41)
	maximum = 0.016 (at node 132)
Injected flit rate average = 0.19987
	minimum = 0.054 (at node 14)
	maximum = 0.391 (at node 115)
Accepted flit rate average= 0.164766
	minimum = 0.036 (at node 174)
	maximum = 0.312 (at node 140)
Injected packet length average = 17.7909
Accepted packet length average = 19.7103
Total in-flight flits = 7191 (0 measured)
latency change    = 1
throughput change = 1
Class 0:
Packet latency average = 217.252
	minimum = 23
	maximum = 1750
Network latency average = 213.854
	minimum = 23
	maximum = 1737
Slowest packet = 396
Flit latency average = 139.425
	minimum = 6
	maximum = 1720
Slowest flit = 7145
Fragmentation average = 125.529
	minimum = 0
	maximum = 1064
Injected packet rate average = 0.0110625
	minimum = 0.005 (at node 177)
	maximum = 0.0205 (at node 137)
Accepted packet rate average = 0.0092474
	minimum = 0.0055 (at node 30)
	maximum = 0.0165 (at node 22)
Injected flit rate average = 0.198203
	minimum = 0.09 (at node 177)
	maximum = 0.361 (at node 137)
Accepted flit rate average= 0.175349
	minimum = 0.099 (at node 30)
	maximum = 0.3015 (at node 22)
Injected packet length average = 17.9167
Accepted packet length average = 18.962
Total in-flight flits = 9130 (0 measured)
latency change    = 0.278868
throughput change = 0.0603558
Class 0:
Packet latency average = 337.734
	minimum = 23
	maximum = 2233
Network latency average = 332.432
	minimum = 23
	maximum = 2233
Slowest packet = 1331
Flit latency average = 230.931
	minimum = 6
	maximum = 2604
Slowest flit = 11103
Fragmentation average = 177.038
	minimum = 0
	maximum = 1702
Injected packet rate average = 0.0111927
	minimum = 0.003 (at node 158)
	maximum = 0.022 (at node 181)
Accepted packet rate average = 0.0103073
	minimum = 0.003 (at node 96)
	maximum = 0.02 (at node 97)
Injected flit rate average = 0.201646
	minimum = 0.054 (at node 158)
	maximum = 0.408 (at node 181)
Accepted flit rate average= 0.187448
	minimum = 0.065 (at node 9)
	maximum = 0.339 (at node 97)
Injected packet length average = 18.0158
Accepted packet length average = 18.186
Total in-flight flits = 11822 (0 measured)
latency change    = 0.356737
throughput change = 0.0645457
Warmed up ...Time used is 3000 cycles
Class 0:
Packet latency average = 264.246
	minimum = 23
	maximum = 1220
Network latency average = 250.665
	minimum = 23
	maximum = 855
Slowest packet = 6400
Flit latency average = 283.866
	minimum = 6
	maximum = 3555
Slowest flit = 11105
Fragmentation average = 152.475
	minimum = 0
	maximum = 740
Injected packet rate average = 0.0115677
	minimum = 0 (at node 138)
	maximum = 0.022 (at node 31)
Accepted packet rate average = 0.0106458
	minimum = 0.001 (at node 163)
	maximum = 0.022 (at node 16)
Injected flit rate average = 0.207698
	minimum = 0 (at node 138)
	maximum = 0.402 (at node 31)
Accepted flit rate average= 0.193469
	minimum = 0.035 (at node 163)
	maximum = 0.384 (at node 34)
Injected packet length average = 17.955
Accepted packet length average = 18.1732
Total in-flight flits = 14708 (12419 measured)
latency change    = 0.278101
throughput change = 0.0311204
Class 0:
Packet latency average = 334.656
	minimum = 23
	maximum = 1931
Network latency average = 321.587
	minimum = 23
	maximum = 1931
Slowest packet = 6490
Flit latency average = 305.302
	minimum = 6
	maximum = 4346
Slowest flit = 23273
Fragmentation average = 172.802
	minimum = 0
	maximum = 1419
Injected packet rate average = 0.0112422
	minimum = 0.001 (at node 138)
	maximum = 0.0175 (at node 22)
Accepted packet rate average = 0.0107318
	minimum = 0.005 (at node 17)
	maximum = 0.0185 (at node 16)
Injected flit rate average = 0.202271
	minimum = 0.015 (at node 138)
	maximum = 0.321 (at node 22)
Accepted flit rate average= 0.194297
	minimum = 0.0965 (at node 17)
	maximum = 0.3255 (at node 16)
Injected packet length average = 17.9921
Accepted packet length average = 18.1048
Total in-flight flits = 14954 (13792 measured)
latency change    = 0.210395
throughput change = 0.00426216
Class 0:
Packet latency average = 389.534
	minimum = 23
	maximum = 2935
Network latency average = 363.562
	minimum = 23
	maximum = 2935
Slowest packet = 6492
Flit latency average = 324.555
	minimum = 6
	maximum = 4902
Slowest flit = 31697
Fragmentation average = 184.581
	minimum = 0
	maximum = 1896
Injected packet rate average = 0.011283
	minimum = 0.00533333 (at node 64)
	maximum = 0.0156667 (at node 49)
Accepted packet rate average = 0.010717
	minimum = 0.00533333 (at node 4)
	maximum = 0.017 (at node 16)
Injected flit rate average = 0.202743
	minimum = 0.097 (at node 64)
	maximum = 0.278333 (at node 34)
Accepted flit rate average= 0.195002
	minimum = 0.0966667 (at node 4)
	maximum = 0.299667 (at node 16)
Injected packet length average = 17.9689
Accepted packet length average = 18.1955
Total in-flight flits = 16501 (15934 measured)
latency change    = 0.14088
throughput change = 0.00361464
Draining remaining packets ...
Time taken is 6746 cycles
====== Overall Traffic Statistics ======
====== Traffic class 0 ======
Packet latency average = 482.384 (1 samples)
	minimum = 23 (1 samples)
	maximum = 3577 (1 samples)
Network latency average = 452.579 (1 samples)
	minimum = 23 (1 samples)
	maximum = 3554 (1 samples)
Flit latency average = 404.519 (1 samples)
	minimum = 6 (1 samples)
	maximum = 5580 (1 samples)
Fragmentation average = 190.114 (1 samples)
	minimum = 0 (1 samples)
	maximum = 2325 (1 samples)
Injected packet rate average = 0.011283 (1 samples)
	minimum = 0.00533333 (1 samples)
	maximum = 0.0156667 (1 samples)
Accepted packet rate average = 0.010717 (1 samples)
	minimum = 0.00533333 (1 samples)
	maximum = 0.017 (1 samples)
Injected flit rate average = 0.202743 (1 samples)
	minimum = 0.097 (1 samples)
	maximum = 0.278333 (1 samples)
Accepted flit rate average = 0.195002 (1 samples)
	minimum = 0.0966667 (1 samples)
	maximum = 0.299667 (1 samples)
Injected packet size average = 17.9689 (1 samples)
Accepted packet size average = 18.1955 (1 samples)
Hops average = 5.06169 (1 samples)
Total run time 6.06968
