BEGIN Configuration File: networks/mezzanine_config
topology = mezzanine;
n = 12;

routing_function = multipath;
internal_speedup = 2.0;
latency_thres = 100000.0;
use_read_write = 0;

sample_period = 1000;
injection_rate = 0.5;
packet_size = 18;

noq = 1;
routing_delay = 0;
vc_alloc_delay = 1;
sw_alloc_delay = 1;
st_final_delay = 1;
vc_allocator = islip; 
sw_allocator = islip;
alloc_iters  = 4;
num_vcs     = 12;
buffer_policy = private; // private or shared
buf_size = -1; // -1 for buffer_policy = private;
vc_buf_size = 4096; // size of each VOQ with buffer_policy = private
output_buffer_size = -1;


traffic = uniform;

//mezW = 0.0;
//mezPredefinedPatternType = shift-inter; //shift-qfdb

END Configuration File: networks/mezzanine_config
OVERRIDE Parameter: injection_rate=0.055527
OVERRIDE Parameter: routing_function=multipath
OVERRIDE Parameter: num_vcs=12
OVERRIDE Parameter: vc_buf_size=18
OVERRIDE Parameter: internal_speedup=2.0
OVERRIDE Parameter: injection_process=bernoulli
OVERRIDE Parameter: sim_type=throughput
OVERRIDE Parameter: burst_alpha=0.0038461538
OVERRIDE Parameter: burst_beta=0.1
network: network_0
========================== Routing table  =====================
Number of Subnets: 1
Class 0:
Packet latency average = 375.253
	minimum = 22
	maximum = 911
Network latency average = 254.937
	minimum = 22
	maximum = 839
Slowest packet = 756
Flit latency average = 224.841
	minimum = 5
	maximum = 858
Slowest flit = 18549
Fragmentation average = 22.4974
	minimum = 0
	maximum = 113
Injected packet rate average = 0.019026
	minimum = 0.009 (at node 24)
	maximum = 0.03 (at node 31)
Accepted packet rate average = 0.0139583
	minimum = 0.003 (at node 174)
	maximum = 0.023 (at node 44)
Injected flit rate average = 0.339068
	minimum = 0.162 (at node 24)
	maximum = 0.523 (at node 31)
Accepted flit rate average= 0.255911
	minimum = 0.062 (at node 174)
	maximum = 0.43 (at node 44)
Injected packet length average = 17.8212
Accepted packet length average = 18.334
Total in-flight flits = 18671 (0 measured)
latency change    = 1
throughput change = 1
Class 0:
Packet latency average = 735.924
	minimum = 22
	maximum = 1830
Network latency average = 308.526
	minimum = 22
	maximum = 1471
Slowest packet = 883
Flit latency average = 274.98
	minimum = 5
	maximum = 1454
Slowest flit = 37637
Fragmentation average = 22.2712
	minimum = 0
	maximum = 113
Injected packet rate average = 0.0164688
	minimum = 0.008 (at node 106)
	maximum = 0.0265 (at node 50)
Accepted packet rate average = 0.0139141
	minimum = 0.008 (at node 116)
	maximum = 0.019 (at node 98)
Injected flit rate average = 0.294539
	minimum = 0.144 (at node 106)
	maximum = 0.477 (at node 50)
Accepted flit rate average= 0.253044
	minimum = 0.144 (at node 116)
	maximum = 0.347 (at node 154)
Injected packet length average = 17.8847
Accepted packet length average = 18.1862
Total in-flight flits = 18535 (0 measured)
latency change    = 0.490093
throughput change = 0.0113308
Class 0:
Packet latency average = 1837.85
	minimum = 998
	maximum = 2646
Network latency average = 359.537
	minimum = 22
	maximum = 1617
Slowest packet = 6269
Flit latency average = 324.965
	minimum = 5
	maximum = 1600
Slowest flit = 57761
Fragmentation average = 22.3495
	minimum = 0
	maximum = 109
Injected packet rate average = 0.0139219
	minimum = 0.004 (at node 30)
	maximum = 0.032 (at node 73)
Accepted packet rate average = 0.0139792
	minimum = 0.005 (at node 91)
	maximum = 0.026 (at node 16)
Injected flit rate average = 0.25037
	minimum = 0.082 (at node 30)
	maximum = 0.576 (at node 73)
Accepted flit rate average= 0.251521
	minimum = 0.082 (at node 163)
	maximum = 0.468 (at node 16)
Injected packet length average = 17.9839
Accepted packet length average = 17.9925
Total in-flight flits = 18411 (0 measured)
latency change    = 0.599572
throughput change = 0.0060569
Warmed up ...Time used is 3000 cycles
Class 0:
Packet latency average = 2688.97
	minimum = 1694
	maximum = 3523
Network latency average = 290.033
	minimum = 22
	maximum = 898
Slowest packet = 9165
Flit latency average = 333.496
	minimum = 5
	maximum = 1635
Slowest flit = 91800
Fragmentation average = 20.9586
	minimum = 0
	maximum = 125
Injected packet rate average = 0.0139688
	minimum = 0.001 (at node 44)
	maximum = 0.029 (at node 31)
Accepted packet rate average = 0.014
	minimum = 0.006 (at node 53)
	maximum = 0.025 (at node 19)
Injected flit rate average = 0.251604
	minimum = 0.018 (at node 44)
	maximum = 0.507 (at node 31)
Accepted flit rate average= 0.252161
	minimum = 0.108 (at node 53)
	maximum = 0.448 (at node 19)
Injected packet length average = 18.0119
Accepted packet length average = 18.0115
Total in-flight flits = 18182 (18056 measured)
latency change    = 0.316524
throughput change = 0.00254053
Class 0:
Packet latency average = 3096.16
	minimum = 1694
	maximum = 4236
Network latency average = 330.81
	minimum = 22
	maximum = 1569
Slowest packet = 9165
Flit latency average = 328.27
	minimum = 5
	maximum = 2117
Slowest flit = 158404
Fragmentation average = 21.8654
	minimum = 0
	maximum = 126
Injected packet rate average = 0.0138672
	minimum = 0.002 (at node 46)
	maximum = 0.022 (at node 141)
Accepted packet rate average = 0.0138828
	minimum = 0.0085 (at node 35)
	maximum = 0.0215 (at node 129)
Injected flit rate average = 0.249969
	minimum = 0.036 (at node 46)
	maximum = 0.392 (at node 141)
Accepted flit rate average= 0.250268
	minimum = 0.149 (at node 35)
	maximum = 0.387 (at node 129)
Injected packet length average = 18.0259
Accepted packet length average = 18.0272
Total in-flight flits = 18284 (18253 measured)
latency change    = 0.131514
throughput change = 0.0075648
Class 0:
Packet latency average = 3474.13
	minimum = 1694
	maximum = 5109
Network latency average = 343.849
	minimum = 22
	maximum = 1663
Slowest packet = 9165
Flit latency average = 328.777
	minimum = 5
	maximum = 2130
Slowest flit = 158417
Fragmentation average = 21.971
	minimum = 0
	maximum = 145
Injected packet rate average = 0.0137951
	minimum = 0.00466667 (at node 46)
	maximum = 0.0223333 (at node 121)
Accepted packet rate average = 0.0137951
	minimum = 0.00933333 (at node 5)
	maximum = 0.0193333 (at node 128)
Injected flit rate average = 0.24841
	minimum = 0.084 (at node 46)
	maximum = 0.398 (at node 121)
Accepted flit rate average= 0.248479
	minimum = 0.165667 (at node 135)
	maximum = 0.348667 (at node 138)
Injected packet length average = 18.007
Accepted packet length average = 18.0121
Total in-flight flits = 18333 (18333 measured)
latency change    = 0.108798
throughput change = 0.00720005
Draining remaining packets ...
Time taken is 6749 cycles
====== Overall Traffic Statistics ======
====== Traffic class 0 ======
Packet latency average = 3635.83 (1 samples)
	minimum = 1694 (1 samples)
	maximum = 5537 (1 samples)
Network latency average = 359.04 (1 samples)
	minimum = 22 (1 samples)
	maximum = 2129 (1 samples)
Flit latency average = 339.576 (1 samples)
	minimum = 5 (1 samples)
	maximum = 2130 (1 samples)
Fragmentation average = 21.8051 (1 samples)
	minimum = 0 (1 samples)
	maximum = 145 (1 samples)
Injected packet rate average = 0.0137951 (1 samples)
	minimum = 0.00466667 (1 samples)
	maximum = 0.0223333 (1 samples)
Accepted packet rate average = 0.0137951 (1 samples)
	minimum = 0.00933333 (1 samples)
	maximum = 0.0193333 (1 samples)
Injected flit rate average = 0.24841 (1 samples)
	minimum = 0.084 (1 samples)
	maximum = 0.398 (1 samples)
Accepted flit rate average = 0.248479 (1 samples)
	minimum = 0.165667 (1 samples)
	maximum = 0.348667 (1 samples)
Injected packet size average = 18.007 (1 samples)
Accepted packet size average = 18.0121 (1 samples)
Hops average = 5.07084 (1 samples)
Total run time 5.78244
