BEGIN Configuration File: networks/mezzanine_config
topology = mezzanine;
n = 12;

routing_function = multipath;
internal_speedup = 2.0;
latency_thres = 100000.0;
use_read_write = 0;

sample_period = 1000;
injection_rate = 0.5;
packet_size = 18;

noq = 1;
routing_delay = 0;
vc_alloc_delay = 1;
sw_alloc_delay = 1;
st_final_delay = 1;
vc_allocator = islip; 
sw_allocator = islip;
alloc_iters  = 4;
num_vcs     = 12;
buffer_policy = private; // private or shared
buf_size = -1; // -1 for buffer_policy = private;
vc_buf_size = 4096; // size of each VOQ with buffer_policy = private
output_buffer_size = -1;


traffic = uniform;

//mezW = 0.0;
//mezPredefinedPatternType = shift-inter; //shift-qfdb

END Configuration File: networks/mezzanine_config
OVERRIDE Parameter: injection_rate=0.009117
OVERRIDE Parameter: routing_function=multipath
OVERRIDE Parameter: num_vcs=64
OVERRIDE Parameter: vc_buf_size=1024
OVERRIDE Parameter: internal_speedup=1.0
OVERRIDE Parameter: injection_process=bernoulli
OVERRIDE Parameter: sim_type=throughput
OVERRIDE Parameter: burst_alpha=0.0038461538
OVERRIDE Parameter: burst_beta=0.1
network: network_0
========================== Routing table  =====================
Number of Subnets: 1
Class 0:
Packet latency average = 105.184
	minimum = 23
	maximum = 616
Network latency average = 103.543
	minimum = 23
	maximum = 616
Slowest packet = 575
Flit latency average = 59.0457
	minimum = 6
	maximum = 599
Slowest flit = 10367
Fragmentation average = 56.1009
	minimum = 0
	maximum = 335
Injected packet rate average = 0.00905729
	minimum = 0.002 (at node 135)
	maximum = 0.02 (at node 10)
Accepted packet rate average = 0.00779688
	minimum = 0.001 (at node 41)
	maximum = 0.015 (at node 91)
Injected flit rate average = 0.161458
	minimum = 0.036 (at node 135)
	maximum = 0.343 (at node 10)
Accepted flit rate average= 0.147703
	minimum = 0.018 (at node 41)
	maximum = 0.281 (at node 49)
Injected packet length average = 17.8263
Accepted packet length average = 18.9439
Total in-flight flits = 2943 (0 measured)
latency change    = 1
throughput change = 1
Class 0:
Packet latency average = 129.495
	minimum = 23
	maximum = 887
Network latency average = 127.932
	minimum = 23
	maximum = 887
Slowest packet = 1459
Flit latency average = 76.1689
	minimum = 6
	maximum = 1093
Slowest flit = 27781
Fragmentation average = 70.9336
	minimum = 0
	maximum = 741
Injected packet rate average = 0.00891927
	minimum = 0.0035 (at node 122)
	maximum = 0.017 (at node 10)
Accepted packet rate average = 0.00827083
	minimum = 0.0045 (at node 174)
	maximum = 0.0135 (at node 44)
Injected flit rate average = 0.159792
	minimum = 0.063 (at node 122)
	maximum = 0.306 (at node 10)
Accepted flit rate average= 0.152987
	minimum = 0.0835 (at node 174)
	maximum = 0.243 (at node 44)
Injected packet length average = 17.9153
Accepted packet length average = 18.4972
Total in-flight flits = 2903 (0 measured)
latency change    = 0.187741
throughput change = 0.0345379
Class 0:
Packet latency average = 157.515
	minimum = 23
	maximum = 1970
Network latency average = 155.867
	minimum = 23
	maximum = 1970
Slowest packet = 1700
Flit latency average = 94.189
	minimum = 6
	maximum = 1953
Slowest flit = 30617
Fragmentation average = 87.3935
	minimum = 0
	maximum = 869
Injected packet rate average = 0.00898958
	minimum = 0.002 (at node 94)
	maximum = 0.018 (at node 52)
Accepted packet rate average = 0.00888021
	minimum = 0.001 (at node 153)
	maximum = 0.016 (at node 6)
Injected flit rate average = 0.162042
	minimum = 0.036 (at node 94)
	maximum = 0.308 (at node 52)
Accepted flit rate average= 0.160052
	minimum = 0.018 (at node 153)
	maximum = 0.298 (at node 179)
Injected packet length average = 18.0255
Accepted packet length average = 18.0235
Total in-flight flits = 3241 (0 measured)
latency change    = 0.177886
throughput change = 0.0441425
Warmed up ...Time used is 3000 cycles
Class 0:
Packet latency average = 149.986
	minimum = 23
	maximum = 737
Network latency average = 148.58
	minimum = 23
	maximum = 737
Slowest packet = 5235
Flit latency average = 102.624
	minimum = 6
	maximum = 1946
Slowest flit = 55889
Fragmentation average = 88.515
	minimum = 0
	maximum = 681
Injected packet rate average = 0.00943229
	minimum = 0.003 (at node 131)
	maximum = 0.018 (at node 0)
Accepted packet rate average = 0.00903125
	minimum = 0.001 (at node 184)
	maximum = 0.018 (at node 16)
Injected flit rate average = 0.169318
	minimum = 0.054 (at node 131)
	maximum = 0.324 (at node 0)
Accepted flit rate average= 0.165214
	minimum = 0.028 (at node 184)
	maximum = 0.343 (at node 16)
Injected packet length average = 17.9509
Accepted packet length average = 18.2935
Total in-flight flits = 4118 (4051 measured)
latency change    = 0.0501997
throughput change = 0.0312411
Class 0:
Packet latency average = 161.032
	minimum = 23
	maximum = 1691
Network latency average = 159.666
	minimum = 23
	maximum = 1691
Slowest packet = 5351
Flit latency average = 105.175
	minimum = 6
	maximum = 2332
Slowest flit = 82605
Fragmentation average = 90.5421
	minimum = 0
	maximum = 1140
Injected packet rate average = 0.00911979
	minimum = 0.0035 (at node 178)
	maximum = 0.015 (at node 149)
Accepted packet rate average = 0.00924219
	minimum = 0.0045 (at node 190)
	maximum = 0.0185 (at node 16)
Injected flit rate average = 0.164026
	minimum = 0.063 (at node 178)
	maximum = 0.27 (at node 149)
Accepted flit rate average= 0.16575
	minimum = 0.0825 (at node 190)
	maximum = 0.333 (at node 16)
Injected packet length average = 17.9857
Accepted packet length average = 17.9341
Total in-flight flits = 2629 (2615 measured)
latency change    = 0.0685969
throughput change = 0.00323655
Class 0:
Packet latency average = 152.338
	minimum = 23
	maximum = 1691
Network latency average = 150.899
	minimum = 23
	maximum = 1691
Slowest packet = 5351
Flit latency average = 96.842
	minimum = 6
	maximum = 2412
Slowest flit = 82619
Fragmentation average = 85.0189
	minimum = 0
	maximum = 1140
Injected packet rate average = 0.00910764
	minimum = 0.00466667 (at node 153)
	maximum = 0.0136667 (at node 38)
Accepted packet rate average = 0.00910243
	minimum = 0.00566667 (at node 4)
	maximum = 0.0163333 (at node 16)
Injected flit rate average = 0.164038
	minimum = 0.084 (at node 153)
	maximum = 0.247333 (at node 106)
Accepted flit rate average= 0.164146
	minimum = 0.102 (at node 134)
	maximum = 0.295333 (at node 16)
Injected packet length average = 18.0111
Accepted packet length average = 18.0332
Total in-flight flits = 3121 (3121 measured)
latency change    = 0.0570732
throughput change = 0.00977281
Draining remaining packets ...
Time taken is 6227 cycles
====== Overall Traffic Statistics ======
====== Traffic class 0 ======
Packet latency average = 153.835 (1 samples)
	minimum = 23 (1 samples)
	maximum = 1691 (1 samples)
Network latency average = 152.344 (1 samples)
	minimum = 23 (1 samples)
	maximum = 1691 (1 samples)
Flit latency average = 98.2131 (1 samples)
	minimum = 6 (1 samples)
	maximum = 2412 (1 samples)
Fragmentation average = 85.5322 (1 samples)
	minimum = 0 (1 samples)
	maximum = 1140 (1 samples)
Injected packet rate average = 0.00910764 (1 samples)
	minimum = 0.00466667 (1 samples)
	maximum = 0.0136667 (1 samples)
Accepted packet rate average = 0.00910243 (1 samples)
	minimum = 0.00566667 (1 samples)
	maximum = 0.0163333 (1 samples)
Injected flit rate average = 0.164038 (1 samples)
	minimum = 0.084 (1 samples)
	maximum = 0.247333 (1 samples)
Accepted flit rate average = 0.164146 (1 samples)
	minimum = 0.102 (1 samples)
	maximum = 0.295333 (1 samples)
Injected packet size average = 18.0111 (1 samples)
Accepted packet size average = 18.0332 (1 samples)
Hops average = 5.05757 (1 samples)
Total run time 3.98954
