BEGIN Configuration File: networks/mezzanine_config
topology = mezzanine;
n = 12;

routing_function = multipath;
internal_speedup = 2.0;
latency_thres = 100000.0;
use_read_write = 0;

sample_period = 1000;
injection_rate = 0.5;
packet_size = 18;

noq = 1;
routing_delay = 0;
vc_alloc_delay = 1;
sw_alloc_delay = 1;
st_final_delay = 1;
vc_allocator = islip; 
sw_allocator = islip;
alloc_iters  = 4;
num_vcs     = 12;
buffer_policy = private; // private or shared
buf_size = -1; // -1 for buffer_policy = private;
vc_buf_size = 4096; // size of each VOQ with buffer_policy = private
output_buffer_size = -1;


traffic = uniform;

//mezW = 0.0;
//mezPredefinedPatternType = shift-inter; //shift-qfdb

END Configuration File: networks/mezzanine_config
OVERRIDE Parameter: injection_rate=0.022377
OVERRIDE Parameter: routing_function=multipath
OVERRIDE Parameter: num_vcs=12
OVERRIDE Parameter: vc_buf_size=18
OVERRIDE Parameter: internal_speedup=2.0
OVERRIDE Parameter: injection_process=bernoulli
OVERRIDE Parameter: sim_type=throughput
OVERRIDE Parameter: burst_alpha=0.0038461538
OVERRIDE Parameter: burst_beta=0.1
network: network_0
========================== Routing table  =====================
Number of Subnets: 1
Class 0:
Packet latency average = 212.127
	minimum = 22
	maximum = 830
Network latency average = 188.178
	minimum = 22
	maximum = 756
Slowest packet = 883
Flit latency average = 161.172
	minimum = 5
	maximum = 747
Slowest flit = 18562
Fragmentation average = 21
	minimum = 0
	maximum = 92
Injected packet rate average = 0.0182135
	minimum = 0.006 (at node 52)
	maximum = 0.029 (at node 46)
Accepted packet rate average = 0.0134844
	minimum = 0.005 (at node 174)
	maximum = 0.026 (at node 44)
Injected flit rate average = 0.324469
	minimum = 0.108 (at node 52)
	maximum = 0.522 (at node 46)
Accepted flit rate average= 0.248792
	minimum = 0.09 (at node 174)
	maximum = 0.47 (at node 44)
Injected packet length average = 17.8147
Accepted packet length average = 18.4504
Total in-flight flits = 16582 (0 measured)
latency change    = 1
throughput change = 1
Class 0:
Packet latency average = 381.441
	minimum = 22
	maximum = 1410
Network latency average = 257.584
	minimum = 22
	maximum = 1212
Slowest packet = 883
Flit latency average = 226.886
	minimum = 5
	maximum = 1232
Slowest flit = 47041
Fragmentation average = 21.857
	minimum = 0
	maximum = 125
Injected packet rate average = 0.0163984
	minimum = 0.009 (at node 110)
	maximum = 0.0255 (at node 127)
Accepted packet rate average = 0.0138802
	minimum = 0.0075 (at node 153)
	maximum = 0.0195 (at node 14)
Injected flit rate average = 0.293284
	minimum = 0.162 (at node 110)
	maximum = 0.455 (at node 127)
Accepted flit rate average= 0.252698
	minimum = 0.135 (at node 153)
	maximum = 0.3625 (at node 14)
Injected packet length average = 17.8849
Accepted packet length average = 18.2056
Total in-flight flits = 17948 (0 measured)
latency change    = 0.443878
throughput change = 0.0154582
Class 0:
Packet latency average = 886.849
	minimum = 24
	maximum = 1918
Network latency average = 348.213
	minimum = 22
	maximum = 1619
Slowest packet = 4463
Flit latency average = 312.724
	minimum = 5
	maximum = 1602
Slowest flit = 81197
Fragmentation average = 22.2566
	minimum = 0
	maximum = 122
Injected packet rate average = 0.0141719
	minimum = 0.001 (at node 21)
	maximum = 0.03 (at node 90)
Accepted packet rate average = 0.0141094
	minimum = 0.005 (at node 190)
	maximum = 0.023 (at node 3)
Injected flit rate average = 0.255385
	minimum = 0.034 (at node 21)
	maximum = 0.548 (at node 90)
Accepted flit rate average= 0.254312
	minimum = 0.09 (at node 190)
	maximum = 0.414 (at node 120)
Injected packet length average = 18.0206
Accepted packet length average = 18.0244
Total in-flight flits = 18368 (0 measured)
latency change    = 0.569892
throughput change = 0.00634882
Warmed up ...Time used is 3000 cycles
Class 0:
Packet latency average = 1226.14
	minimum = 22
	maximum = 2442
Network latency average = 278.937
	minimum = 22
	maximum = 870
Slowest packet = 9160
Flit latency average = 321.836
	minimum = 5
	maximum = 1975
Slowest flit = 89384
Fragmentation average = 21.0826
	minimum = 0
	maximum = 145
Injected packet rate average = 0.014125
	minimum = 0.001 (at node 84)
	maximum = 0.034 (at node 156)
Accepted packet rate average = 0.0141719
	minimum = 0.005 (at node 17)
	maximum = 0.026 (at node 129)
Injected flit rate average = 0.254026
	minimum = 0.001 (at node 84)
	maximum = 0.624 (at node 156)
Accepted flit rate average= 0.254443
	minimum = 0.09 (at node 17)
	maximum = 0.467 (at node 129)
Injected packet length average = 17.9841
Accepted packet length average = 17.9541
Total in-flight flits = 18349 (18176 measured)
latency change    = 0.276714
throughput change = 0.000511739
Class 0:
Packet latency average = 1450.51
	minimum = 22
	maximum = 3132
Network latency average = 323.242
	minimum = 22
	maximum = 1470
Slowest packet = 9160
Flit latency average = 319.218
	minimum = 5
	maximum = 1975
Slowest flit = 89384
Fragmentation average = 22.0091
	minimum = 0
	maximum = 145
Injected packet rate average = 0.0142656
	minimum = 0.0065 (at node 184)
	maximum = 0.0275 (at node 138)
Accepted packet rate average = 0.014263
	minimum = 0.008 (at node 5)
	maximum = 0.0235 (at node 129)
Injected flit rate average = 0.256591
	minimum = 0.119 (at node 184)
	maximum = 0.4915 (at node 156)
Accepted flit rate average= 0.256794
	minimum = 0.145 (at node 5)
	maximum = 0.416 (at node 129)
Injected packet length average = 17.9867
Accepted packet length average = 18.0042
Total in-flight flits = 18309 (18309 measured)
latency change    = 0.154682
throughput change = 0.00915738
Class 0:
Packet latency average = 1641.36
	minimum = 22
	maximum = 3758
Network latency average = 335.519
	minimum = 22
	maximum = 1470
Slowest packet = 9160
Flit latency average = 319.621
	minimum = 5
	maximum = 1975
Slowest flit = 89384
Fragmentation average = 22.0426
	minimum = 0
	maximum = 145
Injected packet rate average = 0.0142743
	minimum = 0.00866667 (at node 28)
	maximum = 0.0243333 (at node 138)
Accepted packet rate average = 0.0142448
	minimum = 0.00833333 (at node 36)
	maximum = 0.0196667 (at node 128)
Injected flit rate average = 0.256833
	minimum = 0.156 (at node 28)
	maximum = 0.440667 (at node 156)
Accepted flit rate average= 0.256116
	minimum = 0.15 (at node 36)
	maximum = 0.352333 (at node 128)
Injected packet length average = 17.9927
Accepted packet length average = 17.9796
Total in-flight flits = 18769 (18769 measured)
latency change    = 0.116278
throughput change = 0.00264704
Draining remaining packets ...
Time taken is 6686 cycles
====== Overall Traffic Statistics ======
====== Traffic class 0 ======
Packet latency average = 1727.64 (1 samples)
	minimum = 22 (1 samples)
	maximum = 4193 (1 samples)
Network latency average = 349.735 (1 samples)
	minimum = 22 (1 samples)
	maximum = 1470 (1 samples)
Flit latency average = 329.52 (1 samples)
	minimum = 5 (1 samples)
	maximum = 1975 (1 samples)
Fragmentation average = 21.8957 (1 samples)
	minimum = 0 (1 samples)
	maximum = 145 (1 samples)
Injected packet rate average = 0.0142743 (1 samples)
	minimum = 0.00866667 (1 samples)
	maximum = 0.0243333 (1 samples)
Accepted packet rate average = 0.0142448 (1 samples)
	minimum = 0.00833333 (1 samples)
	maximum = 0.0196667 (1 samples)
Injected flit rate average = 0.256833 (1 samples)
	minimum = 0.156 (1 samples)
	maximum = 0.440667 (1 samples)
Accepted flit rate average = 0.256116 (1 samples)
	minimum = 0.15 (1 samples)
	maximum = 0.352333 (1 samples)
Injected packet size average = 17.9927 (1 samples)
Accepted packet size average = 17.9796 (1 samples)
Hops average = 5.05865 (1 samples)
Total run time 5.81971
