BEGIN Configuration File: networks/mezzanine_config
topology = mezzanine;
n = 12;

routing_function = multipath;
internal_speedup = 2.0;
latency_thres = 100000.0;
use_read_write = 0;

sample_period = 1000;
injection_rate = 0.5;
packet_size = 18;

noq = 1;
routing_delay = 0;
vc_alloc_delay = 1;
sw_alloc_delay = 1;
st_final_delay = 1;
vc_allocator = islip; 
sw_allocator = islip;
alloc_iters  = 4;
num_vcs     = 12;
buffer_policy = private; // private or shared
buf_size = -1; // -1 for buffer_policy = private;
vc_buf_size = 4096; // size of each VOQ with buffer_policy = private
output_buffer_size = -1;


traffic = uniform;

//mezW = 0.0;
//mezPredefinedPatternType = shift-inter; //shift-qfdb

END Configuration File: networks/mezzanine_config
OVERRIDE Parameter: injection_rate=0.006907
OVERRIDE Parameter: routing_function=min
OVERRIDE Parameter: num_vcs=12
OVERRIDE Parameter: vc_buf_size=144
OVERRIDE Parameter: internal_speedup=2.0
OVERRIDE Parameter: injection_process=on_off
OVERRIDE Parameter: sim_type=throughput
OVERRIDE Parameter: burst_alpha=0.0038461538
OVERRIDE Parameter: burst_beta=0.1
network: network_0
========================== Routing table  =====================
Number of Subnets: 1
Class 0:
Packet latency average = 84.3309
	minimum = 22
	maximum = 336
Network latency average = 58.4058
	minimum = 22
	maximum = 269
Slowest packet = 32
Flit latency average = 37.152
	minimum = 5
	maximum = 252
Slowest flit = 15495
Fragmentation average = 7.664
	minimum = 0
	maximum = 58
Injected packet rate average = 0.00764583
	minimum = 0 (at node 3)
	maximum = 0.029 (at node 97)
Accepted packet rate average = 0.00716146
	minimum = 0.001 (at node 41)
	maximum = 0.015 (at node 165)
Injected flit rate average = 0.136563
	minimum = 0 (at node 3)
	maximum = 0.522 (at node 97)
Accepted flit rate average= 0.130333
	minimum = 0.018 (at node 41)
	maximum = 0.27 (at node 165)
Injected packet length average = 17.861
Accepted packet length average = 18.1993
Total in-flight flits = 1400 (0 measured)
latency change    = 1
throughput change = 1
Class 0:
Packet latency average = 87.8129
	minimum = 22
	maximum = 400
Network latency average = 60.9845
	minimum = 22
	maximum = 311
Slowest packet = 32
Flit latency average = 39.7678
	minimum = 5
	maximum = 294
Slowest flit = 25307
Fragmentation average = 7.59262
	minimum = 0
	maximum = 58
Injected packet rate average = 0.0072474
	minimum = 0.0005 (at node 9)
	maximum = 0.019 (at node 161)
Accepted packet rate average = 0.00705729
	minimum = 0.0035 (at node 25)
	maximum = 0.0125 (at node 44)
Injected flit rate average = 0.129961
	minimum = 0.009 (at node 9)
	maximum = 0.342 (at node 161)
Accepted flit rate average= 0.127823
	minimum = 0.063 (at node 25)
	maximum = 0.231 (at node 44)
Injected packet length average = 17.9321
Accepted packet length average = 18.1122
Total in-flight flits = 1010 (0 measured)
latency change    = 0.0396526
throughput change = 0.0196398
Class 0:
Packet latency average = 90.1731
	minimum = 22
	maximum = 399
Network latency average = 63.198
	minimum = 22
	maximum = 275
Slowest packet = 2617
Flit latency average = 41.6202
	minimum = 5
	maximum = 258
Slowest flit = 56644
Fragmentation average = 8.30537
	minimum = 0
	maximum = 65
Injected packet rate average = 0.00692188
	minimum = 0 (at node 9)
	maximum = 0.033 (at node 20)
Accepted packet rate average = 0.00689063
	minimum = 0.001 (at node 23)
	maximum = 0.015 (at node 22)
Injected flit rate average = 0.124344
	minimum = 0 (at node 9)
	maximum = 0.586 (at node 20)
Accepted flit rate average= 0.123917
	minimum = 0.018 (at node 23)
	maximum = 0.259 (at node 22)
Injected packet length average = 17.9639
Accepted packet length average = 17.9834
Total in-flight flits = 1140 (0 measured)
latency change    = 0.0261738
throughput change = 0.0315232
Warmed up ...Time used is 3000 cycles
Class 0:
Packet latency average = 94.5425
	minimum = 22
	maximum = 491
Network latency average = 64.0299
	minimum = 22
	maximum = 245
Slowest packet = 4121
Flit latency average = 42.7406
	minimum = 5
	maximum = 228
Slowest flit = 85967
Fragmentation average = 8.11635
	minimum = 0
	maximum = 57
Injected packet rate average = 0.00702083
	minimum = 0 (at node 47)
	maximum = 0.031 (at node 79)
Accepted packet rate average = 0.00703646
	minimum = 0.001 (at node 121)
	maximum = 0.014 (at node 6)
Injected flit rate average = 0.126255
	minimum = 0 (at node 47)
	maximum = 0.57 (at node 79)
Accepted flit rate average= 0.126604
	minimum = 0.018 (at node 121)
	maximum = 0.242 (at node 6)
Injected packet length average = 17.9829
Accepted packet length average = 17.9926
Total in-flight flits = 1096 (1096 measured)
latency change    = 0.0462159
throughput change = 0.0212276
Class 0:
Packet latency average = 94.7302
	minimum = 22
	maximum = 581
Network latency average = 66.584
	minimum = 22
	maximum = 452
Slowest packet = 4121
Flit latency average = 45.1046
	minimum = 5
	maximum = 435
Slowest flit = 105821
Fragmentation average = 8.42803
	minimum = 0
	maximum = 112
Injected packet rate average = 0.00723177
	minimum = 0.0005 (at node 143)
	maximum = 0.0265 (at node 79)
Accepted packet rate average = 0.00713542
	minimum = 0.0035 (at node 184)
	maximum = 0.0125 (at node 56)
Injected flit rate average = 0.130234
	minimum = 0.009 (at node 143)
	maximum = 0.4765 (at node 79)
Accepted flit rate average= 0.128503
	minimum = 0.0565 (at node 184)
	maximum = 0.225 (at node 56)
Injected packet length average = 18.0086
Accepted packet length average = 18.0091
Total in-flight flits = 1781 (1781 measured)
latency change    = 0.00198167
throughput change = 0.0147735
Class 0:
Packet latency average = 93.1091
	minimum = 22
	maximum = 581
Network latency average = 65.4246
	minimum = 22
	maximum = 452
Slowest packet = 4121
Flit latency average = 43.9878
	minimum = 5
	maximum = 435
Slowest flit = 105821
Fragmentation average = 8.16789
	minimum = 0
	maximum = 112
Injected packet rate average = 0.00697917
	minimum = 0.000666667 (at node 143)
	maximum = 0.0213333 (at node 79)
Accepted packet rate average = 0.00701389
	minimum = 0.00366667 (at node 153)
	maximum = 0.0123333 (at node 34)
Injected flit rate average = 0.125767
	minimum = 0.012 (at node 143)
	maximum = 0.388 (at node 79)
Accepted flit rate average= 0.126047
	minimum = 0.066 (at node 153)
	maximum = 0.222 (at node 34)
Injected packet length average = 18.0204
Accepted packet length average = 17.971
Total in-flight flits = 897 (897 measured)
latency change    = 0.0174109
throughput change = 0.0194827
Draining remaining packets ...
Time taken is 6123 cycles
====== Overall Traffic Statistics ======
====== Traffic class 0 ======
Packet latency average = 93.1269 (1 samples)
	minimum = 22 (1 samples)
	maximum = 581 (1 samples)
Network latency average = 65.5142 (1 samples)
	minimum = 22 (1 samples)
	maximum = 452 (1 samples)
Flit latency average = 44.1117 (1 samples)
	minimum = 5 (1 samples)
	maximum = 435 (1 samples)
Fragmentation average = 8.15249 (1 samples)
	minimum = 0 (1 samples)
	maximum = 112 (1 samples)
Injected packet rate average = 0.00697917 (1 samples)
	minimum = 0.000666667 (1 samples)
	maximum = 0.0213333 (1 samples)
Accepted packet rate average = 0.00701389 (1 samples)
	minimum = 0.00366667 (1 samples)
	maximum = 0.0123333 (1 samples)
Injected flit rate average = 0.125767 (1 samples)
	minimum = 0.012 (1 samples)
	maximum = 0.388 (1 samples)
Accepted flit rate average = 0.126047 (1 samples)
	minimum = 0.066 (1 samples)
	maximum = 0.222 (1 samples)
Injected packet size average = 18.0204 (1 samples)
Accepted packet size average = 17.971 (1 samples)
Hops average = 5.0699 (1 samples)
Total run time 3.46942
