BEGIN Configuration File: networks/mezzanine_config
topology = mezzanine;
n = 12;

routing_function = multipath;
internal_speedup = 2.0;
latency_thres = 100000.0;
use_read_write = 0;

sample_period = 1000;
injection_rate = 0.5;
packet_size = 18;

noq = 1;
routing_delay = 0;
vc_alloc_delay = 1;
sw_alloc_delay = 1;
st_final_delay = 1;
vc_allocator = islip; 
sw_allocator = islip;
alloc_iters  = 4;
num_vcs     = 12;
buffer_policy = private; // private or shared
buf_size = -1; // -1 for buffer_policy = private;
vc_buf_size = 4096; // size of each VOQ with buffer_policy = private
output_buffer_size = -1;


traffic = uniform;

//mezW = 0.0;
//mezPredefinedPatternType = shift-inter; //shift-qfdb

END Configuration File: networks/mezzanine_config
OVERRIDE Parameter: injection_rate=0.017957
OVERRIDE Parameter: routing_function=min
OVERRIDE Parameter: num_vcs=12
OVERRIDE Parameter: vc_buf_size=18
OVERRIDE Parameter: internal_speedup=2.0
OVERRIDE Parameter: injection_process=on_off
OVERRIDE Parameter: sim_type=throughput
OVERRIDE Parameter: burst_alpha=0.0038461538
OVERRIDE Parameter: burst_beta=0.1
network: network_0
========================== Routing table  =====================
Number of Subnets: 1
Class 0:
Packet latency average = 225.806
	minimum = 22
	maximum = 936
Network latency average = 142.956
	minimum = 22
	maximum = 621
Slowest packet = 21
Flit latency average = 117.751
	minimum = 5
	maximum = 631
Slowest flit = 20824
Fragmentation average = 16.6171
	minimum = 0
	maximum = 112
Injected packet rate average = 0.0153281
	minimum = 0 (at node 9)
	maximum = 0.038 (at node 161)
Accepted packet rate average = 0.0123229
	minimum = 0.004 (at node 174)
	maximum = 0.023 (at node 44)
Injected flit rate average = 0.273474
	minimum = 0 (at node 9)
	maximum = 0.684 (at node 161)
Accepted flit rate average= 0.226948
	minimum = 0.072 (at node 174)
	maximum = 0.417 (at node 44)
Injected packet length average = 17.8413
Accepted packet length average = 18.4167
Total in-flight flits = 10228 (0 measured)
latency change    = 1
throughput change = 1
Class 0:
Packet latency average = 353.539
	minimum = 22
	maximum = 1671
Network latency average = 192.365
	minimum = 22
	maximum = 1175
Slowest packet = 21
Flit latency average = 164.578
	minimum = 5
	maximum = 1267
Slowest flit = 38939
Fragmentation average = 18.2478
	minimum = 0
	maximum = 112
Injected packet rate average = 0.0147031
	minimum = 0 (at node 72)
	maximum = 0.0305 (at node 161)
Accepted packet rate average = 0.012862
	minimum = 0.007 (at node 153)
	maximum = 0.018 (at node 22)
Injected flit rate average = 0.262932
	minimum = 0 (at node 72)
	maximum = 0.545 (at node 161)
Accepted flit rate average= 0.233875
	minimum = 0.126 (at node 153)
	maximum = 0.3275 (at node 98)
Injected packet length average = 17.8827
Accepted packet length average = 18.1834
Total in-flight flits = 12702 (0 measured)
latency change    = 0.361298
throughput change = 0.0296187
Class 0:
Packet latency average = 724.991
	minimum = 22
	maximum = 2269
Network latency average = 269.359
	minimum = 22
	maximum = 1328
Slowest packet = 4623
Flit latency average = 236.582
	minimum = 5
	maximum = 1311
Slowest flit = 38951
Fragmentation average = 21.1516
	minimum = 0
	maximum = 107
Injected packet rate average = 0.0142969
	minimum = 0.002 (at node 40)
	maximum = 0.034 (at node 123)
Accepted packet rate average = 0.0138073
	minimum = 0.006 (at node 117)
	maximum = 0.025 (at node 16)
Injected flit rate average = 0.257443
	minimum = 0.033 (at node 126)
	maximum = 0.612 (at node 123)
Accepted flit rate average= 0.249375
	minimum = 0.11 (at node 118)
	maximum = 0.45 (at node 16)
Injected packet length average = 18.0069
Accepted packet length average = 18.0611
Total in-flight flits = 14448 (0 measured)
latency change    = 0.512353
throughput change = 0.0621554
Warmed up ...Time used is 3000 cycles
Class 0:
Packet latency average = 925.059
	minimum = 25
	maximum = 3023
Network latency average = 258.736
	minimum = 22
	maximum = 848
Slowest packet = 8453
Flit latency average = 273.117
	minimum = 5
	maximum = 1210
Slowest flit = 93005
Fragmentation average = 20.4377
	minimum = 0
	maximum = 107
Injected packet rate average = 0.0139635
	minimum = 0 (at node 140)
	maximum = 0.029 (at node 60)
Accepted packet rate average = 0.0136875
	minimum = 0.005 (at node 71)
	maximum = 0.023 (at node 19)
Injected flit rate average = 0.251245
	minimum = 0 (at node 140)
	maximum = 0.51 (at node 60)
Accepted flit rate average= 0.245781
	minimum = 0.076 (at node 71)
	maximum = 0.429 (at node 78)
Injected packet length average = 17.9929
Accepted packet length average = 17.9566
Total in-flight flits = 15840 (15840 measured)
latency change    = 0.216276
throughput change = 0.0146217
Class 0:
Packet latency average = 1084.35
	minimum = 25
	maximum = 3508
Network latency average = 297.398
	minimum = 22
	maximum = 1413
Slowest packet = 8453
Flit latency average = 281.083
	minimum = 5
	maximum = 1396
Slowest flit = 172673
Fragmentation average = 21.7491
	minimum = 0
	maximum = 113
Injected packet rate average = 0.0139818
	minimum = 0.0025 (at node 133)
	maximum = 0.023 (at node 42)
Accepted packet rate average = 0.0138177
	minimum = 0.007 (at node 36)
	maximum = 0.0225 (at node 129)
Injected flit rate average = 0.251727
	minimum = 0.053 (at node 133)
	maximum = 0.414 (at node 42)
Accepted flit rate average= 0.248513
	minimum = 0.132 (at node 36)
	maximum = 0.4115 (at node 129)
Injected packet length average = 18.0039
Accepted packet length average = 17.9851
Total in-flight flits = 16237 (16237 measured)
latency change    = 0.146903
throughput change = 0.0109925
Class 0:
Packet latency average = 1218.48
	minimum = 22
	maximum = 4191
Network latency average = 308.508
	minimum = 22
	maximum = 1413
Slowest packet = 8453
Flit latency average = 285.526
	minimum = 5
	maximum = 1396
Slowest flit = 172673
Fragmentation average = 21.2976
	minimum = 0
	maximum = 113
Injected packet rate average = 0.0139184
	minimum = 0.003 (at node 133)
	maximum = 0.0236667 (at node 118)
Accepted packet rate average = 0.0137951
	minimum = 0.009 (at node 36)
	maximum = 0.0203333 (at node 128)
Injected flit rate average = 0.250495
	minimum = 0.0593333 (at node 133)
	maximum = 0.431667 (at node 118)
Accepted flit rate average= 0.248115
	minimum = 0.162 (at node 36)
	maximum = 0.362333 (at node 128)
Injected packet length average = 17.9974
Accepted packet length average = 17.9857
Total in-flight flits = 16218 (16218 measured)
latency change    = 0.11008
throughput change = 0.00160586
Draining remaining packets ...
Time taken is 6582 cycles
====== Overall Traffic Statistics ======
====== Traffic class 0 ======
Packet latency average = 1278.16 (1 samples)
	minimum = 22 (1 samples)
	maximum = 4339 (1 samples)
Network latency average = 321.988 (1 samples)
	minimum = 22 (1 samples)
	maximum = 1451 (1 samples)
Flit latency average = 295.972 (1 samples)
	minimum = 5 (1 samples)
	maximum = 1432 (1 samples)
Fragmentation average = 21.0363 (1 samples)
	minimum = 0 (1 samples)
	maximum = 115 (1 samples)
Injected packet rate average = 0.0139184 (1 samples)
	minimum = 0.003 (1 samples)
	maximum = 0.0236667 (1 samples)
Accepted packet rate average = 0.0137951 (1 samples)
	minimum = 0.009 (1 samples)
	maximum = 0.0203333 (1 samples)
Injected flit rate average = 0.250495 (1 samples)
	minimum = 0.0593333 (1 samples)
	maximum = 0.431667 (1 samples)
Accepted flit rate average = 0.248115 (1 samples)
	minimum = 0.162 (1 samples)
	maximum = 0.362333 (1 samples)
Injected packet size average = 17.9974 (1 samples)
Accepted packet size average = 17.9857 (1 samples)
Hops average = 5.09791 (1 samples)
Total run time 6.99038
