BEGIN Configuration File: networks/mezzanine_config
topology = mezzanine;
n = 12;

routing_function = multipath;
internal_speedup = 2.0;
latency_thres = 100000.0;
use_read_write = 0;

sample_period = 1000;
injection_rate = 0.5;
packet_size = 18;

noq = 1;
routing_delay = 0;
vc_alloc_delay = 1;
sw_alloc_delay = 1;
st_final_delay = 1;
vc_allocator = islip; 
sw_allocator = islip;
alloc_iters  = 4;
num_vcs     = 12;
buffer_policy = private; // private or shared
buf_size = -1; // -1 for buffer_policy = private;
vc_buf_size = 4096; // size of each VOQ with buffer_policy = private
output_buffer_size = -1;


traffic = uniform;

//mezW = 0.0;
//mezPredefinedPatternType = shift-inter; //shift-qfdb

END Configuration File: networks/mezzanine_config
OVERRIDE Parameter: injection_rate=0.035637
OVERRIDE Parameter: routing_function=min
OVERRIDE Parameter: num_vcs=12
OVERRIDE Parameter: vc_buf_size=18
OVERRIDE Parameter: internal_speedup=1.0
OVERRIDE Parameter: injection_process=bernoulli
OVERRIDE Parameter: sim_type=throughput
OVERRIDE Parameter: burst_alpha=0.0038461538
OVERRIDE Parameter: burst_beta=0.1
network: network_0
========================== Routing table  =====================
Number of Subnets: 1
Class 0:
Packet latency average = 354.031
	minimum = 23
	maximum = 930
Network latency average = 289.112
	minimum = 23
	maximum = 903
Slowest packet = 407
Flit latency average = 245.831
	minimum = 6
	maximum = 890
Slowest flit = 9896
Fragmentation average = 53.9783
	minimum = 0
	maximum = 141
Injected packet rate average = 0.0140521
	minimum = 0.002 (at node 156)
	maximum = 0.026 (at node 70)
Accepted packet rate average = 0.009125
	minimum = 0.003 (at node 41)
	maximum = 0.017 (at node 2)
Injected flit rate average = 0.248708
	minimum = 0.036 (at node 156)
	maximum = 0.453 (at node 70)
Accepted flit rate average= 0.17037
	minimum = 0.054 (at node 81)
	maximum = 0.317 (at node 70)
Injected packet length average = 17.699
Accepted packet length average = 18.6707
Total in-flight flits = 17851 (0 measured)
latency change    = 1
throughput change = 1
Class 0:
Packet latency average = 712.382
	minimum = 23
	maximum = 1835
Network latency average = 405.698
	minimum = 23
	maximum = 1835
Slowest packet = 737
Flit latency average = 353.049
	minimum = 6
	maximum = 1818
Slowest flit = 13283
Fragmentation average = 55.0883
	minimum = 0
	maximum = 141
Injected packet rate average = 0.0115365
	minimum = 0.0045 (at node 140)
	maximum = 0.02 (at node 70)
Accepted packet rate average = 0.00904948
	minimum = 0.005 (at node 115)
	maximum = 0.014 (at node 44)
Injected flit rate average = 0.205852
	minimum = 0.081 (at node 140)
	maximum = 0.356 (at node 70)
Accepted flit rate average= 0.166172
	minimum = 0.0945 (at node 115)
	maximum = 0.2595 (at node 22)
Injected packet length average = 17.8436
Accepted packet length average = 18.3626
Total in-flight flits = 17856 (0 measured)
latency change    = 0.503032
throughput change = 0.0252625
Class 0:
Packet latency average = 1825.84
	minimum = 955
	maximum = 2812
Network latency average = 550.227
	minimum = 23
	maximum = 2297
Slowest packet = 1487
Flit latency average = 485.643
	minimum = 6
	maximum = 2271
Slowest flit = 27989
Fragmentation average = 59.6279
	minimum = 0
	maximum = 146
Injected packet rate average = 0.00885938
	minimum = 0 (at node 164)
	maximum = 0.023 (at node 46)
Accepted packet rate average = 0.00895833
	minimum = 0.002 (at node 116)
	maximum = 0.016 (at node 98)
Injected flit rate average = 0.158964
	minimum = 0 (at node 164)
	maximum = 0.407 (at node 46)
Accepted flit rate average= 0.160786
	minimum = 0.036 (at node 116)
	maximum = 0.29 (at node 113)
Injected packet length average = 17.943
Accepted packet length average = 17.9483
Total in-flight flits = 17441 (0 measured)
latency change    = 0.609834
throughput change = 0.0334942
Warmed up ...Time used is 3000 cycles
Class 0:
Packet latency average = 2648.54
	minimum = 1446
	maximum = 3535
Network latency average = 329.982
	minimum = 27
	maximum = 923
Slowest packet = 6232
Flit latency average = 475.881
	minimum = 6
	maximum = 2608
Slowest flit = 60998
Fragmentation average = 51.6709
	minimum = 0
	maximum = 122
Injected packet rate average = 0.00905729
	minimum = 0 (at node 167)
	maximum = 0.02 (at node 57)
Accepted packet rate average = 0.00906771
	minimum = 0.002 (at node 184)
	maximum = 0.015 (at node 63)
Injected flit rate average = 0.163849
	minimum = 0 (at node 167)
	maximum = 0.374 (at node 57)
Accepted flit rate average= 0.164031
	minimum = 0.047 (at node 184)
	maximum = 0.283 (at node 106)
Injected packet length average = 18.0903
Accepted packet length average = 18.0896
Total in-flight flits = 17501 (16296 measured)
latency change    = 0.310622
throughput change = 0.0197815
Class 0:
Packet latency average = 3093.56
	minimum = 1446
	maximum = 4379
Network latency average = 445.143
	minimum = 23
	maximum = 1873
Slowest packet = 6232
Flit latency average = 472.866
	minimum = 6
	maximum = 3179
Slowest flit = 73585
Fragmentation average = 53.5561
	minimum = 0
	maximum = 124
Injected packet rate average = 0.00909375
	minimum = 0.0005 (at node 81)
	maximum = 0.0215 (at node 83)
Accepted packet rate average = 0.00909115
	minimum = 0.004 (at node 52)
	maximum = 0.016 (at node 16)
Injected flit rate average = 0.163977
	minimum = 0.009 (at node 81)
	maximum = 0.3855 (at node 83)
Accepted flit rate average= 0.163711
	minimum = 0.076 (at node 52)
	maximum = 0.286 (at node 16)
Injected packet length average = 18.0318
Accepted packet length average = 18.0077
Total in-flight flits = 17630 (17430 measured)
latency change    = 0.143854
throughput change = 0.00195657
Class 0:
Packet latency average = 3496.09
	minimum = 1446
	maximum = 5401
Network latency average = 484.305
	minimum = 23
	maximum = 2222
Slowest packet = 6232
Flit latency average = 477.454
	minimum = 6
	maximum = 3418
Slowest flit = 96536
Fragmentation average = 56.4002
	minimum = 0
	maximum = 144
Injected packet rate average = 0.00902257
	minimum = 0.00233333 (at node 81)
	maximum = 0.0166667 (at node 83)
Accepted packet rate average = 0.00899479
	minimum = 0.00533333 (at node 154)
	maximum = 0.0143333 (at node 16)
Injected flit rate average = 0.162606
	minimum = 0.042 (at node 81)
	maximum = 0.3 (at node 83)
Accepted flit rate average= 0.162127
	minimum = 0.102 (at node 4)
	maximum = 0.256667 (at node 16)
Injected packet length average = 18.0221
Accepted packet length average = 18.0245
Total in-flight flits = 17854 (17836 measured)
latency change    = 0.115137
throughput change = 0.00977138
Draining remaining packets ...
Time taken is 6910 cycles
====== Overall Traffic Statistics ======
====== Traffic class 0 ======
Packet latency average = 3743.69 (1 samples)
	minimum = 1446 (1 samples)
	maximum = 6275 (1 samples)
Network latency average = 526.213 (1 samples)
	minimum = 23 (1 samples)
	maximum = 3178 (1 samples)
Flit latency average = 504.525 (1 samples)
	minimum = 6 (1 samples)
	maximum = 3418 (1 samples)
Fragmentation average = 54.0497 (1 samples)
	minimum = 0 (1 samples)
	maximum = 144 (1 samples)
Injected packet rate average = 0.00902257 (1 samples)
	minimum = 0.00233333 (1 samples)
	maximum = 0.0166667 (1 samples)
Accepted packet rate average = 0.00899479 (1 samples)
	minimum = 0.00533333 (1 samples)
	maximum = 0.0143333 (1 samples)
Injected flit rate average = 0.162606 (1 samples)
	minimum = 0.042 (1 samples)
	maximum = 0.3 (1 samples)
Accepted flit rate average = 0.162127 (1 samples)
	minimum = 0.102 (1 samples)
	maximum = 0.256667 (1 samples)
Injected packet size average = 18.0221 (1 samples)
Accepted packet size average = 18.0245 (1 samples)
Hops average = 5.04644 (1 samples)
Total run time 6.20527
