BEGIN Configuration File: networks/mezzanine_config
topology = mezzanine;
n = 12;

routing_function = multipath;
internal_speedup = 2.0;
latency_thres = 100000.0;
use_read_write = 0;

sample_period = 1000;
injection_rate = 0.5;
packet_size = 18;

noq = 1;
routing_delay = 0;
vc_alloc_delay = 1;
sw_alloc_delay = 1;
st_final_delay = 1;
vc_allocator = islip; 
sw_allocator = islip;
alloc_iters  = 4;
num_vcs     = 12;
buffer_policy = private; // private or shared
buf_size = -1; // -1 for buffer_policy = private;
vc_buf_size = 4096; // size of each VOQ with buffer_policy = private
output_buffer_size = -1;


traffic = uniform;

//mezW = 0.0;
//mezPredefinedPatternType = shift-inter; //shift-qfdb

END Configuration File: networks/mezzanine_config
OVERRIDE Parameter: injection_rate=0.035637
OVERRIDE Parameter: routing_function=multipath
OVERRIDE Parameter: num_vcs=12
OVERRIDE Parameter: vc_buf_size=18
OVERRIDE Parameter: internal_speedup=1.0
OVERRIDE Parameter: injection_process=on_off
OVERRIDE Parameter: sim_type=throughput
OVERRIDE Parameter: burst_alpha=0.0038461538
OVERRIDE Parameter: burst_beta=0.1
network: network_0
========================== Routing table  =====================
Number of Subnets: 1
Class 0:
Packet latency average = 359.138
	minimum = 23
	maximum = 981
Network latency average = 246.227
	minimum = 23
	maximum = 862
Slowest packet = 21
Flit latency average = 203.939
	minimum = 6
	maximum = 903
Slowest flit = 7582
Fragmentation average = 52.5254
	minimum = 0
	maximum = 128
Injected packet rate average = 0.0135052
	minimum = 0 (at node 115)
	maximum = 0.028 (at node 75)
Accepted packet rate average = 0.00903125
	minimum = 0.002 (at node 41)
	maximum = 0.017 (at node 132)
Injected flit rate average = 0.239839
	minimum = 0 (at node 115)
	maximum = 0.504 (at node 75)
Accepted flit rate average= 0.168734
	minimum = 0.036 (at node 41)
	maximum = 0.306 (at node 132)
Injected packet length average = 17.759
Accepted packet length average = 18.6834
Total in-flight flits = 15879 (0 measured)
latency change    = 1
throughput change = 1
Class 0:
Packet latency average = 681.555
	minimum = 23
	maximum = 1979
Network latency average = 351.05
	minimum = 23
	maximum = 1553
Slowest packet = 21
Flit latency average = 299.888
	minimum = 6
	maximum = 1536
Slowest flit = 16307
Fragmentation average = 54.9126
	minimum = 0
	maximum = 159
Injected packet rate average = 0.0115547
	minimum = 0.0035 (at node 169)
	maximum = 0.0245 (at node 142)
Accepted packet rate average = 0.00914323
	minimum = 0.0045 (at node 30)
	maximum = 0.015 (at node 44)
Injected flit rate average = 0.206211
	minimum = 0.063 (at node 169)
	maximum = 0.4375 (at node 142)
Accepted flit rate average= 0.167852
	minimum = 0.084 (at node 30)
	maximum = 0.27 (at node 44)
Injected packet length average = 17.8465
Accepted packet length average = 18.358
Total in-flight flits = 17301 (0 measured)
latency change    = 0.473061
throughput change = 0.00525948
Class 0:
Packet latency average = 1723.03
	minimum = 38
	maximum = 2966
Network latency average = 527.429
	minimum = 23
	maximum = 2209
Slowest packet = 3255
Flit latency average = 465.964
	minimum = 6
	maximum = 2192
Slowest flit = 13661
Fragmentation average = 57.5182
	minimum = 0
	maximum = 136
Injected packet rate average = 0.00935417
	minimum = 0.002 (at node 83)
	maximum = 0.025 (at node 51)
Accepted packet rate average = 0.00916667
	minimum = 0.001 (at node 28)
	maximum = 0.016 (at node 166)
Injected flit rate average = 0.16749
	minimum = 0.026 (at node 83)
	maximum = 0.447 (at node 51)
Accepted flit rate average= 0.165021
	minimum = 0.034 (at node 28)
	maximum = 0.275 (at node 68)
Injected packet length average = 17.9053
Accepted packet length average = 18.0023
Total in-flight flits = 17909 (0 measured)
latency change    = 0.604445
throughput change = 0.0171538
Warmed up ...Time used is 3000 cycles
Class 0:
Packet latency average = 2546.64
	minimum = 40
	maximum = 3841
Network latency average = 336.904
	minimum = 27
	maximum = 926
Slowest packet = 6404
Flit latency average = 470.887
	minimum = 6
	maximum = 1970
Slowest flit = 24678
Fragmentation average = 52.0561
	minimum = 0
	maximum = 126
Injected packet rate average = 0.00930208
	minimum = 0.001 (at node 32)
	maximum = 0.019 (at node 144)
Accepted packet rate average = 0.00919792
	minimum = 0.003 (at node 38)
	maximum = 0.017 (at node 16)
Injected flit rate average = 0.167146
	minimum = 0.018 (at node 188)
	maximum = 0.329 (at node 156)
Accepted flit rate average= 0.165661
	minimum = 0.04 (at node 190)
	maximum = 0.299 (at node 16)
Injected packet length average = 17.9686
Accepted packet length average = 18.0108
Total in-flight flits = 18034 (16941 measured)
latency change    = 0.323408
throughput change = 0.00386707
Class 0:
Packet latency average = 2986.31
	minimum = 40
	maximum = 4872
Network latency average = 453.717
	minimum = 23
	maximum = 1812
Slowest packet = 6404
Flit latency average = 471.987
	minimum = 6
	maximum = 2178
Slowest flit = 98801
Fragmentation average = 54.8357
	minimum = 0
	maximum = 140
Injected packet rate average = 0.00927083
	minimum = 0.002 (at node 22)
	maximum = 0.017 (at node 66)
Accepted packet rate average = 0.00930208
	minimum = 0.005 (at node 22)
	maximum = 0.0175 (at node 16)
Injected flit rate average = 0.167052
	minimum = 0.036 (at node 22)
	maximum = 0.3105 (at node 122)
Accepted flit rate average= 0.167599
	minimum = 0.083 (at node 190)
	maximum = 0.311 (at node 16)
Injected packet length average = 18.0191
Accepted packet length average = 18.0174
Total in-flight flits = 17595 (17577 measured)
latency change    = 0.14723
throughput change = 0.0115603
Class 0:
Packet latency average = 3362.58
	minimum = 40
	maximum = 5763
Network latency average = 491.645
	minimum = 23
	maximum = 2720
Slowest packet = 6404
Flit latency average = 475.601
	minimum = 6
	maximum = 2699
Slowest flit = 122507
Fragmentation average = 58.1974
	minimum = 0
	maximum = 143
Injected packet rate average = 0.0092309
	minimum = 0.00233333 (at node 22)
	maximum = 0.0143333 (at node 175)
Accepted packet rate average = 0.00918229
	minimum = 0.00533333 (at node 17)
	maximum = 0.0156667 (at node 16)
Injected flit rate average = 0.166167
	minimum = 0.042 (at node 22)
	maximum = 0.263333 (at node 175)
Accepted flit rate average= 0.165476
	minimum = 0.0983333 (at node 4)
	maximum = 0.276333 (at node 16)
Injected packet length average = 18.0011
Accepted packet length average = 18.0212
Total in-flight flits = 18229 (18229 measured)
latency change    = 0.111899
throughput change = 0.0128313
Draining remaining packets ...
Time taken is 6851 cycles
====== Overall Traffic Statistics ======
====== Traffic class 0 ======
Packet latency average = 3602.99 (1 samples)
	minimum = 40 (1 samples)
	maximum = 6373 (1 samples)
Network latency average = 528.82 (1 samples)
	minimum = 23 (1 samples)
	maximum = 2843 (1 samples)
Flit latency average = 498.665 (1 samples)
	minimum = 6 (1 samples)
	maximum = 2760 (1 samples)
Fragmentation average = 56.7216 (1 samples)
	minimum = 0 (1 samples)
	maximum = 162 (1 samples)
Injected packet rate average = 0.0092309 (1 samples)
	minimum = 0.00233333 (1 samples)
	maximum = 0.0143333 (1 samples)
Accepted packet rate average = 0.00918229 (1 samples)
	minimum = 0.00533333 (1 samples)
	maximum = 0.0156667 (1 samples)
Injected flit rate average = 0.166167 (1 samples)
	minimum = 0.042 (1 samples)
	maximum = 0.263333 (1 samples)
Accepted flit rate average = 0.165476 (1 samples)
	minimum = 0.0983333 (1 samples)
	maximum = 0.276333 (1 samples)
Injected packet size average = 18.0011 (1 samples)
Accepted packet size average = 18.0212 (1 samples)
Hops average = 5.07811 (1 samples)
Total run time 4.63616
