BEGIN Configuration File: networks/mezzanine_config
topology = mezzanine;
n = 12;

routing_function = multipath;
internal_speedup = 2.0;
latency_thres = 100000.0;
use_read_write = 0;

sample_period = 1000;
injection_rate = 0.5;
packet_size = 18;

noq = 1;
routing_delay = 0;
vc_alloc_delay = 1;
sw_alloc_delay = 1;
st_final_delay = 1;
vc_allocator = islip; 
sw_allocator = islip;
alloc_iters  = 4;
num_vcs     = 12;
buffer_policy = private; // private or shared
buf_size = -1; // -1 for buffer_policy = private;
vc_buf_size = 4096; // size of each VOQ with buffer_policy = private
output_buffer_size = -1;


traffic = uniform;

//mezW = 0.0;
//mezPredefinedPatternType = shift-inter; //shift-qfdb

END Configuration File: networks/mezzanine_config
OVERRIDE Parameter: injection_rate=0.024587
OVERRIDE Parameter: routing_function=multipath
OVERRIDE Parameter: num_vcs=12
OVERRIDE Parameter: vc_buf_size=18
OVERRIDE Parameter: internal_speedup=1.0
OVERRIDE Parameter: injection_process=on_off
OVERRIDE Parameter: sim_type=throughput
OVERRIDE Parameter: burst_alpha=0.0038461538
OVERRIDE Parameter: burst_beta=0.1
network: network_0
========================== Routing table  =====================
Number of Subnets: 1
Class 0:
Packet latency average = 327.096
	minimum = 23
	maximum = 980
Network latency average = 226.609
	minimum = 23
	maximum = 895
Slowest packet = 167
Flit latency average = 183.369
	minimum = 6
	maximum = 935
Slowest flit = 5086
Fragmentation average = 50.8121
	minimum = 0
	maximum = 129
Injected packet rate average = 0.0131094
	minimum = 0 (at node 101)
	maximum = 0.029 (at node 117)
Accepted packet rate average = 0.00895313
	minimum = 0.003 (at node 41)
	maximum = 0.017 (at node 49)
Injected flit rate average = 0.232271
	minimum = 0 (at node 101)
	maximum = 0.522 (at node 117)
Accepted flit rate average= 0.167177
	minimum = 0.054 (at node 41)
	maximum = 0.323 (at node 49)
Injected packet length average = 17.7179
Accepted packet length average = 18.6725
Total in-flight flits = 14396 (0 measured)
latency change    = 1
throughput change = 1
Class 0:
Packet latency average = 594.471
	minimum = 23
	maximum = 1967
Network latency average = 325.665
	minimum = 23
	maximum = 1842
Slowest packet = 167
Flit latency average = 276.527
	minimum = 6
	maximum = 1825
Slowest flit = 11177
Fragmentation average = 52.92
	minimum = 0
	maximum = 129
Injected packet rate average = 0.0114687
	minimum = 0.0015 (at node 60)
	maximum = 0.023 (at node 49)
Accepted packet rate average = 0.00911458
	minimum = 0.0045 (at node 135)
	maximum = 0.015 (at node 22)
Injected flit rate average = 0.204289
	minimum = 0.0205 (at node 60)
	maximum = 0.414 (at node 49)
Accepted flit rate average= 0.167005
	minimum = 0.082 (at node 135)
	maximum = 0.27 (at node 22)
Injected packet length average = 17.8127
Accepted packet length average = 18.3229
Total in-flight flits = 16528 (0 measured)
latency change    = 0.44977
throughput change = 0.00102916
Class 0:
Packet latency average = 1413.12
	minimum = 35
	maximum = 2921
Network latency average = 506.166
	minimum = 23
	maximum = 1951
Slowest packet = 3164
Flit latency average = 444.206
	minimum = 6
	maximum = 2062
Slowest flit = 43884
Fragmentation average = 60.2531
	minimum = 0
	maximum = 133
Injected packet rate average = 0.00907292
	minimum = 0 (at node 9)
	maximum = 0.02 (at node 75)
Accepted packet rate average = 0.00895313
	minimum = 0.001 (at node 121)
	maximum = 0.017 (at node 14)
Injected flit rate average = 0.163932
	minimum = 0 (at node 56)
	maximum = 0.353 (at node 75)
Accepted flit rate average= 0.161583
	minimum = 0.018 (at node 121)
	maximum = 0.317 (at node 187)
Injected packet length average = 18.0683
Accepted packet length average = 18.0477
Total in-flight flits = 17328 (0 measured)
latency change    = 0.57932
throughput change = 0.0335547
Warmed up ...Time used is 3000 cycles
Class 0:
Packet latency average = 2058.77
	minimum = 40
	maximum = 3854
Network latency average = 340.34
	minimum = 23
	maximum = 940
Slowest packet = 6268
Flit latency average = 483.569
	minimum = 6
	maximum = 2696
Slowest flit = 35477
Fragmentation average = 56.7717
	minimum = 0
	maximum = 144
Injected packet rate average = 0.00885938
	minimum = 0 (at node 2)
	maximum = 0.019 (at node 66)
Accepted packet rate average = 0.00889063
	minimum = 0.003 (at node 22)
	maximum = 0.017 (at node 16)
Injected flit rate average = 0.159932
	minimum = 0 (at node 2)
	maximum = 0.359 (at node 66)
Accepted flit rate average= 0.159552
	minimum = 0.054 (at node 117)
	maximum = 0.303 (at node 16)
Injected packet length average = 18.0523
Accepted packet length average = 17.9461
Total in-flight flits = 17492 (15895 measured)
latency change    = 0.313609
throughput change = 0.012731
Class 0:
Packet latency average = 2464.81
	minimum = 40
	maximum = 4594
Network latency average = 451.913
	minimum = 23
	maximum = 1566
Slowest packet = 6268
Flit latency average = 490.737
	minimum = 6
	maximum = 2696
Slowest flit = 35477
Fragmentation average = 58.3655
	minimum = 0
	maximum = 144
Injected packet rate average = 0.00881771
	minimum = 0.0025 (at node 47)
	maximum = 0.017 (at node 62)
Accepted packet rate average = 0.00877344
	minimum = 0.0045 (at node 150)
	maximum = 0.0165 (at node 34)
Injected flit rate average = 0.158773
	minimum = 0.045 (at node 47)
	maximum = 0.3145 (at node 62)
Accepted flit rate average= 0.157539
	minimum = 0.073 (at node 150)
	maximum = 0.2975 (at node 34)
Injected packet length average = 18.0062
Accepted packet length average = 17.9564
Total in-flight flits = 18069 (18069 measured)
latency change    = 0.164734
throughput change = 0.0127779
Class 0:
Packet latency average = 2800.52
	minimum = 40
	maximum = 5800
Network latency average = 495.313
	minimum = 23
	maximum = 2062
Slowest packet = 6268
Flit latency average = 489.976
	minimum = 6
	maximum = 2696
Slowest flit = 35477
Fragmentation average = 59.133
	minimum = 0
	maximum = 160
Injected packet rate average = 0.00885069
	minimum = 0.00366667 (at node 8)
	maximum = 0.0156667 (at node 62)
Accepted packet rate average = 0.00879688
	minimum = 0.00533333 (at node 17)
	maximum = 0.0146667 (at node 16)
Injected flit rate average = 0.159403
	minimum = 0.062 (at node 8)
	maximum = 0.287667 (at node 62)
Accepted flit rate average= 0.158715
	minimum = 0.091 (at node 17)
	maximum = 0.263 (at node 16)
Injected packet length average = 18.0102
Accepted packet length average = 18.0422
Total in-flight flits = 17672 (17672 measured)
latency change    = 0.119874
throughput change = 0.00741085
Draining remaining packets ...
Time taken is 6808 cycles
====== Overall Traffic Statistics ======
====== Traffic class 0 ======
Packet latency average = 3018.59 (1 samples)
	minimum = 40 (1 samples)
	maximum = 6338 (1 samples)
Network latency average = 532.975 (1 samples)
	minimum = 23 (1 samples)
	maximum = 2584 (1 samples)
Flit latency average = 511.985 (1 samples)
	minimum = 6 (1 samples)
	maximum = 2696 (1 samples)
Fragmentation average = 57.3974 (1 samples)
	minimum = 0 (1 samples)
	maximum = 160 (1 samples)
Injected packet rate average = 0.00885069 (1 samples)
	minimum = 0.00366667 (1 samples)
	maximum = 0.0156667 (1 samples)
Accepted packet rate average = 0.00879688 (1 samples)
	minimum = 0.00533333 (1 samples)
	maximum = 0.0146667 (1 samples)
Injected flit rate average = 0.159403 (1 samples)
	minimum = 0.062 (1 samples)
	maximum = 0.287667 (1 samples)
Accepted flit rate average = 0.158715 (1 samples)
	minimum = 0.091 (1 samples)
	maximum = 0.263 (1 samples)
Injected packet size average = 18.0102 (1 samples)
Accepted packet size average = 18.0422 (1 samples)
Hops average = 5.08042 (1 samples)
Total run time 4.51701
