BEGIN Configuration File: networks/mezzanine_config
topology = mezzanine;
n = 12;

routing_function = multipath;
internal_speedup = 2.0;
latency_thres = 100000.0;
use_read_write = 0;

sample_period = 1000;
injection_rate = 0.5;
packet_size = 18;

noq = 1;
routing_delay = 0;
vc_alloc_delay = 1;
sw_alloc_delay = 1;
st_final_delay = 1;
vc_allocator = islip; 
sw_allocator = islip;
alloc_iters  = 4;
num_vcs     = 12;
buffer_policy = private; // private or shared
buf_size = -1; // -1 for buffer_policy = private;
vc_buf_size = 4096; // size of each VOQ with buffer_policy = private
output_buffer_size = -1;


traffic = uniform;

//mezW = 0.0;
//mezPredefinedPatternType = shift-inter; //shift-qfdb

END Configuration File: networks/mezzanine_config
OVERRIDE Parameter: injection_rate=0.011327
OVERRIDE Parameter: routing_function=multipath
OVERRIDE Parameter: num_vcs=64
OVERRIDE Parameter: vc_buf_size=18
OVERRIDE Parameter: internal_speedup=2.0
OVERRIDE Parameter: injection_process=bernoulli
OVERRIDE Parameter: sim_type=throughput
OVERRIDE Parameter: burst_alpha=0.0038461538
OVERRIDE Parameter: burst_beta=0.1
network: network_0
========================== Routing table  =====================
Number of Subnets: 1
Class 0:
Packet latency average = 79.3311
	minimum = 22
	maximum = 321
Network latency average = 77.3352
	minimum = 22
	maximum = 308
Slowest packet = 1251
Flit latency average = 50.5113
	minimum = 5
	maximum = 301
Slowest flit = 26454
Fragmentation average = 18.9893
	minimum = 0
	maximum = 147
Injected packet rate average = 0.0112448
	minimum = 0.004 (at node 12)
	maximum = 0.021 (at node 162)
Accepted packet rate average = 0.010224
	minimum = 0.002 (at node 174)
	maximum = 0.018 (at node 91)
Injected flit rate average = 0.200438
	minimum = 0.072 (at node 12)
	maximum = 0.378 (at node 162)
Accepted flit rate average= 0.187896
	minimum = 0.036 (at node 174)
	maximum = 0.324 (at node 91)
Injected packet length average = 17.8249
Accepted packet length average = 18.378
Total in-flight flits = 2786 (0 measured)
latency change    = 1
throughput change = 1
Class 0:
Packet latency average = 87.211
	minimum = 22
	maximum = 408
Network latency average = 85.2158
	minimum = 22
	maximum = 392
Slowest packet = 1682
Flit latency average = 57.7477
	minimum = 5
	maximum = 375
Slowest flit = 42353
Fragmentation average = 19.8546
	minimum = 0
	maximum = 155
Injected packet rate average = 0.0110964
	minimum = 0.0055 (at node 40)
	maximum = 0.017 (at node 166)
Accepted packet rate average = 0.0106536
	minimum = 0.006 (at node 30)
	maximum = 0.017 (at node 22)
Injected flit rate average = 0.198698
	minimum = 0.0955 (at node 40)
	maximum = 0.306 (at node 166)
Accepted flit rate average= 0.193557
	minimum = 0.108 (at node 30)
	maximum = 0.306 (at node 22)
Injected packet length average = 17.9066
Accepted packet length average = 18.1682
Total in-flight flits = 2372 (0 measured)
latency change    = 0.0903536
throughput change = 0.0292495
Class 0:
Packet latency average = 87.4304
	minimum = 22
	maximum = 371
Network latency average = 85.2612
	minimum = 22
	maximum = 371
Slowest packet = 3582
Flit latency average = 57.3968
	minimum = 5
	maximum = 354
Slowest flit = 64491
Fragmentation average = 20.6001
	minimum = 0
	maximum = 129
Injected packet rate average = 0.0112969
	minimum = 0.002 (at node 100)
	maximum = 0.022 (at node 144)
Accepted packet rate average = 0.0112656
	minimum = 0.005 (at node 121)
	maximum = 0.02 (at node 73)
Injected flit rate average = 0.203667
	minimum = 0.036 (at node 100)
	maximum = 0.386 (at node 144)
Accepted flit rate average= 0.202786
	minimum = 0.078 (at node 184)
	maximum = 0.36 (at node 73)
Injected packet length average = 18.0286
Accepted packet length average = 18.0005
Total in-flight flits = 2479 (0 measured)
latency change    = 0.00251022
throughput change = 0.0455118
Warmed up ...Time used is 3000 cycles
Class 0:
Packet latency average = 89.3685
	minimum = 22
	maximum = 353
Network latency average = 87.2977
	minimum = 22
	maximum = 349
Slowest packet = 7211
Flit latency average = 61.0513
	minimum = 5
	maximum = 332
Slowest flit = 129815
Fragmentation average = 20.4666
	minimum = 0
	maximum = 167
Injected packet rate average = 0.0117604
	minimum = 0.002 (at node 104)
	maximum = 0.02 (at node 78)
Accepted packet rate average = 0.0114323
	minimum = 0.003 (at node 163)
	maximum = 0.022 (at node 120)
Injected flit rate average = 0.210964
	minimum = 0.036 (at node 104)
	maximum = 0.36 (at node 117)
Accepted flit rate average= 0.206812
	minimum = 0.064 (at node 163)
	maximum = 0.389 (at node 120)
Injected packet length average = 17.9384
Accepted packet length average = 18.0902
Total in-flight flits = 3415 (3415 measured)
latency change    = 0.0216864
throughput change = 0.0194671
Class 0:
Packet latency average = 93.9609
	minimum = 22
	maximum = 455
Network latency average = 91.8684
	minimum = 22
	maximum = 455
Slowest packet = 9036
Flit latency average = 64.2108
	minimum = 5
	maximum = 438
Slowest flit = 162665
Fragmentation average = 21.1705
	minimum = 0
	maximum = 167
Injected packet rate average = 0.0114141
	minimum = 0.0065 (at node 18)
	maximum = 0.017 (at node 117)
Accepted packet rate average = 0.0114427
	minimum = 0.0065 (at node 86)
	maximum = 0.019 (at node 182)
Injected flit rate average = 0.20537
	minimum = 0.117 (at node 18)
	maximum = 0.3115 (at node 172)
Accepted flit rate average= 0.205878
	minimum = 0.117 (at node 86)
	maximum = 0.341 (at node 182)
Injected packet length average = 17.9927
Accepted packet length average = 17.992
Total in-flight flits = 2316 (2316 measured)
latency change    = 0.0488755
throughput change = 0.00454103
Class 0:
Packet latency average = 90.6524
	minimum = 22
	maximum = 455
Network latency average = 88.5337
	minimum = 22
	maximum = 455
Slowest packet = 9036
Flit latency average = 60.9674
	minimum = 5
	maximum = 438
Slowest flit = 162665
Fragmentation average = 20.7266
	minimum = 0
	maximum = 167
Injected packet rate average = 0.0113872
	minimum = 0.007 (at node 104)
	maximum = 0.0163333 (at node 172)
Accepted packet rate average = 0.0113437
	minimum = 0.00566667 (at node 4)
	maximum = 0.0173333 (at node 129)
Injected flit rate average = 0.205071
	minimum = 0.126 (at node 104)
	maximum = 0.297667 (at node 172)
Accepted flit rate average= 0.204436
	minimum = 0.105667 (at node 4)
	maximum = 0.315 (at node 129)
Injected packet length average = 18.009
Accepted packet length average = 18.0219
Total in-flight flits = 2786 (2786 measured)
latency change    = 0.0364963
throughput change = 0.00705278
Draining remaining packets ...
Time taken is 6164 cycles
====== Overall Traffic Statistics ======
====== Traffic class 0 ======
Packet latency average = 91.2113 (1 samples)
	minimum = 22 (1 samples)
	maximum = 455 (1 samples)
Network latency average = 89.0835 (1 samples)
	minimum = 22 (1 samples)
	maximum = 455 (1 samples)
Flit latency average = 61.4464 (1 samples)
	minimum = 5 (1 samples)
	maximum = 438 (1 samples)
Fragmentation average = 20.8722 (1 samples)
	minimum = 0 (1 samples)
	maximum = 167 (1 samples)
Injected packet rate average = 0.0113872 (1 samples)
	minimum = 0.007 (1 samples)
	maximum = 0.0163333 (1 samples)
Accepted packet rate average = 0.0113437 (1 samples)
	minimum = 0.00566667 (1 samples)
	maximum = 0.0173333 (1 samples)
Injected flit rate average = 0.205071 (1 samples)
	minimum = 0.126 (1 samples)
	maximum = 0.297667 (1 samples)
Accepted flit rate average = 0.204436 (1 samples)
	minimum = 0.105667 (1 samples)
	maximum = 0.315 (1 samples)
Injected packet size average = 18.009 (1 samples)
Accepted packet size average = 18.0219 (1 samples)
Hops average = 5.06678 (1 samples)
Total run time 4.27206
