BEGIN Configuration File: networks/mezzanine_config
topology = mezzanine;
n = 12;

routing_function = multipath;
internal_speedup = 2.0;
latency_thres = 100000.0;
use_read_write = 0;

sample_period = 1000;
injection_rate = 0.5;
packet_size = 18;

noq = 1;
routing_delay = 0;
vc_alloc_delay = 1;
sw_alloc_delay = 1;
st_final_delay = 1;
vc_allocator = islip; 
sw_allocator = islip;
alloc_iters  = 4;
num_vcs     = 12;
buffer_policy = private; // private or shared
buf_size = -1; // -1 for buffer_policy = private;
vc_buf_size = 4096; // size of each VOQ with buffer_policy = private
output_buffer_size = -1;


traffic = uniform;

//mezW = 0.0;
//mezPredefinedPatternType = shift-inter; //shift-qfdb

END Configuration File: networks/mezzanine_config
OVERRIDE Parameter: injection_rate=0.022377
OVERRIDE Parameter: routing_function=multipath
OVERRIDE Parameter: num_vcs=12
OVERRIDE Parameter: vc_buf_size=18
OVERRIDE Parameter: internal_speedup=2.0
OVERRIDE Parameter: injection_process=on_off
OVERRIDE Parameter: sim_type=throughput
OVERRIDE Parameter: burst_alpha=0.0038461538
OVERRIDE Parameter: burst_beta=0.1
network: network_0
========================== Routing table  =====================
Number of Subnets: 1
Class 0:
Packet latency average = 270.138
	minimum = 25
	maximum = 963
Network latency average = 163.434
	minimum = 22
	maximum = 770
Slowest packet = 21
Flit latency average = 136.829
	minimum = 5
	maximum = 753
Slowest flit = 9888
Fragmentation average = 18.2189
	minimum = 0
	maximum = 103
Injected packet rate average = 0.0162969
	minimum = 0 (at node 108)
	maximum = 0.04 (at node 32)
Accepted packet rate average = 0.0124219
	minimum = 0.004 (at node 41)
	maximum = 0.02 (at node 44)
Injected flit rate average = 0.289823
	minimum = 0 (at node 108)
	maximum = 0.72 (at node 32)
Accepted flit rate average= 0.229151
	minimum = 0.072 (at node 41)
	maximum = 0.377 (at node 48)
Injected packet length average = 17.784
Accepted packet length average = 18.4474
Total in-flight flits = 13189 (0 measured)
latency change    = 1
throughput change = 1
Class 0:
Packet latency average = 456.616
	minimum = 25
	maximum = 1864
Network latency average = 223.155
	minimum = 22
	maximum = 1181
Slowest packet = 21
Flit latency average = 193.457
	minimum = 5
	maximum = 1164
Slowest flit = 46673
Fragmentation average = 19.6123
	minimum = 0
	maximum = 118
Injected packet rate average = 0.0152865
	minimum = 0.0025 (at node 180)
	maximum = 0.032 (at node 89)
Accepted packet rate average = 0.013112
	minimum = 0.0065 (at node 116)
	maximum = 0.0195 (at node 22)
Injected flit rate average = 0.273279
	minimum = 0.045 (at node 180)
	maximum = 0.57 (at node 89)
Accepted flit rate average= 0.238115
	minimum = 0.117 (at node 116)
	maximum = 0.351 (at node 22)
Injected packet length average = 17.8772
Accepted packet length average = 18.1601
Total in-flight flits = 15448 (0 measured)
latency change    = 0.408391
throughput change = 0.0376438
Class 0:
Packet latency average = 1007.75
	minimum = 25
	maximum = 2770
Network latency average = 314.62
	minimum = 22
	maximum = 1422
Slowest packet = 4748
Flit latency average = 280.671
	minimum = 5
	maximum = 1413
Slowest flit = 85737
Fragmentation average = 21.9767
	minimum = 0
	maximum = 125
Injected packet rate average = 0.0138073
	minimum = 0 (at node 79)
	maximum = 0.031 (at node 51)
Accepted packet rate average = 0.013651
	minimum = 0.006 (at node 91)
	maximum = 0.025 (at node 16)
Injected flit rate average = 0.248656
	minimum = 0 (at node 79)
	maximum = 0.564 (at node 51)
Accepted flit rate average= 0.246208
	minimum = 0.098 (at node 91)
	maximum = 0.462 (at node 16)
Injected packet length average = 18.0091
Accepted packet length average = 18.0359
Total in-flight flits = 16308 (0 measured)
latency change    = 0.546895
throughput change = 0.0328736
Warmed up ...Time used is 3000 cycles
Class 0:
Packet latency average = 1311.07
	minimum = 25
	maximum = 3557
Network latency average = 266.674
	minimum = 22
	maximum = 873
Slowest packet = 8687
Flit latency average = 296.863
	minimum = 5
	maximum = 1686
Slowest flit = 86758
Fragmentation average = 20.2776
	minimum = 0
	maximum = 102
Injected packet rate average = 0.0141302
	minimum = 0 (at node 160)
	maximum = 0.036 (at node 26)
Accepted packet rate average = 0.0138958
	minimum = 0.005 (at node 36)
	maximum = 0.025 (at node 16)
Injected flit rate average = 0.253865
	minimum = 0 (at node 160)
	maximum = 0.647 (at node 26)
Accepted flit rate average= 0.250375
	minimum = 0.09 (at node 36)
	maximum = 0.441 (at node 16)
Injected packet length average = 17.9661
Accepted packet length average = 18.018
Total in-flight flits = 16854 (16750 measured)
latency change    = 0.231352
throughput change = 0.0166417
Class 0:
Packet latency average = 1564.57
	minimum = 25
	maximum = 4457
Network latency average = 308.272
	minimum = 22
	maximum = 1458
Slowest packet = 8687
Flit latency average = 299.865
	minimum = 5
	maximum = 1686
Slowest flit = 86758
Fragmentation average = 21.8376
	minimum = 0
	maximum = 114
Injected packet rate average = 0.0141641
	minimum = 0.004 (at node 87)
	maximum = 0.0265 (at node 26)
Accepted packet rate average = 0.014
	minimum = 0.0075 (at node 4)
	maximum = 0.0225 (at node 129)
Injected flit rate average = 0.254951
	minimum = 0.0745 (at node 87)
	maximum = 0.477 (at node 26)
Accepted flit rate average= 0.252568
	minimum = 0.1405 (at node 36)
	maximum = 0.4105 (at node 129)
Injected packet length average = 17.9998
Accepted packet length average = 18.0406
Total in-flight flits = 17170 (17170 measured)
latency change    = 0.162026
throughput change = 0.00868167
Class 0:
Packet latency average = 1773.05
	minimum = 25
	maximum = 5159
Network latency average = 319.507
	minimum = 22
	maximum = 1458
Slowest packet = 8687
Flit latency average = 300.464
	minimum = 5
	maximum = 1686
Slowest flit = 86758
Fragmentation average = 22.359
	minimum = 0
	maximum = 114
Injected packet rate average = 0.0141563
	minimum = 0.00533333 (at node 87)
	maximum = 0.0226667 (at node 122)
Accepted packet rate average = 0.0140694
	minimum = 0.009 (at node 36)
	maximum = 0.0193333 (at node 129)
Injected flit rate average = 0.254799
	minimum = 0.096 (at node 144)
	maximum = 0.411667 (at node 122)
Accepted flit rate average= 0.253488
	minimum = 0.162 (at node 36)
	maximum = 0.357333 (at node 129)
Injected packet length average = 17.999
Accepted packet length average = 18.0169
Total in-flight flits = 17233 (17233 measured)
latency change    = 0.117583
throughput change = 0.00362991
Draining remaining packets ...
Time taken is 6636 cycles
====== Overall Traffic Statistics ======
====== Traffic class 0 ======
Packet latency average = 1847.88 (1 samples)
	minimum = 25 (1 samples)
	maximum = 5439 (1 samples)
Network latency average = 333.012 (1 samples)
	minimum = 22 (1 samples)
	maximum = 1695 (1 samples)
Flit latency average = 310.424 (1 samples)
	minimum = 5 (1 samples)
	maximum = 1686 (1 samples)
Fragmentation average = 22.1153 (1 samples)
	minimum = 0 (1 samples)
	maximum = 114 (1 samples)
Injected packet rate average = 0.0141563 (1 samples)
	minimum = 0.00533333 (1 samples)
	maximum = 0.0226667 (1 samples)
Accepted packet rate average = 0.0140694 (1 samples)
	minimum = 0.009 (1 samples)
	maximum = 0.0193333 (1 samples)
Injected flit rate average = 0.254799 (1 samples)
	minimum = 0.096 (1 samples)
	maximum = 0.411667 (1 samples)
Accepted flit rate average = 0.253488 (1 samples)
	minimum = 0.162 (1 samples)
	maximum = 0.357333 (1 samples)
Injected packet size average = 17.999 (1 samples)
Accepted packet size average = 18.0169 (1 samples)
Hops average = 5.06358 (1 samples)
Total run time 5.41059
