BEGIN Configuration File: networks/mezzanine_config
topology = mezzanine;
n = 12;

routing_function = multipath;
internal_speedup = 2.0;
latency_thres = 100000.0;
use_read_write = 0;

sample_period = 1000;
injection_rate = 0.5;
packet_size = 18;

noq = 1;
routing_delay = 0;
vc_alloc_delay = 1;
sw_alloc_delay = 1;
st_final_delay = 1;
vc_allocator = islip; 
sw_allocator = islip;
alloc_iters  = 4;
num_vcs     = 12;
buffer_policy = private; // private or shared
buf_size = -1; // -1 for buffer_policy = private;
vc_buf_size = 4096; // size of each VOQ with buffer_policy = private
output_buffer_size = -1;


traffic = uniform;

//mezW = 0.0;
//mezPredefinedPatternType = shift-inter; //shift-qfdb

END Configuration File: networks/mezzanine_config
OVERRIDE Parameter: injection_rate=0.011327
OVERRIDE Parameter: routing_function=multipath
OVERRIDE Parameter: num_vcs=64
OVERRIDE Parameter: vc_buf_size=144
OVERRIDE Parameter: internal_speedup=1.0
OVERRIDE Parameter: injection_process=bernoulli
OVERRIDE Parameter: sim_type=throughput
OVERRIDE Parameter: burst_alpha=0.0038461538
OVERRIDE Parameter: burst_beta=0.1
network: network_0
========================== Routing table  =====================
Number of Subnets: 1
Class 0:
Packet latency average = 158.714
	minimum = 23
	maximum = 827
Network latency average = 156.72
	minimum = 23
	maximum = 827
Slowest packet = 157
Flit latency average = 94.4336
	minimum = 6
	maximum = 951
Slowest flit = 1246
Fragmentation average = 96.7458
	minimum = 0
	maximum = 691
Injected packet rate average = 0.0112448
	minimum = 0.004 (at node 12)
	maximum = 0.021 (at node 162)
Accepted packet rate average = 0.00842188
	minimum = 0.002 (at node 41)
	maximum = 0.016 (at node 91)
Injected flit rate average = 0.200438
	minimum = 0.072 (at node 12)
	maximum = 0.378 (at node 162)
Accepted flit rate average= 0.166568
	minimum = 0.036 (at node 41)
	maximum = 0.304 (at node 91)
Injected packet length average = 17.8249
Accepted packet length average = 19.778
Total in-flight flits = 6881 (0 measured)
latency change    = 1
throughput change = 1
Class 0:
Packet latency average = 223.51
	minimum = 23
	maximum = 1603
Network latency average = 221.509
	minimum = 23
	maximum = 1603
Slowest packet = 284
Flit latency average = 143.303
	minimum = 6
	maximum = 1586
Slowest flit = 5129
Fragmentation average = 130.833
	minimum = 0
	maximum = 1254
Injected packet rate average = 0.0110964
	minimum = 0.0055 (at node 40)
	maximum = 0.017 (at node 166)
Accepted packet rate average = 0.00920052
	minimum = 0.0045 (at node 174)
	maximum = 0.0155 (at node 22)
Injected flit rate average = 0.198698
	minimum = 0.0955 (at node 40)
	maximum = 0.306 (at node 166)
Accepted flit rate average= 0.175036
	minimum = 0.0925 (at node 174)
	maximum = 0.298 (at node 22)
Injected packet length average = 17.9066
Accepted packet length average = 19.0246
Total in-flight flits = 9484 (0 measured)
latency change    = 0.289901
throughput change = 0.0483828
Class 0:
Packet latency average = 335.399
	minimum = 23
	maximum = 2183
Network latency average = 333.436
	minimum = 23
	maximum = 2179
Slowest packet = 1153
Flit latency average = 233.236
	minimum = 6
	maximum = 2520
Slowest flit = 11399
Fragmentation average = 176.203
	minimum = 0
	maximum = 1594
Injected packet rate average = 0.0112969
	minimum = 0.002 (at node 100)
	maximum = 0.022 (at node 144)
Accepted packet rate average = 0.0106094
	minimum = 0.003 (at node 153)
	maximum = 0.019 (at node 63)
Injected flit rate average = 0.203667
	minimum = 0.036 (at node 100)
	maximum = 0.386 (at node 144)
Accepted flit rate average= 0.193276
	minimum = 0.074 (at node 121)
	maximum = 0.356 (at node 78)
Injected packet length average = 18.0286
Accepted packet length average = 18.2175
Total in-flight flits = 11417 (0 measured)
latency change    = 0.3336
throughput change = 0.0943706
Warmed up ...Time used is 3000 cycles
Class 0:
Packet latency average = 264.082
	minimum = 23
	maximum = 949
Network latency average = 262.052
	minimum = 23
	maximum = 949
Slowest packet = 6470
Flit latency average = 265.943
	minimum = 6
	maximum = 2953
Slowest flit = 29230
Fragmentation average = 156.136
	minimum = 0
	maximum = 628
Injected packet rate average = 0.0117604
	minimum = 0.002 (at node 104)
	maximum = 0.02 (at node 78)
Accepted packet rate average = 0.0107812
	minimum = 0.002 (at node 163)
	maximum = 0.019 (at node 16)
Injected flit rate average = 0.210964
	minimum = 0.036 (at node 104)
	maximum = 0.36 (at node 117)
Accepted flit rate average= 0.196333
	minimum = 0.036 (at node 163)
	maximum = 0.362 (at node 34)
Injected packet length average = 17.9384
Accepted packet length average = 18.2106
Total in-flight flits = 14365 (12063 measured)
latency change    = 0.270056
throughput change = 0.0155719
Class 0:
Packet latency average = 320.546
	minimum = 23
	maximum = 1776
Network latency average = 318.447
	minimum = 23
	maximum = 1776
Slowest packet = 6537
Flit latency average = 291.148
	minimum = 6
	maximum = 4632
Slowest flit = 11411
Fragmentation average = 173.175
	minimum = 0
	maximum = 1322
Injected packet rate average = 0.0114141
	minimum = 0.0065 (at node 18)
	maximum = 0.017 (at node 117)
Accepted packet rate average = 0.0109297
	minimum = 0.0055 (at node 163)
	maximum = 0.019 (at node 16)
Injected flit rate average = 0.20537
	minimum = 0.117 (at node 18)
	maximum = 0.3115 (at node 172)
Accepted flit rate average= 0.197422
	minimum = 0.1055 (at node 163)
	maximum = 0.3445 (at node 16)
Injected packet length average = 17.9927
Accepted packet length average = 18.0629
Total in-flight flits = 14501 (13408 measured)
latency change    = 0.176148
throughput change = 0.00551378
Class 0:
Packet latency average = 353.775
	minimum = 23
	maximum = 2856
Network latency average = 351.682
	minimum = 23
	maximum = 2856
Slowest packet = 6657
Flit latency average = 306.631
	minimum = 6
	maximum = 4758
Slowest flit = 42353
Fragmentation average = 183.567
	minimum = 0
	maximum = 2422
Injected packet rate average = 0.0113872
	minimum = 0.007 (at node 104)
	maximum = 0.0163333 (at node 172)
Accepted packet rate average = 0.0109687
	minimum = 0.00566667 (at node 4)
	maximum = 0.0166667 (at node 16)
Injected flit rate average = 0.205071
	minimum = 0.126 (at node 104)
	maximum = 0.297667 (at node 172)
Accepted flit rate average= 0.198161
	minimum = 0.0983333 (at node 4)
	maximum = 0.304 (at node 16)
Injected packet length average = 18.009
Accepted packet length average = 18.066
Total in-flight flits = 15338 (14749 measured)
latency change    = 0.0939277
throughput change = 0.00373223
Draining remaining packets ...
Time taken is 6671 cycles
====== Overall Traffic Statistics ======
====== Traffic class 0 ======
Packet latency average = 434.847 (1 samples)
	minimum = 23 (1 samples)
	maximum = 3484 (1 samples)
Network latency average = 432.719 (1 samples)
	minimum = 23 (1 samples)
	maximum = 3470 (1 samples)
Flit latency average = 381.212 (1 samples)
	minimum = 6 (1 samples)
	maximum = 5519 (1 samples)
Fragmentation average = 189.833 (1 samples)
	minimum = 0 (1 samples)
	maximum = 3122 (1 samples)
Injected packet rate average = 0.0113872 (1 samples)
	minimum = 0.007 (1 samples)
	maximum = 0.0163333 (1 samples)
Accepted packet rate average = 0.0109687 (1 samples)
	minimum = 0.00566667 (1 samples)
	maximum = 0.0166667 (1 samples)
Injected flit rate average = 0.205071 (1 samples)
	minimum = 0.126 (1 samples)
	maximum = 0.297667 (1 samples)
Accepted flit rate average = 0.198161 (1 samples)
	minimum = 0.0983333 (1 samples)
	maximum = 0.304 (1 samples)
Injected packet size average = 18.009 (1 samples)
Accepted packet size average = 18.066 (1 samples)
Hops average = 5.06678 (1 samples)
Total run time 5.67737
