BEGIN Configuration File: networks/mezzanine_config
topology = mezzanine;
n = 12;

routing_function = multipath;
internal_speedup = 2.0;
latency_thres = 100000.0;
use_read_write = 0;

sample_period = 1000;
injection_rate = 0.5;
packet_size = 18;

noq = 1;
routing_delay = 0;
vc_alloc_delay = 1;
sw_alloc_delay = 1;
st_final_delay = 1;
vc_allocator = islip; 
sw_allocator = islip;
alloc_iters  = 4;
num_vcs     = 12;
buffer_policy = private; // private or shared
buf_size = -1; // -1 for buffer_policy = private;
vc_buf_size = 4096; // size of each VOQ with buffer_policy = private
output_buffer_size = -1;


traffic = uniform;

//mezW = 0.0;
//mezPredefinedPatternType = shift-inter; //shift-qfdb

END Configuration File: networks/mezzanine_config
OVERRIDE Parameter: injection_rate=0.031217
OVERRIDE Parameter: routing_function=multipath
OVERRIDE Parameter: num_vcs=12
OVERRIDE Parameter: vc_buf_size=18
OVERRIDE Parameter: internal_speedup=2.0
OVERRIDE Parameter: injection_process=bernoulli
OVERRIDE Parameter: sim_type=throughput
OVERRIDE Parameter: burst_alpha=0.0038461538
OVERRIDE Parameter: burst_beta=0.1
network: network_0
========================== Routing table  =====================
Number of Subnets: 1
Class 0:
Packet latency average = 282.193
	minimum = 22
	maximum = 862
Network latency average = 228.165
	minimum = 22
	maximum = 815
Slowest packet = 836
Flit latency average = 199.953
	minimum = 5
	maximum = 798
Slowest flit = 15065
Fragmentation average = 21.5325
	minimum = 0
	maximum = 114
Injected packet rate average = 0.0187135
	minimum = 0.008 (at node 80)
	maximum = 0.03 (at node 17)
Accepted packet rate average = 0.0135469
	minimum = 0.004 (at node 174)
	maximum = 0.022 (at node 44)
Injected flit rate average = 0.333224
	minimum = 0.144 (at node 80)
	maximum = 0.54 (at node 17)
Accepted flit rate average= 0.249302
	minimum = 0.079 (at node 174)
	maximum = 0.397 (at node 44)
Injected packet length average = 17.8066
Accepted packet length average = 18.4029
Total in-flight flits = 18626 (0 measured)
latency change    = 1
throughput change = 1
Class 0:
Packet latency average = 548.204
	minimum = 22
	maximum = 1573
Network latency average = 294.001
	minimum = 22
	maximum = 1261
Slowest packet = 836
Flit latency average = 261.334
	minimum = 5
	maximum = 1244
Slowest flit = 27917
Fragmentation average = 21.9427
	minimum = 0
	maximum = 122
Injected packet rate average = 0.0163047
	minimum = 0.008 (at node 12)
	maximum = 0.024 (at node 27)
Accepted packet rate average = 0.0138177
	minimum = 0.008 (at node 83)
	maximum = 0.019 (at node 22)
Injected flit rate average = 0.291424
	minimum = 0.137 (at node 12)
	maximum = 0.4305 (at node 27)
Accepted flit rate average= 0.251216
	minimum = 0.147 (at node 83)
	maximum = 0.3465 (at node 22)
Injected packet length average = 17.8737
Accepted packet length average = 18.1807
Total in-flight flits = 18067 (0 measured)
latency change    = 0.485241
throughput change = 0.00761919
Class 0:
Packet latency average = 1355.62
	minimum = 410
	maximum = 2398
Network latency average = 362.275
	minimum = 22
	maximum = 1738
Slowest packet = 5589
Flit latency average = 327.289
	minimum = 5
	maximum = 1721
Slowest flit = 45070
Fragmentation average = 21.5703
	minimum = 0
	maximum = 134
Injected packet rate average = 0.0136667
	minimum = 0.002 (at node 113)
	maximum = 0.026 (at node 176)
Accepted packet rate average = 0.0136615
	minimum = 0.006 (at node 4)
	maximum = 0.025 (at node 16)
Injected flit rate average = 0.246536
	minimum = 0.036 (at node 180)
	maximum = 0.469 (at node 176)
Accepted flit rate average= 0.245583
	minimum = 0.106 (at node 54)
	maximum = 0.458 (at node 34)
Injected packet length average = 18.0393
Accepted packet length average = 17.9764
Total in-flight flits = 18345 (0 measured)
latency change    = 0.595606
throughput change = 0.0229365
Warmed up ...Time used is 3000 cycles
Class 0:
Packet latency average = 1944.43
	minimum = 966
	maximum = 2854
Network latency average = 273.812
	minimum = 22
	maximum = 900
Slowest packet = 9008
Flit latency average = 327.969
	minimum = 5
	maximum = 1710
Slowest flit = 128258
Fragmentation average = 20.8865
	minimum = 0
	maximum = 116
Injected packet rate average = 0.0139948
	minimum = 0.003 (at node 176)
	maximum = 0.031 (at node 178)
Accepted packet rate average = 0.0138958
	minimum = 0.006 (at node 48)
	maximum = 0.026 (at node 129)
Injected flit rate average = 0.25113
	minimum = 0.054 (at node 176)
	maximum = 0.557 (at node 178)
Accepted flit rate average= 0.250516
	minimum = 0.108 (at node 48)
	maximum = 0.455 (at node 129)
Injected packet length average = 17.9445
Accepted packet length average = 18.0281
Total in-flight flits = 18414 (18216 measured)
latency change    = 0.302818
throughput change = 0.0196886
Class 0:
Packet latency average = 2256.21
	minimum = 966
	maximum = 3762
Network latency average = 325.348
	minimum = 22
	maximum = 1562
Slowest packet = 9008
Flit latency average = 325.956
	minimum = 5
	maximum = 1733
Slowest flit = 128267
Fragmentation average = 22.1057
	minimum = 0
	maximum = 121
Injected packet rate average = 0.0140026
	minimum = 0.005 (at node 89)
	maximum = 0.025 (at node 178)
Accepted packet rate average = 0.0139219
	minimum = 0.009 (at node 84)
	maximum = 0.0225 (at node 129)
Injected flit rate average = 0.251935
	minimum = 0.0895 (at node 176)
	maximum = 0.4575 (at node 178)
Accepted flit rate average= 0.250589
	minimum = 0.162 (at node 84)
	maximum = 0.3915 (at node 129)
Injected packet length average = 17.992
Accepted packet length average = 17.9996
Total in-flight flits = 18833 (18833 measured)
latency change    = 0.13819
throughput change = 0.000290982
Class 0:
Packet latency average = 2544.93
	minimum = 966
	maximum = 4313
Network latency average = 342.931
	minimum = 22
	maximum = 1951
Slowest packet = 9008
Flit latency average = 328.888
	minimum = 5
	maximum = 1934
Slowest flit = 208634
Fragmentation average = 22.3454
	minimum = 0
	maximum = 121
Injected packet rate average = 0.0139288
	minimum = 0.00566667 (at node 53)
	maximum = 0.021 (at node 1)
Accepted packet rate average = 0.0138906
	minimum = 0.009 (at node 36)
	maximum = 0.02 (at node 128)
Injected flit rate average = 0.250814
	minimum = 0.102 (at node 53)
	maximum = 0.382 (at node 112)
Accepted flit rate average= 0.250168
	minimum = 0.163333 (at node 84)
	maximum = 0.36 (at node 128)
Injected packet length average = 18.0069
Accepted packet length average = 18.0099
Total in-flight flits = 18698 (18698 measured)
latency change    = 0.11345
throughput change = 0.00167942
Draining remaining packets ...
Time taken is 6835 cycles
====== Overall Traffic Statistics ======
====== Traffic class 0 ======
Packet latency average = 2671 (1 samples)
	minimum = 966 (1 samples)
	maximum = 4807 (1 samples)
Network latency average = 357.944 (1 samples)
	minimum = 22 (1 samples)
	maximum = 2222 (1 samples)
Flit latency average = 339.491 (1 samples)
	minimum = 5 (1 samples)
	maximum = 2205 (1 samples)
Fragmentation average = 22.0222 (1 samples)
	minimum = 0 (1 samples)
	maximum = 121 (1 samples)
Injected packet rate average = 0.0139288 (1 samples)
	minimum = 0.00566667 (1 samples)
	maximum = 0.021 (1 samples)
Accepted packet rate average = 0.0138906 (1 samples)
	minimum = 0.009 (1 samples)
	maximum = 0.02 (1 samples)
Injected flit rate average = 0.250814 (1 samples)
	minimum = 0.102 (1 samples)
	maximum = 0.382 (1 samples)
Accepted flit rate average = 0.250168 (1 samples)
	minimum = 0.163333 (1 samples)
	maximum = 0.36 (1 samples)
Injected packet size average = 18.0069 (1 samples)
Accepted packet size average = 18.0099 (1 samples)
Hops average = 5.06393 (1 samples)
Total run time 5.87757
