BEGIN Configuration File: networks/mezzanine_config
topology = mezzanine;
n = 12;

routing_function = multipath;
internal_speedup = 2.0;
latency_thres = 100000.0;
use_read_write = 0;

sample_period = 1000;
injection_rate = 0.5;
packet_size = 18;

noq = 1;
routing_delay = 0;
vc_alloc_delay = 1;
sw_alloc_delay = 1;
st_final_delay = 1;
vc_allocator = islip; 
sw_allocator = islip;
alloc_iters  = 4;
num_vcs     = 12;
buffer_policy = private; // private or shared
buf_size = -1; // -1 for buffer_policy = private;
vc_buf_size = 4096; // size of each VOQ with buffer_policy = private
output_buffer_size = -1;


traffic = uniform;

//mezW = 0.0;
//mezPredefinedPatternType = shift-inter; //shift-qfdb

END Configuration File: networks/mezzanine_config
OVERRIDE Parameter: injection_rate=0.055527
OVERRIDE Parameter: routing_function=multipath
OVERRIDE Parameter: num_vcs=12
OVERRIDE Parameter: vc_buf_size=18
OVERRIDE Parameter: internal_speedup=1.0
OVERRIDE Parameter: injection_process=bernoulli
OVERRIDE Parameter: sim_type=throughput
OVERRIDE Parameter: burst_alpha=0.0038461538
OVERRIDE Parameter: burst_beta=0.1
network: network_0
========================== Routing table  =====================
Number of Subnets: 1
Class 0:
Packet latency average = 410.012
	minimum = 23
	maximum = 964
Network latency average = 311.563
	minimum = 23
	maximum = 922
Slowest packet = 433
Flit latency average = 265.253
	minimum = 6
	maximum = 929
Slowest flit = 7538
Fragmentation average = 53.5185
	minimum = 0
	maximum = 133
Injected packet rate average = 0.0138281
	minimum = 0.006 (at node 94)
	maximum = 0.022 (at node 166)
Accepted packet rate average = 0.00898958
	minimum = 0.002 (at node 41)
	maximum = 0.017 (at node 131)
Injected flit rate average = 0.245146
	minimum = 0.108 (at node 94)
	maximum = 0.392 (at node 175)
Accepted flit rate average= 0.167823
	minimum = 0.036 (at node 41)
	maximum = 0.324 (at node 131)
Injected packet length average = 17.7281
Accepted packet length average = 18.6686
Total in-flight flits = 17476 (0 measured)
latency change    = 1
throughput change = 1
Class 0:
Packet latency average = 812.265
	minimum = 23
	maximum = 1972
Network latency average = 419.877
	minimum = 23
	maximum = 1896
Slowest packet = 588
Flit latency average = 366.757
	minimum = 6
	maximum = 1873
Slowest flit = 12450
Fragmentation average = 56.6237
	minimum = 0
	maximum = 143
Injected packet rate average = 0.0113828
	minimum = 0.005 (at node 93)
	maximum = 0.021 (at node 92)
Accepted packet rate average = 0.00889323
	minimum = 0.004 (at node 174)
	maximum = 0.0135 (at node 44)
Injected flit rate average = 0.202664
	minimum = 0.09 (at node 93)
	maximum = 0.374 (at node 92)
Accepted flit rate average= 0.16337
	minimum = 0.074 (at node 174)
	maximum = 0.243 (at node 44)
Injected packet length average = 17.8044
Accepted packet length average = 18.3701
Total in-flight flits = 17780 (0 measured)
latency change    = 0.495224
throughput change = 0.0272579
Class 0:
Packet latency average = 2060.71
	minimum = 1307
	maximum = 2859
Network latency average = 567.287
	minimum = 23
	maximum = 2211
Slowest packet = 842
Flit latency average = 499.475
	minimum = 6
	maximum = 2189
Slowest flit = 41759
Fragmentation average = 60.2792
	minimum = 0
	maximum = 129
Injected packet rate average = 0.00899479
	minimum = 0 (at node 69)
	maximum = 0.023 (at node 138)
Accepted packet rate average = 0.00885938
	minimum = 0.002 (at node 153)
	maximum = 0.017 (at node 113)
Injected flit rate average = 0.162224
	minimum = 0 (at node 69)
	maximum = 0.408 (at node 138)
Accepted flit rate average= 0.160188
	minimum = 0.036 (at node 153)
	maximum = 0.308 (at node 113)
Injected packet length average = 18.0353
Accepted packet length average = 18.0811
Total in-flight flits = 17984 (0 measured)
latency change    = 0.605831
throughput change = 0.019866
Warmed up ...Time used is 3000 cycles
Class 0:
Packet latency average = 3020.63
	minimum = 2141
	maximum = 3626
Network latency average = 335.056
	minimum = 23
	maximum = 910
Slowest packet = 6261
Flit latency average = 491.188
	minimum = 6
	maximum = 2315
Slowest flit = 42570
Fragmentation average = 54.445
	minimum = 0
	maximum = 130
Injected packet rate average = 0.00893229
	minimum = 0.001 (at node 93)
	maximum = 0.021 (at node 152)
Accepted packet rate average = 0.00908854
	minimum = 0.003 (at node 83)
	maximum = 0.019 (at node 34)
Injected flit rate average = 0.160448
	minimum = 0.002 (at node 93)
	maximum = 0.385 (at node 152)
Accepted flit rate average= 0.162182
	minimum = 0.039 (at node 83)
	maximum = 0.307 (at node 34)
Injected packet length average = 17.9627
Accepted packet length average = 17.8447
Total in-flight flits = 17895 (16747 measured)
latency change    = 0.31779
throughput change = 0.0122997
Class 0:
Packet latency average = 3526.51
	minimum = 2141
	maximum = 4594
Network latency average = 453.282
	minimum = 23
	maximum = 1774
Slowest packet = 6261
Flit latency average = 483.895
	minimum = 6
	maximum = 2315
Slowest flit = 42570
Fragmentation average = 57.1561
	minimum = 0
	maximum = 130
Injected packet rate average = 0.00899219
	minimum = 0.0025 (at node 5)
	maximum = 0.018 (at node 152)
Accepted packet rate average = 0.00910677
	minimum = 0.0045 (at node 22)
	maximum = 0.0155 (at node 16)
Injected flit rate average = 0.161982
	minimum = 0.0425 (at node 89)
	maximum = 0.3275 (at node 152)
Accepted flit rate average= 0.163182
	minimum = 0.081 (at node 61)
	maximum = 0.287 (at node 16)
Injected packet length average = 18.0136
Accepted packet length average = 17.9188
Total in-flight flits = 17836 (17804 measured)
latency change    = 0.143451
throughput change = 0.00612812
Class 0:
Packet latency average = 3963.95
	minimum = 2141
	maximum = 5412
Network latency average = 494.638
	minimum = 23
	maximum = 2349
Slowest packet = 6261
Flit latency average = 486.152
	minimum = 6
	maximum = 2319
Slowest flit = 125837
Fragmentation average = 58.088
	minimum = 0
	maximum = 153
Injected packet rate average = 0.00897396
	minimum = 0.00266667 (at node 48)
	maximum = 0.0163333 (at node 124)
Accepted packet rate average = 0.00906771
	minimum = 0.00533333 (at node 180)
	maximum = 0.0146667 (at node 16)
Injected flit rate average = 0.161644
	minimum = 0.0483333 (at node 48)
	maximum = 0.299 (at node 143)
Accepted flit rate average= 0.162665
	minimum = 0.0963333 (at node 190)
	maximum = 0.269 (at node 16)
Injected packet length average = 18.0126
Accepted packet length average = 17.9389
Total in-flight flits = 17565 (17565 measured)
latency change    = 0.110353
throughput change = 0.00318053
Draining remaining packets ...
Time taken is 6867 cycles
====== Overall Traffic Statistics ======
====== Traffic class 0 ======
Packet latency average = 4230.29 (1 samples)
	minimum = 2141 (1 samples)
	maximum = 6114 (1 samples)
Network latency average = 528.413 (1 samples)
	minimum = 23 (1 samples)
	maximum = 2633 (1 samples)
Flit latency average = 505.824 (1 samples)
	minimum = 6 (1 samples)
	maximum = 2610 (1 samples)
Fragmentation average = 56.1424 (1 samples)
	minimum = 0 (1 samples)
	maximum = 153 (1 samples)
Injected packet rate average = 0.00897396 (1 samples)
	minimum = 0.00266667 (1 samples)
	maximum = 0.0163333 (1 samples)
Accepted packet rate average = 0.00906771 (1 samples)
	minimum = 0.00533333 (1 samples)
	maximum = 0.0146667 (1 samples)
Injected flit rate average = 0.161644 (1 samples)
	minimum = 0.0483333 (1 samples)
	maximum = 0.299 (1 samples)
Accepted flit rate average = 0.162665 (1 samples)
	minimum = 0.0963333 (1 samples)
	maximum = 0.269 (1 samples)
Injected packet size average = 18.0126 (1 samples)
Accepted packet size average = 17.9389 (1 samples)
Hops average = 5.06272 (1 samples)
Total run time 4.58034
