BEGIN Configuration File: networks/mezzanine_config
topology = mezzanine;
n = 12;

routing_function = multipath;
internal_speedup = 2.0;
latency_thres = 100000.0;
use_read_write = 0;

sample_period = 1000;
injection_rate = 0.5;
packet_size = 18;

noq = 1;
routing_delay = 0;
vc_alloc_delay = 1;
sw_alloc_delay = 1;
st_final_delay = 1;
vc_allocator = islip; 
sw_allocator = islip;
alloc_iters  = 4;
num_vcs     = 12;
buffer_policy = private; // private or shared
buf_size = -1; // -1 for buffer_policy = private;
vc_buf_size = 4096; // size of each VOQ with buffer_policy = private
output_buffer_size = -1;


traffic = uniform;

//mezW = 0.0;
//mezPredefinedPatternType = shift-inter; //shift-qfdb

END Configuration File: networks/mezzanine_config
OVERRIDE Parameter: injection_rate=0.033427
OVERRIDE Parameter: routing_function=multipath
OVERRIDE Parameter: num_vcs=12
OVERRIDE Parameter: vc_buf_size=18
OVERRIDE Parameter: internal_speedup=2.0
OVERRIDE Parameter: injection_process=bernoulli
OVERRIDE Parameter: sim_type=throughput
OVERRIDE Parameter: burst_alpha=0.0038461538
OVERRIDE Parameter: burst_beta=0.1
network: network_0
========================== Routing table  =====================
Number of Subnets: 1
Class 0:
Packet latency average = 293.512
	minimum = 22
	maximum = 824
Network latency average = 237.634
	minimum = 22
	maximum = 761
Slowest packet = 733
Flit latency average = 209.052
	minimum = 5
	maximum = 744
Slowest flit = 22913
Fragmentation average = 21.7405
	minimum = 0
	maximum = 116
Injected packet rate average = 0.0187552
	minimum = 0.01 (at node 47)
	maximum = 0.027 (at node 134)
Accepted packet rate average = 0.0135885
	minimum = 0.005 (at node 174)
	maximum = 0.023 (at node 44)
Injected flit rate average = 0.333656
	minimum = 0.18 (at node 47)
	maximum = 0.478 (at node 134)
Accepted flit rate average= 0.250063
	minimum = 0.09 (at node 174)
	maximum = 0.416 (at node 44)
Injected packet length average = 17.7901
Accepted packet length average = 18.4025
Total in-flight flits = 18678 (0 measured)
latency change    = 1
throughput change = 1
Class 0:
Packet latency average = 572.576
	minimum = 22
	maximum = 1695
Network latency average = 299.01
	minimum = 22
	maximum = 1297
Slowest packet = 1056
Flit latency average = 266.365
	minimum = 5
	maximum = 1533
Slowest flit = 37335
Fragmentation average = 22.3764
	minimum = 0
	maximum = 119
Injected packet rate average = 0.0164427
	minimum = 0.007 (at node 132)
	maximum = 0.0245 (at node 3)
Accepted packet rate average = 0.0139427
	minimum = 0.0075 (at node 153)
	maximum = 0.02 (at node 177)
Injected flit rate average = 0.293807
	minimum = 0.126 (at node 132)
	maximum = 0.441 (at node 3)
Accepted flit rate average= 0.253245
	minimum = 0.135 (at node 153)
	maximum = 0.36 (at node 177)
Injected packet length average = 17.8685
Accepted packet length average = 18.1632
Total in-flight flits = 18314 (0 measured)
latency change    = 0.487384
throughput change = 0.0125661
Class 0:
Packet latency average = 1437.58
	minimum = 495
	maximum = 2419
Network latency average = 365.87
	minimum = 22
	maximum = 1777
Slowest packet = 2074
Flit latency average = 330.004
	minimum = 5
	maximum = 1736
Slowest flit = 48986
Fragmentation average = 22.5893
	minimum = 0
	maximum = 114
Injected packet rate average = 0.0138698
	minimum = 0 (at node 179)
	maximum = 0.035 (at node 135)
Accepted packet rate average = 0.0137969
	minimum = 0.006 (at node 96)
	maximum = 0.027 (at node 34)
Injected flit rate average = 0.249938
	minimum = 0 (at node 179)
	maximum = 0.632 (at node 135)
Accepted flit rate average= 0.249604
	minimum = 0.115 (at node 190)
	maximum = 0.469 (at node 34)
Injected packet length average = 18.0203
Accepted packet length average = 18.0914
Total in-flight flits = 18306 (0 measured)
latency change    = 0.601708
throughput change = 0.0145856
Warmed up ...Time used is 3000 cycles
Class 0:
Packet latency average = 2060.02
	minimum = 933
	maximum = 2986
Network latency average = 290.418
	minimum = 22
	maximum = 857
Slowest packet = 9094
Flit latency average = 330.261
	minimum = 5
	maximum = 2192
Slowest flit = 91151
Fragmentation average = 21.6772
	minimum = 0
	maximum = 106
Injected packet rate average = 0.0140729
	minimum = 0.004 (at node 41)
	maximum = 0.027 (at node 49)
Accepted packet rate average = 0.0140365
	minimum = 0.007 (at node 5)
	maximum = 0.024 (at node 123)
Injected flit rate average = 0.253125
	minimum = 0.061 (at node 177)
	maximum = 0.491 (at node 49)
Accepted flit rate average= 0.25226
	minimum = 0.117 (at node 71)
	maximum = 0.434 (at node 129)
Injected packet length average = 17.9867
Accepted packet length average = 17.9718
Total in-flight flits = 18508 (18436 measured)
latency change    = 0.302152
throughput change = 0.0105298
Class 0:
Packet latency average = 2390.31
	minimum = 933
	maximum = 3727
Network latency average = 337.251
	minimum = 22
	maximum = 1483
Slowest packet = 9094
Flit latency average = 329.988
	minimum = 5
	maximum = 2192
Slowest flit = 91151
Fragmentation average = 22.7194
	minimum = 0
	maximum = 114
Injected packet rate average = 0.0139427
	minimum = 0.007 (at node 152)
	maximum = 0.0255 (at node 39)
Accepted packet rate average = 0.013974
	minimum = 0.0075 (at node 79)
	maximum = 0.023 (at node 129)
Injected flit rate average = 0.25087
	minimum = 0.13 (at node 152)
	maximum = 0.451 (at node 39)
Accepted flit rate average= 0.251401
	minimum = 0.136 (at node 79)
	maximum = 0.4085 (at node 129)
Injected packet length average = 17.9929
Accepted packet length average = 17.9907
Total in-flight flits = 18014 (18014 measured)
latency change    = 0.138179
throughput change = 0.00341834
Class 0:
Packet latency average = 2679.93
	minimum = 933
	maximum = 4451
Network latency average = 346.143
	minimum = 22
	maximum = 1483
Slowest packet = 9094
Flit latency average = 328.295
	minimum = 5
	maximum = 2192
Slowest flit = 91151
Fragmentation average = 23.0227
	minimum = 0
	maximum = 118
Injected packet rate average = 0.0138698
	minimum = 0.00733333 (at node 130)
	maximum = 0.0216667 (at node 39)
Accepted packet rate average = 0.0139063
	minimum = 0.00933333 (at node 36)
	maximum = 0.02 (at node 128)
Injected flit rate average = 0.249908
	minimum = 0.136333 (at node 130)
	maximum = 0.386 (at node 39)
Accepted flit rate average= 0.250182
	minimum = 0.168 (at node 36)
	maximum = 0.355667 (at node 128)
Injected packet length average = 18.0181
Accepted packet length average = 17.9906
Total in-flight flits = 18183 (18183 measured)
latency change    = 0.108071
throughput change = 0.00487145
Draining remaining packets ...
Time taken is 6772 cycles
====== Overall Traffic Statistics ======
====== Traffic class 0 ======
Packet latency average = 2806.66 (1 samples)
	minimum = 933 (1 samples)
	maximum = 4994 (1 samples)
Network latency average = 361.896 (1 samples)
	minimum = 22 (1 samples)
	maximum = 1687 (1 samples)
Flit latency average = 339.672 (1 samples)
	minimum = 5 (1 samples)
	maximum = 2192 (1 samples)
Fragmentation average = 22.6601 (1 samples)
	minimum = 0 (1 samples)
	maximum = 118 (1 samples)
Injected packet rate average = 0.0138698 (1 samples)
	minimum = 0.00733333 (1 samples)
	maximum = 0.0216667 (1 samples)
Accepted packet rate average = 0.0139063 (1 samples)
	minimum = 0.00933333 (1 samples)
	maximum = 0.02 (1 samples)
Injected flit rate average = 0.249908 (1 samples)
	minimum = 0.136333 (1 samples)
	maximum = 0.386 (1 samples)
Accepted flit rate average = 0.250182 (1 samples)
	minimum = 0.168 (1 samples)
	maximum = 0.355667 (1 samples)
Injected packet size average = 18.0181 (1 samples)
Accepted packet size average = 17.9906 (1 samples)
Hops average = 5.08389 (1 samples)
Total run time 5.94829
