BEGIN Configuration File: networks/mezzanine_config
topology = mezzanine;
n = 12;

routing_function = multipath;
internal_speedup = 2.0;
latency_thres = 100000.0;
use_read_write = 0;

sample_period = 1000;
injection_rate = 0.5;
packet_size = 18;

noq = 1;
routing_delay = 0;
vc_alloc_delay = 1;
sw_alloc_delay = 1;
st_final_delay = 1;
vc_allocator = islip; 
sw_allocator = islip;
alloc_iters  = 4;
num_vcs     = 12;
buffer_policy = private; // private or shared
buf_size = -1; // -1 for buffer_policy = private;
vc_buf_size = 4096; // size of each VOQ with buffer_policy = private
output_buffer_size = -1;


traffic = uniform;

//mezW = 0.0;
//mezPredefinedPatternType = shift-inter; //shift-qfdb

END Configuration File: networks/mezzanine_config
OVERRIDE Parameter: injection_rate=0.006907
OVERRIDE Parameter: routing_function=multipath
OVERRIDE Parameter: num_vcs=12
OVERRIDE Parameter: vc_buf_size=1024
OVERRIDE Parameter: internal_speedup=2.0
OVERRIDE Parameter: injection_process=bernoulli
OVERRIDE Parameter: sim_type=throughput
OVERRIDE Parameter: burst_alpha=0.0038461538
OVERRIDE Parameter: burst_beta=0.1
network: network_0
========================== Routing table  =====================
Number of Subnets: 1
Class 0:
Packet latency average = 52.0327
	minimum = 22
	maximum = 168
Network latency average = 50.7543
	minimum = 22
	maximum = 168
Slowest packet = 649
Flit latency average = 29.4661
	minimum = 5
	maximum = 151
Slowest flit = 11698
Fragmentation average = 7.8751
	minimum = 0
	maximum = 41
Injected packet rate average = 0.00677083
	minimum = 0.001 (at node 176)
	maximum = 0.014 (at node 173)
Accepted packet rate average = 0.00638021
	minimum = 0.001 (at node 41)
	maximum = 0.013 (at node 20)
Injected flit rate average = 0.120698
	minimum = 0.018 (at node 176)
	maximum = 0.252 (at node 173)
Accepted flit rate average= 0.117005
	minimum = 0.018 (at node 41)
	maximum = 0.234 (at node 20)
Injected packet length average = 17.8262
Accepted packet length average = 18.3388
Total in-flight flits = 935 (0 measured)
latency change    = 1
throughput change = 1
Class 0:
Packet latency average = 51.6609
	minimum = 22
	maximum = 172
Network latency average = 50.4302
	minimum = 22
	maximum = 172
Slowest packet = 1461
Flit latency average = 29.1547
	minimum = 5
	maximum = 155
Slowest flit = 26308
Fragmentation average = 7.7175
	minimum = 0
	maximum = 47
Injected packet rate average = 0.0066224
	minimum = 0.002 (at node 37)
	maximum = 0.0125 (at node 172)
Accepted packet rate average = 0.00648958
	minimum = 0.0025 (at node 115)
	maximum = 0.0105 (at node 44)
Injected flit rate average = 0.118724
	minimum = 0.036 (at node 37)
	maximum = 0.225 (at node 172)
Accepted flit rate average= 0.117383
	minimum = 0.045 (at node 115)
	maximum = 0.189 (at node 44)
Injected packet length average = 17.9276
Accepted packet length average = 18.0879
Total in-flight flits = 699 (0 measured)
latency change    = 0.00719573
throughput change = 0.00321686
Class 0:
Packet latency average = 51.1066
	minimum = 22
	maximum = 159
Network latency average = 49.8405
	minimum = 22
	maximum = 154
Slowest packet = 2464
Flit latency average = 28.5227
	minimum = 5
	maximum = 137
Slowest flit = 44729
Fragmentation average = 7.6786
	minimum = 0
	maximum = 52
Injected packet rate average = 0.00679167
	minimum = 0.001 (at node 125)
	maximum = 0.016 (at node 34)
Accepted packet rate average = 0.00669271
	minimum = 0.001 (at node 18)
	maximum = 0.018 (at node 22)
Injected flit rate average = 0.122089
	minimum = 0.018 (at node 125)
	maximum = 0.288 (at node 34)
Accepted flit rate average= 0.121068
	minimum = 0.013 (at node 18)
	maximum = 0.324 (at node 22)
Injected packet length average = 17.9762
Accepted packet length average = 18.0895
Total in-flight flits = 926 (0 measured)
latency change    = 0.010846
throughput change = 0.0304367
Warmed up ...Time used is 3000 cycles
Class 0:
Packet latency average = 51.0344
	minimum = 22
	maximum = 149
Network latency average = 49.8707
	minimum = 22
	maximum = 143
Slowest packet = 3954
Flit latency average = 28.7939
	minimum = 5
	maximum = 126
Slowest flit = 71189
Fragmentation average = 7.61591
	minimum = 0
	maximum = 59
Injected packet rate average = 0.00718229
	minimum = 0.002 (at node 28)
	maximum = 0.018 (at node 115)
Accepted packet rate average = 0.00717188
	minimum = 0 (at node 153)
	maximum = 0.014 (at node 6)
Injected flit rate average = 0.129193
	minimum = 0.036 (at node 28)
	maximum = 0.324 (at node 115)
Accepted flit rate average= 0.129328
	minimum = 0.017 (at node 153)
	maximum = 0.252 (at node 6)
Injected packet length average = 17.9877
Accepted packet length average = 18.0327
Total in-flight flits = 917 (917 measured)
latency change    = 0.00141443
throughput change = 0.0638718
Class 0:
Packet latency average = 51.2419
	minimum = 22
	maximum = 158
Network latency average = 50.1962
	minimum = 22
	maximum = 158
Slowest packet = 5914
Flit latency average = 29.0654
	minimum = 5
	maximum = 141
Slowest flit = 106465
Fragmentation average = 7.58222
	minimum = 0
	maximum = 59
Injected packet rate average = 0.00692969
	minimum = 0.0025 (at node 2)
	maximum = 0.0115 (at node 5)
Accepted packet rate average = 0.00697656
	minimum = 0.003 (at node 184)
	maximum = 0.0115 (at node 63)
Injected flit rate average = 0.124703
	minimum = 0.045 (at node 2)
	maximum = 0.207 (at node 5)
Accepted flit rate average= 0.12519
	minimum = 0.054 (at node 184)
	maximum = 0.2 (at node 63)
Injected packet length average = 17.9955
Accepted packet length average = 17.9444
Total in-flight flits = 751 (751 measured)
latency change    = 0.00404796
throughput change = 0.0330539
Class 0:
Packet latency average = 51.0456
	minimum = 22
	maximum = 158
Network latency average = 49.9487
	minimum = 22
	maximum = 158
Slowest packet = 5914
Flit latency average = 28.8356
	minimum = 5
	maximum = 141
Slowest flit = 106465
Fragmentation average = 7.54653
	minimum = 0
	maximum = 59
Injected packet rate average = 0.0068941
	minimum = 0.003 (at node 112)
	maximum = 0.0106667 (at node 191)
Accepted packet rate average = 0.0068941
	minimum = 0.00333333 (at node 153)
	maximum = 0.0106667 (at node 34)
Injected flit rate average = 0.124269
	minimum = 0.054 (at node 112)
	maximum = 0.195 (at node 191)
Accepted flit rate average= 0.124214
	minimum = 0.06 (at node 153)
	maximum = 0.197 (at node 34)
Injected packet length average = 18.0254
Accepted packet length average = 18.0174
Total in-flight flits = 857 (857 measured)
latency change    = 0.00384413
throughput change = 0.00786196
Class 0:
Packet latency average = 51.0795
	minimum = 22
	maximum = 161
Network latency average = 49.9887
	minimum = 22
	maximum = 161
Slowest packet = 7647
Flit latency average = 28.8944
	minimum = 5
	maximum = 144
Slowest flit = 137646
Fragmentation average = 7.44968
	minimum = 0
	maximum = 68
Injected packet rate average = 0.006875
	minimum = 0.0035 (at node 112)
	maximum = 0.01025 (at node 69)
Accepted packet rate average = 0.00688411
	minimum = 0.00425 (at node 91)
	maximum = 0.0115 (at node 16)
Injected flit rate average = 0.123779
	minimum = 0.063 (at node 112)
	maximum = 0.186 (at node 191)
Accepted flit rate average= 0.123924
	minimum = 0.0765 (at node 91)
	maximum = 0.20925 (at node 16)
Injected packet length average = 18.0042
Accepted packet length average = 18.0015
Total in-flight flits = 792 (792 measured)
latency change    = 0.000664029
throughput change = 0.00233257
Draining remaining packets ...
Time taken is 7085 cycles
====== Overall Traffic Statistics ======
====== Traffic class 0 ======
Packet latency average = 51.1295 (1 samples)
	minimum = 22 (1 samples)
	maximum = 161 (1 samples)
Network latency average = 50.0407 (1 samples)
	minimum = 22 (1 samples)
	maximum = 161 (1 samples)
Flit latency average = 28.9558 (1 samples)
	minimum = 5 (1 samples)
	maximum = 144 (1 samples)
Fragmentation average = 7.46117 (1 samples)
	minimum = 0 (1 samples)
	maximum = 68 (1 samples)
Injected packet rate average = 0.006875 (1 samples)
	minimum = 0.0035 (1 samples)
	maximum = 0.01025 (1 samples)
Accepted packet rate average = 0.00688411 (1 samples)
	minimum = 0.00425 (1 samples)
	maximum = 0.0115 (1 samples)
Injected flit rate average = 0.123779 (1 samples)
	minimum = 0.063 (1 samples)
	maximum = 0.186 (1 samples)
Accepted flit rate average = 0.123924 (1 samples)
	minimum = 0.0765 (1 samples)
	maximum = 0.20925 (1 samples)
Injected packet size average = 18.0042 (1 samples)
Accepted packet size average = 18.0015 (1 samples)
Hops average = 5.07576 (1 samples)
Total run time 2.17964
