BEGIN Configuration File: networks/mezzanine_config
topology = mezzanine;
n = 12;

routing_function = multipath;
internal_speedup = 2.0;
latency_thres = 100000.0;
use_read_write = 0;

sample_period = 1000;
injection_rate = 0.5;
packet_size = 18;

noq = 1;
routing_delay = 0;
vc_alloc_delay = 1;
sw_alloc_delay = 1;
st_final_delay = 1;
vc_allocator = islip; 
sw_allocator = islip;
alloc_iters  = 4;
num_vcs     = 12;
buffer_policy = private; // private or shared
buf_size = -1; // -1 for buffer_policy = private;
vc_buf_size = 4096; // size of each VOQ with buffer_policy = private
output_buffer_size = -1;


traffic = uniform;

//mezW = 0.0;
//mezPredefinedPatternType = shift-inter; //shift-qfdb

END Configuration File: networks/mezzanine_config
OVERRIDE Parameter: injection_rate=0.004697
OVERRIDE Parameter: routing_function=multipath
OVERRIDE Parameter: num_vcs=12
OVERRIDE Parameter: vc_buf_size=144
OVERRIDE Parameter: internal_speedup=1.0
OVERRIDE Parameter: injection_process=on_off
OVERRIDE Parameter: sim_type=throughput
OVERRIDE Parameter: burst_alpha=0.0038461538
OVERRIDE Parameter: burst_beta=0.1
network: network_0
========================== Routing table  =====================
Number of Subnets: 1
Class 0:
Packet latency average = 81.5865
	minimum = 23
	maximum = 244
Network latency average = 65.8697
	minimum = 23
	maximum = 195
Slowest packet = 13
Flit latency average = 40.7006
	minimum = 6
	maximum = 178
Slowest flit = 2753
Fragmentation average = 15.0673
	minimum = 0
	maximum = 57
Injected packet rate average = 0.00510938
	minimum = 0 (at node 5)
	maximum = 0.02 (at node 161)
Accepted packet rate average = 0.004875
	minimum = 0.001 (at node 41)
	maximum = 0.011 (at node 140)
Injected flit rate average = 0.090974
	minimum = 0 (at node 5)
	maximum = 0.36 (at node 161)
Accepted flit rate average= 0.0884844
	minimum = 0.018 (at node 41)
	maximum = 0.198 (at node 140)
Injected packet length average = 17.8053
Accepted packet length average = 18.1506
Total in-flight flits = 669 (0 measured)
latency change    = 1
throughput change = 1
Class 0:
Packet latency average = 79.7223
	minimum = 23
	maximum = 329
Network latency average = 64.453
	minimum = 23
	maximum = 268
Slowest packet = 1141
Flit latency average = 39.7988
	minimum = 6
	maximum = 251
Slowest flit = 21257
Fragmentation average = 14.1639
	minimum = 0
	maximum = 61
Injected packet rate average = 0.00473437
	minimum = 0 (at node 37)
	maximum = 0.014 (at node 161)
Accepted packet rate average = 0.00457552
	minimum = 0.0005 (at node 41)
	maximum = 0.008 (at node 48)
Injected flit rate average = 0.0848724
	minimum = 0 (at node 37)
	maximum = 0.251 (at node 161)
Accepted flit rate average= 0.0830078
	minimum = 0.009 (at node 41)
	maximum = 0.1455 (at node 70)
Injected packet length average = 17.9268
Accepted packet length average = 18.1417
Total in-flight flits = 849 (0 measured)
latency change    = 0.0233847
throughput change = 0.0659765
Class 0:
Packet latency average = 85.7617
	minimum = 27
	maximum = 386
Network latency average = 69.6273
	minimum = 23
	maximum = 350
Slowest packet = 2111
Flit latency average = 43.6046
	minimum = 6
	maximum = 333
Slowest flit = 38015
Fragmentation average = 17.1475
	minimum = 0
	maximum = 66
Injected packet rate average = 0.00475521
	minimum = 0 (at node 1)
	maximum = 0.025 (at node 22)
Accepted packet rate average = 0.00476562
	minimum = 0 (at node 17)
	maximum = 0.015 (at node 173)
Injected flit rate average = 0.0857448
	minimum = 0 (at node 1)
	maximum = 0.467 (at node 22)
Accepted flit rate average= 0.0863021
	minimum = 0 (at node 17)
	maximum = 0.258 (at node 173)
Injected packet length average = 18.0318
Accepted packet length average = 18.1093
Total in-flight flits = 713 (0 measured)
latency change    = 0.0704218
throughput change = 0.0381714
Warmed up ...Time used is 3000 cycles
Class 0:
Packet latency average = 81.3247
	minimum = 23
	maximum = 301
Network latency average = 63.5615
	minimum = 23
	maximum = 248
Slowest packet = 2733
Flit latency average = 40.3645
	minimum = 6
	maximum = 231
Slowest flit = 61847
Fragmentation average = 13.5826
	minimum = 0
	maximum = 61
Injected packet rate average = 0.00471875
	minimum = 0 (at node 0)
	maximum = 0.016 (at node 115)
Accepted packet rate average = 0.00475
	minimum = 0 (at node 18)
	maximum = 0.011 (at node 22)
Injected flit rate average = 0.084651
	minimum = 0 (at node 0)
	maximum = 0.272 (at node 115)
Accepted flit rate average= 0.0850938
	minimum = 0 (at node 18)
	maximum = 0.202 (at node 22)
Injected packet length average = 17.9393
Accepted packet length average = 17.9145
Total in-flight flits = 683 (683 measured)
latency change    = 0.0545592
throughput change = 0.0142
Class 0:
Packet latency average = 78.9138
	minimum = 23
	maximum = 391
Network latency average = 63.4959
	minimum = 23
	maximum = 367
Slowest packet = 3472
Flit latency average = 39.7966
	minimum = 6
	maximum = 350
Slowest flit = 62513
Fragmentation average = 13.3731
	minimum = 0
	maximum = 61
Injected packet rate average = 0.00454948
	minimum = 0 (at node 58)
	maximum = 0.012 (at node 115)
Accepted packet rate average = 0.0045651
	minimum = 0.001 (at node 24)
	maximum = 0.0085 (at node 166)
Injected flit rate average = 0.0819323
	minimum = 0 (at node 58)
	maximum = 0.216 (at node 115)
Accepted flit rate average= 0.081974
	minimum = 0.018 (at node 24)
	maximum = 0.153 (at node 166)
Injected packet length average = 18.0092
Accepted packet length average = 17.9566
Total in-flight flits = 681 (681 measured)
latency change    = 0.0305513
throughput change = 0.0380583
Class 0:
Packet latency average = 78.6186
	minimum = 23
	maximum = 391
Network latency average = 62.8199
	minimum = 23
	maximum = 367
Slowest packet = 3472
Flit latency average = 39.1284
	minimum = 6
	maximum = 350
Slowest flit = 62513
Fragmentation average = 13.2862
	minimum = 0
	maximum = 69
Injected packet rate average = 0.00444097
	minimum = 0.000333333 (at node 119)
	maximum = 0.00933333 (at node 173)
Accepted packet rate average = 0.00442187
	minimum = 0.00133333 (at node 153)
	maximum = 0.00733333 (at node 174)
Injected flit rate average = 0.0799531
	minimum = 0.006 (at node 119)
	maximum = 0.168 (at node 173)
Accepted flit rate average= 0.079592
	minimum = 0.024 (at node 153)
	maximum = 0.132 (at node 174)
Injected packet length average = 18.0035
Accepted packet length average = 17.9996
Total in-flight flits = 912 (912 measured)
latency change    = 0.0037554
throughput change = 0.0299269
Draining remaining packets ...
Time taken is 6110 cycles
====== Overall Traffic Statistics ======
====== Traffic class 0 ======
Packet latency average = 79.9054 (1 samples)
	minimum = 23 (1 samples)
	maximum = 391 (1 samples)
Network latency average = 63.8319 (1 samples)
	minimum = 23 (1 samples)
	maximum = 367 (1 samples)
Flit latency average = 39.8104 (1 samples)
	minimum = 6 (1 samples)
	maximum = 350 (1 samples)
Fragmentation average = 13.6212 (1 samples)
	minimum = 0 (1 samples)
	maximum = 74 (1 samples)
Injected packet rate average = 0.00444097 (1 samples)
	minimum = 0.000333333 (1 samples)
	maximum = 0.00933333 (1 samples)
Accepted packet rate average = 0.00442187 (1 samples)
	minimum = 0.00133333 (1 samples)
	maximum = 0.00733333 (1 samples)
Injected flit rate average = 0.0799531 (1 samples)
	minimum = 0.006 (1 samples)
	maximum = 0.168 (1 samples)
Accepted flit rate average = 0.079592 (1 samples)
	minimum = 0.024 (1 samples)
	maximum = 0.132 (1 samples)
Injected packet size average = 18.0035 (1 samples)
Accepted packet size average = 17.9996 (1 samples)
Hops average = 5.05043 (1 samples)
Total run time 1.57681
