BEGIN Configuration File: networks/mezzanine_config
topology = mezzanine;
n = 12;

routing_function = multipath;
internal_speedup = 2.0;
latency_thres = 100000.0;
use_read_write = 0;

sample_period = 1000;
injection_rate = 0.5;
packet_size = 18;

noq = 1;
routing_delay = 0;
vc_alloc_delay = 1;
sw_alloc_delay = 1;
st_final_delay = 1;
vc_allocator = islip; 
sw_allocator = islip;
alloc_iters  = 4;
num_vcs     = 12;
buffer_policy = private; // private or shared
buf_size = -1; // -1 for buffer_policy = private;
vc_buf_size = 4096; // size of each VOQ with buffer_policy = private
output_buffer_size = -1;


traffic = uniform;

//mezW = 0.0;
//mezPredefinedPatternType = shift-inter; //shift-qfdb

END Configuration File: networks/mezzanine_config
OVERRIDE Parameter: injection_rate=0.002487
OVERRIDE Parameter: routing_function=multipath
OVERRIDE Parameter: num_vcs=12
OVERRIDE Parameter: vc_buf_size=144
OVERRIDE Parameter: internal_speedup=1.0
OVERRIDE Parameter: injection_process=on_off
OVERRIDE Parameter: sim_type=throughput
OVERRIDE Parameter: burst_alpha=0.0038461538
OVERRIDE Parameter: burst_beta=0.1
network: network_0
========================== Routing table  =====================
Number of Subnets: 1
Class 0:
Packet latency average = 56.0258
	minimum = 23
	maximum = 137
Network latency average = 49.8755
	minimum = 23
	maximum = 112
Slowest packet = 13
Flit latency average = 28.977
	minimum = 6
	maximum = 95
Slowest flit = 845
Fragmentation average = 7.2618
	minimum = 0
	maximum = 43
Injected packet rate average = 0.00258333
	minimum = 0 (at node 5)
	maximum = 0.015 (at node 173)
Accepted packet rate average = 0.00242708
	minimum = 0 (at node 11)
	maximum = 0.008 (at node 140)
Injected flit rate average = 0.046026
	minimum = 0 (at node 5)
	maximum = 0.27 (at node 173)
Accepted flit rate average= 0.0444115
	minimum = 0 (at node 11)
	maximum = 0.144 (at node 140)
Injected packet length average = 17.8165
Accepted packet length average = 18.2983
Total in-flight flits = 401 (0 measured)
latency change    = 1
throughput change = 1
Class 0:
Packet latency average = 53.4121
	minimum = 23
	maximum = 148
Network latency average = 47.626
	minimum = 23
	maximum = 112
Slowest packet = 13
Flit latency average = 27.5478
	minimum = 6
	maximum = 95
Slowest flit = 845
Fragmentation average = 5.70885
	minimum = 0
	maximum = 43
Injected packet rate average = 0.00238021
	minimum = 0 (at node 18)
	maximum = 0.008 (at node 0)
Accepted packet rate average = 0.00232552
	minimum = 0.0005 (at node 14)
	maximum = 0.0055 (at node 140)
Injected flit rate average = 0.0426458
	minimum = 0 (at node 18)
	maximum = 0.144 (at node 0)
Accepted flit rate average= 0.0420495
	minimum = 0.009 (at node 35)
	maximum = 0.099 (at node 140)
Injected packet length average = 17.9168
Accepted packet length average = 18.0817
Total in-flight flits = 305 (0 measured)
latency change    = 0.0489338
throughput change = 0.0561714
Class 0:
Packet latency average = 53.6386
	minimum = 23
	maximum = 146
Network latency average = 46.9839
	minimum = 23
	maximum = 110
Slowest packet = 916
Flit latency average = 27.3057
	minimum = 6
	maximum = 93
Slowest flit = 18017
Fragmentation average = 5.0743
	minimum = 0
	maximum = 31
Injected packet rate average = 0.00260417
	minimum = 0 (at node 4)
	maximum = 0.012 (at node 1)
Accepted packet rate average = 0.00259375
	minimum = 0 (at node 10)
	maximum = 0.007 (at node 22)
Injected flit rate average = 0.047099
	minimum = 0 (at node 4)
	maximum = 0.216 (at node 1)
Accepted flit rate average= 0.0467656
	minimum = 0 (at node 10)
	maximum = 0.126 (at node 22)
Injected packet length average = 18.086
Accepted packet length average = 18.0301
Total in-flight flits = 326 (0 measured)
latency change    = 0.00422197
throughput change = 0.100846
Warmed up ...Time used is 3000 cycles
Class 0:
Packet latency average = 57.1591
	minimum = 26
	maximum = 196
Network latency average = 49.0796
	minimum = 23
	maximum = 142
Slowest packet = 1416
Flit latency average = 29.5323
	minimum = 6
	maximum = 125
Slowest flit = 27521
Fragmentation average = 6.06882
	minimum = 0
	maximum = 33
Injected packet rate average = 0.00250521
	minimum = 0 (at node 2)
	maximum = 0.009 (at node 5)
Accepted packet rate average = 0.00254167
	minimum = 0 (at node 32)
	maximum = 0.007 (at node 45)
Injected flit rate average = 0.0447135
	minimum = 0 (at node 2)
	maximum = 0.162 (at node 5)
Accepted flit rate average= 0.0454583
	minimum = 0 (at node 32)
	maximum = 0.126 (at node 182)
Injected packet length average = 17.8482
Accepted packet length average = 17.8852
Total in-flight flits = 256 (256 measured)
latency change    = 0.0615927
throughput change = 0.028758
Class 0:
Packet latency average = 57.1346
	minimum = 23
	maximum = 198
Network latency average = 48.6105
	minimum = 23
	maximum = 142
Slowest packet = 1416
Flit latency average = 28.8108
	minimum = 6
	maximum = 125
Slowest flit = 27521
Fragmentation average = 5.84481
	minimum = 0
	maximum = 40
Injected packet rate average = 0.00259635
	minimum = 0 (at node 86)
	maximum = 0.008 (at node 132)
Accepted packet rate average = 0.00259375
	minimum = 0 (at node 116)
	maximum = 0.006 (at node 44)
Injected flit rate average = 0.0466354
	minimum = 0 (at node 86)
	maximum = 0.144 (at node 132)
Accepted flit rate average= 0.0467474
	minimum = 0 (at node 116)
	maximum = 0.108 (at node 44)
Injected packet length average = 17.9619
Accepted packet length average = 18.0231
Total in-flight flits = 321 (321 measured)
latency change    = 0.000428893
throughput change = 0.0275751
Class 0:
Packet latency average = 57.8057
	minimum = 23
	maximum = 244
Network latency average = 49.3126
	minimum = 23
	maximum = 179
Slowest packet = 1416
Flit latency average = 29.3495
	minimum = 6
	maximum = 162
Slowest flit = 44789
Fragmentation average = 5.95297
	minimum = 0
	maximum = 47
Injected packet rate average = 0.00252604
	minimum = 0.000333333 (at node 24)
	maximum = 0.006 (at node 44)
Accepted packet rate average = 0.00255035
	minimum = 0.000333333 (at node 116)
	maximum = 0.00566667 (at node 44)
Injected flit rate average = 0.0454601
	minimum = 0.006 (at node 24)
	maximum = 0.108 (at node 44)
Accepted flit rate average= 0.0458212
	minimum = 0.006 (at node 116)
	maximum = 0.102 (at node 44)
Injected packet length average = 17.9966
Accepted packet length average = 17.9666
Total in-flight flits = 123 (123 measured)
latency change    = 0.0116085
throughput change = 0.0202137
Draining remaining packets ...
Time taken is 6045 cycles
====== Overall Traffic Statistics ======
====== Traffic class 0 ======
Packet latency average = 57.7643 (1 samples)
	minimum = 23 (1 samples)
	maximum = 244 (1 samples)
Network latency average = 49.2536 (1 samples)
	minimum = 23 (1 samples)
	maximum = 179 (1 samples)
Flit latency average = 29.3132 (1 samples)
	minimum = 6 (1 samples)
	maximum = 162 (1 samples)
Fragmentation average = 5.92646 (1 samples)
	minimum = 0 (1 samples)
	maximum = 47 (1 samples)
Injected packet rate average = 0.00252604 (1 samples)
	minimum = 0.000333333 (1 samples)
	maximum = 0.006 (1 samples)
Accepted packet rate average = 0.00255035 (1 samples)
	minimum = 0.000333333 (1 samples)
	maximum = 0.00566667 (1 samples)
Injected flit rate average = 0.0454601 (1 samples)
	minimum = 0.006 (1 samples)
	maximum = 0.108 (1 samples)
Accepted flit rate average = 0.0458212 (1 samples)
	minimum = 0.006 (1 samples)
	maximum = 0.102 (1 samples)
Injected packet size average = 17.9966 (1 samples)
Accepted packet size average = 17.9666 (1 samples)
Hops average = 5.06186 (1 samples)
Total run time 1.08888
