BEGIN Configuration File: networks/mezzanine_config
topology = mezzanine;
n = 12;

routing_function = multipath;
internal_speedup = 2.0;
latency_thres = 100000.0;
use_read_write = 0;

sample_period = 1000;
injection_rate = 0.5;
packet_size = 18;

noq = 1;
routing_delay = 0;
vc_alloc_delay = 1;
sw_alloc_delay = 1;
st_final_delay = 1;
vc_allocator = islip; 
sw_allocator = islip;
alloc_iters  = 4;
num_vcs     = 12;
buffer_policy = private; // private or shared
buf_size = -1; // -1 for buffer_policy = private;
vc_buf_size = 4096; // size of each VOQ with buffer_policy = private
output_buffer_size = -1;


traffic = uniform;

//mezW = 0.0;
//mezPredefinedPatternType = shift-inter; //shift-qfdb

END Configuration File: networks/mezzanine_config
OVERRIDE Parameter: injection_rate=0.004697
OVERRIDE Parameter: routing_function=min
OVERRIDE Parameter: num_vcs=64
OVERRIDE Parameter: vc_buf_size=18
OVERRIDE Parameter: internal_speedup=2.0
OVERRIDE Parameter: injection_process=on_off
OVERRIDE Parameter: sim_type=throughput
OVERRIDE Parameter: burst_alpha=0.0038461538
OVERRIDE Parameter: burst_beta=0.1
network: network_0
========================== Routing table  =====================
Number of Subnets: 1
Class 0:
Packet latency average = 64.4942
	minimum = 22
	maximum = 184
Network latency average = 48.7815
	minimum = 22
	maximum = 126
Slowest packet = 10
Flit latency average = 27.5734
	minimum = 5
	maximum = 109
Slowest flit = 1889
Fragmentation average = 7.63627
	minimum = 0
	maximum = 54
Injected packet rate average = 0.00510938
	minimum = 0 (at node 5)
	maximum = 0.02 (at node 161)
Accepted packet rate average = 0.00491146
	minimum = 0.001 (at node 41)
	maximum = 0.011 (at node 140)
Injected flit rate average = 0.090974
	minimum = 0 (at node 5)
	maximum = 0.36 (at node 161)
Accepted flit rate average= 0.0890156
	minimum = 0.018 (at node 41)
	maximum = 0.198 (at node 140)
Injected packet length average = 17.8053
Accepted packet length average = 18.1241
Total in-flight flits = 567 (0 measured)
latency change    = 1
throughput change = 1
Class 0:
Packet latency average = 64.0701
	minimum = 22
	maximum = 287
Network latency average = 48.6554
	minimum = 22
	maximum = 226
Slowest packet = 1134
Flit latency average = 27.4372
	minimum = 5
	maximum = 209
Slowest flit = 21253
Fragmentation average = 7.70282
	minimum = 0
	maximum = 163
Injected packet rate average = 0.00473437
	minimum = 0 (at node 37)
	maximum = 0.014 (at node 161)
Accepted packet rate average = 0.00460937
	minimum = 0.0005 (at node 41)
	maximum = 0.008 (at node 48)
Injected flit rate average = 0.0848724
	minimum = 0 (at node 37)
	maximum = 0.251 (at node 161)
Accepted flit rate average= 0.0835234
	minimum = 0.009 (at node 41)
	maximum = 0.148 (at node 70)
Injected packet length average = 17.9268
Accepted packet length average = 18.1203
Total in-flight flits = 651 (0 measured)
latency change    = 0.00661949
throughput change = 0.0657562
Class 0:
Packet latency average = 64.5097
	minimum = 25
	maximum = 211
Network latency average = 48.5476
	minimum = 22
	maximum = 159
Slowest packet = 1770
Flit latency average = 27.6546
	minimum = 5
	maximum = 142
Slowest flit = 38049
Fragmentation average = 7.31385
	minimum = 0
	maximum = 67
Injected packet rate average = 0.00475521
	minimum = 0 (at node 1)
	maximum = 0.025 (at node 22)
Accepted packet rate average = 0.0048125
	minimum = 0 (at node 17)
	maximum = 0.013 (at node 173)
Injected flit rate average = 0.0857448
	minimum = 0 (at node 1)
	maximum = 0.467 (at node 22)
Accepted flit rate average= 0.0866094
	minimum = 0 (at node 17)
	maximum = 0.234 (at node 173)
Injected packet length average = 18.0318
Accepted packet length average = 17.9968
Total in-flight flits = 456 (0 measured)
latency change    = 0.00681577
throughput change = 0.0356305
Warmed up ...Time used is 3000 cycles
Class 0:
Packet latency average = 66.2644
	minimum = 22
	maximum = 282
Network latency average = 48.4575
	minimum = 22
	maximum = 202
Slowest packet = 2737
Flit latency average = 28.015
	minimum = 5
	maximum = 200
Slowest flit = 63029
Fragmentation average = 6.46322
	minimum = 0
	maximum = 52
Injected packet rate average = 0.00471875
	minimum = 0 (at node 0)
	maximum = 0.016 (at node 115)
Accepted packet rate average = 0.00472396
	minimum = 0 (at node 18)
	maximum = 0.011 (at node 22)
Injected flit rate average = 0.084651
	minimum = 0 (at node 0)
	maximum = 0.272 (at node 115)
Accepted flit rate average= 0.0847812
	minimum = 0 (at node 18)
	maximum = 0.205 (at node 22)
Injected packet length average = 17.9393
Accepted packet length average = 17.9471
Total in-flight flits = 486 (486 measured)
latency change    = 0.0264792
throughput change = 0.0215628
Class 0:
Packet latency average = 63.2499
	minimum = 22
	maximum = 282
Network latency average = 47.8219
	minimum = 22
	maximum = 222
Slowest packet = 2737
Flit latency average = 27.3056
	minimum = 5
	maximum = 205
Slowest flit = 63033
Fragmentation average = 6.55225
	minimum = 0
	maximum = 58
Injected packet rate average = 0.00454948
	minimum = 0 (at node 58)
	maximum = 0.012 (at node 115)
Accepted packet rate average = 0.00455729
	minimum = 0.001 (at node 24)
	maximum = 0.0085 (at node 166)
Injected flit rate average = 0.0819323
	minimum = 0 (at node 58)
	maximum = 0.216 (at node 115)
Accepted flit rate average= 0.0819661
	minimum = 0.018 (at node 24)
	maximum = 0.153 (at node 166)
Injected packet length average = 18.0092
Accepted packet length average = 17.9857
Total in-flight flits = 427 (427 measured)
latency change    = 0.0476604
throughput change = 0.0343447
Class 0:
Packet latency average = 63.1889
	minimum = 22
	maximum = 282
Network latency average = 47.2839
	minimum = 22
	maximum = 222
Slowest packet = 2737
Flit latency average = 26.8548
	minimum = 5
	maximum = 205
Slowest flit = 63033
Fragmentation average = 6.40477
	minimum = 0
	maximum = 77
Injected packet rate average = 0.00444097
	minimum = 0.000333333 (at node 119)
	maximum = 0.00933333 (at node 173)
Accepted packet rate average = 0.00443056
	minimum = 0.00133333 (at node 153)
	maximum = 0.00733333 (at node 174)
Injected flit rate average = 0.0799531
	minimum = 0.006 (at node 119)
	maximum = 0.168 (at node 173)
Accepted flit rate average= 0.0796962
	minimum = 0.024 (at node 153)
	maximum = 0.132 (at node 174)
Injected packet length average = 18.0035
Accepted packet length average = 17.9879
Total in-flight flits = 595 (595 measured)
latency change    = 0.000965158
throughput change = 0.0284827
Draining remaining packets ...
Time taken is 6065 cycles
====== Overall Traffic Statistics ======
====== Traffic class 0 ======
Packet latency average = 63.6564 (1 samples)
	minimum = 22 (1 samples)
	maximum = 282 (1 samples)
Network latency average = 47.5829 (1 samples)
	minimum = 22 (1 samples)
	maximum = 222 (1 samples)
Flit latency average = 27.0862 (1 samples)
	minimum = 5 (1 samples)
	maximum = 205 (1 samples)
Fragmentation average = 6.43589 (1 samples)
	minimum = 0 (1 samples)
	maximum = 77 (1 samples)
Injected packet rate average = 0.00444097 (1 samples)
	minimum = 0.000333333 (1 samples)
	maximum = 0.00933333 (1 samples)
Accepted packet rate average = 0.00443056 (1 samples)
	minimum = 0.00133333 (1 samples)
	maximum = 0.00733333 (1 samples)
Injected flit rate average = 0.0799531 (1 samples)
	minimum = 0.006 (1 samples)
	maximum = 0.168 (1 samples)
Accepted flit rate average = 0.0796962 (1 samples)
	minimum = 0.024 (1 samples)
	maximum = 0.132 (1 samples)
Injected packet size average = 18.0035 (1 samples)
Accepted packet size average = 17.9879 (1 samples)
Hops average = 5.05043 (1 samples)
Total run time 2.23043
