BEGIN Configuration File: networks/mezzanine_config
topology = mezzanine;
n = 12;

routing_function = multipath;
internal_speedup = 2.0;
latency_thres = 100000.0;
use_read_write = 0;

sample_period = 1000;
injection_rate = 0.5;
packet_size = 18;

noq = 1;
routing_delay = 0;
vc_alloc_delay = 1;
sw_alloc_delay = 1;
st_final_delay = 1;
vc_allocator = islip; 
sw_allocator = islip;
alloc_iters  = 4;
num_vcs     = 12;
buffer_policy = private; // private or shared
buf_size = -1; // -1 for buffer_policy = private;
vc_buf_size = 4096; // size of each VOQ with buffer_policy = private
output_buffer_size = -1;


traffic = uniform;

//mezW = 0.0;
//mezPredefinedPatternType = shift-inter; //shift-qfdb

END Configuration File: networks/mezzanine_config
OVERRIDE Parameter: injection_rate=0.009117
OVERRIDE Parameter: routing_function=min
OVERRIDE Parameter: num_vcs=32
OVERRIDE Parameter: vc_buf_size=1024
OVERRIDE Parameter: internal_speedup=1.0
OVERRIDE Parameter: injection_process=on_off
OVERRIDE Parameter: sim_type=throughput
OVERRIDE Parameter: burst_alpha=0.0038461538
OVERRIDE Parameter: burst_beta=0.1
network: network_0
========================== Routing table  =====================
Number of Subnets: 1
Class 0:
Packet latency average = 193.279
	minimum = 23
	maximum = 812
Network latency average = 160.368
	minimum = 23
	maximum = 681
Slowest packet = 197
Flit latency average = 101.882
	minimum = 6
	maximum = 700
Slowest flit = 10638
Fragmentation average = 87.4234
	minimum = 0
	maximum = 509
Injected packet rate average = 0.00939062
	minimum = 0 (at node 26)
	maximum = 0.033 (at node 37)
Accepted packet rate average = 0.00744271
	minimum = 0.001 (at node 41)
	maximum = 0.015 (at node 165)
Injected flit rate average = 0.167693
	minimum = 0 (at node 26)
	maximum = 0.594 (at node 37)
Accepted flit rate average= 0.145307
	minimum = 0.018 (at node 41)
	maximum = 0.27 (at node 165)
Injected packet length average = 17.8575
Accepted packet length average = 19.5234
Total in-flight flits = 4555 (0 measured)
latency change    = 1
throughput change = 1
Class 0:
Packet latency average = 223.228
	minimum = 23
	maximum = 1621
Network latency average = 187.872
	minimum = 23
	maximum = 1578
Slowest packet = 591
Flit latency average = 122.842
	minimum = 6
	maximum = 1561
Slowest flit = 10655
Fragmentation average = 100.989
	minimum = 0
	maximum = 974
Injected packet rate average = 0.00889063
	minimum = 0.0005 (at node 184)
	maximum = 0.021 (at node 20)
Accepted packet rate average = 0.00784115
	minimum = 0.003 (at node 172)
	maximum = 0.0125 (at node 22)
Injected flit rate average = 0.159396
	minimum = 0.009 (at node 184)
	maximum = 0.371 (at node 20)
Accepted flit rate average= 0.146362
	minimum = 0.0575 (at node 172)
	maximum = 0.238 (at node 44)
Injected packet length average = 17.9285
Accepted packet length average = 18.6659
Total in-flight flits = 5249 (0 measured)
latency change    = 0.134164
throughput change = 0.00720602
Class 0:
Packet latency average = 311.235
	minimum = 27
	maximum = 2239
Network latency average = 272.706
	minimum = 23
	maximum = 2163
Slowest packet = 1279
Flit latency average = 189.014
	minimum = 6
	maximum = 2146
Slowest flit = 23039
Fragmentation average = 137.505
	minimum = 0
	maximum = 1730
Injected packet rate average = 0.00902604
	minimum = 0 (at node 5)
	maximum = 0.036 (at node 162)
Accepted packet rate average = 0.00852083
	minimum = 0.002 (at node 79)
	maximum = 0.017 (at node 172)
Injected flit rate average = 0.162359
	minimum = 0 (at node 5)
	maximum = 0.648 (at node 162)
Accepted flit rate average= 0.15574
	minimum = 0.036 (at node 153)
	maximum = 0.325 (at node 172)
Injected packet length average = 17.9879
Accepted packet length average = 18.2775
Total in-flight flits = 6541 (0 measured)
latency change    = 0.282766
throughput change = 0.0602134
Warmed up ...Time used is 3000 cycles
Class 0:
Packet latency average = 258.125
	minimum = 23
	maximum = 1207
Network latency average = 222.029
	minimum = 23
	maximum = 886
Slowest packet = 5179
Flit latency average = 203.66
	minimum = 6
	maximum = 2044
Slowest flit = 38645
Fragmentation average = 123.305
	minimum = 0
	maximum = 574
Injected packet rate average = 0.00923958
	minimum = 0 (at node 47)
	maximum = 0.032 (at node 74)
Accepted packet rate average = 0.00886979
	minimum = 0.001 (at node 184)
	maximum = 0.016 (at node 119)
Injected flit rate average = 0.166469
	minimum = 0 (at node 47)
	maximum = 0.583 (at node 74)
Accepted flit rate average= 0.161052
	minimum = 0.027 (at node 184)
	maximum = 0.283 (at node 119)
Injected packet length average = 18.0169
Accepted packet length average = 18.1574
Total in-flight flits = 7551 (7274 measured)
latency change    = 0.205756
throughput change = 0.0329862
Class 0:
Packet latency average = 314.772
	minimum = 23
	maximum = 1760
Network latency average = 275.107
	minimum = 23
	maximum = 1686
Slowest packet = 5379
Flit latency average = 217.962
	minimum = 6
	maximum = 2220
Slowest flit = 70757
Fragmentation average = 140.428
	minimum = 0
	maximum = 978
Injected packet rate average = 0.00933333
	minimum = 0.001 (at node 49)
	maximum = 0.0235 (at node 37)
Accepted packet rate average = 0.0089974
	minimum = 0.004 (at node 184)
	maximum = 0.015 (at node 16)
Injected flit rate average = 0.167958
	minimum = 0.018 (at node 49)
	maximum = 0.43 (at node 37)
Accepted flit rate average= 0.163128
	minimum = 0.0715 (at node 184)
	maximum = 0.2855 (at node 34)
Injected packet length average = 17.9955
Accepted packet length average = 18.1305
Total in-flight flits = 8412 (8369 measured)
latency change    = 0.179963
throughput change = 0.0127233
Class 0:
Packet latency average = 335.523
	minimum = 23
	maximum = 2402
Network latency average = 297.335
	minimum = 23
	maximum = 2362
Slowest packet = 5468
Flit latency average = 227.18
	minimum = 6
	maximum = 2685
Slowest flit = 86921
Fragmentation average = 144.549
	minimum = 0
	maximum = 1797
Injected packet rate average = 0.00898611
	minimum = 0.001 (at node 49)
	maximum = 0.019 (at node 58)
Accepted packet rate average = 0.0089809
	minimum = 0.00566667 (at node 132)
	maximum = 0.015 (at node 16)
Injected flit rate average = 0.16178
	minimum = 0.018 (at node 49)
	maximum = 0.342 (at node 58)
Accepted flit rate average= 0.161802
	minimum = 0.102333 (at node 190)
	maximum = 0.278 (at node 16)
Injected packet length average = 18.0033
Accepted packet length average = 18.0162
Total in-flight flits = 6511 (6511 measured)
latency change    = 0.0618483
throughput change = 0.00819224
Draining remaining packets ...
Time taken is 6541 cycles
====== Overall Traffic Statistics ======
====== Traffic class 0 ======
Packet latency average = 354.023 (1 samples)
	minimum = 23 (1 samples)
	maximum = 2678 (1 samples)
Network latency average = 315.531 (1 samples)
	minimum = 23 (1 samples)
	maximum = 2632 (1 samples)
Flit latency average = 242.876 (1 samples)
	minimum = 6 (1 samples)
	maximum = 2685 (1 samples)
Fragmentation average = 144.216 (1 samples)
	minimum = 0 (1 samples)
	maximum = 1797 (1 samples)
Injected packet rate average = 0.00898611 (1 samples)
	minimum = 0.001 (1 samples)
	maximum = 0.019 (1 samples)
Accepted packet rate average = 0.0089809 (1 samples)
	minimum = 0.00566667 (1 samples)
	maximum = 0.015 (1 samples)
Injected flit rate average = 0.16178 (1 samples)
	minimum = 0.018 (1 samples)
	maximum = 0.342 (1 samples)
Accepted flit rate average = 0.161802 (1 samples)
	minimum = 0.102333 (1 samples)
	maximum = 0.278 (1 samples)
Injected packet size average = 18.0033 (1 samples)
Accepted packet size average = 18.0162 (1 samples)
Hops average = 5.08829 (1 samples)
Total run time 3.9382
