BEGIN Configuration File: networks/mezzanine_config
topology = mezzanine;
n = 12;

routing_function = multipath;
internal_speedup = 2.0;
latency_thres = 100000.0;
use_read_write = 0;

sample_period = 1000;
injection_rate = 0.5;
packet_size = 18;

noq = 1;
routing_delay = 0;
vc_alloc_delay = 1;
sw_alloc_delay = 1;
st_final_delay = 1;
vc_allocator = islip; 
sw_allocator = islip;
alloc_iters  = 4;
num_vcs     = 12;
buffer_policy = private; // private or shared
buf_size = -1; // -1 for buffer_policy = private;
vc_buf_size = 4096; // size of each VOQ with buffer_policy = private
output_buffer_size = -1;


traffic = uniform;

//mezW = 0.0;
//mezPredefinedPatternType = shift-inter; //shift-qfdb

END Configuration File: networks/mezzanine_config
OVERRIDE Parameter: injection_rate=0.011327
OVERRIDE Parameter: routing_function=multipath
OVERRIDE Parameter: num_vcs=32
OVERRIDE Parameter: vc_buf_size=1024
OVERRIDE Parameter: internal_speedup=1.0
OVERRIDE Parameter: injection_process=bernoulli
OVERRIDE Parameter: sim_type=throughput
OVERRIDE Parameter: burst_alpha=0.0038461538
OVERRIDE Parameter: burst_beta=0.1
network: network_0
========================== Routing table  =====================
Number of Subnets: 1
Class 0:
Packet latency average = 159.721
	minimum = 23
	maximum = 889
Network latency average = 157.715
	minimum = 23
	maximum = 889
Slowest packet = 212
Flit latency average = 95.7756
	minimum = 6
	maximum = 872
Slowest flit = 3833
Fragmentation average = 95.9048
	minimum = 0
	maximum = 699
Injected packet rate average = 0.0112448
	minimum = 0.004 (at node 12)
	maximum = 0.021 (at node 162)
Accepted packet rate average = 0.00848438
	minimum = 0.002 (at node 41)
	maximum = 0.016 (at node 91)
Injected flit rate average = 0.200438
	minimum = 0.072 (at node 12)
	maximum = 0.378 (at node 162)
Accepted flit rate average= 0.166708
	minimum = 0.036 (at node 174)
	maximum = 0.303 (at node 91)
Injected packet length average = 17.8249
Accepted packet length average = 19.6489
Total in-flight flits = 6854 (0 measured)
latency change    = 1
throughput change = 1
Class 0:
Packet latency average = 226.423
	minimum = 23
	maximum = 1607
Network latency average = 224.406
	minimum = 23
	maximum = 1607
Slowest packet = 405
Flit latency average = 147.58
	minimum = 6
	maximum = 1590
Slowest flit = 7307
Fragmentation average = 128.607
	minimum = 0
	maximum = 1354
Injected packet rate average = 0.0110964
	minimum = 0.0055 (at node 40)
	maximum = 0.017 (at node 166)
Accepted packet rate average = 0.00924479
	minimum = 0.005 (at node 30)
	maximum = 0.015 (at node 22)
Injected flit rate average = 0.198698
	minimum = 0.0955 (at node 40)
	maximum = 0.306 (at node 166)
Accepted flit rate average= 0.17487
	minimum = 0.09 (at node 30)
	maximum = 0.2905 (at node 22)
Injected packet length average = 17.9066
Accepted packet length average = 18.9155
Total in-flight flits = 9548 (0 measured)
latency change    = 0.294593
throughput change = 0.0466716
Class 0:
Packet latency average = 347.9
	minimum = 23
	maximum = 2228
Network latency average = 345.876
	minimum = 23
	maximum = 2228
Slowest packet = 980
Flit latency average = 251.08
	minimum = 6
	maximum = 2211
Slowest flit = 17657
Fragmentation average = 169.468
	minimum = 0
	maximum = 1646
Injected packet rate average = 0.0112969
	minimum = 0.002 (at node 100)
	maximum = 0.022 (at node 144)
Accepted packet rate average = 0.0105052
	minimum = 0.002 (at node 77)
	maximum = 0.02 (at node 78)
Injected flit rate average = 0.203667
	minimum = 0.036 (at node 100)
	maximum = 0.386 (at node 144)
Accepted flit rate average= 0.191172
	minimum = 0.055 (at node 77)
	maximum = 0.385 (at node 78)
Injected packet length average = 18.0286
Accepted packet length average = 18.1978
Total in-flight flits = 11885 (0 measured)
latency change    = 0.349171
throughput change = 0.0852745
Warmed up ...Time used is 3000 cycles
Class 0:
Packet latency average = 277.88
	minimum = 23
	maximum = 967
Network latency average = 275.88
	minimum = 23
	maximum = 967
Slowest packet = 6478
Flit latency average = 294.379
	minimum = 6
	maximum = 2792
Slowest flit = 41111
Fragmentation average = 149.938
	minimum = 0
	maximum = 799
Injected packet rate average = 0.0117604
	minimum = 0.002 (at node 104)
	maximum = 0.02 (at node 78)
Accepted packet rate average = 0.0105312
	minimum = 0.003 (at node 185)
	maximum = 0.02 (at node 159)
Injected flit rate average = 0.210964
	minimum = 0.036 (at node 104)
	maximum = 0.36 (at node 117)
Accepted flit rate average= 0.193396
	minimum = 0.063 (at node 163)
	maximum = 0.367 (at node 159)
Injected packet length average = 17.9384
Accepted packet length average = 18.364
Total in-flight flits = 15397 (13875 measured)
latency change    = 0.25198
throughput change = 0.0114995
Class 0:
Packet latency average = 359.378
	minimum = 23
	maximum = 1818
Network latency average = 357.274
	minimum = 23
	maximum = 1804
Slowest packet = 6840
Flit latency average = 328.549
	minimum = 6
	maximum = 3643
Slowest flit = 38087
Fragmentation average = 169.238
	minimum = 0
	maximum = 1316
Injected packet rate average = 0.0114141
	minimum = 0.0065 (at node 18)
	maximum = 0.017 (at node 117)
Accepted packet rate average = 0.0107135
	minimum = 0.0055 (at node 190)
	maximum = 0.0165 (at node 59)
Injected flit rate average = 0.20537
	minimum = 0.117 (at node 18)
	maximum = 0.3115 (at node 172)
Accepted flit rate average= 0.194099
	minimum = 0.099 (at node 134)
	maximum = 0.315 (at node 59)
Injected packet length average = 17.9927
Accepted packet length average = 18.1172
Total in-flight flits = 16245 (15788 measured)
latency change    = 0.226776
throughput change = 0.00362251
Class 0:
Packet latency average = 409.242
	minimum = 23
	maximum = 2720
Network latency average = 407.166
	minimum = 23
	maximum = 2716
Slowest packet = 6892
Flit latency average = 354.088
	minimum = 6
	maximum = 4650
Slowest flit = 34127
Fragmentation average = 178.103
	minimum = 0
	maximum = 1957
Injected packet rate average = 0.0113872
	minimum = 0.007 (at node 104)
	maximum = 0.0163333 (at node 172)
Accepted packet rate average = 0.0107604
	minimum = 0.00533333 (at node 4)
	maximum = 0.0156667 (at node 129)
Injected flit rate average = 0.205071
	minimum = 0.126 (at node 104)
	maximum = 0.297667 (at node 172)
Accepted flit rate average= 0.194724
	minimum = 0.094 (at node 4)
	maximum = 0.279667 (at node 129)
Injected packet length average = 18.009
Accepted packet length average = 18.0963
Total in-flight flits = 17786 (17677 measured)
latency change    = 0.121844
throughput change = 0.00320967
Draining remaining packets ...
Time taken is 6859 cycles
====== Overall Traffic Statistics ======
====== Traffic class 0 ======
Packet latency average = 490.531 (1 samples)
	minimum = 23 (1 samples)
	maximum = 3377 (1 samples)
Network latency average = 488.403 (1 samples)
	minimum = 23 (1 samples)
	maximum = 3377 (1 samples)
Flit latency average = 416.984 (1 samples)
	minimum = 6 (1 samples)
	maximum = 4650 (1 samples)
Fragmentation average = 180.451 (1 samples)
	minimum = 0 (1 samples)
	maximum = 2739 (1 samples)
Injected packet rate average = 0.0113872 (1 samples)
	minimum = 0.007 (1 samples)
	maximum = 0.0163333 (1 samples)
Accepted packet rate average = 0.0107604 (1 samples)
	minimum = 0.00533333 (1 samples)
	maximum = 0.0156667 (1 samples)
Injected flit rate average = 0.205071 (1 samples)
	minimum = 0.126 (1 samples)
	maximum = 0.297667 (1 samples)
Accepted flit rate average = 0.194724 (1 samples)
	minimum = 0.094 (1 samples)
	maximum = 0.279667 (1 samples)
Injected packet size average = 18.009 (1 samples)
Accepted packet size average = 18.0963 (1 samples)
Hops average = 5.06678 (1 samples)
Total run time 4.79953
