BEGIN Configuration File: networks/mezzanine_config
topology = mezzanine;
n = 12;

routing_function = multipath;
internal_speedup = 2.0;
latency_thres = 100000.0;
use_read_write = 0;

sample_period = 1000;
injection_rate = 0.5;
packet_size = 18;

noq = 1;
routing_delay = 0;
vc_alloc_delay = 1;
sw_alloc_delay = 1;
st_final_delay = 1;
vc_allocator = islip; 
sw_allocator = islip;
alloc_iters  = 4;
num_vcs     = 12;
buffer_policy = private; // private or shared
buf_size = -1; // -1 for buffer_policy = private;
vc_buf_size = 4096; // size of each VOQ with buffer_policy = private
output_buffer_size = -1;


traffic = uniform;

//mezW = 0.0;
//mezPredefinedPatternType = shift-inter; //shift-qfdb

END Configuration File: networks/mezzanine_config
OVERRIDE Parameter: injection_rate=0.006907
OVERRIDE Parameter: routing_function=min
OVERRIDE Parameter: num_vcs=32
OVERRIDE Parameter: vc_buf_size=18
OVERRIDE Parameter: internal_speedup=1.0
OVERRIDE Parameter: injection_process=on_off
OVERRIDE Parameter: sim_type=throughput
OVERRIDE Parameter: burst_alpha=0.0038461538
OVERRIDE Parameter: burst_beta=0.1
network: network_0
========================== Routing table  =====================
Number of Subnets: 1
Class 0:
Packet latency average = 125.887
	minimum = 23
	maximum = 462
Network latency average = 100.392
	minimum = 23
	maximum = 399
Slowest packet = 156
Flit latency average = 58.6103
	minimum = 6
	maximum = 508
Slowest flit = 12112
Fragmentation average = 50.6056
	minimum = 0
	maximum = 301
Injected packet rate average = 0.0075625
	minimum = 0 (at node 10)
	maximum = 0.027 (at node 155)
Accepted packet rate average = 0.00645833
	minimum = 0.001 (at node 41)
	maximum = 0.014 (at node 70)
Injected flit rate average = 0.134583
	minimum = 0 (at node 10)
	maximum = 0.486 (at node 155)
Accepted flit rate average= 0.122651
	minimum = 0.018 (at node 41)
	maximum = 0.252 (at node 70)
Injected packet length average = 17.7961
Accepted packet length average = 18.9911
Total in-flight flits = 2587 (0 measured)
latency change    = 1
throughput change = 1
Class 0:
Packet latency average = 144.044
	minimum = 23
	maximum = 909
Network latency average = 117.086
	minimum = 23
	maximum = 878
Slowest packet = 769
Flit latency average = 69.9616
	minimum = 6
	maximum = 882
Slowest flit = 25918
Fragmentation average = 61.0048
	minimum = 0
	maximum = 734
Injected packet rate average = 0.0068724
	minimum = 0 (at node 94)
	maximum = 0.022 (at node 91)
Accepted packet rate average = 0.00645573
	minimum = 0.0025 (at node 115)
	maximum = 0.0105 (at node 44)
Injected flit rate average = 0.123016
	minimum = 0 (at node 94)
	maximum = 0.3935 (at node 91)
Accepted flit rate average= 0.118445
	minimum = 0.048 (at node 115)
	maximum = 0.1975 (at node 44)
Injected packet length average = 17.9
Accepted packet length average = 18.3473
Total in-flight flits = 2019 (0 measured)
latency change    = 0.126053
throughput change = 0.0355078
Class 0:
Packet latency average = 171.553
	minimum = 23
	maximum = 1218
Network latency average = 143.182
	minimum = 23
	maximum = 1032
Slowest packet = 1439
Flit latency average = 88.6196
	minimum = 6
	maximum = 1015
Slowest flit = 25919
Fragmentation average = 73.2096
	minimum = 0
	maximum = 868
Injected packet rate average = 0.00702083
	minimum = 0 (at node 10)
	maximum = 0.02 (at node 42)
Accepted packet rate average = 0.00693229
	minimum = 0.001 (at node 18)
	maximum = 0.018 (at node 22)
Injected flit rate average = 0.126932
	minimum = 0 (at node 10)
	maximum = 0.36 (at node 42)
Accepted flit rate average= 0.126104
	minimum = 0.018 (at node 65)
	maximum = 0.328 (at node 22)
Injected packet length average = 18.0794
Accepted packet length average = 18.1908
Total in-flight flits = 2071 (0 measured)
latency change    = 0.16035
throughput change = 0.0607343
Warmed up ...Time used is 3000 cycles
Class 0:
Packet latency average = 153.246
	minimum = 23
	maximum = 870
Network latency average = 126.432
	minimum = 23
	maximum = 853
Slowest packet = 4109
Flit latency average = 82.7888
	minimum = 6
	maximum = 836
Slowest flit = 73979
Fragmentation average = 67.7023
	minimum = 0
	maximum = 809
Injected packet rate average = 0.00654687
	minimum = 0 (at node 11)
	maximum = 0.023 (at node 157)
Accepted packet rate average = 0.00681771
	minimum = 0 (at node 153)
	maximum = 0.014 (at node 6)
Injected flit rate average = 0.117615
	minimum = 0 (at node 11)
	maximum = 0.414 (at node 161)
Accepted flit rate average= 0.121167
	minimum = 0.008 (at node 153)
	maximum = 0.249 (at node 6)
Injected packet length average = 17.965
Accepted packet length average = 17.7723
Total in-flight flits = 1433 (1433 measured)
latency change    = 0.119464
throughput change = 0.0407497
Class 0:
Packet latency average = 146.942
	minimum = 23
	maximum = 1004
Network latency average = 118.549
	minimum = 23
	maximum = 882
Slowest packet = 4542
Flit latency average = 73.8286
	minimum = 6
	maximum = 836
Slowest flit = 73979
Fragmentation average = 61.4962
	minimum = 0
	maximum = 809
Injected packet rate average = 0.00651302
	minimum = 0.0005 (at node 68)
	maximum = 0.02 (at node 157)
Accepted packet rate average = 0.0065599
	minimum = 0.0025 (at node 121)
	maximum = 0.011 (at node 63)
Injected flit rate average = 0.117008
	minimum = 0.009 (at node 68)
	maximum = 0.36 (at node 157)
Accepted flit rate average= 0.117536
	minimum = 0.048 (at node 121)
	maximum = 0.2005 (at node 63)
Injected packet length average = 17.9652
Accepted packet length average = 17.9174
Total in-flight flits = 1955 (1955 measured)
latency change    = 0.0428959
throughput change = 0.0308858
Class 0:
Packet latency average = 149.496
	minimum = 23
	maximum = 1004
Network latency average = 120.668
	minimum = 23
	maximum = 882
Slowest packet = 4542
Flit latency average = 74.4651
	minimum = 6
	maximum = 836
Slowest flit = 73979
Fragmentation average = 62.6528
	minimum = 0
	maximum = 809
Injected packet rate average = 0.00652604
	minimum = 0.001 (at node 72)
	maximum = 0.0143333 (at node 187)
Accepted packet rate average = 0.00659201
	minimum = 0.00333333 (at node 117)
	maximum = 0.0106667 (at node 34)
Injected flit rate average = 0.117427
	minimum = 0.018 (at node 72)
	maximum = 0.252333 (at node 187)
Accepted flit rate average= 0.118325
	minimum = 0.0556667 (at node 117)
	maximum = 0.192 (at node 34)
Injected packet length average = 17.9936
Accepted packet length average = 17.9497
Total in-flight flits = 1578 (1578 measured)
latency change    = 0.0170844
throughput change = 0.00666129
Draining remaining packets ...
Time taken is 6179 cycles
====== Overall Traffic Statistics ======
====== Traffic class 0 ======
Packet latency average = 149.957 (1 samples)
	minimum = 23 (1 samples)
	maximum = 1004 (1 samples)
Network latency average = 120.961 (1 samples)
	minimum = 23 (1 samples)
	maximum = 882 (1 samples)
Flit latency average = 74.9161 (1 samples)
	minimum = 6 (1 samples)
	maximum = 836 (1 samples)
Fragmentation average = 62.6204 (1 samples)
	minimum = 0 (1 samples)
	maximum = 809 (1 samples)
Injected packet rate average = 0.00652604 (1 samples)
	minimum = 0.001 (1 samples)
	maximum = 0.0143333 (1 samples)
Accepted packet rate average = 0.00659201 (1 samples)
	minimum = 0.00333333 (1 samples)
	maximum = 0.0106667 (1 samples)
Injected flit rate average = 0.117427 (1 samples)
	minimum = 0.018 (1 samples)
	maximum = 0.252333 (1 samples)
Accepted flit rate average = 0.118325 (1 samples)
	minimum = 0.0556667 (1 samples)
	maximum = 0.192 (1 samples)
Injected packet size average = 17.9936 (1 samples)
Accepted packet size average = 17.9497 (1 samples)
Hops average = 5.10269 (1 samples)
Total run time 3.08266
