BEGIN Configuration File: networks/mezzanine_config
topology = mezzanine;
n = 12;

routing_function = multipath;
internal_speedup = 2.0;
latency_thres = 100000.0;
use_read_write = 0;

sample_period = 1000;
injection_rate = 0.5;
packet_size = 18;

noq = 1;
routing_delay = 0;
vc_alloc_delay = 1;
sw_alloc_delay = 1;
st_final_delay = 1;
vc_allocator = islip; 
sw_allocator = islip;
alloc_iters  = 4;
num_vcs     = 12;
buffer_policy = private; // private or shared
buf_size = -1; // -1 for buffer_policy = private;
vc_buf_size = 4096; // size of each VOQ with buffer_policy = private
output_buffer_size = -1;


traffic = uniform;

//mezW = 0.0;
//mezPredefinedPatternType = shift-inter; //shift-qfdb

END Configuration File: networks/mezzanine_config
OVERRIDE Parameter: injection_rate=0.006907
OVERRIDE Parameter: routing_function=min
OVERRIDE Parameter: num_vcs=12
OVERRIDE Parameter: vc_buf_size=18
OVERRIDE Parameter: internal_speedup=2.0
OVERRIDE Parameter: injection_process=bernoulli
OVERRIDE Parameter: sim_type=throughput
OVERRIDE Parameter: burst_alpha=0.0038461538
OVERRIDE Parameter: burst_beta=0.1
network: network_0
========================== Routing table  =====================
Number of Subnets: 1
Class 0:
Packet latency average = 51.3014
	minimum = 22
	maximum = 197
Network latency average = 49.9887
	minimum = 22
	maximum = 197
Slowest packet = 649
Flit latency average = 28.3922
	minimum = 5
	maximum = 180
Slowest flit = 11698
Fragmentation average = 8.11201
	minimum = 0
	maximum = 57
Injected packet rate average = 0.00677083
	minimum = 0.001 (at node 85)
	maximum = 0.015 (at node 110)
Accepted packet rate average = 0.00646354
	minimum = 0.001 (at node 41)
	maximum = 0.013 (at node 48)
Injected flit rate average = 0.120688
	minimum = 0.018 (at node 85)
	maximum = 0.27 (at node 173)
Accepted flit rate average= 0.117708
	minimum = 0.018 (at node 41)
	maximum = 0.234 (at node 48)
Injected packet length average = 17.8246
Accepted packet length average = 18.2111
Total in-flight flits = 800 (0 measured)
latency change    = 1
throughput change = 1
Class 0:
Packet latency average = 51.6229
	minimum = 22
	maximum = 197
Network latency average = 50.3915
	minimum = 22
	maximum = 197
Slowest packet = 649
Flit latency average = 28.9807
	minimum = 5
	maximum = 180
Slowest flit = 11698
Fragmentation average = 7.89531
	minimum = 0
	maximum = 58
Injected packet rate average = 0.0066224
	minimum = 0.0025 (at node 75)
	maximum = 0.013 (at node 110)
Accepted packet rate average = 0.00649219
	minimum = 0.0025 (at node 115)
	maximum = 0.0105 (at node 44)
Injected flit rate average = 0.118729
	minimum = 0.045 (at node 75)
	maximum = 0.234 (at node 110)
Accepted flit rate average= 0.117542
	minimum = 0.045 (at node 115)
	maximum = 0.189 (at node 44)
Injected packet length average = 17.9284
Accepted packet length average = 18.1051
Total in-flight flits = 638 (0 measured)
latency change    = 0.00622929
throughput change = 0.00141794
Class 0:
Packet latency average = 51.2586
	minimum = 22
	maximum = 148
Network latency average = 49.824
	minimum = 22
	maximum = 133
Slowest packet = 2586
Flit latency average = 28.4996
	minimum = 5
	maximum = 116
Slowest flit = 59166
Fragmentation average = 7.73209
	minimum = 0
	maximum = 49
Injected packet rate average = 0.00679167
	minimum = 0 (at node 125)
	maximum = 0.016 (at node 32)
Accepted packet rate average = 0.0066875
	minimum = 0.001 (at node 18)
	maximum = 0.017 (at node 22)
Injected flit rate average = 0.122078
	minimum = 0 (at node 125)
	maximum = 0.294 (at node 135)
Accepted flit rate average= 0.120771
	minimum = 0.012 (at node 18)
	maximum = 0.306 (at node 22)
Injected packet length average = 17.9747
Accepted packet length average = 18.0592
Total in-flight flits = 922 (0 measured)
latency change    = 0.00710861
throughput change = 0.026738
Warmed up ...Time used is 3000 cycles
Class 0:
Packet latency average = 50.9778
	minimum = 22
	maximum = 175
Network latency average = 49.8141
	minimum = 22
	maximum = 159
Slowest packet = 4050
Flit latency average = 28.7594
	minimum = 5
	maximum = 142
Slowest flit = 72917
Fragmentation average = 7.58301
	minimum = 0
	maximum = 45
Injected packet rate average = 0.00718229
	minimum = 0.002 (at node 28)
	maximum = 0.018 (at node 115)
Accepted packet rate average = 0.00717188
	minimum = 0 (at node 153)
	maximum = 0.014 (at node 6)
Injected flit rate average = 0.129193
	minimum = 0.036 (at node 28)
	maximum = 0.324 (at node 115)
Accepted flit rate average= 0.129307
	minimum = 0.017 (at node 153)
	maximum = 0.252 (at node 6)
Injected packet length average = 17.9877
Accepted packet length average = 18.0298
Total in-flight flits = 917 (917 measured)
latency change    = 0.0055074
throughput change = 0.0660168
Class 0:
Packet latency average = 51.2752
	minimum = 22
	maximum = 175
Network latency average = 50.2258
	minimum = 22
	maximum = 159
Slowest packet = 4050
Flit latency average = 29.0651
	minimum = 5
	maximum = 142
Slowest flit = 72917
Fragmentation average = 7.65236
	minimum = 0
	maximum = 45
Injected packet rate average = 0.00692969
	minimum = 0.0025 (at node 2)
	maximum = 0.0115 (at node 5)
Accepted packet rate average = 0.00697656
	minimum = 0.003 (at node 184)
	maximum = 0.0115 (at node 63)
Injected flit rate average = 0.124703
	minimum = 0.045 (at node 2)
	maximum = 0.207 (at node 5)
Accepted flit rate average= 0.125206
	minimum = 0.054 (at node 184)
	maximum = 0.2 (at node 63)
Injected packet length average = 17.9955
Accepted packet length average = 17.9466
Total in-flight flits = 741 (741 measured)
latency change    = 0.00579987
throughput change = 0.0327586
Class 0:
Packet latency average = 51.1365
	minimum = 22
	maximum = 175
Network latency average = 50.0072
	minimum = 22
	maximum = 159
Slowest packet = 4050
Flit latency average = 28.8312
	minimum = 5
	maximum = 142
Slowest flit = 72917
Fragmentation average = 7.63378
	minimum = 0
	maximum = 51
Injected packet rate average = 0.0068941
	minimum = 0.00333333 (at node 2)
	maximum = 0.0113333 (at node 93)
Accepted packet rate average = 0.00691493
	minimum = 0.00333333 (at node 153)
	maximum = 0.0106667 (at node 34)
Injected flit rate average = 0.124271
	minimum = 0.0586667 (at node 112)
	maximum = 0.200667 (at node 93)
Accepted flit rate average= 0.124535
	minimum = 0.06 (at node 153)
	maximum = 0.193333 (at node 34)
Injected packet length average = 18.0257
Accepted packet length average = 18.0095
Total in-flight flits = 668 (668 measured)
latency change    = 0.002713
throughput change = 0.00538811
Class 0:
Packet latency average = 50.9736
	minimum = 22
	maximum = 184
Network latency average = 49.8752
	minimum = 22
	maximum = 184
Slowest packet = 8788
Flit latency average = 28.7059
	minimum = 5
	maximum = 167
Slowest flit = 158197
Fragmentation average = 7.57304
	minimum = 0
	maximum = 53
Injected packet rate average = 0.006875
	minimum = 0.00325 (at node 112)
	maximum = 0.01075 (at node 93)
Accepted packet rate average = 0.00689193
	minimum = 0.00425 (at node 91)
	maximum = 0.01175 (at node 16)
Injected flit rate average = 0.123784
	minimum = 0.0585 (at node 112)
	maximum = 0.1935 (at node 93)
Accepted flit rate average= 0.123992
	minimum = 0.0765 (at node 91)
	maximum = 0.20975 (at node 16)
Injected packet length average = 18.0049
Accepted packet length average = 17.9909
Total in-flight flits = 736 (736 measured)
latency change    = 0.00319557
throughput change = 0.00437556
Draining remaining packets ...
Time taken is 7056 cycles
====== Overall Traffic Statistics ======
====== Traffic class 0 ======
Packet latency average = 50.9769 (1 samples)
	minimum = 22 (1 samples)
	maximum = 184 (1 samples)
Network latency average = 49.8841 (1 samples)
	minimum = 22 (1 samples)
	maximum = 184 (1 samples)
Flit latency average = 28.7191 (1 samples)
	minimum = 5 (1 samples)
	maximum = 167 (1 samples)
Fragmentation average = 7.58788 (1 samples)
	minimum = 0 (1 samples)
	maximum = 53 (1 samples)
Injected packet rate average = 0.006875 (1 samples)
	minimum = 0.00325 (1 samples)
	maximum = 0.01075 (1 samples)
Accepted packet rate average = 0.00689193 (1 samples)
	minimum = 0.00425 (1 samples)
	maximum = 0.01175 (1 samples)
Injected flit rate average = 0.123784 (1 samples)
	minimum = 0.0585 (1 samples)
	maximum = 0.1935 (1 samples)
Accepted flit rate average = 0.123992 (1 samples)
	minimum = 0.0765 (1 samples)
	maximum = 0.20975 (1 samples)
Injected packet size average = 18.0049 (1 samples)
Accepted packet size average = 17.9909 (1 samples)
Hops average = 5.07841 (1 samples)
Total run time 2.86765
