BEGIN Configuration File: networks/mezzanine_config
topology = mezzanine;
n = 12;

routing_function = multipath;
internal_speedup = 2.0;
latency_thres = 100000.0;
use_read_write = 0;

sample_period = 1000;
injection_rate = 0.5;
packet_size = 18;

noq = 1;
routing_delay = 0;
vc_alloc_delay = 1;
sw_alloc_delay = 1;
st_final_delay = 1;
vc_allocator = islip; 
sw_allocator = islip;
alloc_iters  = 4;
num_vcs     = 12;
buffer_policy = private; // private or shared
buf_size = -1; // -1 for buffer_policy = private;
vc_buf_size = 4096; // size of each VOQ with buffer_policy = private
output_buffer_size = -1;


traffic = uniform;

//mezW = 0.0;
//mezPredefinedPatternType = shift-inter; //shift-qfdb

END Configuration File: networks/mezzanine_config
OVERRIDE Parameter: injection_rate=0.011327
OVERRIDE Parameter: routing_function=multipath
OVERRIDE Parameter: num_vcs=64
OVERRIDE Parameter: vc_buf_size=18
OVERRIDE Parameter: internal_speedup=2.0
OVERRIDE Parameter: injection_process=on_off
OVERRIDE Parameter: sim_type=throughput
OVERRIDE Parameter: burst_alpha=0.0038461538
OVERRIDE Parameter: burst_beta=0.1
network: network_0
========================== Routing table  =====================
Number of Subnets: 1
Class 0:
Packet latency average = 143.54
	minimum = 22
	maximum = 627
Network latency average = 102.081
	minimum = 22
	maximum = 548
Slowest packet = 33
Flit latency average = 75.1156
	minimum = 5
	maximum = 531
Slowest flit = 15407
Fragmentation average = 20.6338
	minimum = 0
	maximum = 174
Injected packet rate average = 0.0115937
	minimum = 0 (at node 35)
	maximum = 0.043 (at node 6)
Accepted packet rate average = 0.010026
	minimum = 0.002 (at node 174)
	maximum = 0.017 (at node 49)
Injected flit rate average = 0.206839
	minimum = 0 (at node 35)
	maximum = 0.771 (at node 6)
Accepted flit rate average= 0.18499
	minimum = 0.036 (at node 174)
	maximum = 0.32 (at node 70)
Injected packet length average = 17.8405
Accepted packet length average = 18.4509
Total in-flight flits = 4550 (0 measured)
latency change    = 1
throughput change = 1
Class 0:
Packet latency average = 163.583
	minimum = 22
	maximum = 909
Network latency average = 119.501
	minimum = 22
	maximum = 799
Slowest packet = 1988
Flit latency average = 91.1305
	minimum = 5
	maximum = 782
Slowest flit = 41542
Fragmentation average = 21.9274
	minimum = 0
	maximum = 237
Injected packet rate average = 0.0108281
	minimum = 0.001 (at node 55)
	maximum = 0.025 (at node 3)
Accepted packet rate average = 0.0102266
	minimum = 0.0055 (at node 135)
	maximum = 0.017 (at node 22)
Injected flit rate average = 0.19426
	minimum = 0.018 (at node 55)
	maximum = 0.45 (at node 3)
Accepted flit rate average= 0.185615
	minimum = 0.102 (at node 135)
	maximum = 0.306 (at node 22)
Injected packet length average = 17.9404
Accepted packet length average = 18.1502
Total in-flight flits = 3568 (0 measured)
latency change    = 0.122527
throughput change = 0.00336719
Class 0:
Packet latency average = 190.451
	minimum = 23
	maximum = 906
Network latency average = 140.613
	minimum = 22
	maximum = 804
Slowest packet = 3295
Flit latency average = 110.988
	minimum = 5
	maximum = 787
Slowest flit = 59327
Fragmentation average = 25.3396
	minimum = 0
	maximum = 221
Injected packet rate average = 0.0111719
	minimum = 0 (at node 24)
	maximum = 0.041 (at node 126)
Accepted packet rate average = 0.0108125
	minimum = 0.003 (at node 121)
	maximum = 0.019 (at node 63)
Injected flit rate average = 0.200922
	minimum = 0 (at node 24)
	maximum = 0.749 (at node 126)
Accepted flit rate average= 0.196234
	minimum = 0.054 (at node 121)
	maximum = 0.342 (at node 73)
Injected packet length average = 17.9846
Accepted packet length average = 18.1488
Total in-flight flits = 4519 (0 measured)
latency change    = 0.141076
throughput change = 0.0541179
Warmed up ...Time used is 3000 cycles
Class 0:
Packet latency average = 179.122
	minimum = 22
	maximum = 968
Network latency average = 131.438
	minimum = 22
	maximum = 866
Slowest packet = 6304
Flit latency average = 116.533
	minimum = 5
	maximum = 943
Slowest flit = 114764
Fragmentation average = 23.7267
	minimum = 0
	maximum = 162
Injected packet rate average = 0.0111146
	minimum = 0 (at node 4)
	maximum = 0.041 (at node 34)
Accepted packet rate average = 0.0109062
	minimum = 0 (at node 163)
	maximum = 0.022 (at node 120)
Injected flit rate average = 0.19988
	minimum = 0 (at node 4)
	maximum = 0.737 (at node 34)
Accepted flit rate average= 0.195135
	minimum = 0 (at node 163)
	maximum = 0.396 (at node 120)
Injected packet length average = 17.9836
Accepted packet length average = 17.8921
Total in-flight flits = 5447 (5447 measured)
latency change    = 0.0632485
throughput change = 0.00563177
Class 0:
Packet latency average = 210.807
	minimum = 22
	maximum = 1356
Network latency average = 160.571
	minimum = 22
	maximum = 1179
Slowest packet = 6611
Flit latency average = 134.483
	minimum = 5
	maximum = 1222
Slowest flit = 143231
Fragmentation average = 27.439
	minimum = 0
	maximum = 259
Injected packet rate average = 0.0112578
	minimum = 0.001 (at node 59)
	maximum = 0.032 (at node 191)
Accepted packet rate average = 0.0110521
	minimum = 0.006 (at node 134)
	maximum = 0.018 (at node 16)
Injected flit rate average = 0.202542
	minimum = 0.018 (at node 59)
	maximum = 0.5805 (at node 191)
Accepted flit rate average= 0.198852
	minimum = 0.1095 (at node 1)
	maximum = 0.324 (at node 16)
Injected packet length average = 17.9912
Accepted packet length average = 17.9922
Total in-flight flits = 5956 (5956 measured)
latency change    = 0.150304
throughput change = 0.018688
Class 0:
Packet latency average = 211.495
	minimum = 22
	maximum = 1356
Network latency average = 162.134
	minimum = 22
	maximum = 1248
Slowest packet = 6611
Flit latency average = 134.757
	minimum = 5
	maximum = 1231
Slowest flit = 143243
Fragmentation average = 26.5278
	minimum = 0
	maximum = 259
Injected packet rate average = 0.0109132
	minimum = 0.002 (at node 87)
	maximum = 0.0303333 (at node 115)
Accepted packet rate average = 0.0109167
	minimum = 0.00533333 (at node 4)
	maximum = 0.017 (at node 129)
Injected flit rate average = 0.196269
	minimum = 0.034 (at node 87)
	maximum = 0.546 (at node 115)
Accepted flit rate average= 0.1962
	minimum = 0.096 (at node 4)
	maximum = 0.292667 (at node 129)
Injected packet length average = 17.9846
Accepted packet length average = 17.9725
Total in-flight flits = 4638 (4638 measured)
latency change    = 0.00325139
throughput change = 0.0135164
Draining remaining packets ...
Time taken is 6631 cycles
====== Overall Traffic Statistics ======
====== Traffic class 0 ======
Packet latency average = 217.649 (1 samples)
	minimum = 22 (1 samples)
	maximum = 1356 (1 samples)
Network latency average = 167.367 (1 samples)
	minimum = 22 (1 samples)
	maximum = 1248 (1 samples)
Flit latency average = 139.281 (1 samples)
	minimum = 5 (1 samples)
	maximum = 1231 (1 samples)
Fragmentation average = 26.761 (1 samples)
	minimum = 0 (1 samples)
	maximum = 259 (1 samples)
Injected packet rate average = 0.0109132 (1 samples)
	minimum = 0.002 (1 samples)
	maximum = 0.0303333 (1 samples)
Accepted packet rate average = 0.0109167 (1 samples)
	minimum = 0.00533333 (1 samples)
	maximum = 0.017 (1 samples)
Injected flit rate average = 0.196269 (1 samples)
	minimum = 0.034 (1 samples)
	maximum = 0.546 (1 samples)
Accepted flit rate average = 0.1962 (1 samples)
	minimum = 0.096 (1 samples)
	maximum = 0.292667 (1 samples)
Injected packet size average = 17.9846 (1 samples)
Accepted packet size average = 17.9725 (1 samples)
Hops average = 5.07733 (1 samples)
Total run time 4.43139
