BEGIN Configuration File: networks/mezzanine_config
topology = mezzanine;
n = 12;

routing_function = multipath;
internal_speedup = 2.0;
latency_thres = 100000.0;
use_read_write = 0;

sample_period = 1000;
injection_rate = 0.5;
packet_size = 18;

noq = 1;
routing_delay = 0;
vc_alloc_delay = 1;
sw_alloc_delay = 1;
st_final_delay = 1;
vc_allocator = islip; 
sw_allocator = islip;
alloc_iters  = 4;
num_vcs     = 12;
buffer_policy = private; // private or shared
buf_size = -1; // -1 for buffer_policy = private;
vc_buf_size = 4096; // size of each VOQ with buffer_policy = private
output_buffer_size = -1;


traffic = uniform;

//mezW = 0.0;
//mezPredefinedPatternType = shift-inter; //shift-qfdb

END Configuration File: networks/mezzanine_config
OVERRIDE Parameter: injection_rate=0.017957
OVERRIDE Parameter: routing_function=multipath
OVERRIDE Parameter: num_vcs=12
OVERRIDE Parameter: vc_buf_size=18
OVERRIDE Parameter: internal_speedup=2.0
OVERRIDE Parameter: injection_process=bernoulli
OVERRIDE Parameter: sim_type=throughput
OVERRIDE Parameter: burst_alpha=0.0038461538
OVERRIDE Parameter: burst_beta=0.1
network: network_0
========================== Routing table  =====================
Number of Subnets: 1
Class 0:
Packet latency average = 162.548
	minimum = 22
	maximum = 661
Network latency average = 151.549
	minimum = 22
	maximum = 604
Slowest packet = 1031
Flit latency average = 124.816
	minimum = 5
	maximum = 620
Slowest flit = 22151
Fragmentation average = 19.6483
	minimum = 0
	maximum = 100
Injected packet rate average = 0.0165938
	minimum = 0.007 (at node 56)
	maximum = 0.027 (at node 74)
Accepted packet rate average = 0.0129271
	minimum = 0.002 (at node 174)
	maximum = 0.022 (at node 76)
Injected flit rate average = 0.295406
	minimum = 0.122 (at node 56)
	maximum = 0.485 (at node 117)
Accepted flit rate average= 0.237411
	minimum = 0.036 (at node 174)
	maximum = 0.407 (at node 76)
Injected packet length average = 17.8023
Accepted packet length average = 18.3654
Total in-flight flits = 12503 (0 measured)
latency change    = 1
throughput change = 1
Class 0:
Packet latency average = 261.11
	minimum = 22
	maximum = 1164
Network latency average = 211.067
	minimum = 22
	maximum = 1119
Slowest packet = 1360
Flit latency average = 181.545
	minimum = 5
	maximum = 1087
Slowest flit = 27629
Fragmentation average = 20.7817
	minimum = 0
	maximum = 110
Injected packet rate average = 0.0156172
	minimum = 0.009 (at node 87)
	maximum = 0.023 (at node 9)
Accepted packet rate average = 0.0134349
	minimum = 0.008 (at node 153)
	maximum = 0.02 (at node 22)
Injected flit rate average = 0.279427
	minimum = 0.1615 (at node 108)
	maximum = 0.4055 (at node 9)
Accepted flit rate average= 0.244219
	minimum = 0.144 (at node 153)
	maximum = 0.36 (at node 22)
Injected packet length average = 17.8923
Accepted packet length average = 18.1779
Total in-flight flits = 15516 (0 measured)
latency change    = 0.377474
throughput change = 0.0278737
Class 0:
Packet latency average = 551.754
	minimum = 22
	maximum = 2187
Network latency average = 313.868
	minimum = 22
	maximum = 1932
Slowest packet = 2613
Flit latency average = 281.616
	minimum = 5
	maximum = 1915
Slowest flit = 55025
Fragmentation average = 21.6178
	minimum = 0
	maximum = 111
Injected packet rate average = 0.0142344
	minimum = 0.003 (at node 103)
	maximum = 0.027 (at node 26)
Accepted packet rate average = 0.0139688
	minimum = 0.007 (at node 21)
	maximum = 0.025 (at node 16)
Injected flit rate average = 0.255719
	minimum = 0.054 (at node 103)
	maximum = 0.477 (at node 26)
Accepted flit rate average= 0.252
	minimum = 0.126 (at node 22)
	maximum = 0.45 (at node 16)
Injected packet length average = 17.9649
Accepted packet length average = 18.0403
Total in-flight flits = 16488 (0 measured)
latency change    = 0.526763
throughput change = 0.030878
Warmed up ...Time used is 3000 cycles
Class 0:
Packet latency average = 729.25
	minimum = 28
	maximum = 2457
Network latency average = 262.137
	minimum = 22
	maximum = 893
Slowest packet = 8837
Flit latency average = 303.144
	minimum = 5
	maximum = 1666
Slowest flit = 111364
Fragmentation average = 20.1049
	minimum = 0
	maximum = 95
Injected packet rate average = 0.013875
	minimum = 0.001 (at node 81)
	maximum = 0.025 (at node 41)
Accepted packet rate average = 0.0136615
	minimum = 0.006 (at node 48)
	maximum = 0.024 (at node 123)
Injected flit rate average = 0.250167
	minimum = 0.018 (at node 81)
	maximum = 0.45 (at node 41)
Accepted flit rate average= 0.245922
	minimum = 0.096 (at node 48)
	maximum = 0.411 (at node 123)
Injected packet length average = 18.03
Accepted packet length average = 18.0011
Total in-flight flits = 17457 (17316 measured)
latency change    = 0.243395
throughput change = 0.0247157
Class 0:
Packet latency average = 901.765
	minimum = 22
	maximum = 3004
Network latency average = 317.251
	minimum = 22
	maximum = 1395
Slowest packet = 8837
Flit latency average = 311.436
	minimum = 5
	maximum = 1666
Slowest flit = 111364
Fragmentation average = 21.7877
	minimum = 0
	maximum = 102
Injected packet rate average = 0.013974
	minimum = 0.005 (at node 81)
	maximum = 0.0215 (at node 129)
Accepted packet rate average = 0.0138568
	minimum = 0.0065 (at node 4)
	maximum = 0.021 (at node 123)
Injected flit rate average = 0.251688
	minimum = 0.09 (at node 81)
	maximum = 0.391 (at node 129)
Accepted flit rate average= 0.249232
	minimum = 0.117 (at node 4)
	maximum = 0.3675 (at node 123)
Injected packet length average = 18.0112
Accepted packet length average = 17.9863
Total in-flight flits = 17767 (17767 measured)
latency change    = 0.191308
throughput change = 0.0132804
Class 0:
Packet latency average = 1035.13
	minimum = 22
	maximum = 3074
Network latency average = 331.611
	minimum = 22
	maximum = 1395
Slowest packet = 8837
Flit latency average = 313.813
	minimum = 5
	maximum = 1666
Slowest flit = 111364
Fragmentation average = 22.0713
	minimum = 0
	maximum = 106
Injected packet rate average = 0.0139583
	minimum = 0.00566667 (at node 168)
	maximum = 0.0213333 (at node 123)
Accepted packet rate average = 0.0138698
	minimum = 0.009 (at node 36)
	maximum = 0.0196667 (at node 129)
Injected flit rate average = 0.25133
	minimum = 0.102 (at node 168)
	maximum = 0.384 (at node 123)
Accepted flit rate average= 0.249672
	minimum = 0.162 (at node 36)
	maximum = 0.352 (at node 129)
Injected packet length average = 18.0057
Accepted packet length average = 18.0011
Total in-flight flits = 17613 (17613 measured)
latency change    = 0.128839
throughput change = 0.00176273
Draining remaining packets ...
Time taken is 6678 cycles
====== Overall Traffic Statistics ======
====== Traffic class 0 ======
Packet latency average = 1095.2 (1 samples)
	minimum = 22 (1 samples)
	maximum = 3240 (1 samples)
Network latency average = 345.203 (1 samples)
	minimum = 22 (1 samples)
	maximum = 1743 (1 samples)
Flit latency average = 323.954 (1 samples)
	minimum = 5 (1 samples)
	maximum = 1726 (1 samples)
Fragmentation average = 21.7 (1 samples)
	minimum = 0 (1 samples)
	maximum = 113 (1 samples)
Injected packet rate average = 0.0139583 (1 samples)
	minimum = 0.00566667 (1 samples)
	maximum = 0.0213333 (1 samples)
Accepted packet rate average = 0.0138698 (1 samples)
	minimum = 0.009 (1 samples)
	maximum = 0.0196667 (1 samples)
Injected flit rate average = 0.25133 (1 samples)
	minimum = 0.102 (1 samples)
	maximum = 0.384 (1 samples)
Accepted flit rate average = 0.249672 (1 samples)
	minimum = 0.162 (1 samples)
	maximum = 0.352 (1 samples)
Injected packet size average = 18.0057 (1 samples)
Accepted packet size average = 18.0011 (1 samples)
Hops average = 5.07178 (1 samples)
Total run time 5.50595
