BEGIN Configuration File: networks/mezzanine_config
topology = mezzanine;
n = 12;

routing_function = multipath;
internal_speedup = 2.0;
latency_thres = 100000.0;
use_read_write = 0;

sample_period = 1000;
injection_rate = 0.5;
packet_size = 18;

noq = 1;
routing_delay = 0;
vc_alloc_delay = 1;
sw_alloc_delay = 1;
st_final_delay = 1;
vc_allocator = islip; 
sw_allocator = islip;
alloc_iters  = 4;
num_vcs     = 12;
buffer_policy = private; // private or shared
buf_size = -1; // -1 for buffer_policy = private;
vc_buf_size = 4096; // size of each VOQ with buffer_policy = private
output_buffer_size = -1;


traffic = uniform;

//mezW = 0.0;
//mezPredefinedPatternType = shift-inter; //shift-qfdb

END Configuration File: networks/mezzanine_config
OVERRIDE Parameter: injection_rate=0.011327
OVERRIDE Parameter: routing_function=min
OVERRIDE Parameter: num_vcs=12
OVERRIDE Parameter: vc_buf_size=18
OVERRIDE Parameter: internal_speedup=2.0
OVERRIDE Parameter: injection_process=bernoulli
OVERRIDE Parameter: sim_type=throughput
OVERRIDE Parameter: burst_alpha=0.0038461538
OVERRIDE Parameter: burst_beta=0.1
network: network_0
========================== Routing table  =====================
Number of Subnets: 1
Class 0:
Packet latency average = 82.1618
	minimum = 22
	maximum = 387
Network latency average = 79.1991
	minimum = 22
	maximum = 387
Slowest packet = 607
Flit latency average = 54.8544
	minimum = 5
	maximum = 370
Slowest flit = 10943
Fragmentation average = 13.6233
	minimum = 0
	maximum = 76
Injected packet rate average = 0.0112448
	minimum = 0.002 (at node 166)
	maximum = 0.019 (at node 61)
Accepted packet rate average = 0.0102031
	minimum = 0.002 (at node 174)
	maximum = 0.018 (at node 91)
Injected flit rate average = 0.20037
	minimum = 0.036 (at node 166)
	maximum = 0.328 (at node 61)
Accepted flit rate average= 0.186833
	minimum = 0.036 (at node 174)
	maximum = 0.324 (at node 91)
Injected packet length average = 17.8189
Accepted packet length average = 18.3114
Total in-flight flits = 2990 (0 measured)
latency change    = 1
throughput change = 1
Class 0:
Packet latency average = 86.9744
	minimum = 22
	maximum = 629
Network latency average = 83.8434
	minimum = 22
	maximum = 629
Slowest packet = 1749
Flit latency average = 59.2791
	minimum = 5
	maximum = 612
Slowest flit = 31499
Fragmentation average = 13.5974
	minimum = 0
	maximum = 76
Injected packet rate average = 0.0110885
	minimum = 0.0065 (at node 47)
	maximum = 0.0185 (at node 99)
Accepted packet rate average = 0.0106927
	minimum = 0.006 (at node 30)
	maximum = 0.017 (at node 22)
Injected flit rate average = 0.198578
	minimum = 0.117 (at node 47)
	maximum = 0.333 (at node 99)
Accepted flit rate average= 0.194076
	minimum = 0.108 (at node 30)
	maximum = 0.306 (at node 22)
Injected packet length average = 17.9084
Accepted packet length average = 18.1503
Total in-flight flits = 2137 (0 measured)
latency change    = 0.0553336
throughput change = 0.0373163
Class 0:
Packet latency average = 86.0712
	minimum = 22
	maximum = 478
Network latency average = 83.4413
	minimum = 22
	maximum = 445
Slowest packet = 4024
Flit latency average = 58.8114
	minimum = 5
	maximum = 428
Slowest flit = 72449
Fragmentation average = 13.9213
	minimum = 0
	maximum = 73
Injected packet rate average = 0.0113125
	minimum = 0.002 (at node 47)
	maximum = 0.022 (at node 53)
Accepted packet rate average = 0.0111875
	minimum = 0.004 (at node 184)
	maximum = 0.019 (at node 63)
Injected flit rate average = 0.203896
	minimum = 0.036 (at node 47)
	maximum = 0.396 (at node 53)
Accepted flit rate average= 0.200786
	minimum = 0.072 (at node 184)
	maximum = 0.337 (at node 97)
Injected packet length average = 18.0239
Accepted packet length average = 17.9474
Total in-flight flits = 2664 (0 measured)
latency change    = 0.0104936
throughput change = 0.0334233
Warmed up ...Time used is 3000 cycles
Class 0:
Packet latency average = 93.0373
	minimum = 22
	maximum = 374
Network latency average = 89.5037
	minimum = 22
	maximum = 374
Slowest packet = 6863
Flit latency average = 66.4079
	minimum = 5
	maximum = 427
Slowest flit = 113057
Fragmentation average = 13.6032
	minimum = 0
	maximum = 74
Injected packet rate average = 0.0117448
	minimum = 0.003 (at node 136)
	maximum = 0.021 (at node 56)
Accepted packet rate average = 0.0115365
	minimum = 0.002 (at node 163)
	maximum = 0.023 (at node 16)
Injected flit rate average = 0.210542
	minimum = 0.054 (at node 136)
	maximum = 0.378 (at node 56)
Accepted flit rate average= 0.208682
	minimum = 0.042 (at node 163)
	maximum = 0.414 (at node 120)
Injected packet length average = 17.9264
Accepted packet length average = 18.0889
Total in-flight flits = 3187 (3187 measured)
latency change    = 0.0748737
throughput change = 0.0378366
Class 0:
Packet latency average = 96.0516
	minimum = 22
	maximum = 462
Network latency average = 92.3896
	minimum = 22
	maximum = 452
Slowest packet = 7974
Flit latency average = 68.2511
	minimum = 5
	maximum = 435
Slowest flit = 164879
Fragmentation average = 14.1042
	minimum = 0
	maximum = 77
Injected packet rate average = 0.0113906
	minimum = 0.0065 (at node 84)
	maximum = 0.0185 (at node 55)
Accepted packet rate average = 0.011401
	minimum = 0.0065 (at node 1)
	maximum = 0.019 (at node 16)
Injected flit rate average = 0.20513
	minimum = 0.117 (at node 84)
	maximum = 0.3245 (at node 55)
Accepted flit rate average= 0.205604
	minimum = 0.117 (at node 17)
	maximum = 0.344 (at node 182)
Injected packet length average = 18.0087
Accepted packet length average = 18.0338
Total in-flight flits = 2444 (2444 measured)
latency change    = 0.0313828
throughput change = 0.0149711
Class 0:
Packet latency average = 92.8442
	minimum = 22
	maximum = 484
Network latency average = 89.1349
	minimum = 22
	maximum = 452
Slowest packet = 7974
Flit latency average = 64.8401
	minimum = 5
	maximum = 435
Slowest flit = 164879
Fragmentation average = 14.1202
	minimum = 0
	maximum = 77
Injected packet rate average = 0.0113872
	minimum = 0.007 (at node 163)
	maximum = 0.017 (at node 55)
Accepted packet rate average = 0.0113385
	minimum = 0.00566667 (at node 4)
	maximum = 0.0166667 (at node 16)
Injected flit rate average = 0.205026
	minimum = 0.128 (at node 163)
	maximum = 0.306 (at node 55)
Accepted flit rate average= 0.204292
	minimum = 0.102 (at node 4)
	maximum = 0.301333 (at node 129)
Injected packet length average = 18.005
Accepted packet length average = 18.0175
Total in-flight flits = 3054 (3054 measured)
latency change    = 0.0345463
throughput change = 0.00642464
Draining remaining packets ...
Time taken is 6190 cycles
====== Overall Traffic Statistics ======
====== Traffic class 0 ======
Packet latency average = 93.7376 (1 samples)
	minimum = 22 (1 samples)
	maximum = 484 (1 samples)
Network latency average = 90.0294 (1 samples)
	minimum = 22 (1 samples)
	maximum = 452 (1 samples)
Flit latency average = 65.6979 (1 samples)
	minimum = 5 (1 samples)
	maximum = 435 (1 samples)
Fragmentation average = 14.1546 (1 samples)
	minimum = 0 (1 samples)
	maximum = 78 (1 samples)
Injected packet rate average = 0.0113872 (1 samples)
	minimum = 0.007 (1 samples)
	maximum = 0.017 (1 samples)
Accepted packet rate average = 0.0113385 (1 samples)
	minimum = 0.00566667 (1 samples)
	maximum = 0.0166667 (1 samples)
Injected flit rate average = 0.205026 (1 samples)
	minimum = 0.128 (1 samples)
	maximum = 0.306 (1 samples)
Accepted flit rate average = 0.204292 (1 samples)
	minimum = 0.102 (1 samples)
	maximum = 0.301333 (1 samples)
Injected packet size average = 18.005 (1 samples)
Accepted packet size average = 18.0175 (1 samples)
Hops average = 5.08858 (1 samples)
Total run time 4.53883
