BEGIN Configuration File: networks/mezzanine_config
topology = mezzanine;
n = 12;

routing_function = multipath;
internal_speedup = 2.0;
latency_thres = 100000.0;
use_read_write = 0;

sample_period = 1000;
injection_rate = 0.5;
packet_size = 18;

noq = 1;
routing_delay = 0;
vc_alloc_delay = 1;
sw_alloc_delay = 1;
st_final_delay = 1;
vc_allocator = islip; 
sw_allocator = islip;
alloc_iters  = 4;
num_vcs     = 12;
buffer_policy = private; // private or shared
buf_size = -1; // -1 for buffer_policy = private;
vc_buf_size = 4096; // size of each VOQ with buffer_policy = private
output_buffer_size = -1;


traffic = uniform;

//mezW = 0.0;
//mezPredefinedPatternType = shift-inter; //shift-qfdb

END Configuration File: networks/mezzanine_config
OVERRIDE Parameter: injection_rate=0.035637
OVERRIDE Parameter: routing_function=multipath
OVERRIDE Parameter: num_vcs=12
OVERRIDE Parameter: vc_buf_size=18
OVERRIDE Parameter: internal_speedup=2.0
OVERRIDE Parameter: injection_process=on_off
OVERRIDE Parameter: sim_type=throughput
OVERRIDE Parameter: burst_alpha=0.0038461538
OVERRIDE Parameter: burst_beta=0.1
network: network_0
========================== Routing table  =====================
Number of Subnets: 1
Class 0:
Packet latency average = 324.953
	minimum = 22
	maximum = 983
Network latency average = 187.341
	minimum = 22
	maximum = 722
Slowest packet = 45
Flit latency average = 160.169
	minimum = 5
	maximum = 705
Slowest flit = 16397
Fragmentation average = 18.3957
	minimum = 0
	maximum = 102
Injected packet rate average = 0.0174688
	minimum = 0 (at node 170)
	maximum = 0.038 (at node 38)
Accepted packet rate average = 0.0131094
	minimum = 0.006 (at node 41)
	maximum = 0.021 (at node 44)
Injected flit rate average = 0.310901
	minimum = 0 (at node 170)
	maximum = 0.668 (at node 38)
Accepted flit rate average= 0.240901
	minimum = 0.113 (at node 41)
	maximum = 0.383 (at node 44)
Injected packet length average = 17.7976
Accepted packet length average = 18.3762
Total in-flight flits = 15343 (0 measured)
latency change    = 1
throughput change = 1
Class 0:
Packet latency average = 583.803
	minimum = 22
	maximum = 1933
Network latency average = 251.433
	minimum = 22
	maximum = 1169
Slowest packet = 45
Flit latency average = 220.725
	minimum = 5
	maximum = 1152
Slowest flit = 27629
Fragmentation average = 20.5697
	minimum = 0
	maximum = 109
Injected packet rate average = 0.0159245
	minimum = 0.0025 (at node 36)
	maximum = 0.028 (at node 162)
Accepted packet rate average = 0.0135755
	minimum = 0.0075 (at node 153)
	maximum = 0.021 (at node 166)
Injected flit rate average = 0.285052
	minimum = 0.045 (at node 36)
	maximum = 0.496 (at node 162)
Accepted flit rate average= 0.24687
	minimum = 0.135 (at node 153)
	maximum = 0.378 (at node 166)
Injected packet length average = 17.9002
Accepted packet length average = 18.1849
Total in-flight flits = 17108 (0 measured)
latency change    = 0.443386
throughput change = 0.0241777
Class 0:
Packet latency average = 1419.89
	minimum = 25
	maximum = 2867
Network latency average = 351.083
	minimum = 22
	maximum = 1531
Slowest packet = 5599
Flit latency average = 316.859
	minimum = 5
	maximum = 1514
Slowest flit = 81000
Fragmentation average = 22.3381
	minimum = 0
	maximum = 121
Injected packet rate average = 0.0140781
	minimum = 0.001 (at node 33)
	maximum = 0.029 (at node 110)
Accepted packet rate average = 0.013724
	minimum = 0.005 (at node 4)
	maximum = 0.023 (at node 142)
Injected flit rate average = 0.252083
	minimum = 0.018 (at node 49)
	maximum = 0.522 (at node 110)
Accepted flit rate average= 0.247104
	minimum = 0.09 (at node 4)
	maximum = 0.417 (at node 142)
Injected packet length average = 17.906
Accepted packet length average = 18.0053
Total in-flight flits = 18246 (0 measured)
latency change    = 0.58884
throughput change = 0.000948487
Warmed up ...Time used is 3000 cycles
Class 0:
Packet latency average = 2056.29
	minimum = 25
	maximum = 3795
Network latency average = 291.254
	minimum = 22
	maximum = 924
Slowest packet = 8938
Flit latency average = 318.811
	minimum = 5
	maximum = 1456
Slowest flit = 105460
Fragmentation average = 22.2656
	minimum = 0
	maximum = 137
Injected packet rate average = 0.0143125
	minimum = 0.004 (at node 149)
	maximum = 0.026 (at node 141)
Accepted packet rate average = 0.0143594
	minimum = 0.006 (at node 53)
	maximum = 0.026 (at node 19)
Injected flit rate average = 0.258615
	minimum = 0.072 (at node 149)
	maximum = 0.477 (at node 141)
Accepted flit rate average= 0.258562
	minimum = 0.112 (at node 53)
	maximum = 0.474 (at node 129)
Injected packet length average = 18.0691
Accepted packet length average = 18.0065
Total in-flight flits = 18048 (17971 measured)
latency change    = 0.309488
throughput change = 0.0443155
Class 0:
Packet latency average = 2327.6
	minimum = 25
	maximum = 4854
Network latency average = 325.078
	minimum = 22
	maximum = 1512
Slowest packet = 8938
Flit latency average = 316.245
	minimum = 5
	maximum = 1495
Slowest flit = 177947
Fragmentation average = 22.0307
	minimum = 0
	maximum = 137
Injected packet rate average = 0.0138958
	minimum = 0.005 (at node 81)
	maximum = 0.0235 (at node 97)
Accepted packet rate average = 0.0139818
	minimum = 0.0085 (at node 36)
	maximum = 0.0235 (at node 129)
Injected flit rate average = 0.250466
	minimum = 0.087 (at node 81)
	maximum = 0.418 (at node 97)
Accepted flit rate average= 0.251445
	minimum = 0.153 (at node 36)
	maximum = 0.425 (at node 129)
Injected packet length average = 18.0246
Accepted packet length average = 17.9838
Total in-flight flits = 17919 (17919 measured)
latency change    = 0.116564
throughput change = 0.0283051
Class 0:
Packet latency average = 2641.76
	minimum = 25
	maximum = 5549
Network latency average = 339.657
	minimum = 22
	maximum = 1947
Slowest packet = 8938
Flit latency average = 320.419
	minimum = 5
	maximum = 1930
Slowest flit = 178720
Fragmentation average = 21.9628
	minimum = 0
	maximum = 137
Injected packet rate average = 0.0138628
	minimum = 0.00666667 (at node 56)
	maximum = 0.0243333 (at node 26)
Accepted packet rate average = 0.0138611
	minimum = 0.00933333 (at node 36)
	maximum = 0.02 (at node 129)
Injected flit rate average = 0.249778
	minimum = 0.12 (at node 56)
	maximum = 0.439333 (at node 26)
Accepted flit rate average= 0.249484
	minimum = 0.168 (at node 36)
	maximum = 0.356333 (at node 129)
Injected packet length average = 18.0178
Accepted packet length average = 17.9989
Total in-flight flits = 18327 (18327 measured)
latency change    = 0.118921
throughput change = 0.00785996
Draining remaining packets ...
Time taken is 6814 cycles
====== Overall Traffic Statistics ======
====== Traffic class 0 ======
Packet latency average = 2776.14 (1 samples)
	minimum = 25 (1 samples)
	maximum = 6313 (1 samples)
Network latency average = 359.016 (1 samples)
	minimum = 22 (1 samples)
	maximum = 1947 (1 samples)
Flit latency average = 335.276 (1 samples)
	minimum = 5 (1 samples)
	maximum = 1930 (1 samples)
Fragmentation average = 21.6845 (1 samples)
	minimum = 0 (1 samples)
	maximum = 137 (1 samples)
Injected packet rate average = 0.0138628 (1 samples)
	minimum = 0.00666667 (1 samples)
	maximum = 0.0243333 (1 samples)
Accepted packet rate average = 0.0138611 (1 samples)
	minimum = 0.00933333 (1 samples)
	maximum = 0.02 (1 samples)
Injected flit rate average = 0.249778 (1 samples)
	minimum = 0.12 (1 samples)
	maximum = 0.439333 (1 samples)
Accepted flit rate average = 0.249484 (1 samples)
	minimum = 0.168 (1 samples)
	maximum = 0.356333 (1 samples)
Injected packet size average = 18.0178 (1 samples)
Accepted packet size average = 17.9989 (1 samples)
Hops average = 5.07962 (1 samples)
Total run time 5.86021
