BEGIN Configuration File: networks/mezzanine_config
topology = mezzanine;
n = 12;

routing_function = multipath;
internal_speedup = 2.0;
latency_thres = 100000.0;
use_read_write = 0;

sample_period = 1000;
injection_rate = 0.5;
packet_size = 18;

noq = 1;
routing_delay = 0;
vc_alloc_delay = 1;
sw_alloc_delay = 1;
st_final_delay = 1;
vc_allocator = islip; 
sw_allocator = islip;
alloc_iters  = 4;
num_vcs     = 12;
buffer_policy = private; // private or shared
buf_size = -1; // -1 for buffer_policy = private;
vc_buf_size = 4096; // size of each VOQ with buffer_policy = private
output_buffer_size = -1;


traffic = uniform;

//mezW = 0.0;
//mezPredefinedPatternType = shift-inter; //shift-qfdb

END Configuration File: networks/mezzanine_config
OVERRIDE Parameter: injection_rate=0.031217
OVERRIDE Parameter: routing_function=min
OVERRIDE Parameter: num_vcs=12
OVERRIDE Parameter: vc_buf_size=18
OVERRIDE Parameter: internal_speedup=1.0
OVERRIDE Parameter: injection_process=bernoulli
OVERRIDE Parameter: sim_type=throughput
OVERRIDE Parameter: burst_alpha=0.0038461538
OVERRIDE Parameter: burst_beta=0.1
network: network_0
========================== Routing table  =====================
Number of Subnets: 1
Class 0:
Packet latency average = 326.283
	minimum = 23
	maximum = 929
Network latency average = 278.554
	minimum = 23
	maximum = 893
Slowest packet = 584
Flit latency average = 235.471
	minimum = 6
	maximum = 950
Slowest flit = 3768
Fragmentation average = 54.0824
	minimum = 0
	maximum = 148
Injected packet rate average = 0.0137917
	minimum = 0.004 (at node 184)
	maximum = 0.026 (at node 95)
Accepted packet rate average = 0.00891146
	minimum = 0.002 (at node 41)
	maximum = 0.015 (at node 73)
Injected flit rate average = 0.244964
	minimum = 0.062 (at node 184)
	maximum = 0.464 (at node 95)
Accepted flit rate average= 0.166698
	minimum = 0.036 (at node 41)
	maximum = 0.284 (at node 76)
Injected packet length average = 17.7617
Accepted packet length average = 18.706
Total in-flight flits = 17746 (0 measured)
latency change    = 1
throughput change = 1
Class 0:
Packet latency average = 676.31
	minimum = 23
	maximum = 1760
Network latency average = 403.841
	minimum = 23
	maximum = 1602
Slowest packet = 789
Flit latency average = 351.987
	minimum = 6
	maximum = 1741
Slowest flit = 21505
Fragmentation average = 54.7954
	minimum = 0
	maximum = 148
Injected packet rate average = 0.0114661
	minimum = 0.0035 (at node 184)
	maximum = 0.022 (at node 170)
Accepted packet rate average = 0.009
	minimum = 0.0045 (at node 115)
	maximum = 0.014 (at node 70)
Injected flit rate average = 0.204354
	minimum = 0.063 (at node 184)
	maximum = 0.396 (at node 170)
Accepted flit rate average= 0.165766
	minimum = 0.086 (at node 116)
	maximum = 0.2605 (at node 152)
Injected packet length average = 17.8224
Accepted packet length average = 18.4184
Total in-flight flits = 17328 (0 measured)
latency change    = 0.517554
throughput change = 0.00562416
Class 0:
Packet latency average = 1729.81
	minimum = 324
	maximum = 2671
Network latency average = 533.453
	minimum = 27
	maximum = 2286
Slowest packet = 1283
Flit latency average = 469.149
	minimum = 6
	maximum = 2241
Slowest flit = 34541
Fragmentation average = 61.3232
	minimum = 0
	maximum = 151
Injected packet rate average = 0.00901563
	minimum = 0 (at node 188)
	maximum = 0.022 (at node 126)
Accepted packet rate average = 0.00908854
	minimum = 0.003 (at node 83)
	maximum = 0.018 (at node 63)
Injected flit rate average = 0.162937
	minimum = 0 (at node 188)
	maximum = 0.399 (at node 126)
Accepted flit rate average= 0.161958
	minimum = 0.054 (at node 153)
	maximum = 0.318 (at node 63)
Injected packet length average = 18.0728
Accepted packet length average = 17.8201
Total in-flight flits = 17624 (0 measured)
latency change    = 0.609027
throughput change = 0.0235078
Warmed up ...Time used is 3000 cycles
Class 0:
Packet latency average = 2478.93
	minimum = 700
	maximum = 3389
Network latency average = 312.323
	minimum = 23
	maximum = 977
Slowest packet = 6262
Flit latency average = 482.015
	minimum = 6
	maximum = 2899
Slowest flit = 40255
Fragmentation average = 51.8061
	minimum = 0
	maximum = 130
Injected packet rate average = 0.00903125
	minimum = 0 (at node 14)
	maximum = 0.022 (at node 7)
Accepted packet rate average = 0.00896875
	minimum = 0.001 (at node 184)
	maximum = 0.017 (at node 34)
Injected flit rate average = 0.16138
	minimum = 0 (at node 14)
	maximum = 0.38 (at node 7)
Accepted flit rate average= 0.161635
	minimum = 0.018 (at node 184)
	maximum = 0.31 (at node 34)
Injected packet length average = 17.8691
Accepted packet length average = 18.0221
Total in-flight flits = 17622 (15947 measured)
latency change    = 0.302192
throughput change = 0.00199781
Class 0:
Packet latency average = 2919.55
	minimum = 700
	maximum = 4398
Network latency average = 435.866
	minimum = 23
	maximum = 1866
Slowest packet = 6262
Flit latency average = 486.118
	minimum = 6
	maximum = 2899
Slowest flit = 40255
Fragmentation average = 55.9713
	minimum = 0
	maximum = 132
Injected packet rate average = 0.009
	minimum = 0.002 (at node 14)
	maximum = 0.0165 (at node 6)
Accepted packet rate average = 0.00894792
	minimum = 0.0045 (at node 4)
	maximum = 0.018 (at node 34)
Injected flit rate average = 0.161956
	minimum = 0.036 (at node 14)
	maximum = 0.2915 (at node 6)
Accepted flit rate average= 0.161664
	minimum = 0.079 (at node 4)
	maximum = 0.3185 (at node 34)
Injected packet length average = 17.9951
Accepted packet length average = 18.0672
Total in-flight flits = 17735 (17653 measured)
latency change    = 0.150921
throughput change = 0.000177194
Class 0:
Packet latency average = 3312.13
	minimum = 700
	maximum = 5233
Network latency average = 482.535
	minimum = 23
	maximum = 2689
Slowest packet = 6262
Flit latency average = 486.39
	minimum = 6
	maximum = 2899
Slowest flit = 40255
Fragmentation average = 56.9959
	minimum = 0
	maximum = 132
Injected packet rate average = 0.0089566
	minimum = 0.003 (at node 14)
	maximum = 0.0153333 (at node 174)
Accepted packet rate average = 0.00894965
	minimum = 0.00533333 (at node 1)
	maximum = 0.0143333 (at node 16)
Injected flit rate average = 0.16097
	minimum = 0.0516667 (at node 14)
	maximum = 0.274333 (at node 174)
Accepted flit rate average= 0.161174
	minimum = 0.0943333 (at node 1)
	maximum = 0.258 (at node 16)
Injected packet length average = 17.9723
Accepted packet length average = 18.0089
Total in-flight flits = 17506 (17506 measured)
latency change    = 0.118529
throughput change = 0.003043
Draining remaining packets ...
Time taken is 6765 cycles
====== Overall Traffic Statistics ======
====== Traffic class 0 ======
Packet latency average = 3550.79 (1 samples)
	minimum = 700 (1 samples)
	maximum = 6002 (1 samples)
Network latency average = 520.538 (1 samples)
	minimum = 23 (1 samples)
	maximum = 2689 (1 samples)
Flit latency average = 507.764 (1 samples)
	minimum = 6 (1 samples)
	maximum = 2899 (1 samples)
Fragmentation average = 55.2066 (1 samples)
	minimum = 0 (1 samples)
	maximum = 132 (1 samples)
Injected packet rate average = 0.0089566 (1 samples)
	minimum = 0.003 (1 samples)
	maximum = 0.0153333 (1 samples)
Accepted packet rate average = 0.00894965 (1 samples)
	minimum = 0.00533333 (1 samples)
	maximum = 0.0143333 (1 samples)
Injected flit rate average = 0.16097 (1 samples)
	minimum = 0.0516667 (1 samples)
	maximum = 0.274333 (1 samples)
Accepted flit rate average = 0.161174 (1 samples)
	minimum = 0.0943333 (1 samples)
	maximum = 0.258 (1 samples)
Injected packet size average = 17.9723 (1 samples)
Accepted packet size average = 18.0089 (1 samples)
Hops average = 5.03436 (1 samples)
Total run time 7.93929
