BEGIN Configuration File: networks/mezzanine_config
topology = mezzanine;
n = 12;

routing_function = multipath;
internal_speedup = 2.0;
latency_thres = 100000.0;
use_read_write = 0;

sample_period = 1000;
injection_rate = 0.5;
packet_size = 18;

noq = 1;
routing_delay = 0;
vc_alloc_delay = 1;
sw_alloc_delay = 1;
st_final_delay = 1;
vc_allocator = islip; 
sw_allocator = islip;
alloc_iters  = 4;
num_vcs     = 12;
buffer_policy = private; // private or shared
buf_size = -1; // -1 for buffer_policy = private;
vc_buf_size = 4096; // size of each VOQ with buffer_policy = private
output_buffer_size = -1;


traffic = uniform;

//mezW = 0.0;
//mezPredefinedPatternType = shift-inter; //shift-qfdb

END Configuration File: networks/mezzanine_config
OVERRIDE Parameter: injection_rate=0.055556
OVERRIDE Parameter: routing_function=multipath
OVERRIDE Parameter: num_vcs=12
OVERRIDE Parameter: vc_buf_size=18
OVERRIDE Parameter: internal_speedup=2.0
OVERRIDE Parameter: injection_process=bernoulli
OVERRIDE Parameter: sim_type=throughput
OVERRIDE Parameter: burst_alpha=0.0038461538
OVERRIDE Parameter: burst_beta=0.1
network: network_0
========================== Routing table  =====================
Number of Subnets: 1
Class 0:
Packet latency average = 373.231
	minimum = 22
	maximum = 904
Network latency average = 260.476
	minimum = 22
	maximum = 812
Slowest packet = 651
Flit latency average = 230.534
	minimum = 5
	maximum = 843
Slowest flit = 21261
Fragmentation average = 23.0647
	minimum = 0
	maximum = 122
Injected packet rate average = 0.0189219
	minimum = 0.008 (at node 36)
	maximum = 0.032 (at node 162)
Accepted packet rate average = 0.0136875
	minimum = 0.007 (at node 25)
	maximum = 0.024 (at node 44)
Injected flit rate average = 0.337312
	minimum = 0.144 (at node 36)
	maximum = 0.576 (at node 162)
Accepted flit rate average= 0.252396
	minimum = 0.138 (at node 43)
	maximum = 0.432 (at node 44)
Injected packet length average = 17.8266
Accepted packet length average = 18.4399
Total in-flight flits = 18896 (0 measured)
latency change    = 1
throughput change = 1
Class 0:
Packet latency average = 738.066
	minimum = 22
	maximum = 1868
Network latency average = 309.373
	minimum = 22
	maximum = 1338
Slowest packet = 651
Flit latency average = 275.512
	minimum = 5
	maximum = 1302
Slowest flit = 34722
Fragmentation average = 22.8346
	minimum = 0
	maximum = 122
Injected packet rate average = 0.016513
	minimum = 0.0075 (at node 106)
	maximum = 0.0275 (at node 43)
Accepted packet rate average = 0.0139948
	minimum = 0.0075 (at node 116)
	maximum = 0.02 (at node 154)
Injected flit rate average = 0.295365
	minimum = 0.135 (at node 106)
	maximum = 0.495 (at node 43)
Accepted flit rate average= 0.254219
	minimum = 0.135 (at node 116)
	maximum = 0.3635 (at node 166)
Injected packet length average = 17.8868
Accepted packet length average = 18.1652
Total in-flight flits = 18552 (0 measured)
latency change    = 0.494311
throughput change = 0.00717066
Class 0:
Packet latency average = 1848.82
	minimum = 980
	maximum = 2603
Network latency average = 366.213
	minimum = 22
	maximum = 2033
Slowest packet = 4812
Flit latency average = 331.014
	minimum = 5
	maximum = 1986
Slowest flit = 57111
Fragmentation average = 21.4015
	minimum = 0
	maximum = 111
Injected packet rate average = 0.0137396
	minimum = 0.002 (at node 80)
	maximum = 0.029 (at node 78)
Accepted packet rate average = 0.0136198
	minimum = 0.004 (at node 91)
	maximum = 0.023 (at node 59)
Injected flit rate average = 0.246479
	minimum = 0.028 (at node 153)
	maximum = 0.508 (at node 78)
Accepted flit rate average= 0.245839
	minimum = 0.057 (at node 91)
	maximum = 0.407 (at node 59)
Injected packet length average = 17.9393
Accepted packet length average = 18.0501
Total in-flight flits = 18619 (0 measured)
latency change    = 0.600791
throughput change = 0.0340883
Warmed up ...Time used is 3000 cycles
Class 0:
Packet latency average = 2701.57
	minimum = 1714
	maximum = 3420
Network latency average = 287.824
	minimum = 22
	maximum = 831
Slowest packet = 9137
Flit latency average = 336.115
	minimum = 5
	maximum = 1845
Slowest flit = 118222
Fragmentation average = 21.2947
	minimum = 0
	maximum = 120
Injected packet rate average = 0.0139635
	minimum = 0.004 (at node 86)
	maximum = 0.026 (at node 9)
Accepted packet rate average = 0.0138385
	minimum = 0.006 (at node 36)
	maximum = 0.024 (at node 19)
Injected flit rate average = 0.25113
	minimum = 0.068 (at node 86)
	maximum = 0.468 (at node 9)
Accepted flit rate average= 0.249177
	minimum = 0.108 (at node 36)
	maximum = 0.432 (at node 90)
Injected packet length average = 17.9847
Accepted packet length average = 18.006
Total in-flight flits = 18963 (18767 measured)
latency change    = 0.31565
throughput change = 0.0133983
Class 0:
Packet latency average = 3107.13
	minimum = 1714
	maximum = 4259
Network latency average = 332.763
	minimum = 22
	maximum = 1362
Slowest packet = 9137
Flit latency average = 331.186
	minimum = 5
	maximum = 1845
Slowest flit = 118222
Fragmentation average = 22.5486
	minimum = 0
	maximum = 123
Injected packet rate average = 0.0138281
	minimum = 0.006 (at node 33)
	maximum = 0.0245 (at node 180)
Accepted packet rate average = 0.0138438
	minimum = 0.008 (at node 36)
	maximum = 0.0215 (at node 129)
Injected flit rate average = 0.249401
	minimum = 0.108 (at node 33)
	maximum = 0.4355 (at node 180)
Accepted flit rate average= 0.249039
	minimum = 0.145 (at node 36)
	maximum = 0.3795 (at node 129)
Injected packet length average = 18.0358
Accepted packet length average = 17.9893
Total in-flight flits = 18802 (18802 measured)
latency change    = 0.130525
throughput change = 0.000554214
Class 0:
Packet latency average = 3499.11
	minimum = 1714
	maximum = 5133
Network latency average = 347.224
	minimum = 22
	maximum = 1673
Slowest packet = 9137
Flit latency average = 331.756
	minimum = 5
	maximum = 1845
Slowest flit = 118222
Fragmentation average = 22.9328
	minimum = 0
	maximum = 123
Injected packet rate average = 0.0138872
	minimum = 0.00633333 (at node 118)
	maximum = 0.021 (at node 117)
Accepted packet rate average = 0.0138889
	minimum = 0.00833333 (at node 36)
	maximum = 0.0193333 (at node 129)
Injected flit rate average = 0.250095
	minimum = 0.113333 (at node 118)
	maximum = 0.382 (at node 117)
Accepted flit rate average= 0.250033
	minimum = 0.15 (at node 36)
	maximum = 0.346667 (at node 129)
Injected packet length average = 18.0091
Accepted packet length average = 18.0024
Total in-flight flits = 18564 (18564 measured)
latency change    = 0.112022
throughput change = 0.00397517
Draining remaining packets ...
Time taken is 6678 cycles
====== Overall Traffic Statistics ======
====== Traffic class 0 ======
Packet latency average = 3658.34 (1 samples)
	minimum = 1714 (1 samples)
	maximum = 5623 (1 samples)
Network latency average = 361.688 (1 samples)
	minimum = 22 (1 samples)
	maximum = 1726 (1 samples)
Flit latency average = 341.994 (1 samples)
	minimum = 5 (1 samples)
	maximum = 1845 (1 samples)
Fragmentation average = 22.565 (1 samples)
	minimum = 0 (1 samples)
	maximum = 123 (1 samples)
Injected packet rate average = 0.0138872 (1 samples)
	minimum = 0.00633333 (1 samples)
	maximum = 0.021 (1 samples)
Accepted packet rate average = 0.0138889 (1 samples)
	minimum = 0.00833333 (1 samples)
	maximum = 0.0193333 (1 samples)
Injected flit rate average = 0.250095 (1 samples)
	minimum = 0.113333 (1 samples)
	maximum = 0.382 (1 samples)
Accepted flit rate average = 0.250033 (1 samples)
	minimum = 0.15 (1 samples)
	maximum = 0.346667 (1 samples)
Injected packet size average = 18.0091 (1 samples)
Accepted packet size average = 18.0024 (1 samples)
Hops average = 5.06952 (1 samples)
Total run time 5.81257
