BEGIN Configuration File: networks/mezzanine_config
topology = mezzanine;
n = 12;

routing_function = multipath;
internal_speedup = 2.0;
latency_thres = 100000.0;
use_read_write = 0;

sample_period = 1000;
injection_rate = 0.5;
packet_size = 18;

noq = 1;
routing_delay = 0;
vc_alloc_delay = 1;
sw_alloc_delay = 1;
st_final_delay = 1;
vc_allocator = islip; 
sw_allocator = islip;
alloc_iters  = 4;
num_vcs     = 12;
buffer_policy = private; // private or shared
buf_size = -1; // -1 for buffer_policy = private;
vc_buf_size = 4096; // size of each VOQ with buffer_policy = private
output_buffer_size = -1;


traffic = uniform;

//mezW = 0.0;
//mezPredefinedPatternType = shift-inter; //shift-qfdb

END Configuration File: networks/mezzanine_config
OVERRIDE Parameter: injection_rate=0.046687
OVERRIDE Parameter: routing_function=min
OVERRIDE Parameter: num_vcs=12
OVERRIDE Parameter: vc_buf_size=18
OVERRIDE Parameter: internal_speedup=2.0
OVERRIDE Parameter: injection_process=on_off
OVERRIDE Parameter: sim_type=throughput
OVERRIDE Parameter: burst_alpha=0.0038461538
OVERRIDE Parameter: burst_beta=0.1
network: network_0
========================== Routing table  =====================
Number of Subnets: 1
Class 0:
Packet latency average = 343.88
	minimum = 22
	maximum = 988
Network latency average = 199.272
	minimum = 22
	maximum = 821
Slowest packet = 46
Flit latency average = 171.919
	minimum = 5
	maximum = 804
Slowest flit = 14364
Fragmentation average = 19.5188
	minimum = 0
	maximum = 116
Injected packet rate average = 0.017724
	minimum = 0 (at node 62)
	maximum = 0.039 (at node 29)
Accepted packet rate average = 0.0131615
	minimum = 0.003 (at node 174)
	maximum = 0.024 (at node 70)
Injected flit rate average = 0.315057
	minimum = 0 (at node 62)
	maximum = 0.702 (at node 29)
Accepted flit rate average= 0.24225
	minimum = 0.054 (at node 174)
	maximum = 0.432 (at node 70)
Injected packet length average = 17.7758
Accepted packet length average = 18.406
Total in-flight flits = 16236 (0 measured)
latency change    = 1
throughput change = 1
Class 0:
Packet latency average = 622.703
	minimum = 22
	maximum = 1953
Network latency average = 261.363
	minimum = 22
	maximum = 1209
Slowest packet = 46
Flit latency average = 229.827
	minimum = 5
	maximum = 1192
Slowest flit = 44802
Fragmentation average = 21.2508
	minimum = 0
	maximum = 134
Injected packet rate average = 0.0160885
	minimum = 0.001 (at node 62)
	maximum = 0.028 (at node 29)
Accepted packet rate average = 0.0136667
	minimum = 0.0075 (at node 153)
	maximum = 0.0195 (at node 71)
Injected flit rate average = 0.287552
	minimum = 0.018 (at node 62)
	maximum = 0.5025 (at node 29)
Accepted flit rate average= 0.248263
	minimum = 0.135 (at node 153)
	maximum = 0.351 (at node 71)
Injected packet length average = 17.8731
Accepted packet length average = 18.1656
Total in-flight flits = 17563 (0 measured)
latency change    = 0.447761
throughput change = 0.0242204
Class 0:
Packet latency average = 1492.52
	minimum = 48
	maximum = 2900
Network latency average = 349.07
	minimum = 22
	maximum = 1407
Slowest packet = 4855
Flit latency average = 314.241
	minimum = 5
	maximum = 1390
Slowest flit = 52469
Fragmentation average = 21.8414
	minimum = 0
	maximum = 124
Injected packet rate average = 0.0142083
	minimum = 0.004 (at node 62)
	maximum = 0.034 (at node 109)
Accepted packet rate average = 0.0139219
	minimum = 0.006 (at node 4)
	maximum = 0.025 (at node 34)
Injected flit rate average = 0.255969
	minimum = 0.072 (at node 62)
	maximum = 0.596 (at node 109)
Accepted flit rate average= 0.252099
	minimum = 0.113 (at node 184)
	maximum = 0.464 (at node 34)
Injected packet length average = 18.0154
Accepted packet length average = 18.1081
Total in-flight flits = 18228 (0 measured)
latency change    = 0.582784
throughput change = 0.015216
Warmed up ...Time used is 3000 cycles
Class 0:
Packet latency average = 2146.4
	minimum = 22
	maximum = 3837
Network latency average = 283.413
	minimum = 22
	maximum = 861
Slowest packet = 9002
Flit latency average = 316.757
	minimum = 5
	maximum = 1401
Slowest flit = 116783
Fragmentation average = 21.558
	minimum = 0
	maximum = 96
Injected packet rate average = 0.0139948
	minimum = 0 (at node 101)
	maximum = 0.031 (at node 163)
Accepted packet rate average = 0.014125
	minimum = 0.006 (at node 190)
	maximum = 0.026 (at node 90)
Injected flit rate average = 0.251641
	minimum = 0 (at node 101)
	maximum = 0.562 (at node 163)
Accepted flit rate average= 0.253234
	minimum = 0.123 (at node 190)
	maximum = 0.461 (at node 90)
Injected packet length average = 17.981
Accepted packet length average = 17.9281
Total in-flight flits = 18189 (17995 measured)
latency change    = 0.30464
throughput change = 0.00448366
Class 0:
Packet latency average = 2495.38
	minimum = 22
	maximum = 4812
Network latency average = 332.539
	minimum = 22
	maximum = 1465
Slowest packet = 9002
Flit latency average = 323.123
	minimum = 5
	maximum = 1566
Slowest flit = 183287
Fragmentation average = 21.7825
	minimum = 0
	maximum = 137
Injected packet rate average = 0.0138984
	minimum = 0.006 (at node 63)
	maximum = 0.026 (at node 163)
Accepted packet rate average = 0.0139297
	minimum = 0.0085 (at node 88)
	maximum = 0.0205 (at node 129)
Injected flit rate average = 0.250435
	minimum = 0.1135 (at node 63)
	maximum = 0.47 (at node 163)
Accepted flit rate average= 0.250312
	minimum = 0.158 (at node 88)
	maximum = 0.37 (at node 90)
Injected packet length average = 18.0189
Accepted packet length average = 17.9697
Total in-flight flits = 18516 (18516 measured)
latency change    = 0.139851
throughput change = 0.0116729
Class 0:
Packet latency average = 2836.79
	minimum = 22
	maximum = 5898
Network latency average = 345.234
	minimum = 22
	maximum = 1983
Slowest packet = 9002
Flit latency average = 325.66
	minimum = 5
	maximum = 1966
Slowest flit = 176525
Fragmentation average = 22.1213
	minimum = 0
	maximum = 137
Injected packet rate average = 0.0138819
	minimum = 0.007 (at node 65)
	maximum = 0.0236667 (at node 163)
Accepted packet rate average = 0.0139028
	minimum = 0.00933333 (at node 36)
	maximum = 0.0193333 (at node 129)
Injected flit rate average = 0.249903
	minimum = 0.126 (at node 65)
	maximum = 0.426667 (at node 163)
Accepted flit rate average= 0.250095
	minimum = 0.172 (at node 132)
	maximum = 0.349333 (at node 129)
Injected packet length average = 18.002
Accepted packet length average = 17.9889
Total in-flight flits = 18389 (18389 measured)
latency change    = 0.120353
throughput change = 0.000867724
Draining remaining packets ...
Time taken is 6846 cycles
====== Overall Traffic Statistics ======
====== Traffic class 0 ======
Packet latency average = 2970.53 (1 samples)
	minimum = 22 (1 samples)
	maximum = 6455 (1 samples)
Network latency average = 360.638 (1 samples)
	minimum = 22 (1 samples)
	maximum = 1983 (1 samples)
Flit latency average = 336.951 (1 samples)
	minimum = 5 (1 samples)
	maximum = 1966 (1 samples)
Fragmentation average = 21.8485 (1 samples)
	minimum = 0 (1 samples)
	maximum = 137 (1 samples)
Injected packet rate average = 0.0138819 (1 samples)
	minimum = 0.007 (1 samples)
	maximum = 0.0236667 (1 samples)
Accepted packet rate average = 0.0139028 (1 samples)
	minimum = 0.00933333 (1 samples)
	maximum = 0.0193333 (1 samples)
Injected flit rate average = 0.249903 (1 samples)
	minimum = 0.126 (1 samples)
	maximum = 0.426667 (1 samples)
Accepted flit rate average = 0.250095 (1 samples)
	minimum = 0.172 (1 samples)
	maximum = 0.349333 (1 samples)
Injected packet size average = 18.002 (1 samples)
Accepted packet size average = 17.9889 (1 samples)
Hops average = 5.06266 (1 samples)
Total run time 7.98951
