BEGIN Configuration File: networks/mezzanine_config
topology = mezzanine;
n = 12;

routing_function = multipath;
internal_speedup = 2.0;
latency_thres = 100000.0;
use_read_write = 0;

sample_period = 1000;
injection_rate = 0.5;
packet_size = 18;

noq = 1;
routing_delay = 0;
vc_alloc_delay = 1;
sw_alloc_delay = 1;
st_final_delay = 1;
vc_allocator = islip; 
sw_allocator = islip;
alloc_iters  = 4;
num_vcs     = 12;
buffer_policy = private; // private or shared
buf_size = -1; // -1 for buffer_policy = private;
vc_buf_size = 4096; // size of each VOQ with buffer_policy = private
output_buffer_size = -1;


traffic = uniform;

//mezW = 0.0;
//mezPredefinedPatternType = shift-inter; //shift-qfdb

END Configuration File: networks/mezzanine_config
OVERRIDE Parameter: injection_rate=0.002487
OVERRIDE Parameter: routing_function=min
OVERRIDE Parameter: num_vcs=64
OVERRIDE Parameter: vc_buf_size=1024
OVERRIDE Parameter: internal_speedup=1.0
OVERRIDE Parameter: injection_process=on_off
OVERRIDE Parameter: sim_type=throughput
OVERRIDE Parameter: burst_alpha=0.0038461538
OVERRIDE Parameter: burst_beta=0.1
network: network_0
========================== Routing table  =====================
Number of Subnets: 1
Class 0:
Packet latency average = 56.5065
	minimum = 23
	maximum = 125
Network latency average = 50.3297
	minimum = 23
	maximum = 120
Slowest packet = 24
Flit latency average = 27.863
	minimum = 6
	maximum = 103
Slowest flit = 989
Fragmentation average = 10.5194
	minimum = 0
	maximum = 81
Injected packet rate average = 0.00258333
	minimum = 0 (at node 5)
	maximum = 0.015 (at node 173)
Accepted packet rate average = 0.00241667
	minimum = 0 (at node 11)
	maximum = 0.008 (at node 140)
Injected flit rate average = 0.046026
	minimum = 0 (at node 5)
	maximum = 0.27 (at node 173)
Accepted flit rate average= 0.0444271
	minimum = 0 (at node 11)
	maximum = 0.144 (at node 140)
Injected packet length average = 17.8165
Accepted packet length average = 18.3836
Total in-flight flits = 398 (0 measured)
latency change    = 1
throughput change = 1
Class 0:
Packet latency average = 53.8094
	minimum = 23
	maximum = 147
Network latency average = 48.0168
	minimum = 23
	maximum = 120
Slowest packet = 24
Flit latency average = 26.7088
	minimum = 6
	maximum = 103
Slowest flit = 989
Fragmentation average = 8.22085
	minimum = 0
	maximum = 82
Injected packet rate average = 0.00238021
	minimum = 0 (at node 18)
	maximum = 0.008 (at node 0)
Accepted packet rate average = 0.00232292
	minimum = 0.0005 (at node 14)
	maximum = 0.0055 (at node 140)
Injected flit rate average = 0.0426458
	minimum = 0 (at node 18)
	maximum = 0.144 (at node 0)
Accepted flit rate average= 0.0420651
	minimum = 0.009 (at node 35)
	maximum = 0.099 (at node 140)
Injected packet length average = 17.9168
Accepted packet length average = 18.1087
Total in-flight flits = 299 (0 measured)
latency change    = 0.0501222
throughput change = 0.0561506
Class 0:
Packet latency average = 54.5827
	minimum = 23
	maximum = 155
Network latency average = 47.9194
	minimum = 23
	maximum = 139
Slowest packet = 989
Flit latency average = 26.7724
	minimum = 6
	maximum = 122
Slowest flit = 17819
Fragmentation average = 8.37298
	minimum = 0
	maximum = 99
Injected packet rate average = 0.00260417
	minimum = 0 (at node 4)
	maximum = 0.012 (at node 1)
Accepted packet rate average = 0.00258333
	minimum = 0 (at node 10)
	maximum = 0.007 (at node 22)
Injected flit rate average = 0.047099
	minimum = 0 (at node 4)
	maximum = 0.216 (at node 1)
Accepted flit rate average= 0.0469115
	minimum = 0 (at node 10)
	maximum = 0.126 (at node 22)
Injected packet length average = 18.086
Accepted packet length average = 18.1593
Total in-flight flits = 292 (0 measured)
latency change    = 0.0141665
throughput change = 0.103309
Warmed up ...Time used is 3000 cycles
Class 0:
Packet latency average = 58.0409
	minimum = 26
	maximum = 228
Network latency average = 49.9613
	minimum = 23
	maximum = 174
Slowest packet = 1416
Flit latency average = 28.3768
	minimum = 6
	maximum = 157
Slowest flit = 27521
Fragmentation average = 9.89032
	minimum = 0
	maximum = 87
Injected packet rate average = 0.00250521
	minimum = 0 (at node 2)
	maximum = 0.009 (at node 5)
Accepted packet rate average = 0.00255729
	minimum = 0 (at node 32)
	maximum = 0.007 (at node 44)
Injected flit rate average = 0.0447135
	minimum = 0 (at node 2)
	maximum = 0.162 (at node 5)
Accepted flit rate average= 0.0452813
	minimum = 0 (at node 32)
	maximum = 0.126 (at node 182)
Injected packet length average = 17.8482
Accepted packet length average = 17.7067
Total in-flight flits = 256 (256 measured)
latency change    = 0.0595821
throughput change = 0.0360018
Class 0:
Packet latency average = 57.9486
	minimum = 23
	maximum = 228
Network latency average = 49.4588
	minimum = 23
	maximum = 174
Slowest packet = 1416
Flit latency average = 27.7889
	minimum = 6
	maximum = 157
Slowest flit = 27521
Fragmentation average = 9.607
	minimum = 0
	maximum = 109
Injected packet rate average = 0.00259635
	minimum = 0 (at node 86)
	maximum = 0.008 (at node 132)
Accepted packet rate average = 0.00259896
	minimum = 0 (at node 116)
	maximum = 0.0065 (at node 44)
Injected flit rate average = 0.0466354
	minimum = 0 (at node 86)
	maximum = 0.144 (at node 132)
Accepted flit rate average= 0.0466849
	minimum = 0 (at node 116)
	maximum = 0.108 (at node 65)
Injected packet length average = 17.9619
Accepted packet length average = 17.9629
Total in-flight flits = 311 (311 measured)
latency change    = 0.0015928
throughput change = 0.0300664
Class 0:
Packet latency average = 59.0104
	minimum = 23
	maximum = 258
Network latency average = 50.5173
	minimum = 23
	maximum = 206
Slowest packet = 1416
Flit latency average = 28.3423
	minimum = 6
	maximum = 189
Slowest flit = 44135
Fragmentation average = 10.3907
	minimum = 0
	maximum = 166
Injected packet rate average = 0.00252604
	minimum = 0.000333333 (at node 24)
	maximum = 0.006 (at node 44)
Accepted packet rate average = 0.00255556
	minimum = 0.000333333 (at node 116)
	maximum = 0.006 (at node 44)
Injected flit rate average = 0.0454601
	minimum = 0.006 (at node 24)
	maximum = 0.108 (at node 44)
Accepted flit rate average= 0.0457639
	minimum = 0.006 (at node 116)
	maximum = 0.102 (at node 173)
Injected packet length average = 17.9966
Accepted packet length average = 17.9076
Total in-flight flits = 122 (122 measured)
latency change    = 0.0179937
throughput change = 0.0201252
Draining remaining packets ...
Time taken is 6045 cycles
====== Overall Traffic Statistics ======
====== Traffic class 0 ======
Packet latency average = 58.9601 (1 samples)
	minimum = 23 (1 samples)
	maximum = 258 (1 samples)
Network latency average = 50.4495 (1 samples)
	minimum = 23 (1 samples)
	maximum = 206 (1 samples)
Flit latency average = 28.3089 (1 samples)
	minimum = 6 (1 samples)
	maximum = 189 (1 samples)
Fragmentation average = 10.3409 (1 samples)
	minimum = 0 (1 samples)
	maximum = 166 (1 samples)
Injected packet rate average = 0.00252604 (1 samples)
	minimum = 0.000333333 (1 samples)
	maximum = 0.006 (1 samples)
Accepted packet rate average = 0.00255556 (1 samples)
	minimum = 0.000333333 (1 samples)
	maximum = 0.006 (1 samples)
Injected flit rate average = 0.0454601 (1 samples)
	minimum = 0.006 (1 samples)
	maximum = 0.108 (1 samples)
Accepted flit rate average = 0.0457639 (1 samples)
	minimum = 0.006 (1 samples)
	maximum = 0.102 (1 samples)
Injected packet size average = 17.9966 (1 samples)
Accepted packet size average = 17.9076 (1 samples)
Hops average = 5.06186 (1 samples)
Total run time 1.44755
