BEGIN Configuration File: networks/mezzanine_config
topology = mezzanine;
n = 12;

routing_function = multipath;
internal_speedup = 2.0;
latency_thres = 100000.0;
use_read_write = 0;

sample_period = 1000;
injection_rate = 0.5;
packet_size = 18;

noq = 1;
routing_delay = 0;
vc_alloc_delay = 1;
sw_alloc_delay = 1;
st_final_delay = 1;
vc_allocator = islip; 
sw_allocator = islip;
alloc_iters  = 4;
num_vcs     = 12;
buffer_policy = private; // private or shared
buf_size = -1; // -1 for buffer_policy = private;
vc_buf_size = 4096; // size of each VOQ with buffer_policy = private
output_buffer_size = -1;


traffic = uniform;

//mezW = 0.0;
//mezPredefinedPatternType = shift-inter; //shift-qfdb

END Configuration File: networks/mezzanine_config
OVERRIDE Parameter: injection_rate=0.053317
OVERRIDE Parameter: routing_function=min
OVERRIDE Parameter: num_vcs=12
OVERRIDE Parameter: vc_buf_size=18
OVERRIDE Parameter: internal_speedup=2.0
OVERRIDE Parameter: injection_process=bernoulli
OVERRIDE Parameter: sim_type=throughput
OVERRIDE Parameter: burst_alpha=0.0038461538
OVERRIDE Parameter: burst_beta=0.1
network: network_0
========================== Routing table  =====================
Number of Subnets: 1
Class 0:
Packet latency average = 373.01
	minimum = 22
	maximum = 875
Network latency average = 258.004
	minimum = 22
	maximum = 865
Slowest packet = 515
Flit latency average = 229.361
	minimum = 5
	maximum = 848
Slowest flit = 9413
Fragmentation average = 22.08
	minimum = 0
	maximum = 143
Injected packet rate average = 0.0187448
	minimum = 0.008 (at node 144)
	maximum = 0.028 (at node 117)
Accepted packet rate average = 0.0135469
	minimum = 0.005 (at node 41)
	maximum = 0.023 (at node 44)
Injected flit rate average = 0.333552
	minimum = 0.144 (at node 144)
	maximum = 0.499 (at node 186)
Accepted flit rate average= 0.249396
	minimum = 0.102 (at node 41)
	maximum = 0.425 (at node 44)
Injected packet length average = 17.7944
Accepted packet length average = 18.4098
Total in-flight flits = 18698 (0 measured)
latency change    = 1
throughput change = 1
Class 0:
Packet latency average = 732.683
	minimum = 22
	maximum = 1736
Network latency average = 312.847
	minimum = 22
	maximum = 1457
Slowest packet = 677
Flit latency average = 279.219
	minimum = 5
	maximum = 1440
Slowest flit = 38285
Fragmentation average = 22.5105
	minimum = 0
	maximum = 143
Injected packet rate average = 0.0163802
	minimum = 0.009 (at node 68)
	maximum = 0.025 (at node 108)
Accepted packet rate average = 0.0138307
	minimum = 0.0075 (at node 153)
	maximum = 0.0195 (at node 63)
Injected flit rate average = 0.292802
	minimum = 0.162 (at node 68)
	maximum = 0.4425 (at node 108)
Accepted flit rate average= 0.251544
	minimum = 0.1435 (at node 153)
	maximum = 0.357 (at node 63)
Injected packet length average = 17.8754
Accepted packet length average = 18.1873
Total in-flight flits = 18517 (0 measured)
latency change    = 0.490899
throughput change = 0.00854099
Class 0:
Packet latency average = 1816.17
	minimum = 952
	maximum = 2598
Network latency average = 362.962
	minimum = 22
	maximum = 1529
Slowest packet = 4130
Flit latency average = 327.269
	minimum = 5
	maximum = 1512
Slowest flit = 61181
Fragmentation average = 22.7979
	minimum = 0
	maximum = 115
Injected packet rate average = 0.0141823
	minimum = 0.002 (at node 127)
	maximum = 0.032 (at node 55)
Accepted packet rate average = 0.014125
	minimum = 0.007 (at node 113)
	maximum = 0.028 (at node 34)
Injected flit rate average = 0.256286
	minimum = 0.036 (at node 127)
	maximum = 0.57 (at node 55)
Accepted flit rate average= 0.254307
	minimum = 0.126 (at node 113)
	maximum = 0.497 (at node 34)
Injected packet length average = 18.0709
Accepted packet length average = 18.0041
Total in-flight flits = 19046 (0 measured)
latency change    = 0.596578
throughput change = 0.0108649
Warmed up ...Time used is 3000 cycles
Class 0:
Packet latency average = 2654.03
	minimum = 1761
	maximum = 3381
Network latency average = 292.974
	minimum = 22
	maximum = 956
Slowest packet = 9178
Flit latency average = 329.963
	minimum = 5
	maximum = 1780
Slowest flit = 93362
Fragmentation average = 21.9595
	minimum = 0
	maximum = 138
Injected packet rate average = 0.0140885
	minimum = 0.003 (at node 132)
	maximum = 0.032 (at node 127)
Accepted packet rate average = 0.0141042
	minimum = 0.007 (at node 35)
	maximum = 0.024 (at node 16)
Injected flit rate average = 0.252036
	minimum = 0.054 (at node 132)
	maximum = 0.576 (at node 127)
Accepted flit rate average= 0.253943
	minimum = 0.118 (at node 88)
	maximum = 0.43 (at node 19)
Injected packet length average = 17.8895
Accepted packet length average = 18.0048
Total in-flight flits = 18619 (18455 measured)
latency change    = 0.315693
throughput change = 0.00143569
Class 0:
Packet latency average = 3046.3
	minimum = 1761
	maximum = 4260
Network latency average = 331.685
	minimum = 22
	maximum = 1411
Slowest packet = 9178
Flit latency average = 325.49
	minimum = 5
	maximum = 1780
Slowest flit = 93362
Fragmentation average = 22.241
	minimum = 0
	maximum = 138
Injected packet rate average = 0.0139505
	minimum = 0.0065 (at node 184)
	maximum = 0.025 (at node 168)
Accepted packet rate average = 0.0140417
	minimum = 0.009 (at node 2)
	maximum = 0.0215 (at node 129)
Injected flit rate average = 0.250766
	minimum = 0.109 (at node 184)
	maximum = 0.4515 (at node 168)
Accepted flit rate average= 0.252435
	minimum = 0.159 (at node 88)
	maximum = 0.387 (at node 129)
Injected packet length average = 17.9754
Accepted packet length average = 17.9776
Total in-flight flits = 18267 (18267 measured)
latency change    = 0.128771
throughput change = 0.00597307
Class 0:
Packet latency average = 3414.43
	minimum = 1761
	maximum = 5118
Network latency average = 344.763
	minimum = 22
	maximum = 2173
Slowest packet = 9178
Flit latency average = 327.412
	minimum = 5
	maximum = 2156
Slowest flit = 175176
Fragmentation average = 22.4217
	minimum = 0
	maximum = 138
Injected packet rate average = 0.0138021
	minimum = 0.00666667 (at node 144)
	maximum = 0.022 (at node 186)
Accepted packet rate average = 0.0138594
	minimum = 0.009 (at node 84)
	maximum = 0.0203333 (at node 128)
Injected flit rate average = 0.248233
	minimum = 0.12 (at node 144)
	maximum = 0.396 (at node 186)
Accepted flit rate average= 0.249483
	minimum = 0.165667 (at node 84)
	maximum = 0.361333 (at node 128)
Injected packet length average = 17.9852
Accepted packet length average = 18.001
Total in-flight flits = 18192 (18192 measured)
latency change    = 0.107817
throughput change = 0.0118335
Draining remaining packets ...
Time taken is 6736 cycles
====== Overall Traffic Statistics ======
====== Traffic class 0 ======
Packet latency average = 3573.55 (1 samples)
	minimum = 1761 (1 samples)
	maximum = 5585 (1 samples)
Network latency average = 361.193 (1 samples)
	minimum = 22 (1 samples)
	maximum = 2173 (1 samples)
Flit latency average = 339.501 (1 samples)
	minimum = 5 (1 samples)
	maximum = 2156 (1 samples)
Fragmentation average = 22.1575 (1 samples)
	minimum = 0 (1 samples)
	maximum = 138 (1 samples)
Injected packet rate average = 0.0138021 (1 samples)
	minimum = 0.00666667 (1 samples)
	maximum = 0.022 (1 samples)
Accepted packet rate average = 0.0138594 (1 samples)
	minimum = 0.009 (1 samples)
	maximum = 0.0203333 (1 samples)
Injected flit rate average = 0.248233 (1 samples)
	minimum = 0.12 (1 samples)
	maximum = 0.396 (1 samples)
Accepted flit rate average = 0.249483 (1 samples)
	minimum = 0.165667 (1 samples)
	maximum = 0.361333 (1 samples)
Injected packet size average = 17.9852 (1 samples)
Accepted packet size average = 18.001 (1 samples)
Hops average = 5.08153 (1 samples)
Total run time 8.31486
