BEGIN Configuration File: networks/mezzanine_config
topology = mezzanine;
n = 12;

routing_function = multipath;
internal_speedup = 2.0;
latency_thres = 100000.0;
use_read_write = 0;

sample_period = 1000;
injection_rate = 0.5;
packet_size = 18;

noq = 1;
routing_delay = 0;
vc_alloc_delay = 1;
sw_alloc_delay = 1;
st_final_delay = 1;
vc_allocator = islip; 
sw_allocator = islip;
alloc_iters  = 4;
num_vcs     = 12;
buffer_policy = private; // private or shared
buf_size = -1; // -1 for buffer_policy = private;
vc_buf_size = 4096; // size of each VOQ with buffer_policy = private
output_buffer_size = -1;


traffic = uniform;

//mezW = 0.0;
//mezPredefinedPatternType = shift-inter; //shift-qfdb

END Configuration File: networks/mezzanine_config
OVERRIDE Parameter: injection_rate=0.009117
OVERRIDE Parameter: routing_function=min
OVERRIDE Parameter: num_vcs=32
OVERRIDE Parameter: vc_buf_size=144
OVERRIDE Parameter: internal_speedup=2.0
OVERRIDE Parameter: injection_process=on_off
OVERRIDE Parameter: sim_type=throughput
OVERRIDE Parameter: burst_alpha=0.0038461538
OVERRIDE Parameter: burst_beta=0.1
network: network_0
========================== Routing table  =====================
Number of Subnets: 1
Class 0:
Packet latency average = 118.027
	minimum = 22
	maximum = 576
Network latency average = 83.8575
	minimum = 22
	maximum = 422
Slowest packet = 45
Flit latency average = 58.4902
	minimum = 5
	maximum = 405
Slowest flit = 13805
Fragmentation average = 16.0455
	minimum = 0
	maximum = 220
Injected packet rate average = 0.00939062
	minimum = 0 (at node 26)
	maximum = 0.033 (at node 37)
Accepted packet rate average = 0.00869792
	minimum = 0.001 (at node 41)
	maximum = 0.016 (at node 48)
Injected flit rate average = 0.167693
	minimum = 0 (at node 26)
	maximum = 0.594 (at node 37)
Accepted flit rate average= 0.158969
	minimum = 0.018 (at node 41)
	maximum = 0.288 (at node 48)
Injected packet length average = 17.8575
Accepted packet length average = 18.2766
Total in-flight flits = 1932 (0 measured)
latency change    = 1
throughput change = 1
Class 0:
Packet latency average = 123.868
	minimum = 22
	maximum = 722
Network latency average = 87.4473
	minimum = 22
	maximum = 535
Slowest packet = 45
Flit latency average = 62.2635
	minimum = 5
	maximum = 518
Slowest flit = 40445
Fragmentation average = 15.5653
	minimum = 0
	maximum = 220
Injected packet rate average = 0.00889063
	minimum = 0.0005 (at node 184)
	maximum = 0.021 (at node 20)
Accepted packet rate average = 0.00847656
	minimum = 0.005 (at node 30)
	maximum = 0.0135 (at node 44)
Injected flit rate average = 0.159396
	minimum = 0.009 (at node 184)
	maximum = 0.371 (at node 20)
Accepted flit rate average= 0.153766
	minimum = 0.09 (at node 30)
	maximum = 0.243 (at node 44)
Injected packet length average = 17.9285
Accepted packet length average = 18.1401
Total in-flight flits = 2406 (0 measured)
latency change    = 0.047157
throughput change = 0.033838
Class 0:
Packet latency average = 146.15
	minimum = 25
	maximum = 699
Network latency average = 107.667
	minimum = 22
	maximum = 532
Slowest packet = 2891
Flit latency average = 82.6181
	minimum = 5
	maximum = 515
Slowest flit = 76031
Fragmentation average = 17.7643
	minimum = 0
	maximum = 219
Injected packet rate average = 0.00902604
	minimum = 0 (at node 5)
	maximum = 0.036 (at node 162)
Accepted packet rate average = 0.00881771
	minimum = 0.001 (at node 153)
	maximum = 0.017 (at node 6)
Injected flit rate average = 0.162359
	minimum = 0 (at node 5)
	maximum = 0.648 (at node 162)
Accepted flit rate average= 0.159448
	minimum = 0.018 (at node 153)
	maximum = 0.315 (at node 6)
Injected packet length average = 17.9879
Accepted packet length average = 18.0827
Total in-flight flits = 2986 (0 measured)
latency change    = 0.152459
throughput change = 0.0356373
Warmed up ...Time used is 3000 cycles
Class 0:
Packet latency average = 146.107
	minimum = 22
	maximum = 855
Network latency average = 105.967
	minimum = 22
	maximum = 513
Slowest packet = 5160
Flit latency average = 90.4278
	minimum = 5
	maximum = 593
Slowest flit = 77723
Fragmentation average = 14.7282
	minimum = 0
	maximum = 172
Injected packet rate average = 0.00923958
	minimum = 0 (at node 47)
	maximum = 0.032 (at node 74)
Accepted packet rate average = 0.00929687
	minimum = 0 (at node 184)
	maximum = 0.019 (at node 16)
Injected flit rate average = 0.166469
	minimum = 0 (at node 47)
	maximum = 0.583 (at node 74)
Accepted flit rate average= 0.166823
	minimum = 0.016 (at node 184)
	maximum = 0.342 (at node 16)
Injected packet length average = 18.0169
Accepted packet length average = 17.944
Total in-flight flits = 2888 (2888 measured)
latency change    = 0.000293221
throughput change = 0.0442086
Class 0:
Packet latency average = 147.604
	minimum = 22
	maximum = 855
Network latency average = 107.546
	minimum = 22
	maximum = 513
Slowest packet = 5160
Flit latency average = 86.4519
	minimum = 5
	maximum = 593
Slowest flit = 77723
Fragmentation average = 16.205
	minimum = 0
	maximum = 185
Injected packet rate average = 0.00933333
	minimum = 0.001 (at node 49)
	maximum = 0.0235 (at node 37)
Accepted packet rate average = 0.0093724
	minimum = 0.0045 (at node 190)
	maximum = 0.0185 (at node 16)
Injected flit rate average = 0.167958
	minimum = 0.018 (at node 49)
	maximum = 0.43 (at node 37)
Accepted flit rate average= 0.168768
	minimum = 0.081 (at node 190)
	maximum = 0.333 (at node 16)
Injected packet length average = 17.9955
Accepted packet length average = 18.0069
Total in-flight flits = 2691 (2691 measured)
latency change    = 0.0101376
throughput change = 0.0115265
Class 0:
Packet latency average = 140.889
	minimum = 22
	maximum = 855
Network latency average = 102.562
	minimum = 22
	maximum = 513
Slowest packet = 5160
Flit latency average = 80.3019
	minimum = 5
	maximum = 593
Slowest flit = 77723
Fragmentation average = 15.9358
	minimum = 0
	maximum = 185
Injected packet rate average = 0.00898611
	minimum = 0.001 (at node 49)
	maximum = 0.019 (at node 58)
Accepted packet rate average = 0.00911285
	minimum = 0.00533333 (at node 190)
	maximum = 0.0163333 (at node 16)
Injected flit rate average = 0.16178
	minimum = 0.018 (at node 49)
	maximum = 0.342 (at node 58)
Accepted flit rate average= 0.163766
	minimum = 0.098 (at node 190)
	maximum = 0.294 (at node 16)
Injected packet length average = 18.0033
Accepted packet length average = 17.9709
Total in-flight flits = 1825 (1825 measured)
latency change    = 0.0476575
throughput change = 0.0305473
Draining remaining packets ...
Time taken is 6221 cycles
====== Overall Traffic Statistics ======
====== Traffic class 0 ======
Packet latency average = 141.089 (1 samples)
	minimum = 22 (1 samples)
	maximum = 855 (1 samples)
Network latency average = 102.596 (1 samples)
	minimum = 22 (1 samples)
	maximum = 513 (1 samples)
Flit latency average = 80.3462 (1 samples)
	minimum = 5 (1 samples)
	maximum = 593 (1 samples)
Fragmentation average = 15.9447 (1 samples)
	minimum = 0 (1 samples)
	maximum = 185 (1 samples)
Injected packet rate average = 0.00898611 (1 samples)
	minimum = 0.001 (1 samples)
	maximum = 0.019 (1 samples)
Accepted packet rate average = 0.00911285 (1 samples)
	minimum = 0.00533333 (1 samples)
	maximum = 0.0163333 (1 samples)
Injected flit rate average = 0.16178 (1 samples)
	minimum = 0.018 (1 samples)
	maximum = 0.342 (1 samples)
Accepted flit rate average = 0.163766 (1 samples)
	minimum = 0.098 (1 samples)
	maximum = 0.294 (1 samples)
Injected packet size average = 18.0033 (1 samples)
Accepted packet size average = 17.9709 (1 samples)
Hops average = 5.08829 (1 samples)
Total run time 2.88317
