BEGIN Configuration File: networks/mezzanine_config
topology = mezzanine;
n = 12;

routing_function = multipath;
internal_speedup = 2.0;
latency_thres = 100000.0;
use_read_write = 0;

sample_period = 1000;
injection_rate = 0.5;
packet_size = 18;

noq = 1;
routing_delay = 0;
vc_alloc_delay = 1;
sw_alloc_delay = 1;
st_final_delay = 1;
vc_allocator = islip; 
sw_allocator = islip;
alloc_iters  = 4;
num_vcs     = 12;
buffer_policy = private; // private or shared
buf_size = -1; // -1 for buffer_policy = private;
vc_buf_size = 4096; // size of each VOQ with buffer_policy = private
output_buffer_size = -1;


traffic = uniform;

//mezW = 0.0;
//mezPredefinedPatternType = shift-inter; //shift-qfdb

END Configuration File: networks/mezzanine_config
OVERRIDE Parameter: injection_rate=0.006907
OVERRIDE Parameter: routing_function=min
OVERRIDE Parameter: num_vcs=12
OVERRIDE Parameter: vc_buf_size=18
OVERRIDE Parameter: internal_speedup=1.0
OVERRIDE Parameter: injection_process=on_off
OVERRIDE Parameter: sim_type=throughput
OVERRIDE Parameter: burst_alpha=0.0038461538
OVERRIDE Parameter: burst_beta=0.1
network: network_0
========================== Routing table  =====================
Number of Subnets: 1
Class 0:
Packet latency average = 124.162
	minimum = 23
	maximum = 516
Network latency average = 98.5791
	minimum = 23
	maximum = 391
Slowest packet = 21
Flit latency average = 66.7064
	minimum = 6
	maximum = 374
Slowest flit = 13247
Fragmentation average = 27.9266
	minimum = 0
	maximum = 96
Injected packet rate average = 0.00718229
	minimum = 0 (at node 47)
	maximum = 0.022 (at node 44)
Accepted packet rate average = 0.00638542
	minimum = 0.001 (at node 41)
	maximum = 0.013 (at node 48)
Injected flit rate average = 0.128276
	minimum = 0 (at node 47)
	maximum = 0.389 (at node 44)
Accepted flit rate average= 0.118109
	minimum = 0.018 (at node 41)
	maximum = 0.234 (at node 48)
Injected packet length average = 17.86
Accepted packet length average = 18.4967
Total in-flight flits = 2145 (0 measured)
latency change    = 1
throughput change = 1
Class 0:
Packet latency average = 129.91
	minimum = 23
	maximum = 773
Network latency average = 102.453
	minimum = 23
	maximum = 632
Slowest packet = 21
Flit latency average = 70.2297
	minimum = 6
	maximum = 601
Slowest flit = 15480
Fragmentation average = 28.2038
	minimum = 0
	maximum = 96
Injected packet rate average = 0.00675521
	minimum = 0.0005 (at node 3)
	maximum = 0.0175 (at node 156)
Accepted packet rate average = 0.00636198
	minimum = 0.0025 (at node 115)
	maximum = 0.01 (at node 44)
Injected flit rate average = 0.120995
	minimum = 0.009 (at node 3)
	maximum = 0.315 (at node 156)
Accepted flit rate average= 0.115924
	minimum = 0.045 (at node 115)
	maximum = 0.1835 (at node 44)
Injected packet length average = 17.9113
Accepted packet length average = 18.2214
Total in-flight flits = 2177 (0 measured)
latency change    = 0.0442462
throughput change = 0.0188476
Class 0:
Packet latency average = 156.812
	minimum = 23
	maximum = 820
Network latency average = 121.582
	minimum = 23
	maximum = 591
Slowest packet = 2145
Flit latency average = 86
	minimum = 6
	maximum = 574
Slowest flit = 38627
Fragmentation average = 32.9543
	minimum = 0
	maximum = 89
Injected packet rate average = 0.00735417
	minimum = 0 (at node 15)
	maximum = 0.03 (at node 150)
Accepted packet rate average = 0.00706771
	minimum = 0.001 (at node 65)
	maximum = 0.018 (at node 22)
Injected flit rate average = 0.132125
	minimum = 0 (at node 15)
	maximum = 0.54 (at node 150)
Accepted flit rate average= 0.127703
	minimum = 0.018 (at node 65)
	maximum = 0.314 (at node 22)
Injected packet length average = 17.966
Accepted packet length average = 18.0685
Total in-flight flits = 3092 (0 measured)
latency change    = 0.171554
throughput change = 0.0922346
Warmed up ...Time used is 3000 cycles
Class 0:
Packet latency average = 163.612
	minimum = 23
	maximum = 738
Network latency average = 122.308
	minimum = 23
	maximum = 701
Slowest packet = 4008
Flit latency average = 94.9206
	minimum = 6
	maximum = 684
Slowest flit = 77453
Fragmentation average = 35.2565
	minimum = 0
	maximum = 122
Injected packet rate average = 0.00695313
	minimum = 0 (at node 6)
	maximum = 0.026 (at node 77)
Accepted packet rate average = 0.00704688
	minimum = 0 (at node 153)
	maximum = 0.013 (at node 6)
Injected flit rate average = 0.125229
	minimum = 0 (at node 26)
	maximum = 0.466 (at node 77)
Accepted flit rate average= 0.127755
	minimum = 0.009 (at node 153)
	maximum = 0.247 (at node 78)
Injected packet length average = 18.0105
Accepted packet length average = 18.1293
Total in-flight flits = 2593 (2593 measured)
latency change    = 0.0415594
throughput change = 0.000407681
Class 0:
Packet latency average = 159.894
	minimum = 23
	maximum = 744
Network latency average = 122.086
	minimum = 23
	maximum = 701
Slowest packet = 4008
Flit latency average = 90.4914
	minimum = 6
	maximum = 684
Slowest flit = 77453
Fragmentation average = 34.2355
	minimum = 0
	maximum = 122
Injected packet rate average = 0.00666667
	minimum = 0 (at node 6)
	maximum = 0.022 (at node 77)
Accepted packet rate average = 0.00685417
	minimum = 0.003 (at node 184)
	maximum = 0.0115 (at node 63)
Injected flit rate average = 0.120156
	minimum = 0 (at node 177)
	maximum = 0.396 (at node 77)
Accepted flit rate average= 0.12318
	minimum = 0.054 (at node 184)
	maximum = 0.207 (at node 63)
Injected packet length average = 18.0234
Accepted packet length average = 17.9715
Total in-flight flits = 1871 (1871 measured)
latency change    = 0.0232482
throughput change = 0.0371451
Class 0:
Packet latency average = 151.157
	minimum = 23
	maximum = 744
Network latency average = 115.688
	minimum = 23
	maximum = 701
Slowest packet = 4008
Flit latency average = 84.4018
	minimum = 6
	maximum = 684
Slowest flit = 77453
Fragmentation average = 31.4846
	minimum = 0
	maximum = 122
Injected packet rate average = 0.0065
	minimum = 0 (at node 6)
	maximum = 0.018 (at node 77)
Accepted packet rate average = 0.00669271
	minimum = 0.00333333 (at node 153)
	maximum = 0.0106667 (at node 34)
Injected flit rate average = 0.117128
	minimum = 0.000333333 (at node 6)
	maximum = 0.324 (at node 77)
Accepted flit rate average= 0.120078
	minimum = 0.06 (at node 153)
	maximum = 0.192 (at node 34)
Injected packet length average = 18.0198
Accepted packet length average = 17.9416
Total in-flight flits = 1301 (1301 measured)
latency change    = 0.0578051
throughput change = 0.0258295
Draining remaining packets ...
Time taken is 6181 cycles
====== Overall Traffic Statistics ======
====== Traffic class 0 ======
Packet latency average = 151.212 (1 samples)
	minimum = 23 (1 samples)
	maximum = 744 (1 samples)
Network latency average = 115.709 (1 samples)
	minimum = 23 (1 samples)
	maximum = 701 (1 samples)
Flit latency average = 84.5026 (1 samples)
	minimum = 6 (1 samples)
	maximum = 684 (1 samples)
Fragmentation average = 31.3265 (1 samples)
	minimum = 0 (1 samples)
	maximum = 122 (1 samples)
Injected packet rate average = 0.0065 (1 samples)
	minimum = 0 (1 samples)
	maximum = 0.018 (1 samples)
Accepted packet rate average = 0.00669271 (1 samples)
	minimum = 0.00333333 (1 samples)
	maximum = 0.0106667 (1 samples)
Injected flit rate average = 0.117128 (1 samples)
	minimum = 0.000333333 (1 samples)
	maximum = 0.324 (1 samples)
Accepted flit rate average = 0.120078 (1 samples)
	minimum = 0.06 (1 samples)
	maximum = 0.192 (1 samples)
Injected packet size average = 18.0198 (1 samples)
Accepted packet size average = 17.9416 (1 samples)
Hops average = 5.07748 (1 samples)
Total run time 2.78827
