BEGIN Configuration File: networks/mezzanine_config
topology = mezzanine;
n = 12;

routing_function = multipath;
internal_speedup = 2.0;
latency_thres = 100000.0;
use_read_write = 0;

sample_period = 1000;
injection_rate = 0.5;
packet_size = 18;

noq = 1;
routing_delay = 0;
vc_alloc_delay = 1;
sw_alloc_delay = 1;
st_final_delay = 1;
vc_allocator = islip; 
sw_allocator = islip;
alloc_iters  = 4;
num_vcs     = 12;
buffer_policy = private; // private or shared
buf_size = -1; // -1 for buffer_policy = private;
vc_buf_size = 4096; // size of each VOQ with buffer_policy = private
output_buffer_size = -1;


traffic = uniform;

//mezW = 0.0;
//mezPredefinedPatternType = shift-inter; //shift-qfdb

END Configuration File: networks/mezzanine_config
OVERRIDE Parameter: injection_rate=0.048897
OVERRIDE Parameter: routing_function=min
OVERRIDE Parameter: num_vcs=12
OVERRIDE Parameter: vc_buf_size=18
OVERRIDE Parameter: internal_speedup=1.0
OVERRIDE Parameter: injection_process=bernoulli
OVERRIDE Parameter: sim_type=throughput
OVERRIDE Parameter: burst_alpha=0.0038461538
OVERRIDE Parameter: burst_beta=0.1
network: network_0
========================== Routing table  =====================
Number of Subnets: 1
Class 0:
Packet latency average = 394.827
	minimum = 26
	maximum = 954
Network latency average = 302.825
	minimum = 23
	maximum = 910
Slowest packet = 262
Flit latency average = 258.362
	minimum = 6
	maximum = 898
Slowest flit = 12672
Fragmentation average = 53.7518
	minimum = 0
	maximum = 144
Injected packet rate average = 0.0142396
	minimum = 0.007 (at node 16)
	maximum = 0.025 (at node 161)
Accepted packet rate average = 0.00942187
	minimum = 0.003 (at node 41)
	maximum = 0.018 (at node 140)
Injected flit rate average = 0.252182
	minimum = 0.126 (at node 16)
	maximum = 0.45 (at node 161)
Accepted flit rate average= 0.176068
	minimum = 0.061 (at node 41)
	maximum = 0.324 (at node 140)
Injected packet length average = 17.7099
Accepted packet length average = 18.6871
Total in-flight flits = 17171 (0 measured)
latency change    = 1
throughput change = 1
Class 0:
Packet latency average = 785.77
	minimum = 26
	maximum = 1830
Network latency average = 411.508
	minimum = 23
	maximum = 1591
Slowest packet = 776
Flit latency average = 356.365
	minimum = 6
	maximum = 1556
Slowest flit = 23093
Fragmentation average = 55.6265
	minimum = 0
	maximum = 150
Injected packet rate average = 0.0117292
	minimum = 0.005 (at node 12)
	maximum = 0.0205 (at node 9)
Accepted packet rate average = 0.00928125
	minimum = 0.0045 (at node 174)
	maximum = 0.0155 (at node 22)
Injected flit rate average = 0.208737
	minimum = 0.0815 (at node 12)
	maximum = 0.369 (at node 9)
Accepted flit rate average= 0.169909
	minimum = 0.092 (at node 174)
	maximum = 0.279 (at node 22)
Injected packet length average = 17.7964
Accepted packet length average = 18.3067
Total in-flight flits = 17627 (0 measured)
latency change    = 0.497529
throughput change = 0.036248
Class 0:
Packet latency average = 1992.95
	minimum = 1185
	maximum = 2760
Network latency average = 529.04
	minimum = 23
	maximum = 2359
Slowest packet = 3373
Flit latency average = 469.125
	minimum = 6
	maximum = 2342
Slowest flit = 39329
Fragmentation average = 58.7816
	minimum = 0
	maximum = 140
Injected packet rate average = 0.00890104
	minimum = 0 (at node 111)
	maximum = 0.021 (at node 80)
Accepted packet rate average = 0.00894271
	minimum = 0.002 (at node 10)
	maximum = 0.017 (at node 174)
Injected flit rate average = 0.162432
	minimum = 0 (at node 111)
	maximum = 0.383 (at node 142)
Accepted flit rate average= 0.161729
	minimum = 0.036 (at node 10)
	maximum = 0.302 (at node 6)
Injected packet length average = 18.2487
Accepted packet length average = 18.085
Total in-flight flits = 17805 (0 measured)
latency change    = 0.605725
throughput change = 0.0505765
Warmed up ...Time used is 3000 cycles
Class 0:
Packet latency average = 2914.96
	minimum = 2003
	maximum = 3523
Network latency average = 317.87
	minimum = 23
	maximum = 888
Slowest packet = 6371
Flit latency average = 507.572
	minimum = 6
	maximum = 2180
Slowest flit = 60984
Fragmentation average = 52.8715
	minimum = 0
	maximum = 120
Injected packet rate average = 0.00888542
	minimum = 0 (at node 43)
	maximum = 0.021 (at node 49)
Accepted packet rate average = 0.00877083
	minimum = 0.003 (at node 61)
	maximum = 0.018 (at node 16)
Injected flit rate average = 0.158266
	minimum = 0 (at node 43)
	maximum = 0.38 (at node 49)
Accepted flit rate average= 0.158005
	minimum = 0.054 (at node 91)
	maximum = 0.324 (at node 16)
Injected packet length average = 17.8118
Accepted packet length average = 18.0148
Total in-flight flits = 17798 (16334 measured)
latency change    = 0.316303
throughput change = 0.0235686
Class 0:
Packet latency average = 3412.64
	minimum = 2003
	maximum = 4446
Network latency average = 448.579
	minimum = 23
	maximum = 1907
Slowest packet = 6371
Flit latency average = 496.494
	minimum = 6
	maximum = 2317
Slowest flit = 54430
Fragmentation average = 56.0297
	minimum = 0
	maximum = 155
Injected packet rate average = 0.00890885
	minimum = 0.0025 (at node 143)
	maximum = 0.0185 (at node 49)
Accepted packet rate average = 0.00888542
	minimum = 0.0035 (at node 163)
	maximum = 0.016 (at node 16)
Injected flit rate average = 0.159747
	minimum = 0.047 (at node 143)
	maximum = 0.3305 (at node 49)
Accepted flit rate average= 0.159732
	minimum = 0.063 (at node 163)
	maximum = 0.2945 (at node 16)
Injected packet length average = 17.9313
Accepted packet length average = 17.9768
Total in-flight flits = 17686 (17650 measured)
latency change    = 0.145833
throughput change = 0.0108091
Class 0:
Packet latency average = 3859.37
	minimum = 2003
	maximum = 5483
Network latency average = 485.689
	minimum = 23
	maximum = 2205
Slowest packet = 6371
Flit latency average = 490.022
	minimum = 6
	maximum = 2453
Slowest flit = 129861
Fragmentation average = 54.745
	minimum = 0
	maximum = 155
Injected packet rate average = 0.00900521
	minimum = 0.00333333 (at node 89)
	maximum = 0.016 (at node 49)
Accepted packet rate average = 0.00899306
	minimum = 0.00566667 (at node 1)
	maximum = 0.0146667 (at node 16)
Injected flit rate average = 0.161576
	minimum = 0.06 (at node 89)
	maximum = 0.283 (at node 49)
Accepted flit rate average= 0.161681
	minimum = 0.101333 (at node 154)
	maximum = 0.266333 (at node 16)
Injected packet length average = 17.9425
Accepted packet length average = 17.9784
Total in-flight flits = 17521 (17521 measured)
latency change    = 0.115752
throughput change = 0.0120533
Draining remaining packets ...
Time taken is 6856 cycles
====== Overall Traffic Statistics ======
====== Traffic class 0 ======
Packet latency average = 4119.54 (1 samples)
	minimum = 2003 (1 samples)
	maximum = 6009 (1 samples)
Network latency average = 520.17 (1 samples)
	minimum = 23 (1 samples)
	maximum = 2506 (1 samples)
Flit latency average = 508.284 (1 samples)
	minimum = 6 (1 samples)
	maximum = 2475 (1 samples)
Fragmentation average = 53.2476 (1 samples)
	minimum = 0 (1 samples)
	maximum = 155 (1 samples)
Injected packet rate average = 0.00900521 (1 samples)
	minimum = 0.00333333 (1 samples)
	maximum = 0.016 (1 samples)
Accepted packet rate average = 0.00899306 (1 samples)
	minimum = 0.00566667 (1 samples)
	maximum = 0.0146667 (1 samples)
Injected flit rate average = 0.161576 (1 samples)
	minimum = 0.06 (1 samples)
	maximum = 0.283 (1 samples)
Accepted flit rate average = 0.161681 (1 samples)
	minimum = 0.101333 (1 samples)
	maximum = 0.266333 (1 samples)
Injected packet size average = 17.9425 (1 samples)
Accepted packet size average = 17.9784 (1 samples)
Hops average = 5.07561 (1 samples)
Total run time 8.19473
