BEGIN Configuration File: networks/mezzanine_config
topology = mezzanine;
n = 12;

routing_function = multipath;
internal_speedup = 2.0;
latency_thres = 100000.0;
use_read_write = 0;

sample_period = 1000;
injection_rate = 0.5;
packet_size = 18;

noq = 1;
routing_delay = 0;
vc_alloc_delay = 1;
sw_alloc_delay = 1;
st_final_delay = 1;
vc_allocator = islip; 
sw_allocator = islip;
alloc_iters  = 4;
num_vcs     = 12;
buffer_policy = private; // private or shared
buf_size = -1; // -1 for buffer_policy = private;
vc_buf_size = 4096; // size of each VOQ with buffer_policy = private
output_buffer_size = -1;


traffic = uniform;

//mezW = 0.0;
//mezPredefinedPatternType = shift-inter; //shift-qfdb

END Configuration File: networks/mezzanine_config
OVERRIDE Parameter: injection_rate=0.013537
OVERRIDE Parameter: routing_function=multipath
OVERRIDE Parameter: num_vcs=12
OVERRIDE Parameter: vc_buf_size=18
OVERRIDE Parameter: internal_speedup=2.0
OVERRIDE Parameter: injection_process=bernoulli
OVERRIDE Parameter: sim_type=throughput
OVERRIDE Parameter: burst_alpha=0.0038461538
OVERRIDE Parameter: burst_beta=0.1
network: network_0
========================== Routing table  =====================
Number of Subnets: 1
Class 0:
Packet latency average = 100.802
	minimum = 22
	maximum = 415
Network latency average = 96.8794
	minimum = 22
	maximum = 370
Slowest packet = 1299
Flit latency average = 71.9401
	minimum = 5
	maximum = 353
Slowest flit = 24389
Fragmentation average = 15.844
	minimum = 0
	maximum = 81
Injected packet rate average = 0.0135104
	minimum = 0.006 (at node 85)
	maximum = 0.025 (at node 92)
Accepted packet rate average = 0.0117865
	minimum = 0.004 (at node 93)
	maximum = 0.021 (at node 44)
Injected flit rate average = 0.240693
	minimum = 0.107 (at node 90)
	maximum = 0.439 (at node 92)
Accepted flit rate average= 0.216464
	minimum = 0.072 (at node 174)
	maximum = 0.378 (at node 44)
Injected packet length average = 17.8153
Accepted packet length average = 18.3654
Total in-flight flits = 5149 (0 measured)
latency change    = 1
throughput change = 1
Class 0:
Packet latency average = 123.672
	minimum = 22
	maximum = 773
Network latency average = 115.783
	minimum = 22
	maximum = 707
Slowest packet = 1711
Flit latency average = 89.5455
	minimum = 5
	maximum = 690
Slowest flit = 56429
Fragmentation average = 16.7824
	minimum = 0
	maximum = 107
Injected packet rate average = 0.01325
	minimum = 0.008 (at node 117)
	maximum = 0.0205 (at node 78)
Accepted packet rate average = 0.0123411
	minimum = 0.007 (at node 116)
	maximum = 0.0185 (at node 166)
Injected flit rate average = 0.237578
	minimum = 0.144 (at node 117)
	maximum = 0.369 (at node 78)
Accepted flit rate average= 0.22424
	minimum = 0.126 (at node 116)
	maximum = 0.333 (at node 166)
Injected packet length average = 17.9304
Accepted packet length average = 18.1701
Total in-flight flits = 5674 (0 measured)
latency change    = 0.184927
throughput change = 0.0346774
Class 0:
Packet latency average = 181.058
	minimum = 22
	maximum = 1255
Network latency average = 158.71
	minimum = 22
	maximum = 1171
Slowest packet = 3961
Flit latency average = 131.645
	minimum = 5
	maximum = 1154
Slowest flit = 71315
Fragmentation average = 17.5974
	minimum = 0
	maximum = 115
Injected packet rate average = 0.0133698
	minimum = 0.006 (at node 80)
	maximum = 0.023 (at node 21)
Accepted packet rate average = 0.012974
	minimum = 0.003 (at node 184)
	maximum = 0.023 (at node 56)
Injected flit rate average = 0.24013
	minimum = 0.108 (at node 80)
	maximum = 0.42 (at node 21)
Accepted flit rate average= 0.233172
	minimum = 0.054 (at node 184)
	maximum = 0.403 (at node 56)
Injected packet length average = 17.9607
Accepted packet length average = 17.9723
Total in-flight flits = 7129 (0 measured)
latency change    = 0.31695
throughput change = 0.0383078
Warmed up ...Time used is 3000 cycles
Class 0:
Packet latency average = 186.462
	minimum = 22
	maximum = 989
Network latency average = 161.647
	minimum = 22
	maximum = 686
Slowest packet = 7722
Flit latency average = 149.256
	minimum = 5
	maximum = 751
Slowest flit = 104705
Fragmentation average = 18.4645
	minimum = 0
	maximum = 89
Injected packet rate average = 0.013901
	minimum = 0.007 (at node 1)
	maximum = 0.024 (at node 183)
Accepted packet rate average = 0.0134896
	minimum = 0.004 (at node 113)
	maximum = 0.023 (at node 16)
Injected flit rate average = 0.249323
	minimum = 0.112 (at node 11)
	maximum = 0.417 (at node 183)
Accepted flit rate average= 0.243474
	minimum = 0.077 (at node 113)
	maximum = 0.418 (at node 16)
Injected packet length average = 17.9356
Accepted packet length average = 18.049
Total in-flight flits = 8460 (8460 measured)
latency change    = 0.0289814
throughput change = 0.0423129
Class 0:
Packet latency average = 209.802
	minimum = 22
	maximum = 1239
Network latency average = 176.389
	minimum = 22
	maximum = 1047
Slowest packet = 7936
Flit latency average = 154.15
	minimum = 5
	maximum = 1030
Slowest flit = 142864
Fragmentation average = 19.1777
	minimum = 0
	maximum = 91
Injected packet rate average = 0.0136224
	minimum = 0.0085 (at node 27)
	maximum = 0.0205 (at node 113)
Accepted packet rate average = 0.0135234
	minimum = 0.0065 (at node 4)
	maximum = 0.021 (at node 129)
Injected flit rate average = 0.245328
	minimum = 0.1455 (at node 27)
	maximum = 0.3675 (at node 113)
Accepted flit rate average= 0.243917
	minimum = 0.117 (at node 4)
	maximum = 0.3815 (at node 129)
Injected packet length average = 18.0092
Accepted packet length average = 18.0366
Total in-flight flits = 7641 (7641 measured)
latency change    = 0.111246
throughput change = 0.001815
Class 0:
Packet latency average = 215.616
	minimum = 22
	maximum = 1348
Network latency average = 178.364
	minimum = 22
	maximum = 1047
Slowest packet = 7936
Flit latency average = 154.138
	minimum = 5
	maximum = 1030
Slowest flit = 142864
Fragmentation average = 18.7465
	minimum = 0
	maximum = 91
Injected packet rate average = 0.0135538
	minimum = 0.00833333 (at node 41)
	maximum = 0.0203333 (at node 63)
Accepted packet rate average = 0.0134028
	minimum = 0.008 (at node 86)
	maximum = 0.02 (at node 128)
Injected flit rate average = 0.243807
	minimum = 0.15 (at node 41)
	maximum = 0.369 (at node 63)
Accepted flit rate average= 0.241484
	minimum = 0.149667 (at node 86)
	maximum = 0.363667 (at node 128)
Injected packet length average = 17.9881
Accepted packet length average = 18.0175
Total in-flight flits = 8686 (8686 measured)
latency change    = 0.0269638
throughput change = 0.0100723
Draining remaining packets ...
Time taken is 6511 cycles
====== Overall Traffic Statistics ======
====== Traffic class 0 ======
Packet latency average = 223.951 (1 samples)
	minimum = 22 (1 samples)
	maximum = 1416 (1 samples)
Network latency average = 184.397 (1 samples)
	minimum = 22 (1 samples)
	maximum = 1101 (1 samples)
Flit latency average = 159.379 (1 samples)
	minimum = 5 (1 samples)
	maximum = 1084 (1 samples)
Fragmentation average = 18.676 (1 samples)
	minimum = 0 (1 samples)
	maximum = 91 (1 samples)
Injected packet rate average = 0.0135538 (1 samples)
	minimum = 0.00833333 (1 samples)
	maximum = 0.0203333 (1 samples)
Accepted packet rate average = 0.0134028 (1 samples)
	minimum = 0.008 (1 samples)
	maximum = 0.02 (1 samples)
Injected flit rate average = 0.243807 (1 samples)
	minimum = 0.15 (1 samples)
	maximum = 0.369 (1 samples)
Accepted flit rate average = 0.241484 (1 samples)
	minimum = 0.149667 (1 samples)
	maximum = 0.363667 (1 samples)
Injected packet size average = 17.9881 (1 samples)
Accepted packet size average = 18.0175 (1 samples)
Hops average = 5.08165 (1 samples)
Total run time 3.9918
