BEGIN Configuration File: networks/mezzanine_config
topology = mezzanine;
n = 12;

routing_function = multipath;
internal_speedup = 2.0;
latency_thres = 100000.0;
use_read_write = 0;

sample_period = 1000;
injection_rate = 0.5;
packet_size = 18;

noq = 1;
routing_delay = 0;
vc_alloc_delay = 1;
sw_alloc_delay = 1;
st_final_delay = 1;
vc_allocator = islip; 
sw_allocator = islip;
alloc_iters  = 4;
num_vcs     = 12;
buffer_policy = private; // private or shared
buf_size = -1; // -1 for buffer_policy = private;
vc_buf_size = 4096; // size of each VOQ with buffer_policy = private
output_buffer_size = -1;


traffic = uniform;

//mezW = 0.0;
//mezPredefinedPatternType = shift-inter; //shift-qfdb

END Configuration File: networks/mezzanine_config
OVERRIDE Parameter: injection_rate=0.020167
OVERRIDE Parameter: routing_function=multipath
OVERRIDE Parameter: num_vcs=12
OVERRIDE Parameter: vc_buf_size=18
OVERRIDE Parameter: internal_speedup=2.0
OVERRIDE Parameter: injection_process=on_off
OVERRIDE Parameter: sim_type=throughput
OVERRIDE Parameter: burst_alpha=0.0038461538
OVERRIDE Parameter: burst_beta=0.1
network: network_0
========================== Routing table  =====================
Number of Subnets: 1
Class 0:
Packet latency average = 245.703
	minimum = 22
	maximum = 931
Network latency average = 153.158
	minimum = 22
	maximum = 675
Slowest packet = 3
Flit latency average = 127.399
	minimum = 5
	maximum = 658
Slowest flit = 18053
Fragmentation average = 16.4817
	minimum = 0
	maximum = 102
Injected packet rate average = 0.0158021
	minimum = 0 (at node 10)
	maximum = 0.037 (at node 126)
Accepted packet rate average = 0.0122396
	minimum = 0.004 (at node 174)
	maximum = 0.02 (at node 44)
Injected flit rate average = 0.281453
	minimum = 0 (at node 10)
	maximum = 0.666 (at node 126)
Accepted flit rate average= 0.224797
	minimum = 0.072 (at node 174)
	maximum = 0.377 (at node 132)
Injected packet length average = 17.8111
Accepted packet length average = 18.3664
Total in-flight flits = 12297 (0 measured)
latency change    = 1
throughput change = 1
Class 0:
Packet latency average = 414.275
	minimum = 22
	maximum = 1841
Network latency average = 212.467
	minimum = 22
	maximum = 1070
Slowest packet = 3
Flit latency average = 183.476
	minimum = 5
	maximum = 1053
Slowest flit = 33371
Fragmentation average = 18.5562
	minimum = 0
	maximum = 114
Injected packet rate average = 0.0150234
	minimum = 0.0005 (at node 30)
	maximum = 0.0305 (at node 126)
Accepted packet rate average = 0.0129453
	minimum = 0.007 (at node 153)
	maximum = 0.0185 (at node 14)
Injected flit rate average = 0.268797
	minimum = 0.009 (at node 30)
	maximum = 0.549 (at node 126)
Accepted flit rate average= 0.23562
	minimum = 0.1315 (at node 153)
	maximum = 0.34 (at node 22)
Injected packet length average = 17.8918
Accepted packet length average = 18.2012
Total in-flight flits = 14552 (0 measured)
latency change    = 0.406907
throughput change = 0.0459338
Class 0:
Packet latency average = 856.709
	minimum = 35
	maximum = 2526
Network latency average = 302.056
	minimum = 22
	maximum = 1516
Slowest packet = 5233
Flit latency average = 270.64
	minimum = 5
	maximum = 1488
Slowest flit = 71298
Fragmentation average = 21.7289
	minimum = 0
	maximum = 116
Injected packet rate average = 0.0141875
	minimum = 0 (at node 25)
	maximum = 0.029 (at node 117)
Accepted packet rate average = 0.0138698
	minimum = 0.003 (at node 184)
	maximum = 0.025 (at node 34)
Injected flit rate average = 0.255505
	minimum = 0 (at node 25)
	maximum = 0.515 (at node 117)
Accepted flit rate average= 0.248792
	minimum = 0.054 (at node 184)
	maximum = 0.471 (at node 34)
Injected packet length average = 18.0092
Accepted packet length average = 17.9377
Total in-flight flits = 16392 (0 measured)
latency change    = 0.516435
throughput change = 0.0529434
Warmed up ...Time used is 3000 cycles
Class 0:
Packet latency average = 1126.84
	minimum = 22
	maximum = 3297
Network latency average = 253.866
	minimum = 22
	maximum = 966
Slowest packet = 8658
Flit latency average = 289.863
	minimum = 5
	maximum = 1766
Slowest flit = 106434
Fragmentation average = 18.958
	minimum = 0
	maximum = 94
Injected packet rate average = 0.0136146
	minimum = 0 (at node 57)
	maximum = 0.027 (at node 131)
Accepted packet rate average = 0.0135833
	minimum = 0.005 (at node 48)
	maximum = 0.025 (at node 16)
Injected flit rate average = 0.244615
	minimum = 0 (at node 57)
	maximum = 0.486 (at node 131)
Accepted flit rate average= 0.244479
	minimum = 0.09 (at node 48)
	maximum = 0.443 (at node 16)
Injected packet length average = 17.9671
Accepted packet length average = 17.9985
Total in-flight flits = 16324 (16047 measured)
latency change    = 0.239726
throughput change = 0.0176395
Class 0:
Packet latency average = 1315.69
	minimum = 22
	maximum = 4113
Network latency average = 302.197
	minimum = 22
	maximum = 1277
Slowest packet = 8658
Flit latency average = 297.554
	minimum = 5
	maximum = 1883
Slowest flit = 112947
Fragmentation average = 20.3184
	minimum = 0
	maximum = 122
Injected packet rate average = 0.0137917
	minimum = 0.0035 (at node 128)
	maximum = 0.024 (at node 37)
Accepted packet rate average = 0.013625
	minimum = 0.0065 (at node 4)
	maximum = 0.0205 (at node 129)
Injected flit rate average = 0.248154
	minimum = 0.063 (at node 143)
	maximum = 0.432 (at node 37)
Accepted flit rate average= 0.24582
	minimum = 0.1205 (at node 4)
	maximum = 0.3775 (at node 129)
Injected packet length average = 17.993
Accepted packet length average = 18.0419
Total in-flight flits = 17217 (17217 measured)
latency change    = 0.143532
throughput change = 0.0054558
Class 0:
Packet latency average = 1492.65
	minimum = 22
	maximum = 4986
Network latency average = 320.327
	minimum = 22
	maximum = 1461
Slowest packet = 8658
Flit latency average = 303.037
	minimum = 5
	maximum = 1883
Slowest flit = 112947
Fragmentation average = 21.4122
	minimum = 0
	maximum = 122
Injected packet rate average = 0.013901
	minimum = 0.00266667 (at node 143)
	maximum = 0.023 (at node 37)
Accepted packet rate average = 0.0137483
	minimum = 0.00866667 (at node 36)
	maximum = 0.021 (at node 128)
Injected flit rate average = 0.250002
	minimum = 0.0426667 (at node 143)
	maximum = 0.412333 (at node 37)
Accepted flit rate average= 0.247925
	minimum = 0.156 (at node 36)
	maximum = 0.377667 (at node 128)
Injected packet length average = 17.9844
Accepted packet length average = 18.0332
Total in-flight flits = 17407 (17407 measured)
latency change    = 0.118559
throughput change = 0.0084906
Draining remaining packets ...
Time taken is 6568 cycles
====== Overall Traffic Statistics ======
====== Traffic class 0 ======
Packet latency average = 1571.3 (1 samples)
	minimum = 22 (1 samples)
	maximum = 5304 (1 samples)
Network latency average = 333.85 (1 samples)
	minimum = 22 (1 samples)
	maximum = 1461 (1 samples)
Flit latency average = 312.535 (1 samples)
	minimum = 5 (1 samples)
	maximum = 1883 (1 samples)
Fragmentation average = 21.3861 (1 samples)
	minimum = 0 (1 samples)
	maximum = 122 (1 samples)
Injected packet rate average = 0.013901 (1 samples)
	minimum = 0.00266667 (1 samples)
	maximum = 0.023 (1 samples)
Accepted packet rate average = 0.0137483 (1 samples)
	minimum = 0.00866667 (1 samples)
	maximum = 0.021 (1 samples)
Injected flit rate average = 0.250002 (1 samples)
	minimum = 0.0426667 (1 samples)
	maximum = 0.412333 (1 samples)
Accepted flit rate average = 0.247925 (1 samples)
	minimum = 0.156 (1 samples)
	maximum = 0.377667 (1 samples)
Injected packet size average = 17.9844 (1 samples)
Accepted packet size average = 18.0332 (1 samples)
Hops average = 5.07434 (1 samples)
Total run time 5.24771
