BEGIN Configuration File: networks/mezzanine_config
topology = mezzanine;
n = 12;

routing_function = multipath;
internal_speedup = 2.0;
latency_thres = 100000.0;
use_read_write = 0;

sample_period = 1000;
injection_rate = 0.5;
packet_size = 18;

noq = 1;
routing_delay = 0;
vc_alloc_delay = 1;
sw_alloc_delay = 1;
st_final_delay = 1;
vc_allocator = islip; 
sw_allocator = islip;
alloc_iters  = 4;
num_vcs     = 12;
buffer_policy = private; // private or shared
buf_size = -1; // -1 for buffer_policy = private;
vc_buf_size = 4096; // size of each VOQ with buffer_policy = private
output_buffer_size = -1;


traffic = uniform;

//mezW = 0.0;
//mezPredefinedPatternType = shift-inter; //shift-qfdb

END Configuration File: networks/mezzanine_config
OVERRIDE Parameter: injection_rate=0.033427
OVERRIDE Parameter: routing_function=min
OVERRIDE Parameter: num_vcs=12
OVERRIDE Parameter: vc_buf_size=18
OVERRIDE Parameter: internal_speedup=1.0
OVERRIDE Parameter: injection_process=bernoulli
OVERRIDE Parameter: sim_type=throughput
OVERRIDE Parameter: burst_alpha=0.0038461538
OVERRIDE Parameter: burst_beta=0.1
network: network_0
========================== Routing table  =====================
Number of Subnets: 1
Class 0:
Packet latency average = 344.293
	minimum = 23
	maximum = 949
Network latency average = 281.249
	minimum = 23
	maximum = 928
Slowest packet = 227
Flit latency average = 236.272
	minimum = 6
	maximum = 915
Slowest flit = 6919
Fragmentation average = 55.7334
	minimum = 0
	maximum = 129
Injected packet rate average = 0.014125
	minimum = 0.005 (at node 140)
	maximum = 0.03 (at node 97)
Accepted packet rate average = 0.00904688
	minimum = 0.001 (at node 174)
	maximum = 0.017 (at node 152)
Injected flit rate average = 0.249417
	minimum = 0.09 (at node 140)
	maximum = 0.53 (at node 97)
Accepted flit rate average= 0.168807
	minimum = 0.024 (at node 174)
	maximum = 0.306 (at node 152)
Injected packet length average = 17.6578
Accepted packet length average = 18.6592
Total in-flight flits = 18025 (0 measured)
latency change    = 1
throughput change = 1
Class 0:
Packet latency average = 698.462
	minimum = 23
	maximum = 1836
Network latency average = 412.652
	minimum = 23
	maximum = 1791
Slowest packet = 783
Flit latency average = 357.973
	minimum = 6
	maximum = 1774
Slowest flit = 14111
Fragmentation average = 58.4072
	minimum = 0
	maximum = 129
Injected packet rate average = 0.0114635
	minimum = 0.0045 (at node 167)
	maximum = 0.0205 (at node 135)
Accepted packet rate average = 0.00899219
	minimum = 0.0045 (at node 25)
	maximum = 0.015 (at node 22)
Injected flit rate average = 0.204471
	minimum = 0.081 (at node 167)
	maximum = 0.369 (at node 135)
Accepted flit rate average= 0.165128
	minimum = 0.0875 (at node 25)
	maximum = 0.27 (at node 22)
Injected packet length average = 17.8367
Accepted packet length average = 18.3635
Total in-flight flits = 17699 (0 measured)
latency change    = 0.50707
throughput change = 0.0222839
Class 0:
Packet latency average = 1791.09
	minimum = 788
	maximum = 2642
Network latency average = 545.444
	minimum = 26
	maximum = 2079
Slowest packet = 3712
Flit latency average = 482.608
	minimum = 6
	maximum = 2029
Slowest flit = 32039
Fragmentation average = 58.703
	minimum = 0
	maximum = 130
Injected packet rate average = 0.00895313
	minimum = 0 (at node 112)
	maximum = 0.022 (at node 61)
Accepted packet rate average = 0.00899479
	minimum = 0.001 (at node 153)
	maximum = 0.017 (at node 78)
Injected flit rate average = 0.161401
	minimum = 0 (at node 112)
	maximum = 0.409 (at node 61)
Accepted flit rate average= 0.161427
	minimum = 0.018 (at node 153)
	maximum = 0.278 (at node 98)
Injected packet length average = 18.0273
Accepted packet length average = 17.9467
Total in-flight flits = 17665 (0 measured)
latency change    = 0.610035
throughput change = 0.0229238
Warmed up ...Time used is 3000 cycles
Class 0:
Packet latency average = 2591.62
	minimum = 1553
	maximum = 3576
Network latency average = 339.567
	minimum = 27
	maximum = 939
Slowest packet = 6254
Flit latency average = 483.648
	minimum = 6
	maximum = 2544
Slowest flit = 60092
Fragmentation average = 53.6245
	minimum = 0
	maximum = 172
Injected packet rate average = 0.00899479
	minimum = 0 (at node 91)
	maximum = 0.023 (at node 59)
Accepted packet rate average = 0.00897917
	minimum = 0.002 (at node 96)
	maximum = 0.017 (at node 16)
Injected flit rate average = 0.161812
	minimum = 0 (at node 91)
	maximum = 0.421 (at node 59)
Accepted flit rate average= 0.161016
	minimum = 0.046 (at node 96)
	maximum = 0.306 (at node 56)
Injected packet length average = 17.9896
Accepted packet length average = 17.9321
Total in-flight flits = 17944 (16612 measured)
latency change    = 0.308893
throughput change = 0.00255539
Class 0:
Packet latency average = 3027.46
	minimum = 1553
	maximum = 4426
Network latency average = 454.828
	minimum = 23
	maximum = 1710
Slowest packet = 6254
Flit latency average = 484.618
	minimum = 6
	maximum = 2544
Slowest flit = 60092
Fragmentation average = 54.5899
	minimum = 0
	maximum = 172
Injected packet rate average = 0.00896094
	minimum = 0.001 (at node 119)
	maximum = 0.0185 (at node 117)
Accepted packet rate average = 0.00891667
	minimum = 0.004 (at node 163)
	maximum = 0.016 (at node 16)
Injected flit rate average = 0.161068
	minimum = 0.018 (at node 119)
	maximum = 0.335 (at node 117)
Accepted flit rate average= 0.161117
	minimum = 0.0655 (at node 163)
	maximum = 0.292 (at node 16)
Injected packet length average = 17.9744
Accepted packet length average = 18.0692
Total in-flight flits = 17644 (17520 measured)
latency change    = 0.143962
throughput change = 0.000630364
Class 0:
Packet latency average = 3421.42
	minimum = 1553
	maximum = 5259
Network latency average = 493.718
	minimum = 23
	maximum = 2204
Slowest packet = 6254
Flit latency average = 487.568
	minimum = 6
	maximum = 2726
Slowest flit = 102654
Fragmentation average = 56.0456
	minimum = 0
	maximum = 172
Injected packet rate average = 0.00898611
	minimum = 0.003 (at node 119)
	maximum = 0.0166667 (at node 18)
Accepted packet rate average = 0.00896701
	minimum = 0.005 (at node 134)
	maximum = 0.015 (at node 16)
Injected flit rate average = 0.161556
	minimum = 0.054 (at node 119)
	maximum = 0.298333 (at node 59)
Accepted flit rate average= 0.161457
	minimum = 0.094 (at node 134)
	maximum = 0.272667 (at node 16)
Injected packet length average = 17.9784
Accepted packet length average = 18.0056
Total in-flight flits = 17762 (17762 measured)
latency change    = 0.115144
throughput change = 0.00210217
Draining remaining packets ...
Time taken is 6953 cycles
====== Overall Traffic Statistics ======
====== Traffic class 0 ======
Packet latency average = 3665.57 (1 samples)
	minimum = 1553 (1 samples)
	maximum = 5791 (1 samples)
Network latency average = 529.165 (1 samples)
	minimum = 23 (1 samples)
	maximum = 2227 (1 samples)
Flit latency average = 507.928 (1 samples)
	minimum = 6 (1 samples)
	maximum = 2726 (1 samples)
Fragmentation average = 54.3096 (1 samples)
	minimum = 0 (1 samples)
	maximum = 172 (1 samples)
Injected packet rate average = 0.00898611 (1 samples)
	minimum = 0.003 (1 samples)
	maximum = 0.0166667 (1 samples)
Accepted packet rate average = 0.00896701 (1 samples)
	minimum = 0.005 (1 samples)
	maximum = 0.015 (1 samples)
Injected flit rate average = 0.161556 (1 samples)
	minimum = 0.054 (1 samples)
	maximum = 0.298333 (1 samples)
Accepted flit rate average = 0.161457 (1 samples)
	minimum = 0.094 (1 samples)
	maximum = 0.272667 (1 samples)
Injected packet size average = 17.9784 (1 samples)
Accepted packet size average = 18.0056 (1 samples)
Hops average = 5.07753 (1 samples)
Total run time 7.5618
