BEGIN Configuration File: networks/mezzanine_config
topology = mezzanine;
n = 12;

routing_function = multipath;
internal_speedup = 2.0;
latency_thres = 100000.0;
use_read_write = 0;

sample_period = 1000;
injection_rate = 0.5;
packet_size = 18;

noq = 1;
routing_delay = 0;
vc_alloc_delay = 1;
sw_alloc_delay = 1;
st_final_delay = 1;
vc_allocator = islip; 
sw_allocator = islip;
alloc_iters  = 4;
num_vcs     = 12;
buffer_policy = private; // private or shared
buf_size = -1; // -1 for buffer_policy = private;
vc_buf_size = 4096; // size of each VOQ with buffer_policy = private
output_buffer_size = -1;


traffic = uniform;

//mezW = 0.0;
//mezPredefinedPatternType = shift-inter; //shift-qfdb

END Configuration File: networks/mezzanine_config
OVERRIDE Parameter: injection_rate=0.015747
OVERRIDE Parameter: routing_function=multipath
OVERRIDE Parameter: num_vcs=12
OVERRIDE Parameter: vc_buf_size=18
OVERRIDE Parameter: internal_speedup=1.0
OVERRIDE Parameter: injection_process=bernoulli
OVERRIDE Parameter: sim_type=throughput
OVERRIDE Parameter: burst_alpha=0.0038461538
OVERRIDE Parameter: burst_beta=0.1
network: network_0
========================== Routing table  =====================
Number of Subnets: 1
Class 0:
Packet latency average = 215.462
	minimum = 23
	maximum = 833
Network latency average = 200.619
	minimum = 23
	maximum = 833
Slowest packet = 321
Flit latency average = 161.795
	minimum = 6
	maximum = 834
Slowest flit = 7520
Fragmentation average = 49.3301
	minimum = 0
	maximum = 155
Injected packet rate average = 0.0131719
	minimum = 0.006 (at node 13)
	maximum = 0.022 (at node 57)
Accepted packet rate average = 0.00908854
	minimum = 0.002 (at node 41)
	maximum = 0.018 (at node 70)
Injected flit rate average = 0.23449
	minimum = 0.108 (at node 13)
	maximum = 0.396 (at node 57)
Accepted flit rate average= 0.17088
	minimum = 0.042 (at node 41)
	maximum = 0.324 (at node 70)
Injected packet length average = 17.8023
Accepted packet length average = 18.8017
Total in-flight flits = 13973 (0 measured)
latency change    = 1
throughput change = 1
Class 0:
Packet latency average = 390.077
	minimum = 23
	maximum = 1621
Network latency average = 305.364
	minimum = 23
	maximum = 1424
Slowest packet = 931
Flit latency average = 257.522
	minimum = 6
	maximum = 1407
Slowest flit = 20159
Fragmentation average = 53.6385
	minimum = 0
	maximum = 155
Injected packet rate average = 0.0114922
	minimum = 0.0055 (at node 83)
	maximum = 0.017 (at node 32)
Accepted packet rate average = 0.00916927
	minimum = 0.005 (at node 83)
	maximum = 0.0155 (at node 22)
Injected flit rate average = 0.204987
	minimum = 0.099 (at node 83)
	maximum = 0.306 (at node 32)
Accepted flit rate average= 0.168073
	minimum = 0.099 (at node 30)
	maximum = 0.279 (at node 22)
Injected packet length average = 17.8371
Accepted packet length average = 18.33
Total in-flight flits = 16532 (0 measured)
latency change    = 0.447641
throughput change = 0.0167028
Class 0:
Packet latency average = 963.894
	minimum = 23
	maximum = 2387
Network latency average = 522.375
	minimum = 23
	maximum = 1899
Slowest packet = 1939
Flit latency average = 464.523
	minimum = 6
	maximum = 1882
Slowest flit = 34919
Fragmentation average = 57.9881
	minimum = 0
	maximum = 143
Injected packet rate average = 0.00890104
	minimum = 0 (at node 60)
	maximum = 0.019 (at node 122)
Accepted packet rate average = 0.00878125
	minimum = 0.002 (at node 185)
	maximum = 0.016 (at node 6)
Injected flit rate average = 0.159948
	minimum = 0 (at node 60)
	maximum = 0.353 (at node 122)
Accepted flit rate average= 0.158115
	minimum = 0.042 (at node 185)
	maximum = 0.304 (at node 113)
Injected packet length average = 17.9696
Accepted packet length average = 18.0059
Total in-flight flits = 17134 (0 measured)
latency change    = 0.595312
throughput change = 0.0629818
Warmed up ...Time used is 3000 cycles
Class 0:
Packet latency average = 1266.38
	minimum = 27
	maximum = 2992
Network latency average = 304.558
	minimum = 26
	maximum = 935
Slowest packet = 6247
Flit latency average = 463.921
	minimum = 6
	maximum = 2291
Slowest flit = 56862
Fragmentation average = 49.4547
	minimum = 0
	maximum = 124
Injected packet rate average = 0.0084375
	minimum = 0 (at node 12)
	maximum = 0.021 (at node 63)
Accepted packet rate average = 0.00848958
	minimum = 0.003 (at node 153)
	maximum = 0.018 (at node 56)
Injected flit rate average = 0.152542
	minimum = 0 (at node 12)
	maximum = 0.393 (at node 63)
Accepted flit rate average= 0.153005
	minimum = 0.054 (at node 184)
	maximum = 0.324 (at node 56)
Injected packet length average = 18.079
Accepted packet length average = 18.0227
Total in-flight flits = 17115 (15270 measured)
latency change    = 0.238857
throughput change = 0.0333935
Class 0:
Packet latency average = 1636.49
	minimum = 27
	maximum = 3551
Network latency average = 433.918
	minimum = 26
	maximum = 1907
Slowest packet = 6247
Flit latency average = 478.695
	minimum = 6
	maximum = 3014
Slowest flit = 80215
Fragmentation average = 55.9957
	minimum = 0
	maximum = 142
Injected packet rate average = 0.00865885
	minimum = 0.0005 (at node 19)
	maximum = 0.017 (at node 121)
Accepted packet rate average = 0.008625
	minimum = 0.004 (at node 184)
	maximum = 0.015 (at node 16)
Injected flit rate average = 0.155935
	minimum = 0.014 (at node 19)
	maximum = 0.3055 (at node 121)
Accepted flit rate average= 0.154932
	minimum = 0.075 (at node 184)
	maximum = 0.266 (at node 16)
Injected packet length average = 18.0087
Accepted packet length average = 17.9632
Total in-flight flits = 17598 (17443 measured)
latency change    = 0.226161
throughput change = 0.0124382
Class 0:
Packet latency average = 1918.88
	minimum = 27
	maximum = 4489
Network latency average = 477.761
	minimum = 23
	maximum = 2605
Slowest packet = 6247
Flit latency average = 480.515
	minimum = 6
	maximum = 3087
Slowest flit = 80225
Fragmentation average = 57.3381
	minimum = 0
	maximum = 150
Injected packet rate average = 0.0087934
	minimum = 0.00233333 (at node 19)
	maximum = 0.016 (at node 105)
Accepted packet rate average = 0.00872917
	minimum = 0.005 (at node 4)
	maximum = 0.0143333 (at node 16)
Injected flit rate average = 0.158491
	minimum = 0.0453333 (at node 19)
	maximum = 0.288 (at node 184)
Accepted flit rate average= 0.157337
	minimum = 0.09 (at node 4)
	maximum = 0.258333 (at node 16)
Injected packet length average = 18.0239
Accepted packet length average = 18.0243
Total in-flight flits = 17912 (17912 measured)
latency change    = 0.147166
throughput change = 0.0152826
Draining remaining packets ...
Time taken is 6870 cycles
====== Overall Traffic Statistics ======
====== Traffic class 0 ======
Packet latency average = 2090.95 (1 samples)
	minimum = 27 (1 samples)
	maximum = 4702 (1 samples)
Network latency average = 521.969 (1 samples)
	minimum = 23 (1 samples)
	maximum = 2671 (1 samples)
Flit latency average = 506.13 (1 samples)
	minimum = 6 (1 samples)
	maximum = 3087 (1 samples)
Fragmentation average = 56.2076 (1 samples)
	minimum = 0 (1 samples)
	maximum = 150 (1 samples)
Injected packet rate average = 0.0087934 (1 samples)
	minimum = 0.00233333 (1 samples)
	maximum = 0.016 (1 samples)
Accepted packet rate average = 0.00872917 (1 samples)
	minimum = 0.005 (1 samples)
	maximum = 0.0143333 (1 samples)
Injected flit rate average = 0.158491 (1 samples)
	minimum = 0.0453333 (1 samples)
	maximum = 0.288 (1 samples)
Accepted flit rate average = 0.157337 (1 samples)
	minimum = 0.09 (1 samples)
	maximum = 0.258333 (1 samples)
Injected packet size average = 18.0239 (1 samples)
Accepted packet size average = 18.0243 (1 samples)
Hops average = 5.06006 (1 samples)
Total run time 4.48629
