BEGIN Configuration File: networks/mezzanine_config
topology = mezzanine;
n = 12;

routing_function = multipath;
internal_speedup = 2.0;
latency_thres = 100000.0;
use_read_write = 0;

sample_period = 1000;
injection_rate = 0.5;
packet_size = 18;

noq = 1;
routing_delay = 0;
vc_alloc_delay = 1;
sw_alloc_delay = 1;
st_final_delay = 1;
vc_allocator = islip; 
sw_allocator = islip;
alloc_iters  = 4;
num_vcs     = 12;
buffer_policy = private; // private or shared
buf_size = -1; // -1 for buffer_policy = private;
vc_buf_size = 4096; // size of each VOQ with buffer_policy = private
output_buffer_size = -1;


traffic = uniform;

//mezW = 0.0;
//mezPredefinedPatternType = shift-inter; //shift-qfdb

END Configuration File: networks/mezzanine_config
OVERRIDE Parameter: injection_rate=0.044477
OVERRIDE Parameter: routing_function=min
OVERRIDE Parameter: num_vcs=12
OVERRIDE Parameter: vc_buf_size=18
OVERRIDE Parameter: internal_speedup=2.0
OVERRIDE Parameter: injection_process=bernoulli
OVERRIDE Parameter: sim_type=throughput
OVERRIDE Parameter: burst_alpha=0.0038461538
OVERRIDE Parameter: burst_beta=0.1
network: network_0
========================== Routing table  =====================
Number of Subnets: 1
Class 0:
Packet latency average = 344.127
	minimum = 22
	maximum = 850
Network latency average = 252.27
	minimum = 22
	maximum = 834
Slowest packet = 578
Flit latency average = 221.873
	minimum = 5
	maximum = 817
Slowest flit = 18053
Fragmentation average = 23.0617
	minimum = 0
	maximum = 129
Injected packet rate average = 0.019125
	minimum = 0.009 (at node 156)
	maximum = 0.036 (at node 102)
Accepted packet rate average = 0.0137552
	minimum = 0.007 (at node 25)
	maximum = 0.022 (at node 22)
Injected flit rate average = 0.339656
	minimum = 0.162 (at node 156)
	maximum = 0.635 (at node 102)
Accepted flit rate average= 0.25362
	minimum = 0.126 (at node 25)
	maximum = 0.41 (at node 22)
Injected packet length average = 17.7598
Accepted packet length average = 18.4381
Total in-flight flits = 19129 (0 measured)
latency change    = 1
throughput change = 1
Class 0:
Packet latency average = 675.042
	minimum = 22
	maximum = 1696
Network latency average = 309.67
	minimum = 22
	maximum = 1310
Slowest packet = 578
Flit latency average = 275.843
	minimum = 5
	maximum = 1293
Slowest flit = 51406
Fragmentation average = 23.1957
	minimum = 0
	maximum = 129
Injected packet rate average = 0.0164896
	minimum = 0.009 (at node 176)
	maximum = 0.024 (at node 54)
Accepted packet rate average = 0.013974
	minimum = 0.0075 (at node 153)
	maximum = 0.0205 (at node 152)
Injected flit rate average = 0.294831
	minimum = 0.162 (at node 176)
	maximum = 0.427 (at node 54)
Accepted flit rate average= 0.253859
	minimum = 0.142 (at node 153)
	maximum = 0.3695 (at node 152)
Injected packet length average = 17.8798
Accepted packet length average = 18.1666
Total in-flight flits = 18456 (0 measured)
latency change    = 0.490213
throughput change = 0.000943764
Class 0:
Packet latency average = 1684.65
	minimum = 786
	maximum = 2481
Network latency average = 364.281
	minimum = 22
	maximum = 1435
Slowest packet = 5658
Flit latency average = 326.775
	minimum = 5
	maximum = 1412
Slowest flit = 91926
Fragmentation average = 22.7599
	minimum = 0
	maximum = 135
Injected packet rate average = 0.0140104
	minimum = 0.003 (at node 17)
	maximum = 0.032 (at node 166)
Accepted packet rate average = 0.0139063
	minimum = 0.006 (at node 4)
	maximum = 0.026 (at node 34)
Injected flit rate average = 0.251958
	minimum = 0.058 (at node 17)
	maximum = 0.576 (at node 166)
Accepted flit rate average= 0.250615
	minimum = 0.097 (at node 163)
	maximum = 0.483 (at node 34)
Injected packet length average = 17.9836
Accepted packet length average = 18.0217
Total in-flight flits = 18686 (0 measured)
latency change    = 0.599299
throughput change = 0.0129473
Warmed up ...Time used is 3000 cycles
Class 0:
Packet latency average = 2466.06
	minimum = 1484
	maximum = 3305
Network latency average = 283.314
	minimum = 22
	maximum = 937
Slowest packet = 9133
Flit latency average = 322.438
	minimum = 5
	maximum = 1518
Slowest flit = 97991
Fragmentation average = 21.9678
	minimum = 0
	maximum = 101
Injected packet rate average = 0.0145156
	minimum = 0.003 (at node 129)
	maximum = 0.028 (at node 142)
Accepted packet rate average = 0.0143906
	minimum = 0.007 (at node 72)
	maximum = 0.027 (at node 19)
Injected flit rate average = 0.261573
	minimum = 0.054 (at node 129)
	maximum = 0.509 (at node 142)
Accepted flit rate average= 0.259354
	minimum = 0.137 (at node 72)
	maximum = 0.486 (at node 19)
Injected packet length average = 18.0201
Accepted packet length average = 18.0224
Total in-flight flits = 18948 (18883 measured)
latency change    = 0.316864
throughput change = 0.0336975
Class 0:
Packet latency average = 2825.78
	minimum = 1484
	maximum = 4156
Network latency average = 325.613
	minimum = 22
	maximum = 1283
Slowest packet = 9133
Flit latency average = 319.924
	minimum = 5
	maximum = 1863
Slowest flit = 154043
Fragmentation average = 22.0992
	minimum = 0
	maximum = 105
Injected packet rate average = 0.0142813
	minimum = 0.0055 (at node 98)
	maximum = 0.025 (at node 3)
Accepted packet rate average = 0.0142891
	minimum = 0.0085 (at node 5)
	maximum = 0.0225 (at node 129)
Injected flit rate average = 0.256935
	minimum = 0.1045 (at node 129)
	maximum = 0.457 (at node 3)
Accepted flit rate average= 0.257466
	minimum = 0.161 (at node 5)
	maximum = 0.3985 (at node 129)
Injected packet length average = 17.9911
Accepted packet length average = 18.0184
Total in-flight flits = 18459 (18459 measured)
latency change    = 0.1273
throughput change = 0.00733308
Class 0:
Packet latency average = 3173.81
	minimum = 1484
	maximum = 4879
Network latency average = 342.93
	minimum = 22
	maximum = 1642
Slowest packet = 9133
Flit latency average = 324.87
	minimum = 5
	maximum = 1863
Slowest flit = 154043
Fragmentation average = 22.288
	minimum = 0
	maximum = 123
Injected packet rate average = 0.0141736
	minimum = 0.00666667 (at node 98)
	maximum = 0.0223333 (at node 66)
Accepted packet rate average = 0.014217
	minimum = 0.00966667 (at node 36)
	maximum = 0.0203333 (at node 138)
Injected flit rate average = 0.255234
	minimum = 0.125667 (at node 98)
	maximum = 0.406333 (at node 66)
Accepted flit rate average= 0.255854
	minimum = 0.169667 (at node 36)
	maximum = 0.366 (at node 138)
Injected packet length average = 18.0077
Accepted packet length average = 17.9963
Total in-flight flits = 18338 (18338 measured)
latency change    = 0.109657
throughput change = 0.00630038
Draining remaining packets ...
Time taken is 6637 cycles
====== Overall Traffic Statistics ======
====== Traffic class 0 ======
Packet latency average = 3316.58 (1 samples)
	minimum = 1484 (1 samples)
	maximum = 5271 (1 samples)
Network latency average = 354.849 (1 samples)
	minimum = 22 (1 samples)
	maximum = 1642 (1 samples)
Flit latency average = 333.365 (1 samples)
	minimum = 5 (1 samples)
	maximum = 1863 (1 samples)
Fragmentation average = 22.0586 (1 samples)
	minimum = 0 (1 samples)
	maximum = 123 (1 samples)
Injected packet rate average = 0.0141736 (1 samples)
	minimum = 0.00666667 (1 samples)
	maximum = 0.0223333 (1 samples)
Accepted packet rate average = 0.014217 (1 samples)
	minimum = 0.00966667 (1 samples)
	maximum = 0.0203333 (1 samples)
Injected flit rate average = 0.255234 (1 samples)
	minimum = 0.125667 (1 samples)
	maximum = 0.406333 (1 samples)
Accepted flit rate average = 0.255854 (1 samples)
	minimum = 0.169667 (1 samples)
	maximum = 0.366 (1 samples)
Injected packet size average = 18.0077 (1 samples)
Accepted packet size average = 17.9963 (1 samples)
Hops average = 5.05705 (1 samples)
Total run time 8.65818
