BEGIN Configuration File: networks/mezzanine_config
topology = mezzanine;
n = 12;

routing_function = multipath;
internal_speedup = 2.0;
latency_thres = 100000.0;
use_read_write = 0;

sample_period = 1000;
injection_rate = 0.5;
packet_size = 18;

noq = 1;
routing_delay = 0;
vc_alloc_delay = 1;
sw_alloc_delay = 1;
st_final_delay = 1;
vc_allocator = islip; 
sw_allocator = islip;
alloc_iters  = 4;
num_vcs     = 12;
buffer_policy = private; // private or shared
buf_size = -1; // -1 for buffer_policy = private;
vc_buf_size = 4096; // size of each VOQ with buffer_policy = private
output_buffer_size = -1;


traffic = uniform;

//mezW = 0.0;
//mezPredefinedPatternType = shift-inter; //shift-qfdb

END Configuration File: networks/mezzanine_config
OVERRIDE Parameter: injection_rate=0.009117
OVERRIDE Parameter: routing_function=min
OVERRIDE Parameter: num_vcs=12
OVERRIDE Parameter: vc_buf_size=144
OVERRIDE Parameter: internal_speedup=2.0
OVERRIDE Parameter: injection_process=bernoulli
OVERRIDE Parameter: sim_type=throughput
OVERRIDE Parameter: burst_alpha=0.0038461538
OVERRIDE Parameter: burst_beta=0.1
network: network_0
========================== Routing table  =====================
Number of Subnets: 1
Class 0:
Packet latency average = 60.2671
	minimum = 22
	maximum = 176
Network latency average = 58.6724
	minimum = 22
	maximum = 176
Slowest packet = 1142
Flit latency average = 36.2234
	minimum = 5
	maximum = 159
Slowest flit = 20573
Fragmentation average = 10.1474
	minimum = 0
	maximum = 62
Injected packet rate average = 0.00905729
	minimum = 0.002 (at node 135)
	maximum = 0.02 (at node 10)
Accepted packet rate average = 0.00844271
	minimum = 0.001 (at node 41)
	maximum = 0.016 (at node 48)
Injected flit rate average = 0.161458
	minimum = 0.036 (at node 135)
	maximum = 0.343 (at node 10)
Accepted flit rate average= 0.154818
	minimum = 0.018 (at node 41)
	maximum = 0.288 (at node 48)
Injected packet length average = 17.8263
Accepted packet length average = 18.3374
Total in-flight flits = 1577 (0 measured)
latency change    = 1
throughput change = 1
Class 0:
Packet latency average = 63.1992
	minimum = 22
	maximum = 265
Network latency average = 61.646
	minimum = 22
	maximum = 250
Slowest packet = 2705
Flit latency average = 39.0563
	minimum = 5
	maximum = 233
Slowest flit = 48690
Fragmentation average = 10.1818
	minimum = 0
	maximum = 62
Injected packet rate average = 0.00891927
	minimum = 0.0035 (at node 122)
	maximum = 0.017 (at node 10)
Accepted packet rate average = 0.00867969
	minimum = 0.005 (at node 30)
	maximum = 0.0135 (at node 22)
Injected flit rate average = 0.159792
	minimum = 0.063 (at node 122)
	maximum = 0.306 (at node 10)
Accepted flit rate average= 0.157352
	minimum = 0.09 (at node 30)
	maximum = 0.243 (at node 22)
Injected packet length average = 17.9153
Accepted packet length average = 18.1287
Total in-flight flits = 1227 (0 measured)
latency change    = 0.0463946
throughput change = 0.0161031
Class 0:
Packet latency average = 65.4244
	minimum = 22
	maximum = 211
Network latency average = 63.728
	minimum = 22
	maximum = 209
Slowest packet = 3841
Flit latency average = 40.8831
	minimum = 5
	maximum = 192
Slowest flit = 78605
Fragmentation average = 10.7128
	minimum = 0
	maximum = 56
Injected packet rate average = 0.00898958
	minimum = 0.002 (at node 94)
	maximum = 0.018 (at node 52)
Accepted packet rate average = 0.00892188
	minimum = 0.001 (at node 121)
	maximum = 0.017 (at node 179)
Injected flit rate average = 0.162042
	minimum = 0.036 (at node 94)
	maximum = 0.308 (at node 52)
Accepted flit rate average= 0.160682
	minimum = 0.018 (at node 121)
	maximum = 0.305 (at node 179)
Injected packet length average = 18.0255
Accepted packet length average = 18.0099
Total in-flight flits = 1444 (0 measured)
latency change    = 0.0340115
throughput change = 0.0207287
Warmed up ...Time used is 3000 cycles
Class 0:
Packet latency average = 64.0247
	minimum = 22
	maximum = 212
Network latency average = 62.6201
	minimum = 22
	maximum = 199
Slowest packet = 6033
Flit latency average = 40.3196
	minimum = 5
	maximum = 184
Slowest flit = 87677
Fragmentation average = 10.3369
	minimum = 0
	maximum = 65
Injected packet rate average = 0.00943229
	minimum = 0.003 (at node 131)
	maximum = 0.018 (at node 0)
Accepted packet rate average = 0.00939062
	minimum = 0.001 (at node 184)
	maximum = 0.019 (at node 16)
Injected flit rate average = 0.169318
	minimum = 0.054 (at node 131)
	maximum = 0.324 (at node 0)
Accepted flit rate average= 0.169318
	minimum = 0.018 (at node 184)
	maximum = 0.352 (at node 56)
Injected packet length average = 17.9509
Accepted packet length average = 18.0305
Total in-flight flits = 1533 (1533 measured)
latency change    = 0.0218613
throughput change = 0.0510013
Class 0:
Packet latency average = 61.8146
	minimum = 22
	maximum = 212
Network latency average = 60.4384
	minimum = 22
	maximum = 199
Slowest packet = 6033
Flit latency average = 38.1579
	minimum = 5
	maximum = 184
Slowest flit = 87677
Fragmentation average = 9.95525
	minimum = 0
	maximum = 65
Injected packet rate average = 0.00911979
	minimum = 0.0035 (at node 178)
	maximum = 0.015 (at node 149)
Accepted packet rate average = 0.00917708
	minimum = 0.0045 (at node 190)
	maximum = 0.0185 (at node 16)
Injected flit rate average = 0.164026
	minimum = 0.063 (at node 178)
	maximum = 0.27 (at node 149)
Accepted flit rate average= 0.164964
	minimum = 0.081 (at node 190)
	maximum = 0.333 (at node 16)
Injected packet length average = 17.9857
Accepted packet length average = 17.9756
Total in-flight flits = 1134 (1134 measured)
latency change    = 0.0357548
throughput change = 0.0263947
Class 0:
Packet latency average = 61.3374
	minimum = 22
	maximum = 212
Network latency average = 59.869
	minimum = 22
	maximum = 199
Slowest packet = 6033
Flit latency average = 37.5953
	minimum = 5
	maximum = 184
Slowest flit = 87677
Fragmentation average = 9.91516
	minimum = 0
	maximum = 65
Injected packet rate average = 0.00910764
	minimum = 0.00466667 (at node 153)
	maximum = 0.0136667 (at node 38)
Accepted packet rate average = 0.00910417
	minimum = 0.00566667 (at node 134)
	maximum = 0.0163333 (at node 16)
Injected flit rate average = 0.164038
	minimum = 0.084 (at node 153)
	maximum = 0.247333 (at node 106)
Accepted flit rate average= 0.163936
	minimum = 0.102 (at node 134)
	maximum = 0.299333 (at node 16)
Injected packet length average = 18.0111
Accepted packet length average = 18.0067
Total in-flight flits = 1445 (1445 measured)
latency change    = 0.00777903
throughput change = 0.00626939
Class 0:
Packet latency average = 61.7049
	minimum = 22
	maximum = 261
Network latency average = 60.2347
	minimum = 22
	maximum = 220
Slowest packet = 10136
Flit latency average = 37.892
	minimum = 5
	maximum = 203
Slowest flit = 182448
Fragmentation average = 9.9297
	minimum = 0
	maximum = 74
Injected packet rate average = 0.00910156
	minimum = 0.00525 (at node 178)
	maximum = 0.0145 (at node 58)
Accepted packet rate average = 0.00910156
	minimum = 0.00475 (at node 4)
	maximum = 0.0145 (at node 16)
Injected flit rate average = 0.163794
	minimum = 0.0905 (at node 178)
	maximum = 0.261 (at node 58)
Accepted flit rate average= 0.163816
	minimum = 0.0855 (at node 4)
	maximum = 0.261 (at node 16)
Injected packet length average = 17.9963
Accepted packet length average = 17.9987
Total in-flight flits = 1453 (1453 measured)
latency change    = 0.00595489
throughput change = 0.000728606
Draining remaining packets ...
Time taken is 7126 cycles
====== Overall Traffic Statistics ======
====== Traffic class 0 ======
Packet latency average = 61.8288 (1 samples)
	minimum = 22 (1 samples)
	maximum = 261 (1 samples)
Network latency average = 60.3612 (1 samples)
	minimum = 22 (1 samples)
	maximum = 220 (1 samples)
Flit latency average = 38.0311 (1 samples)
	minimum = 5 (1 samples)
	maximum = 203 (1 samples)
Fragmentation average = 9.94406 (1 samples)
	minimum = 0 (1 samples)
	maximum = 74 (1 samples)
Injected packet rate average = 0.00910156 (1 samples)
	minimum = 0.00525 (1 samples)
	maximum = 0.0145 (1 samples)
Accepted packet rate average = 0.00910156 (1 samples)
	minimum = 0.00475 (1 samples)
	maximum = 0.0145 (1 samples)
Injected flit rate average = 0.163794 (1 samples)
	minimum = 0.0905 (1 samples)
	maximum = 0.261 (1 samples)
Accepted flit rate average = 0.163816 (1 samples)
	minimum = 0.0855 (1 samples)
	maximum = 0.261 (1 samples)
Injected packet size average = 17.9963 (1 samples)
Accepted packet size average = 17.9987 (1 samples)
Hops average = 5.06838 (1 samples)
Total run time 3.91522
