BEGIN Configuration File: networks/mezzanine_config
topology = mezzanine;
n = 12;

routing_function = multipath;
internal_speedup = 2.0;
latency_thres = 100000.0;
use_read_write = 0;

sample_period = 1000;
injection_rate = 0.5;
packet_size = 18;

noq = 1;
routing_delay = 0;
vc_alloc_delay = 1;
sw_alloc_delay = 1;
st_final_delay = 1;
vc_allocator = islip; 
sw_allocator = islip;
alloc_iters  = 4;
num_vcs     = 12;
buffer_policy = private; // private or shared
buf_size = -1; // -1 for buffer_policy = private;
vc_buf_size = 4096; // size of each VOQ with buffer_policy = private
output_buffer_size = -1;


traffic = uniform;

//mezW = 0.0;
//mezPredefinedPatternType = shift-inter; //shift-qfdb

END Configuration File: networks/mezzanine_config
OVERRIDE Parameter: injection_rate=0.004697
OVERRIDE Parameter: routing_function=min
OVERRIDE Parameter: num_vcs=64
OVERRIDE Parameter: vc_buf_size=18
OVERRIDE Parameter: internal_speedup=1.0
OVERRIDE Parameter: injection_process=on_off
OVERRIDE Parameter: sim_type=throughput
OVERRIDE Parameter: burst_alpha=0.0038461538
OVERRIDE Parameter: burst_beta=0.1
network: network_0
========================== Routing table  =====================
Number of Subnets: 1
Class 0:
Packet latency average = 86.3116
	minimum = 23
	maximum = 279
Network latency average = 70.561
	minimum = 23
	maximum = 228
Slowest packet = 13
Flit latency average = 39.2574
	minimum = 6
	maximum = 211
Slowest flit = 4697
Fragmentation average = 27.7505
	minimum = 0
	maximum = 152
Injected packet rate average = 0.00510938
	minimum = 0 (at node 5)
	maximum = 0.02 (at node 161)
Accepted packet rate average = 0.00486458
	minimum = 0.001 (at node 41)
	maximum = 0.011 (at node 140)
Injected flit rate average = 0.090974
	minimum = 0 (at node 5)
	maximum = 0.36 (at node 161)
Accepted flit rate average= 0.0885208
	minimum = 0.018 (at node 41)
	maximum = 0.198 (at node 140)
Injected packet length average = 17.8053
Accepted packet length average = 18.197
Total in-flight flits = 662 (0 measured)
latency change    = 1
throughput change = 1
Class 0:
Packet latency average = 83.3626
	minimum = 23
	maximum = 335
Network latency average = 68.1026
	minimum = 23
	maximum = 290
Slowest packet = 13
Flit latency average = 37.8968
	minimum = 6
	maximum = 273
Slowest flit = 20212
Fragmentation average = 25.6003
	minimum = 0
	maximum = 256
Injected packet rate average = 0.00473437
	minimum = 0 (at node 37)
	maximum = 0.014 (at node 161)
Accepted packet rate average = 0.00456771
	minimum = 0.0005 (at node 41)
	maximum = 0.008 (at node 48)
Injected flit rate average = 0.0848724
	minimum = 0 (at node 37)
	maximum = 0.251 (at node 161)
Accepted flit rate average= 0.0830859
	minimum = 0.009 (at node 41)
	maximum = 0.146 (at node 70)
Injected packet length average = 17.9268
Accepted packet length average = 18.1899
Total in-flight flits = 819 (0 measured)
latency change    = 0.0353751
throughput change = 0.0654129
Class 0:
Packet latency average = 88.9595
	minimum = 27
	maximum = 452
Network latency average = 72.7306
	minimum = 23
	maximum = 431
Slowest packet = 2079
Flit latency average = 40.9286
	minimum = 6
	maximum = 414
Slowest flit = 37439
Fragmentation average = 29.6583
	minimum = 0
	maximum = 291
Injected packet rate average = 0.00475521
	minimum = 0 (at node 1)
	maximum = 0.025 (at node 22)
Accepted packet rate average = 0.00475521
	minimum = 0 (at node 17)
	maximum = 0.014 (at node 173)
Injected flit rate average = 0.0857448
	minimum = 0 (at node 1)
	maximum = 0.467 (at node 22)
Accepted flit rate average= 0.0862656
	minimum = 0 (at node 17)
	maximum = 0.241 (at node 173)
Injected packet length average = 18.0318
Accepted packet length average = 18.1413
Total in-flight flits = 690 (0 measured)
latency change    = 0.0629149
throughput change = 0.0368593
Warmed up ...Time used is 3000 cycles
Class 0:
Packet latency average = 86.0142
	minimum = 23
	maximum = 295
Network latency average = 68.1015
	minimum = 23
	maximum = 285
Slowest packet = 2736
Flit latency average = 38.967
	minimum = 6
	maximum = 268
Slowest flit = 61847
Fragmentation average = 25.5962
	minimum = 0
	maximum = 195
Injected packet rate average = 0.00471875
	minimum = 0 (at node 0)
	maximum = 0.016 (at node 115)
Accepted packet rate average = 0.00474479
	minimum = 0 (at node 18)
	maximum = 0.011 (at node 22)
Injected flit rate average = 0.084651
	minimum = 0 (at node 0)
	maximum = 0.272 (at node 115)
Accepted flit rate average= 0.0846458
	minimum = 0 (at node 18)
	maximum = 0.202 (at node 22)
Injected packet length average = 17.9393
Accepted packet length average = 17.8397
Total in-flight flits = 746 (746 measured)
latency change    = 0.0342421
throughput change = 0.0191361
Class 0:
Packet latency average = 83.931
	minimum = 23
	maximum = 439
Network latency average = 68.4826
	minimum = 23
	maximum = 415
Slowest packet = 3472
Flit latency average = 38.8859
	minimum = 6
	maximum = 398
Slowest flit = 62513
Fragmentation average = 25.5215
	minimum = 0
	maximum = 227
Injected packet rate average = 0.00454948
	minimum = 0 (at node 58)
	maximum = 0.012 (at node 115)
Accepted packet rate average = 0.00458073
	minimum = 0.001 (at node 24)
	maximum = 0.0085 (at node 166)
Injected flit rate average = 0.0819323
	minimum = 0 (at node 58)
	maximum = 0.216 (at node 115)
Accepted flit rate average= 0.0820495
	minimum = 0.018 (at node 24)
	maximum = 0.153 (at node 166)
Injected packet length average = 18.0092
Accepted packet length average = 17.9119
Total in-flight flits = 629 (629 measured)
latency change    = 0.0248203
throughput change = 0.0316438
Class 0:
Packet latency average = 82.4349
	minimum = 23
	maximum = 439
Network latency average = 66.6019
	minimum = 23
	maximum = 415
Slowest packet = 3472
Flit latency average = 37.8597
	minimum = 6
	maximum = 398
Slowest flit = 62513
Fragmentation average = 24.0715
	minimum = 0
	maximum = 227
Injected packet rate average = 0.00444097
	minimum = 0.000333333 (at node 119)
	maximum = 0.00933333 (at node 173)
Accepted packet rate average = 0.00440625
	minimum = 0.00133333 (at node 153)
	maximum = 0.007 (at node 172)
Injected flit rate average = 0.0799531
	minimum = 0.006 (at node 119)
	maximum = 0.168 (at node 173)
Accepted flit rate average= 0.0796285
	minimum = 0.024 (at node 153)
	maximum = 0.13 (at node 174)
Injected packet length average = 18.0035
Accepted packet length average = 18.0717
Total in-flight flits = 868 (868 measured)
latency change    = 0.0181483
throughput change = 0.0304038
Draining remaining packets ...
Time taken is 6132 cycles
====== Overall Traffic Statistics ======
====== Traffic class 0 ======
Packet latency average = 84.2467 (1 samples)
	minimum = 23 (1 samples)
	maximum = 439 (1 samples)
Network latency average = 68.1732 (1 samples)
	minimum = 23 (1 samples)
	maximum = 415 (1 samples)
Flit latency average = 38.6377 (1 samples)
	minimum = 6 (1 samples)
	maximum = 398 (1 samples)
Fragmentation average = 25.2608 (1 samples)
	minimum = 0 (1 samples)
	maximum = 227 (1 samples)
Injected packet rate average = 0.00444097 (1 samples)
	minimum = 0.000333333 (1 samples)
	maximum = 0.00933333 (1 samples)
Accepted packet rate average = 0.00440625 (1 samples)
	minimum = 0.00133333 (1 samples)
	maximum = 0.007 (1 samples)
Injected flit rate average = 0.0799531 (1 samples)
	minimum = 0.006 (1 samples)
	maximum = 0.168 (1 samples)
Accepted flit rate average = 0.0796285 (1 samples)
	minimum = 0.024 (1 samples)
	maximum = 0.13 (1 samples)
Injected packet size average = 18.0035 (1 samples)
Accepted packet size average = 18.0717 (1 samples)
Hops average = 5.05043 (1 samples)
Total run time 2.09877
