BEGIN Configuration File: networks/mezzanine_config
topology = mezzanine;
n = 12;

routing_function = multipath;
internal_speedup = 2.0;
latency_thres = 100000.0;
use_read_write = 0;

sample_period = 1000;
injection_rate = 0.5;
packet_size = 18;

noq = 1;
routing_delay = 0;
vc_alloc_delay = 1;
sw_alloc_delay = 1;
st_final_delay = 1;
vc_allocator = islip; 
sw_allocator = islip;
alloc_iters  = 4;
num_vcs     = 12;
buffer_policy = private; // private or shared
buf_size = -1; // -1 for buffer_policy = private;
vc_buf_size = 4096; // size of each VOQ with buffer_policy = private
output_buffer_size = -1;


traffic = uniform;

//mezW = 0.0;
//mezPredefinedPatternType = shift-inter; //shift-qfdb

END Configuration File: networks/mezzanine_config
OVERRIDE Parameter: injection_rate=0.042267
OVERRIDE Parameter: routing_function=min
OVERRIDE Parameter: num_vcs=12
OVERRIDE Parameter: vc_buf_size=18
OVERRIDE Parameter: internal_speedup=1.0
OVERRIDE Parameter: injection_process=on_off
OVERRIDE Parameter: sim_type=throughput
OVERRIDE Parameter: burst_alpha=0.0038461538
OVERRIDE Parameter: burst_beta=0.1
network: network_0
========================== Routing table  =====================
Number of Subnets: 1
Class 0:
Packet latency average = 375.924
	minimum = 23
	maximum = 985
Network latency average = 257.466
	minimum = 23
	maximum = 932
Slowest packet = 46
Flit latency average = 215.839
	minimum = 6
	maximum = 915
Slowest flit = 6029
Fragmentation average = 50.5893
	minimum = 0
	maximum = 151
Injected packet rate average = 0.0135104
	minimum = 0 (at node 42)
	maximum = 0.029 (at node 46)
Accepted packet rate average = 0.00892708
	minimum = 0.002 (at node 41)
	maximum = 0.017 (at node 48)
Injected flit rate average = 0.239646
	minimum = 0 (at node 42)
	maximum = 0.516 (at node 46)
Accepted flit rate average= 0.166292
	minimum = 0.036 (at node 41)
	maximum = 0.307 (at node 48)
Injected packet length average = 17.7379
Accepted packet length average = 18.6278
Total in-flight flits = 16330 (0 measured)
latency change    = 1
throughput change = 1
Class 0:
Packet latency average = 713.658
	minimum = 23
	maximum = 1971
Network latency average = 371.419
	minimum = 23
	maximum = 1560
Slowest packet = 46
Flit latency average = 319.564
	minimum = 6
	maximum = 1543
Slowest flit = 9917
Fragmentation average = 55.1404
	minimum = 0
	maximum = 151
Injected packet rate average = 0.0113516
	minimum = 0.003 (at node 168)
	maximum = 0.021 (at node 46)
Accepted packet rate average = 0.00892188
	minimum = 0.005 (at node 25)
	maximum = 0.015 (at node 22)
Injected flit rate average = 0.202115
	minimum = 0.0465 (at node 168)
	maximum = 0.378 (at node 46)
Accepted flit rate average= 0.163448
	minimum = 0.09 (at node 25)
	maximum = 0.2785 (at node 22)
Injected packet length average = 17.805
Accepted packet length average = 18.3199
Total in-flight flits = 17372 (0 measured)
latency change    = 0.473243
throughput change = 0.0173985
Class 0:
Packet latency average = 1847.72
	minimum = 23
	maximum = 2927
Network latency average = 516.967
	minimum = 23
	maximum = 2192
Slowest packet = 1870
Flit latency average = 454.123
	minimum = 6
	maximum = 2175
Slowest flit = 18449
Fragmentation average = 56.7927
	minimum = 0
	maximum = 139
Injected packet rate average = 0.00905208
	minimum = 0 (at node 100)
	maximum = 0.026 (at node 62)
Accepted packet rate average = 0.00904688
	minimum = 0.001 (at node 153)
	maximum = 0.017 (at node 113)
Injected flit rate average = 0.163755
	minimum = 0 (at node 100)
	maximum = 0.47 (at node 62)
Accepted flit rate average= 0.163781
	minimum = 0.018 (at node 153)
	maximum = 0.329 (at node 113)
Injected packet length average = 18.0903
Accepted packet length average = 18.1036
Total in-flight flits = 17678 (0 measured)
latency change    = 0.613763
throughput change = 0.00203524
Warmed up ...Time used is 3000 cycles
Class 0:
Packet latency average = 2705.39
	minimum = 23
	maximum = 3891
Network latency average = 335.714
	minimum = 23
	maximum = 933
Slowest packet = 6262
Flit latency average = 503.297
	minimum = 6
	maximum = 2917
Slowest flit = 30743
Fragmentation average = 54.2784
	minimum = 0
	maximum = 130
Injected packet rate average = 0.00895313
	minimum = 0 (at node 144)
	maximum = 0.021 (at node 35)
Accepted packet rate average = 0.00893229
	minimum = 0.002 (at node 184)
	maximum = 0.018 (at node 34)
Injected flit rate average = 0.16099
	minimum = 0 (at node 144)
	maximum = 0.365 (at node 35)
Accepted flit rate average= 0.160516
	minimum = 0.036 (at node 184)
	maximum = 0.335 (at node 34)
Injected packet length average = 17.9814
Accepted packet length average = 17.9703
Total in-flight flits = 17675 (16440 measured)
latency change    = 0.317022
throughput change = 0.0203446
Class 0:
Packet latency average = 3147.04
	minimum = 23
	maximum = 4823
Network latency average = 451.473
	minimum = 23
	maximum = 1819
Slowest packet = 6262
Flit latency average = 491.134
	minimum = 6
	maximum = 2917
Slowest flit = 30743
Fragmentation average = 56.0777
	minimum = 0
	maximum = 155
Injected packet rate average = 0.0089349
	minimum = 0.002 (at node 1)
	maximum = 0.017 (at node 35)
Accepted packet rate average = 0.00890365
	minimum = 0.0045 (at node 54)
	maximum = 0.0175 (at node 16)
Injected flit rate average = 0.160734
	minimum = 0.036 (at node 1)
	maximum = 0.3035 (at node 35)
Accepted flit rate average= 0.160062
	minimum = 0.0795 (at node 163)
	maximum = 0.3175 (at node 16)
Injected packet length average = 17.9895
Accepted packet length average = 17.9772
Total in-flight flits = 17648 (17601 measured)
latency change    = 0.140338
throughput change = 0.00283093
Class 0:
Packet latency average = 3564.72
	minimum = 23
	maximum = 5652
Network latency average = 497.306
	minimum = 23
	maximum = 2139
Slowest packet = 6262
Flit latency average = 493.612
	minimum = 6
	maximum = 2917
Slowest flit = 30743
Fragmentation average = 57.329
	minimum = 0
	maximum = 155
Injected packet rate average = 0.00889757
	minimum = 0.00366667 (at node 17)
	maximum = 0.016 (at node 35)
Accepted packet rate average = 0.00886285
	minimum = 0.005 (at node 190)
	maximum = 0.0146667 (at node 16)
Injected flit rate average = 0.160252
	minimum = 0.064 (at node 51)
	maximum = 0.284667 (at node 35)
Accepted flit rate average= 0.159611
	minimum = 0.0913333 (at node 17)
	maximum = 0.262 (at node 16)
Injected packet length average = 18.0107
Accepted packet length average = 18.009
Total in-flight flits = 17830 (17830 measured)
latency change    = 0.11717
throughput change = 0.00282805
Draining remaining packets ...
Time taken is 6797 cycles
====== Overall Traffic Statistics ======
====== Traffic class 0 ======
Packet latency average = 3799.54 (1 samples)
	minimum = 23 (1 samples)
	maximum = 6583 (1 samples)
Network latency average = 531.503 (1 samples)
	minimum = 23 (1 samples)
	maximum = 2402 (1 samples)
Flit latency average = 512.826 (1 samples)
	minimum = 6 (1 samples)
	maximum = 2917 (1 samples)
Fragmentation average = 55.2738 (1 samples)
	minimum = 0 (1 samples)
	maximum = 155 (1 samples)
Injected packet rate average = 0.00889757 (1 samples)
	minimum = 0.00366667 (1 samples)
	maximum = 0.016 (1 samples)
Accepted packet rate average = 0.00886285 (1 samples)
	minimum = 0.005 (1 samples)
	maximum = 0.0146667 (1 samples)
Injected flit rate average = 0.160252 (1 samples)
	minimum = 0.064 (1 samples)
	maximum = 0.284667 (1 samples)
Accepted flit rate average = 0.159611 (1 samples)
	minimum = 0.0913333 (1 samples)
	maximum = 0.262 (1 samples)
Injected packet size average = 18.0107 (1 samples)
Accepted packet size average = 18.009 (1 samples)
Hops average = 5.0905 (1 samples)
Total run time 7.0362
